Nov 29 15:36:24.368 HYPERVISOR: Release 0.2.17-amd64/Linux (tag 2017072410)
Nov 29 15:36:24.368 HYPERVISOR: Started on IP = 127.0.0.1, TCP port = 48419.
Nov 29 15:36:24.375 HYPERVISOR: exec_cmd: hypervisor version 
Nov 29 15:36:24.375 HYPERVISOR: exec_cmd: hypervisor working_dir /media/actionmystique/SAMSUNG5-VMs/Labs/GNS3/git-Public-Labs-Collection/CCNP/TBSHOOT/L3-Technologies/IPv4/VRF/Jean-Christophe_Manciot/1+/Leaf & Spine DC-3-solutions-linux/project-files/dynamips 
Nov 29 15:36:24.376 GENERAL: working_dir=/media/actionmystique/SAMSUNG5-VMs/Labs/GNS3/git-Public-Labs-Collection/CCNP/TBSHOOT/L3-Technologies/IPv4/VRF/Jean-Christophe_Manciot/1+/Leaf & Spine DC-3-solutions-linux/project-files/dynamips
Nov 29 15:36:24.376 HYPERVISOR: exec_cmd: vm create Mgt 1 c3725 
Nov 29 15:36:24.376 VM: VM Mgt created.
Nov 29 15:36:24.376 HYPERVISOR: exec_cmd: vm set_con_tcp_port Mgt 2011 
Nov 29 15:36:24.376 HYPERVISOR: exec_cmd: c3725 get_mac_addr Mgt 
Nov 29 15:36:24.377 HYPERVISOR: exec_cmd: vm set_nvram Mgt 256 
Nov 29 15:36:24.377 HYPERVISOR: exec_cmd: vm slot_add_binding Mgt 0 16 WIC-2T 
Nov 29 15:36:24.379 HYPERVISOR: exec_cmd: c3725 set_mac_addr Mgt c201.1066.0000 
Nov 29 15:36:24.380 HYPERVISOR: exec_cmd: vm set_disk0 Mgt 1 
Nov 29 15:36:24.380 HYPERVISOR: exec_cmd: vm set_ios Mgt /media/actionmystique/SAMSUNG5-VMs/Images/GNS3/IOS/c3725-adventerprisek9-mz.124-15.T10.image 
Nov 29 15:36:24.380 HYPERVISOR: exec_cmd: vm get_status Mgt 
Nov 29 15:36:24.381 HYPERVISOR: exec_cmd: vm set_idle_pc Mgt 0x6026b804 
Nov 29 15:36:24.381 HYPERVISOR: exec_cmd: vm get_status Mgt 
Nov 29 15:36:24.382 HYPERVISOR: exec_cmd: vm slot_add_binding Mgt 1 0 NM-16ESW 
Nov 29 15:36:24.382 HYPERVISOR: exec_cmd: vm set_config Mgt configs/i1_startup-config.cfg 
Nov 29 15:36:24.385 HYPERVISOR: exec_cmd: vm set_config Mgt configs/i1_startup-config.cfg configs/i1_private-config.cfg 
Nov 29 15:36:25.448 HYPERVISOR: exec_cmd: nio create_udp udp-986b5835-0431-4014-bf56-6efab87d2ee9 15058 127.0.0.1 15059 
Nov 29 15:36:25.453 HYPERVISOR: exec_cmd: vm slot_add_nio_binding Mgt 1 1 udp-986b5835-0431-4014-bf56-6efab87d2ee9 
Nov 29 15:36:25.454 HYPERVISOR: exec_cmd: vm get_status Mgt 
Nov 29 15:36:25.460 HYPERVISOR: exec_cmd: nio create_udp udp-f98d03f4-8b40-469f-81fb-ef3c2f2365f8 15060 127.0.0.1 15061 
Nov 29 15:36:25.461 HYPERVISOR: exec_cmd: vm slot_add_nio_binding Mgt 1 2 udp-f98d03f4-8b40-469f-81fb-ef3c2f2365f8 
Nov 29 15:36:25.461 HYPERVISOR: exec_cmd: vm get_status Mgt 
Nov 29 15:36:25.488 HYPERVISOR: exec_cmd: nio create_udp udp-ee3b2ff5-8d91-41ea-85bc-10ac14c625bb 15062 127.0.0.1 15063 
Nov 29 15:36:25.488 HYPERVISOR: exec_cmd: vm slot_add_nio_binding Mgt 1 3 udp-ee3b2ff5-8d91-41ea-85bc-10ac14c625bb 
Nov 29 15:36:25.489 HYPERVISOR: exec_cmd: vm get_status Mgt 
Nov 29 15:36:25.504 HYPERVISOR: exec_cmd: nio create_udp udp-3e03b2b4-3a9f-4cdc-8b23-803cd2fdce5c 15064 127.0.0.1 15065 
Nov 29 15:36:25.504 HYPERVISOR: exec_cmd: vm slot_add_nio_binding Mgt 1 4 udp-3e03b2b4-3a9f-4cdc-8b23-803cd2fdce5c 
Nov 29 15:36:25.504 HYPERVISOR: exec_cmd: vm get_status Mgt 
Nov 29 15:36:25.528 HYPERVISOR: exec_cmd: nio create_udp udp-f96c57b3-063f-47fe-88bb-6a41a69d8068 15066 127.0.0.1 15067 
Nov 29 15:36:25.529 HYPERVISOR: exec_cmd: vm slot_add_nio_binding Mgt 1 11 udp-f96c57b3-063f-47fe-88bb-6a41a69d8068 
Nov 29 15:36:25.529 HYPERVISOR: exec_cmd: vm get_status Mgt 
Nov 29 15:36:25.548 HYPERVISOR: exec_cmd: nio create_udp udp-a35f2c1c-0dc3-413c-a053-35af2c1d3fd8 15068 127.0.0.1 15069 
Nov 29 15:36:25.548 HYPERVISOR: exec_cmd: vm slot_add_nio_binding Mgt 1 12 udp-a35f2c1c-0dc3-413c-a053-35af2c1d3fd8 
Nov 29 15:36:25.548 HYPERVISOR: exec_cmd: vm get_status Mgt 
Nov 29 15:36:25.580 HYPERVISOR: exec_cmd: nio create_udp udp-94c8eaff-fcfc-4560-acdb-c3e04ea64d78 15071 127.0.0.1 15070 
Nov 29 15:36:25.581 HYPERVISOR: exec_cmd: vm slot_add_nio_binding Mgt 1 6 udp-94c8eaff-fcfc-4560-acdb-c3e04ea64d78 
Nov 29 15:36:25.581 HYPERVISOR: exec_cmd: vm get_status Mgt 
Nov 29 15:36:25.598 HYPERVISOR: exec_cmd: nio create_udp udp-b0621058-ec3d-4525-9d17-7eb5c3ae26e7 15073 127.0.0.1 15072 
Nov 29 15:36:25.598 HYPERVISOR: exec_cmd: vm slot_add_nio_binding Mgt 1 5 udp-b0621058-ec3d-4525-9d17-7eb5c3ae26e7 
Nov 29 15:36:25.598 HYPERVISOR: exec_cmd: vm get_status Mgt 
Nov 29 15:36:27.402 HYPERVISOR: exec_cmd: nio create_tap tap-63f7c890-2544-4594-82de-f2389a5ef0c1 tap1 
Nov 29 15:36:27.402 HYPERVISOR: exec_cmd: vm slot_add_nio_binding Mgt 1 0 tap-63f7c890-2544-4594-82de-f2389a5ef0c1 
Nov 29 15:36:27.403 HYPERVISOR: exec_cmd: vm get_status Mgt 
