Nov 26 21:56:31.318 HYPERVISOR: Release 0.2.17-amd64/Linux (tag 2017072410)
Nov 26 21:56:31.318 HYPERVISOR: Started on IP = 127.0.0.1, TCP port = 37757.
Nov 26 21:56:31.350 HYPERVISOR: exec_cmd: hypervisor version 
Nov 26 21:56:31.353 HYPERVISOR: exec_cmd: hypervisor working_dir /media/actionmystique/SAMSUNG5-VMs/Labs/GNS3/v1-solutions-linux-/project-files/dynamips 
Nov 26 21:56:31.353 GENERAL: working_dir=/media/actionmystique/SAMSUNG5-VMs/Labs/GNS3/v1-solutions-linux-/project-files/dynamips
Nov 26 21:56:31.355 HYPERVISOR: exec_cmd: vm create ASW2 4 c3725 
Nov 26 21:56:31.355 VM: VM ASW2 created.
Nov 26 21:56:31.356 HYPERVISOR: exec_cmd: vm set_con_tcp_port ASW2 2004 
Nov 26 21:56:31.362 HYPERVISOR: exec_cmd: c3725 get_mac_addr ASW2 
Nov 26 21:56:31.364 HYPERVISOR: exec_cmd: vm slot_add_binding ASW2 0 16 WIC-2T 
Nov 26 21:56:31.364 HYPERVISOR: exec_cmd: vm get_status ASW2 
Nov 26 21:56:31.365 HYPERVISOR: exec_cmd: vm set_idle_pc ASW2 0x6026b804 
Nov 26 21:56:31.378 HYPERVISOR: exec_cmd: vm set_nvram ASW2 256 
Nov 26 21:56:31.387 HYPERVISOR: exec_cmd: vm get_status ASW2 
Nov 26 21:56:31.397 HYPERVISOR: exec_cmd: vm slot_add_binding ASW2 1 0 NM-16ESW 
Nov 26 21:56:31.399 HYPERVISOR: exec_cmd: vm set_ios ASW2 /media/actionmystique/SAMSUNG5-VMs/Images/GNS3/IOS/c3725-adventerprisek9-mz.124-15.T10.image 
Nov 26 21:56:31.401 HYPERVISOR: exec_cmd: vm set_disk0 ASW2 1 
Nov 26 21:56:31.403 HYPERVISOR: exec_cmd: c3725 set_mac_addr ASW2 c204.1830.0000 
Nov 26 21:56:31.404 HYPERVISOR: exec_cmd: vm set_config ASW2 configs/i4_startup-config.cfg 
Nov 26 21:56:31.410 HYPERVISOR: exec_cmd: vm set_config ASW2 configs/i4_startup-config.cfg configs/i4_private-config.cfg 
Nov 26 21:56:32.409 HYPERVISOR: exec_cmd: nio create_udp udp-e313c8e6-1310-463d-b092-e1c3610be46a 15034 127.0.0.1 15035 
Nov 26 21:56:32.409 HYPERVISOR: exec_cmd: vm slot_add_nio_binding ASW2 1 1 udp-e313c8e6-1310-463d-b092-e1c3610be46a 
Nov 26 21:56:32.410 HYPERVISOR: exec_cmd: vm get_status ASW2 
Nov 26 21:56:32.441 HYPERVISOR: exec_cmd: nio create_udp udp-d010b6b5-e5e8-487b-bb6b-5ab9fedf7d7e 15037 127.0.0.1 15036 
Nov 26 21:56:32.441 HYPERVISOR: exec_cmd: vm slot_add_nio_binding ASW2 1 9 udp-d010b6b5-e5e8-487b-bb6b-5ab9fedf7d7e 
Nov 26 21:56:32.441 HYPERVISOR: exec_cmd: vm get_status ASW2 
Nov 26 21:56:32.465 HYPERVISOR: exec_cmd: nio create_udp udp-6cbf3c2c-7465-4e22-ac7b-b41907f4adb0 15039 127.0.0.1 15038 
Nov 26 21:56:32.468 HYPERVISOR: exec_cmd: vm slot_add_nio_binding ASW2 1 10 udp-6cbf3c2c-7465-4e22-ac7b-b41907f4adb0 
Nov 26 21:56:32.471 HYPERVISOR: exec_cmd: vm get_status ASW2 
Nov 26 21:56:32.493 HYPERVISOR: exec_cmd: nio create_udp udp-14010809-b7f9-46ce-9dfc-8d168cee29e8 15041 127.0.0.1 15040 
Nov 26 21:56:32.493 HYPERVISOR: exec_cmd: vm slot_add_nio_binding ASW2 1 11 udp-14010809-b7f9-46ce-9dfc-8d168cee29e8 
Nov 26 21:56:32.494 HYPERVISOR: exec_cmd: vm get_status ASW2 
Nov 26 21:56:32.502 HYPERVISOR: exec_cmd: nio create_udp udp-99c69217-7f99-4e4a-8976-62f7801c3774 15043 127.0.0.1 15042 
Nov 26 21:56:32.504 HYPERVISOR: exec_cmd: vm slot_add_nio_binding ASW2 1 12 udp-99c69217-7f99-4e4a-8976-62f7801c3774 
Nov 26 21:56:32.504 HYPERVISOR: exec_cmd: vm get_status ASW2 
Nov 26 21:56:42.440 HYPERVISOR: exec_cmd: vm get_status ASW2 
Nov 26 21:56:42.446 HYPERVISOR: exec_cmd: vm extract_config ASW2 
Nov 26 21:56:42.458 HYPERVISOR: exec_cmd: vm delete ASW2 
Nov 26 21:56:42.458 VM: VM ASW2 destroyed.
Nov 26 21:56:42.462 HYPERVISOR: exec_cmd: hypervisor stop 
Nov 26 21:56:42.854 HYPERVISOR: Stopped.
Nov 26 21:56:42.854 GENERAL: reset done.
