Jul 19 16:10:47.628 HYPERVISOR: Release 0.2.16-amd64/Linux (tag 2015060118)
Jul 19 16:10:47.628 HYPERVISOR: Started on IP = 127.0.0.1, TCP port = 42124.
Jul 19 16:10:47.642 HYPERVISOR: exec_cmd: hypervisor version 
Jul 19 16:10:47.646 HYPERVISOR: exec_cmd: hypervisor working_dir /media/actionmystique/SAMSUNG-850-Ext4/Labs/GNS3/CCNP/TBSHOOT/Exam-Topology/Jean-Christophe_Manciot/1+/v1-solutions-linux/project-files/dynamips 
Jul 19 16:10:47.646 GENERAL: working_dir=/media/actionmystique/SAMSUNG-850-Ext4/Labs/GNS3/CCNP/TBSHOOT/Exam-Topology/Jean-Christophe_Manciot/1+/v1-solutions-linux/project-files/dynamips
Jul 19 16:10:47.649 HYPERVISOR: exec_cmd: vm create DSW2 2 c3725 
Jul 19 16:10:47.649 VM: VM DSW2 created.
Jul 19 16:10:47.650 HYPERVISOR: exec_cmd: vm set_con_tcp_port DSW2 2006 
Jul 19 16:10:47.651 HYPERVISOR: exec_cmd: c3725 get_mac_addr DSW2 
Jul 19 16:10:47.651 HYPERVISOR: exec_cmd: c3725 set_mac_addr DSW2 c202.2c60.0000 
Jul 19 16:10:47.652 HYPERVISOR: exec_cmd: vm set_ios DSW2 /media/actionmystique/SAMSUNG-850-Ext4/Images/GNS3/IOS/c3725-adventerprisek9-mz.124-15.T10.image 
Jul 19 16:10:47.653 HYPERVISOR: exec_cmd: vm get_status DSW2 
Jul 19 16:10:47.653 HYPERVISOR: exec_cmd: vm slot_add_binding DSW2 1 0 NM-16ESW 
Jul 19 16:10:47.654 HYPERVISOR: exec_cmd: vm get_status DSW2 
Jul 19 16:10:47.654 HYPERVISOR: exec_cmd: vm set_idle_pc DSW2 0x6026b804 
Jul 19 16:10:47.655 HYPERVISOR: exec_cmd: vm set_nvram DSW2 256 
Jul 19 16:10:47.655 HYPERVISOR: exec_cmd: vm set_disk0 DSW2 1 
Jul 19 16:10:47.657 HYPERVISOR: exec_cmd: vm slot_add_binding DSW2 0 16 WIC-2T 
Jul 19 16:10:47.658 HYPERVISOR: exec_cmd: vm set_config DSW2 configs/i2_startup-config.cfg 
Jul 19 16:10:47.660 HYPERVISOR: exec_cmd: vm set_config DSW2 configs/i2_startup-config.cfg configs/i2_private-config.cfg 
Jul 19 16:10:48.397 HYPERVISOR: exec_cmd: nio create_udp udp-d8c97e41-5fa4-46ff-9aab-422e9238a80b 15001 127.0.0.1 15000 
Jul 19 16:10:48.398 HYPERVISOR: exec_cmd: vm slot_add_nio_binding DSW2 1 3 udp-d8c97e41-5fa4-46ff-9aab-422e9238a80b 
Jul 19 16:10:48.398 HYPERVISOR: exec_cmd: vm get_status DSW2 
Jul 19 16:10:48.481 HYPERVISOR: exec_cmd: nio create_udp udp-eb8bd9c8-b93f-403b-8143-fd0824b84ea9 15003 127.0.0.1 15002 
Jul 19 16:10:48.481 HYPERVISOR: exec_cmd: vm slot_add_nio_binding DSW2 1 4 udp-eb8bd9c8-b93f-403b-8143-fd0824b84ea9 
Jul 19 16:10:48.482 HYPERVISOR: exec_cmd: vm get_status DSW2 
Jul 19 16:10:48.525 HYPERVISOR: exec_cmd: nio create_udp udp-91b57a8c-f327-4845-9908-92a19f875219 15008 127.0.0.1 15009 
Jul 19 16:10:48.526 HYPERVISOR: exec_cmd: vm slot_add_nio_binding DSW2 1 11 udp-91b57a8c-f327-4845-9908-92a19f875219 
Jul 19 16:10:48.526 HYPERVISOR: exec_cmd: vm get_status DSW2 
Jul 19 16:10:48.545 HYPERVISOR: exec_cmd: nio create_udp udp-9c7d31cc-c539-45c2-8cf8-c310623e4723 15010 127.0.0.1 15011 
Jul 19 16:10:48.546 HYPERVISOR: exec_cmd: vm slot_add_nio_binding DSW2 1 12 udp-9c7d31cc-c539-45c2-8cf8-c310623e4723 
Jul 19 16:10:48.546 HYPERVISOR: exec_cmd: vm get_status DSW2 
Jul 19 16:10:48.662 HYPERVISOR: exec_cmd: nio create_udp udp-fe021a86-2bfa-42e9-9dd6-bfd7eab549cd 15023 127.0.0.1 15020 
Jul 19 16:10:48.663 HYPERVISOR: exec_cmd: vm slot_add_nio_binding DSW2 1 14 udp-fe021a86-2bfa-42e9-9dd6-bfd7eab549cd 
Jul 19 16:10:48.663 HYPERVISOR: exec_cmd: vm get_status DSW2 
Jul 19 16:10:48.795 HYPERVISOR: exec_cmd: nio create_udp udp-28afe63d-7a0b-4916-90a7-2bcc24f30c63 15036 127.0.0.1 15037 
Jul 19 16:10:48.797 HYPERVISOR: exec_cmd: vm slot_add_nio_binding DSW2 1 9 udp-28afe63d-7a0b-4916-90a7-2bcc24f30c63 
Jul 19 16:10:48.800 HYPERVISOR: exec_cmd: vm get_status DSW2 
Jul 19 16:10:48.810 HYPERVISOR: exec_cmd: nio create_udp udp-93ef0aa9-1237-49c6-a1eb-bbc2a75b2024 15038 127.0.0.1 15039 
Jul 19 16:10:48.811 HYPERVISOR: exec_cmd: vm slot_add_nio_binding DSW2 1 10 udp-93ef0aa9-1237-49c6-a1eb-bbc2a75b2024 
Jul 19 16:10:48.814 HYPERVISOR: exec_cmd: vm get_status DSW2 
Jul 19 16:11:05.912 HYPERVISOR: exec_cmd: vm get_status DSW2 
Jul 19 16:11:05.915 HYPERVISOR: exec_cmd: vm extract_config DSW2 
Jul 19 16:11:05.925 HYPERVISOR: exec_cmd: vm delete DSW2 
Jul 19 16:11:05.925 VM: VM DSW2 destroyed.
Jul 19 16:11:05.930 HYPERVISOR: exec_cmd: hypervisor stop 
Jul 19 16:11:06.152 HYPERVISOR: Stopped.
Jul 19 16:11:06.152 GENERAL: reset done.
