Nov 26 21:56:02.675 HYPERVISOR: Release 0.2.17-amd64/Linux (tag 2017072410)
Nov 26 21:56:02.675 HYPERVISOR: Started on IP = 127.0.0.1, TCP port = 45445.
Nov 26 21:56:02.718 HYPERVISOR: exec_cmd: hypervisor version 
Nov 26 21:56:02.730 HYPERVISOR: exec_cmd: hypervisor working_dir /media/actionmystique/SAMSUNG5-VMs/Labs/GNS3/git-Public-Labs-Collection/CCNP/TBSHOOT/Exam-Topology/Jean-Christophe_Manciot/1+/v1-solutions-linux/project-files/dynamips 
Nov 26 21:56:02.731 GENERAL: working_dir=/media/actionmystique/SAMSUNG5-VMs/Labs/GNS3/git-Public-Labs-Collection/CCNP/TBSHOOT/Exam-Topology/Jean-Christophe_Manciot/1+/v1-solutions-linux/project-files/dynamips
Nov 26 21:56:02.742 HYPERVISOR: exec_cmd: frsw create FR 
Nov 26 21:56:03.632 HYPERVISOR: exec_cmd: nio create_udp udp-75ede4d9-10dd-4888-884b-478e603b0e3c 15027 127.0.0.1 15026 
Nov 26 21:56:03.648 HYPERVISOR: exec_cmd: nio create_udp udp-74a00761-e0cd-4837-88a1-7d7b57cf34b0 15030 127.0.0.1 15028 
Nov 26 21:56:03.673 HYPERVISOR: exec_cmd: nio create_udp udp-4007ef35-6a92-4a27-a908-06966df02d8f 15031 127.0.0.1 15029 
Nov 26 21:56:03.673 HYPERVISOR: exec_cmd: frsw create_vc FR udp-4007ef35-6a92-4a27-a908-06966df02d8f 403 udp-75ede4d9-10dd-4888-884b-478e603b0e3c 304 
Nov 26 21:56:03.681 HYPERVISOR: exec_cmd: frsw create_vc FR udp-75ede4d9-10dd-4888-884b-478e603b0e3c 304 udp-4007ef35-6a92-4a27-a908-06966df02d8f 403 
Nov 26 21:56:03.705 HYPERVISOR: exec_cmd: nio create_udp udp-28ff1825-e621-4332-b1d7-233dfe003612 15033 127.0.0.1 15032 
Nov 26 21:56:03.713 HYPERVISOR: exec_cmd: frsw create_vc FR udp-28ff1825-e621-4332-b1d7-233dfe003612 201 udp-74a00761-e0cd-4837-88a1-7d7b57cf34b0 102 
Nov 26 21:56:03.719 HYPERVISOR: exec_cmd: frsw create_vc FR udp-74a00761-e0cd-4837-88a1-7d7b57cf34b0 102 udp-28ff1825-e621-4332-b1d7-233dfe003612 201 
Nov 26 21:56:03.739 HYPERVISOR: exec_cmd: frsw create_vc FR udp-28ff1825-e621-4332-b1d7-233dfe003612 203 udp-75ede4d9-10dd-4888-884b-478e603b0e3c 302 
Nov 26 21:56:03.764 HYPERVISOR: exec_cmd: frsw create_vc FR udp-75ede4d9-10dd-4888-884b-478e603b0e3c 302 udp-28ff1825-e621-4332-b1d7-233dfe003612 203 
Nov 26 21:56:03.851 HYPERVISOR: exec_cmd: nio create_udp udp-2576be12-a74b-45cc-b1f5-4d409e08ea10 15047 127.0.0.1 15048 
Nov 26 21:56:03.857 HYPERVISOR: exec_cmd: frsw create_vc FR udp-2576be12-a74b-45cc-b1f5-4d409e08ea10 502 udp-28ff1825-e621-4332-b1d7-233dfe003612 205 
Nov 26 21:56:03.859 HYPERVISOR: exec_cmd: frsw create_vc FR udp-28ff1825-e621-4332-b1d7-233dfe003612 205 udp-2576be12-a74b-45cc-b1f5-4d409e08ea10 502 
