Jul 19 16:10:47.708 HYPERVISOR: Release 0.2.16-amd64/Linux (tag 2015060118)
Jul 19 16:10:47.708 HYPERVISOR: Started on IP = 127.0.0.1, TCP port = 42802.
Jul 19 16:10:47.712 HYPERVISOR: exec_cmd: hypervisor version 
Jul 19 16:10:47.713 HYPERVISOR: exec_cmd: hypervisor working_dir /media/actionmystique/SAMSUNG-850-Ext4/Labs/GNS3/CCNP/TBSHOOT/Exam-Topology/Jean-Christophe_Manciot/1+/v1-solutions-linux/project-files/dynamips 
Jul 19 16:10:47.713 GENERAL: working_dir=/media/actionmystique/SAMSUNG-850-Ext4/Labs/GNS3/CCNP/TBSHOOT/Exam-Topology/Jean-Christophe_Manciot/1+/v1-solutions-linux/project-files/dynamips
Jul 19 16:10:47.714 HYPERVISOR: exec_cmd: vm create R1 5 c7200 
Jul 19 16:10:47.714 VM: VM R1 created.
Jul 19 16:10:47.715 HYPERVISOR: exec_cmd: vm set_con_tcp_port R1 2012 
Jul 19 16:10:47.716 HYPERVISOR: exec_cmd: c7200 get_mac_addr R1 
Jul 19 16:10:47.717 HYPERVISOR: exec_cmd: vm get_status R1 
Jul 19 16:10:47.719 HYPERVISOR: exec_cmd: vm slot_add_binding R1 0 0 C7200-IO-FE 
Jul 19 16:10:47.720 HYPERVISOR: exec_cmd: vm get_status R1 
Jul 19 16:10:47.722 HYPERVISOR: exec_cmd: vm slot_remove_binding R1 0 0 
Jul 19 16:10:47.724 HYPERVISOR: exec_cmd: vm get_status R1 
Jul 19 16:10:47.725 HYPERVISOR: exec_cmd: vm slot_add_binding R1 0 0 C7200-IO-GE-E 
Jul 19 16:10:47.727 HYPERVISOR: exec_cmd: c7200 set_mac_addr R1 ca05.2e32.0000 
Jul 19 16:10:47.729 HYPERVISOR: exec_cmd: vm set_disk0 R1 1 
Jul 19 16:10:47.730 HYPERVISOR: exec_cmd: vm get_status R1 
Jul 19 16:10:47.732 HYPERVISOR: exec_cmd: vm slot_add_binding R1 6 0 PA-POS-OC3 
Jul 19 16:10:47.737 HYPERVISOR: exec_cmd: vm set_ram R1 512 
Jul 19 16:10:47.743 HYPERVISOR: exec_cmd: vm get_status R1 
Jul 19 16:10:47.746 HYPERVISOR: exec_cmd: vm slot_add_binding R1 3 0 PA-GE 
Jul 19 16:10:47.748 HYPERVISOR: exec_cmd: vm set_ios R1 /media/actionmystique/SAMSUNG-850-Ext4/Images/GNS3/IOS/c7200-adventerprisek9-mz.152-4.M2.image 
Jul 19 16:10:47.750 HYPERVISOR: exec_cmd: vm get_status R1 
Jul 19 16:10:47.751 HYPERVISOR: exec_cmd: vm slot_add_binding R1 4 0 PA-4T+ 
Jul 19 16:10:47.752 HYPERVISOR: exec_cmd: vm get_status R1 
Jul 19 16:10:47.754 HYPERVISOR: exec_cmd: vm set_idle_pc R1 0x6062f0e0 
Jul 19 16:10:47.755 HYPERVISOR: exec_cmd: vm get_status R1 
Jul 19 16:10:47.756 HYPERVISOR: exec_cmd: vm slot_add_binding R1 1 0 PA-GE 
Jul 19 16:10:47.758 HYPERVISOR: exec_cmd: vm get_status R1 
Jul 19 16:10:47.759 HYPERVISOR: exec_cmd: vm slot_add_binding R1 5 0 PA-POS-OC3 
Jul 19 16:10:47.760 HYPERVISOR: exec_cmd: vm get_status R1 
Jul 19 16:10:47.762 HYPERVISOR: exec_cmd: vm slot_add_binding R1 2 0 PA-GE 
Jul 19 16:10:47.764 HYPERVISOR: exec_cmd: vm set_nvram R1 256 
Jul 19 16:10:47.765 HYPERVISOR: exec_cmd: vm set_config R1 configs/i5_startup-config.cfg 
Jul 19 16:10:47.767 HYPERVISOR: exec_cmd: vm set_config R1 configs/i5_startup-config.cfg configs/i5_private-config.cfg 
Jul 19 16:10:48.605 HYPERVISOR: exec_cmd: nio create_udp udp-466f625b-3ded-440c-bd10-203090c51e5c 15017 127.0.0.1 15018 
Jul 19 16:10:48.606 HYPERVISOR: exec_cmd: vm slot_add_nio_binding R1 3 0 udp-466f625b-3ded-440c-bd10-203090c51e5c 
Jul 19 16:10:48.606 HYPERVISOR: exec_cmd: vm get_status R1 
Jul 19 16:10:48.690 HYPERVISOR: exec_cmd: nio create_udp udp-4baf9252-0ecb-4e19-9a8a-d8ba18a5598d 15024 127.0.0.1 15025 
Jul 19 16:10:48.693 HYPERVISOR: exec_cmd: vm slot_add_nio_binding R1 4 0 udp-4baf9252-0ecb-4e19-9a8a-d8ba18a5598d 
Jul 19 16:10:48.697 HYPERVISOR: exec_cmd: vm get_status R1 
Jul 19 16:10:48.737 HYPERVISOR: exec_cmd: nio create_udp udp-32165726-dd2e-4a15-8b8e-a926f29be30a 15029 127.0.0.1 15028 
Jul 19 16:10:48.738 HYPERVISOR: exec_cmd: vm slot_add_nio_binding R1 2 0 udp-32165726-dd2e-4a15-8b8e-a926f29be30a 
Jul 19 16:10:48.738 HYPERVISOR: exec_cmd: vm get_status R1 
Jul 19 16:10:48.941 HYPERVISOR: exec_cmd: nio create_udp udp-f60f32de-82ab-488c-bac1-61cfff8f024c 15049 127.0.0.1 15048 
Jul 19 16:10:48.941 HYPERVISOR: exec_cmd: vm slot_add_nio_binding R1 1 0 udp-f60f32de-82ab-488c-bac1-61cfff8f024c 
Jul 19 16:10:48.942 HYPERVISOR: exec_cmd: vm get_status R1 
Jul 19 16:11:05.907 HYPERVISOR: exec_cmd: vm get_status R1 
Jul 19 16:11:05.913 HYPERVISOR: exec_cmd: vm extract_config R1 
Jul 19 16:11:05.920 HYPERVISOR: exec_cmd: vm delete R1 
Jul 19 16:11:05.920 VM: VM R1 destroyed.
Jul 19 16:11:05.923 HYPERVISOR: exec_cmd: hypervisor stop 
Jul 19 16:11:06.227 HYPERVISOR: Stopped.
Jul 19 16:11:06.227 GENERAL: reset done.
