Nov 28 08:09:04.708 HYPERVISOR: Release 0.2.17-amd64/Linux (tag 2017072410)
Nov 28 08:09:04.708 HYPERVISOR: Started on IP = 127.0.0.1, TCP port = 38477.
Nov 28 08:09:04.712 HYPERVISOR: exec_cmd: hypervisor version 
Nov 28 08:09:04.713 HYPERVISOR: exec_cmd: hypervisor working_dir /media/actionmystique/SAMSUNG5-VMs/Labs/GNS3/git-Public-Labs-Collection/CCNP/TBSHOOT/L3-Technologies/IPv4/PBR/Jean-Christophe_Manciot/1+/TT 1-linux/project-files/dynamips 
Nov 28 08:09:04.713 GENERAL: working_dir=/media/actionmystique/SAMSUNG5-VMs/Labs/GNS3/git-Public-Labs-Collection/CCNP/TBSHOOT/L3-Technologies/IPv4/PBR/Jean-Christophe_Manciot/1+/TT 1-linux/project-files/dynamips
Nov 28 08:09:04.713 HYPERVISOR: exec_cmd: vm create ESW1 1 c3725 
Nov 28 08:09:04.714 VM: VM ESW1 created.
Nov 28 08:09:04.716 HYPERVISOR: exec_cmd: vm set_con_tcp_port ESW1 2004 
Nov 28 08:09:04.718 HYPERVISOR: exec_cmd: c3725 get_mac_addr ESW1 
Nov 28 08:09:04.721 HYPERVISOR: exec_cmd: vm get_status ESW1 
Nov 28 08:09:04.727 HYPERVISOR: exec_cmd: vm slot_add_binding ESW1 1 0 NM-16ESW 
Nov 28 08:09:04.729 HYPERVISOR: exec_cmd: vm set_disk0 ESW1 1 
Nov 28 08:09:04.730 HYPERVISOR: exec_cmd: vm slot_add_binding ESW1 0 16 WIC-2T 
Nov 28 08:09:04.731 HYPERVISOR: exec_cmd: vm get_status ESW1 
Nov 28 08:09:04.731 HYPERVISOR: exec_cmd: vm set_idle_pc ESW1 0x614ac27c 
Nov 28 08:09:04.732 HYPERVISOR: exec_cmd: c3725 set_mac_addr ESW1 c201.1b91.0000 
Nov 28 08:09:04.732 HYPERVISOR: exec_cmd: vm set_nvram ESW1 256 
Nov 28 08:09:04.734 HYPERVISOR: exec_cmd: vm set_ios ESW1 /media/actionmystique/SAMSUNG5-VMs/Images/GNS3/IOS/c3725-adventerprisek9-mz.124-15.T10.image 
Nov 28 08:09:04.734 HYPERVISOR: exec_cmd: vm set_config ESW1 configs/ios_base_startup-config.txt 
Nov 28 08:09:04.736 HYPERVISOR: exec_cmd: vm set_config ESW1 configs/ios_base_startup-config.txt configs/ios_base_private-config.txt 
Nov 28 08:09:04.987 HYPERVISOR: exec_cmd: nio create_udp udp-a0f09a64-7c56-4f6d-86f7-e6cf754de7ba 15010 127.0.0.1 15008 
Nov 28 08:09:04.988 HYPERVISOR: exec_cmd: vm slot_add_nio_binding ESW1 1 0 udp-a0f09a64-7c56-4f6d-86f7-e6cf754de7ba 
Nov 28 08:09:04.988 HYPERVISOR: exec_cmd: vm get_status ESW1 
Nov 28 08:09:05.003 HYPERVISOR: exec_cmd: nio create_udp udp-7da93000-8937-4dfe-9573-73bcb26026ba 15009 127.0.0.1 15011 
Nov 28 08:09:05.008 HYPERVISOR: exec_cmd: vm slot_add_nio_binding ESW1 1 1 udp-7da93000-8937-4dfe-9573-73bcb26026ba 
Nov 28 08:09:05.015 HYPERVISOR: exec_cmd: vm get_status ESW1 
Nov 28 08:10:09.905 HYPERVISOR: exec_cmd: vm get_status ESW1 
Nov 28 08:10:09.908 HYPERVISOR: exec_cmd: vm extract_config ESW1 
Nov 28 08:10:09.939 HYPERVISOR: exec_cmd: vm delete ESW1 
Nov 28 08:10:09.939 VM: VM ESW1 destroyed.
Nov 28 08:10:09.941 HYPERVISOR: exec_cmd: hypervisor stop 
Nov 28 08:10:10.280 HYPERVISOR: Stopped.
Nov 28 08:10:10.280 GENERAL: reset done.
