Nov 29 19:02:39.423 HYPERVISOR: Release 0.2.17-amd64/Linux (tag 2017072410)
Nov 29 19:02:39.423 HYPERVISOR: Started on IP = 127.0.0.1, TCP port = 42085.
Nov 29 19:02:39.438 HYPERVISOR: exec_cmd: hypervisor version 
Nov 29 19:02:39.438 HYPERVISOR: exec_cmd: hypervisor working_dir /media/actionmystique/SAMSUNG5-VMs/Labs/GNS3/TT 1-solutions-linux-/project-files/dynamips 
Nov 29 19:02:39.438 GENERAL: working_dir=/media/actionmystique/SAMSUNG5-VMs/Labs/GNS3/TT 1-solutions-linux-/project-files/dynamips
Nov 29 19:02:39.438 HYPERVISOR: exec_cmd: vm create ESW4 4 c3725 
Nov 29 19:02:39.438 VM: VM ESW4 created.
Nov 29 19:02:39.439 HYPERVISOR: exec_cmd: vm set_con_tcp_port ESW4 2006 
Nov 29 19:02:39.439 HYPERVISOR: exec_cmd: c3725 get_mac_addr ESW4 
Nov 29 19:02:39.439 HYPERVISOR: exec_cmd: vm slot_add_binding ESW4 0 16 WIC-2T 
Nov 29 19:02:39.440 HYPERVISOR: exec_cmd: vm set_ios ESW4 /media/actionmystique/SAMSUNG5-VMs/Images/GNS3/IOS/c3725-adventerprisek9-mz.124-15.T10.image 
Nov 29 19:02:39.440 HYPERVISOR: exec_cmd: vm get_status ESW4 
Nov 29 19:02:39.441 HYPERVISOR: exec_cmd: vm set_idle_pc ESW4 0x6026b804 
Nov 29 19:02:39.441 HYPERVISOR: exec_cmd: vm get_status ESW4 
Nov 29 19:02:39.441 HYPERVISOR: exec_cmd: vm slot_add_binding ESW4 1 0 NM-16ESW 
Nov 29 19:02:39.442 HYPERVISOR: exec_cmd: c3725 set_mac_addr ESW4 c204.44a3.0000 
Nov 29 19:02:39.442 HYPERVISOR: exec_cmd: vm set_nvram ESW4 256 
Nov 29 19:02:39.442 HYPERVISOR: exec_cmd: vm set_disk0 ESW4 1 
Nov 29 19:02:39.443 HYPERVISOR: exec_cmd: vm set_config ESW4 configs/ios_base_startup-config.txt 
Nov 29 19:02:39.443 HYPERVISOR: exec_cmd: vm set_config ESW4 configs/ios_base_startup-config.txt configs/ios_base_private-config.txt 
Nov 29 19:02:39.716 HYPERVISOR: exec_cmd: nio create_udp udp-a362b5af-f6ec-4fad-af41-0b9e24debefc 15013 127.0.0.1 15012 
Nov 29 19:02:39.716 HYPERVISOR: exec_cmd: vm slot_add_nio_binding ESW4 1 0 udp-a362b5af-f6ec-4fad-af41-0b9e24debefc 
Nov 29 19:02:39.717 HYPERVISOR: exec_cmd: vm get_status ESW4 
Nov 29 19:02:39.748 HYPERVISOR: exec_cmd: nio create_udp udp-477bbd3d-5a72-4ae6-81d2-8ffc40894b48 15015 127.0.0.1 15014 
Nov 29 19:02:39.749 HYPERVISOR: exec_cmd: vm slot_add_nio_binding ESW4 1 1 udp-477bbd3d-5a72-4ae6-81d2-8ffc40894b48 
Nov 29 19:02:39.749 HYPERVISOR: exec_cmd: vm get_status ESW4 
Nov 29 19:02:58.204 HYPERVISOR: exec_cmd: vm get_status ESW4 
Nov 29 19:02:58.206 HYPERVISOR: exec_cmd: vm extract_config ESW4 
Nov 29 19:02:58.207 HYPERVISOR: exec_cmd: vm delete ESW4 
Nov 29 19:02:58.207 VM: VM ESW4 destroyed.
Nov 29 19:02:58.208 HYPERVISOR: exec_cmd: hypervisor stop 
Nov 29 19:02:58.457 HYPERVISOR: Stopped.
Nov 29 19:02:58.457 GENERAL: reset done.
