Nov 29 15:26:12.434 HYPERVISOR: Release 0.2.17-amd64/Linux (tag 2017072410)
Nov 29 15:26:12.434 HYPERVISOR: Started on IP = 127.0.0.1, TCP port = 57715.
Nov 29 15:26:12.459 HYPERVISOR: exec_cmd: hypervisor version 
Nov 29 15:26:12.460 HYPERVISOR: exec_cmd: hypervisor working_dir /media/actionmystique/SAMSUNG5-VMs/Labs/GNS3/git-Public-Labs-Collection/CCNP/TBSHOOT/L3-Technologies/IPv4/Routing-Protocols/Redistribution/Jean-Christophe_Manciot/1+/TT 3-linux/project-files/dynamips 
Nov 29 15:26:12.460 GENERAL: working_dir=/media/actionmystique/SAMSUNG5-VMs/Labs/GNS3/git-Public-Labs-Collection/CCNP/TBSHOOT/L3-Technologies/IPv4/Routing-Protocols/Redistribution/Jean-Christophe_Manciot/1+/TT 3-linux/project-files/dynamips
Nov 29 15:26:12.461 HYPERVISOR: exec_cmd: vm create ESW3 3 c3725 
Nov 29 15:26:12.461 VM: VM ESW3 created.
Nov 29 15:26:12.462 HYPERVISOR: exec_cmd: vm set_con_tcp_port ESW3 2006 
Nov 29 15:26:12.464 HYPERVISOR: exec_cmd: c3725 get_mac_addr ESW3 
Nov 29 15:26:12.469 HYPERVISOR: exec_cmd: vm get_status ESW3 
Nov 29 15:26:12.476 HYPERVISOR: exec_cmd: vm set_idle_pc ESW3 0x614ac27c 
Nov 29 15:26:12.478 HYPERVISOR: exec_cmd: vm set_disk0 ESW3 1 
Nov 29 15:26:12.480 HYPERVISOR: exec_cmd: vm slot_add_binding ESW3 0 16 WIC-2T 
Nov 29 15:26:12.481 HYPERVISOR: exec_cmd: vm get_status ESW3 
Nov 29 15:26:12.482 HYPERVISOR: exec_cmd: vm slot_add_binding ESW3 1 0 NM-16ESW 
Nov 29 15:26:12.483 HYPERVISOR: exec_cmd: vm set_nvram ESW3 256 
Nov 29 15:26:12.484 HYPERVISOR: exec_cmd: vm set_ios ESW3 /media/actionmystique/SAMSUNG5-VMs/Images/GNS3/IOS/c3725-adventerprisek9-mz.124-15.T10.image 
Nov 29 15:26:12.486 HYPERVISOR: exec_cmd: c3725 set_mac_addr ESW3 c203.1bfb.0000 
Nov 29 15:26:12.487 HYPERVISOR: exec_cmd: vm set_config ESW3 configs/ios_base_startup-config.txt 
Nov 29 15:26:12.488 HYPERVISOR: exec_cmd: vm set_config ESW3 configs/ios_base_startup-config.txt configs/ios_base_private-config.txt 
Nov 29 15:26:12.597 HYPERVISOR: exec_cmd: nio create_tap tap-7dee3c6b-ad4f-460a-a707-ce4ebfc0b0bf tap0 
Nov 29 15:26:12.598 HYPERVISOR: exec_cmd: vm slot_add_nio_binding ESW3 1 1 tap-7dee3c6b-ad4f-460a-a707-ce4ebfc0b0bf 
Nov 29 15:26:12.598 HYPERVISOR: exec_cmd: vm get_status ESW3 
Nov 29 15:26:12.787 HYPERVISOR: exec_cmd: nio create_udp udp-a1cbe68d-0d59-4c68-8bbb-b652a0fd9f80 15009 127.0.0.1 15008 
Nov 29 15:26:12.788 HYPERVISOR: exec_cmd: vm slot_add_nio_binding ESW3 1 0 udp-a1cbe68d-0d59-4c68-8bbb-b652a0fd9f80 
Nov 29 15:26:12.788 HYPERVISOR: exec_cmd: vm get_status ESW3 
