Nov 27 15:46:04.125 HYPERVISOR: Release 0.2.17-amd64/Linux (tag 2017072410)
Nov 27 15:46:04.125 HYPERVISOR: Started on IP = 127.0.0.1, TCP port = 39577.
Nov 27 15:46:04.158 HYPERVISOR: exec_cmd: hypervisor version 
Nov 27 15:46:04.159 HYPERVISOR: exec_cmd: hypervisor working_dir /media/actionmystique/SAMSUNG5-VMs/Labs/GNS3/TT 2-linux-/project-files/dynamips 
Nov 27 15:46:04.159 GENERAL: working_dir=/media/actionmystique/SAMSUNG5-VMs/Labs/GNS3/TT 2-linux-/project-files/dynamips
Nov 27 15:46:04.160 HYPERVISOR: exec_cmd: vm create SW3 3 c3725 
Nov 27 15:46:04.160 VM: VM SW3 created.
Nov 27 15:46:04.161 HYPERVISOR: exec_cmd: vm set_con_tcp_port SW3 2003 
Nov 27 15:46:04.161 HYPERVISOR: exec_cmd: c3725 get_mac_addr SW3 
Nov 27 15:46:04.162 HYPERVISOR: exec_cmd: c3725 set_mac_addr SW3 cccc.cccc.cccc 
Nov 27 15:46:04.163 HYPERVISOR: exec_cmd: vm get_status SW3 
Nov 27 15:46:04.164 HYPERVISOR: exec_cmd: vm slot_add_binding SW3 1 0 NM-16ESW 
Nov 27 15:46:04.165 HYPERVISOR: exec_cmd: vm get_status SW3 
Nov 27 15:46:04.166 HYPERVISOR: exec_cmd: vm set_idle_pc SW3 0x614ac2c4 
Nov 27 15:46:04.167 HYPERVISOR: exec_cmd: vm slot_add_binding SW3 0 16 WIC-2T 
Nov 27 15:46:04.168 HYPERVISOR: exec_cmd: vm set_ios SW3 /media/actionmystique/SAMSUNG5-VMs/Images/GNS3/IOS/c3725-adventerprisek9-mz.124-15.T10.image 
Nov 27 15:46:04.169 HYPERVISOR: exec_cmd: vm set_exec_area SW3 16 
Nov 27 15:46:04.170 HYPERVISOR: exec_cmd: vm set_disk0 SW3 1 
Nov 27 15:46:04.171 HYPERVISOR: exec_cmd: vm set_nvram SW3 256 
Nov 27 15:46:04.172 HYPERVISOR: exec_cmd: vm set_config SW3 configs/i3_startup-config.cfg 
Nov 27 15:46:04.173 HYPERVISOR: exec_cmd: vm set_config SW3 configs/i3_startup-config.cfg configs/i3_private-config.cfg 
Nov 27 15:46:04.265 HYPERVISOR: exec_cmd: nio create_null null-2899491e-6f56-4f22-b9f1-4f0ca9c861bb 
Nov 27 15:46:04.266 HYPERVISOR: exec_cmd: vm slot_add_nio_binding SW3 1 0 null-2899491e-6f56-4f22-b9f1-4f0ca9c861bb 
Nov 27 15:46:04.266 HYPERVISOR: exec_cmd: vm get_status SW3 
Nov 27 15:46:04.325 HYPERVISOR: exec_cmd: nio create_udp udp-ab17a3d5-4457-41c0-9e49-520cee63d807 15000 127.0.0.1 15001 
Nov 27 15:46:04.325 HYPERVISOR: exec_cmd: vm slot_add_nio_binding SW3 1 2 udp-ab17a3d5-4457-41c0-9e49-520cee63d807 
Nov 27 15:46:04.326 HYPERVISOR: exec_cmd: vm get_status SW3 
Nov 27 15:46:04.376 HYPERVISOR: exec_cmd: nio create_udp udp-e908d25c-6559-4b8b-a68b-373af8e3e24d 15004 127.0.0.1 15005 
Nov 27 15:46:04.380 HYPERVISOR: exec_cmd: vm slot_add_nio_binding SW3 1 5 udp-e908d25c-6559-4b8b-a68b-373af8e3e24d 
Nov 27 15:46:04.381 HYPERVISOR: exec_cmd: vm get_status SW3 
Nov 27 15:46:04.429 HYPERVISOR: exec_cmd: nio create_udp udp-553635c9-95fa-4316-9b72-5ee41392b5ae 15009 127.0.0.1 15006 
Nov 27 15:46:04.430 HYPERVISOR: exec_cmd: vm slot_add_nio_binding SW3 1 6 udp-553635c9-95fa-4316-9b72-5ee41392b5ae 
Nov 27 15:46:04.431 HYPERVISOR: exec_cmd: vm get_status SW3 
Nov 27 15:46:19.016 HYPERVISOR: exec_cmd: vm get_status SW3 
Nov 27 15:46:19.017 HYPERVISOR: exec_cmd: vm extract_config SW3 
Nov 27 15:46:19.019 HYPERVISOR: exec_cmd: vm delete SW3 
Nov 27 15:46:19.019 VM: VM SW3 destroyed.
Nov 27 15:46:19.020 HYPERVISOR: exec_cmd: hypervisor stop 
Nov 27 15:46:19.171 HYPERVISOR: Stopped.
Nov 27 15:46:19.171 GENERAL: reset done.
