Mar 20 16:56:38.651 HYPERVISOR: Release 0.2.14-amd64/Linux (tag 2014092320)
Mar 20 16:56:38.651 HYPERVISOR: Started on IP = 127.0.0.1, TCP port = 7200.
Mar 20 16:56:38.654 HYPERVISOR: exec_cmd: hypervisor version 
Mar 20 16:56:38.655 HYPERVISOR: exec_cmd: hypervisor uuid 
Mar 20 16:56:38.655 HYPERVISOR: exec_cmd: hypervisor working_dir /home/actionmystique/Google Drive/Missions/Certifications/Cisco/Labs/GNS3/CCNP-SP/SPROUTE/EIGRP/Jean-Christophe/1+/K2 Load Metric Weight with CSR 1000V-linux/K2 Load Metric Weight with CSR 1000V-linux-files/dynamips 
Mar 20 16:56:38.655 GENERAL: working_dir=/home/actionmystique/Google Drive/Missions/Certifications/Cisco/Labs/GNS3/CCNP-SP/SPROUTE/EIGRP/Jean-Christophe/1+/K2 Load Metric Weight with CSR 1000V-linux/K2 Load Metric Weight with CSR 1000V-linux-files/dynamips
Mar 20 16:56:38.655 HYPERVISOR: exec_cmd: vm create SW0_Management 1 c3725 
Mar 20 16:56:38.655 VM: VM SW0_Management created.
Mar 20 16:56:38.655 HYPERVISOR: exec_cmd: vm set_con_tcp_port SW0_Management 2001 
Mar 20 16:56:38.655 HYPERVISOR: exec_cmd: vm set_aux_tcp_port SW0_Management 2501 
Mar 20 16:56:38.655 HYPERVISOR: exec_cmd: c3725 get_mac_addr SW0_Management 
Mar 20 16:56:38.656 HYPERVISOR: exec_cmd: vm set_ram SW0_Management 256 
Mar 20 16:56:38.656 HYPERVISOR: exec_cmd: vm set_ios SW0_Management /media/actionmystique/SAMSUNG-Ext4/Images/GNS3/IOS/c3725-adventerprisek9-mz.124-15.T10.image 
Mar 20 16:56:38.656 HYPERVISOR: exec_cmd: vm set_sparse_mem SW0_Management 1 
Mar 20 16:56:38.656 HYPERVISOR: exec_cmd: vm set_ram_mmap SW0_Management 1 
Mar 20 16:56:38.656 HYPERVISOR: exec_cmd: vm set_con_tcp_port SW0_Management 2101 
Mar 20 16:56:38.657 HYPERVISOR: exec_cmd: c3725 set_mac_addr SW0_Management c201.1238.0000 
Mar 20 16:56:38.657 HYPERVISOR: exec_cmd: vm create Ghost 0 c7200 
Mar 20 16:56:38.657 VM: VM Ghost created.
Mar 20 16:56:38.657 HYPERVISOR: exec_cmd: vm set_ios Ghost /media/actionmystique/SAMSUNG-Ext4/Images/GNS3/IOS/c3725-adventerprisek9-mz.124-15.T10.image 
Mar 20 16:56:38.657 HYPERVISOR: exec_cmd: vm set_ghost_status Ghost 1 
Mar 20 16:56:38.657 HYPERVISOR: exec_cmd: vm set_ghost_file Ghost c3725-adventerprisek9-mz.124-15.T10.image-256.ghost 
Mar 20 16:56:38.657 HYPERVISOR: exec_cmd: vm set_ram Ghost 256 
Mar 20 16:56:38.658 HYPERVISOR: exec_cmd: vm get_status Ghost 
Mar 20 16:56:38.658 HYPERVISOR: exec_cmd: vm start Ghost 
Mar 20 16:56:38.922 HYPERVISOR: exec_cmd: vm get_status Ghost 
Mar 20 16:56:38.922 HYPERVISOR: exec_cmd: vm stop Ghost 
Mar 20 16:56:39.103 VM: VM Ghost shutdown.
Mar 20 16:56:39.104 HYPERVISOR: exec_cmd: vm clean_delete Ghost 
Mar 20 16:56:39.104 VM: VM Ghost destroyed.
Mar 20 16:56:39.105 HYPERVISOR: exec_cmd: vm set_ghost_status SW0_Management 2 
Mar 20 16:56:39.105 HYPERVISOR: exec_cmd: vm set_ghost_file SW0_Management c3725-adventerprisek9-mz.124-15.T10.image-256.ghost 
Mar 20 16:56:39.135 HYPERVISOR: exec_cmd: vm set_config SW0_Management configs/i1_startup-config.cfg 
Mar 20 16:56:39.135 HYPERVISOR: exec_cmd: vm get_status SW0_Management 
Mar 20 16:56:39.136 HYPERVISOR: exec_cmd: vm slot_add_binding SW0_Management 1 0 NM-16ESW 
Mar 20 16:56:39.136 HYPERVISOR: exec_cmd: vm get_status SW0_Management 
Mar 20 16:56:39.136 HYPERVISOR: exec_cmd: vm get_status SW0_Management 
Mar 20 16:56:39.136 HYPERVISOR: exec_cmd: vm set_idle_pc SW0_Management 0x6026b804 
Mar 20 16:56:39.159 HYPERVISOR: exec_cmd: nio create_tap nio_tap0 tap1 
Mar 20 16:56:39.159 HYPERVISOR: exec_cmd: vm slot_add_nio_binding SW0_Management 1 2 nio_tap0 
Mar 20 16:56:39.159 HYPERVISOR: exec_cmd: vm get_status SW0_Management 
Mar 20 16:56:39.161 HYPERVISOR: exec_cmd: nio create_udp_auto nio_udp_auto0 127.0.0.1 10001 20000 
Mar 20 16:56:39.162 HYPERVISOR: exec_cmd: nio create_udp_auto nio_udp_auto1 127.0.0.1 10001 20000 
Mar 20 16:56:39.206 HYPERVISOR: exec_cmd: nio connect_udp_auto nio_udp_auto0 127.0.0.1 40013 
Mar 20 16:56:39.206 HYPERVISOR: exec_cmd: vm slot_add_nio_binding SW0_Management 1 0 nio_udp_auto0 
Mar 20 16:56:39.206 HYPERVISOR: exec_cmd: vm get_status SW0_Management 
Mar 20 16:56:39.212 HYPERVISOR: exec_cmd: nio connect_udp_auto nio_udp_auto1 127.0.0.1 40014 
Mar 20 16:56:39.213 HYPERVISOR: exec_cmd: vm slot_add_nio_binding SW0_Management 1 1 nio_udp_auto1 
Mar 20 16:56:39.213 HYPERVISOR: exec_cmd: vm get_status SW0_Management 
Mar 20 16:58:43.237 HYPERVISOR: exec_cmd: vm extract_config SW0_Management 
Mar 20 16:58:43.241 HYPERVISOR: exec_cmd: hypervisor stop 
