Nov 29 15:34:37.877 HYPERVISOR: Release 0.2.17-amd64/Linux (tag 2017072410)
Nov 29 15:34:37.877 HYPERVISOR: Started on IP = 127.0.0.1, TCP port = 41511.
Nov 29 15:34:37.890 HYPERVISOR: exec_cmd: hypervisor version 
Nov 29 15:34:37.898 HYPERVISOR: exec_cmd: hypervisor working_dir /media/actionmystique/SAMSUNG5-VMs/Labs/GNS3/Leaf & Spine DC-solutions-linux-/project-files/dynamips 
Nov 29 15:34:37.898 GENERAL: working_dir=/media/actionmystique/SAMSUNG5-VMs/Labs/GNS3/Leaf & Spine DC-solutions-linux-/project-files/dynamips
Nov 29 15:34:37.905 HYPERVISOR: exec_cmd: vm create Mgt 1 c3725 
Nov 29 15:34:37.906 VM: VM Mgt created.
Nov 29 15:34:37.906 HYPERVISOR: exec_cmd: vm set_con_tcp_port Mgt 2011 
Nov 29 15:34:37.907 HYPERVISOR: exec_cmd: c3725 get_mac_addr Mgt 
Nov 29 15:34:37.907 HYPERVISOR: exec_cmd: vm set_nvram Mgt 256 
Nov 29 15:34:37.907 HYPERVISOR: exec_cmd: vm slot_add_binding Mgt 0 16 WIC-2T 
Nov 29 15:34:37.908 HYPERVISOR: exec_cmd: c3725 set_mac_addr Mgt c201.1066.0000 
Nov 29 15:34:37.908 HYPERVISOR: exec_cmd: vm set_disk0 Mgt 1 
Nov 29 15:34:37.908 HYPERVISOR: exec_cmd: vm set_ios Mgt /media/actionmystique/SAMSUNG5-VMs/Images/GNS3/IOS/c3725-adventerprisek9-mz.124-15.T10.image 
Nov 29 15:34:37.909 HYPERVISOR: exec_cmd: vm get_status Mgt 
Nov 29 15:34:37.909 HYPERVISOR: exec_cmd: vm set_idle_pc Mgt 0x6026b804 
Nov 29 15:34:37.910 HYPERVISOR: exec_cmd: vm get_status Mgt 
Nov 29 15:34:37.910 HYPERVISOR: exec_cmd: vm slot_add_binding Mgt 1 0 NM-16ESW 
Nov 29 15:34:37.910 HYPERVISOR: exec_cmd: vm set_config Mgt configs/i1_startup-config.cfg 
Nov 29 15:34:37.911 HYPERVISOR: exec_cmd: vm set_config Mgt configs/i1_startup-config.cfg configs/i1_private-config.cfg 
Nov 29 15:34:38.553 HYPERVISOR: exec_cmd: nio create_tap tap-1deadd51-7c82-4100-8567-7ab69147b3c4 tap1 
Nov 29 15:34:38.554 HYPERVISOR: exec_cmd: vm slot_add_nio_binding Mgt 1 0 tap-1deadd51-7c82-4100-8567-7ab69147b3c4 
Nov 29 15:34:38.556 HYPERVISOR: exec_cmd: vm get_status Mgt 
Nov 29 15:34:39.113 HYPERVISOR: exec_cmd: nio create_udp udp-4ba2ccc2-d2a1-4bf6-a715-037a8f3a6865 15041 127.0.0.1 15043 
Nov 29 15:34:39.113 HYPERVISOR: exec_cmd: vm slot_add_nio_binding Mgt 1 5 udp-4ba2ccc2-d2a1-4bf6-a715-037a8f3a6865 
Nov 29 15:34:39.113 HYPERVISOR: exec_cmd: vm get_status Mgt 
Nov 29 15:34:39.132 HYPERVISOR: exec_cmd: nio create_udp udp-55b1f368-1249-4a00-a60f-c3084dbdd332 15044 127.0.0.1 15045 
Nov 29 15:34:39.132 HYPERVISOR: exec_cmd: vm slot_add_nio_binding Mgt 1 6 udp-55b1f368-1249-4a00-a60f-c3084dbdd332 
Nov 29 15:34:39.133 HYPERVISOR: exec_cmd: vm get_status Mgt 
Nov 29 15:34:39.154 HYPERVISOR: exec_cmd: nio create_udp udp-6c6ec1e6-69b3-4f65-9099-8c2df64003aa 15047 127.0.0.1 15046 
Nov 29 15:34:39.155 HYPERVISOR: exec_cmd: vm slot_add_nio_binding Mgt 1 1 udp-6c6ec1e6-69b3-4f65-9099-8c2df64003aa 
Nov 29 15:34:39.155 HYPERVISOR: exec_cmd: vm get_status Mgt 
Nov 29 15:34:39.173 HYPERVISOR: exec_cmd: nio create_udp udp-c751454a-ea51-440e-a7e6-d6acff9d4430 15048 127.0.0.1 15049 
Nov 29 15:34:39.173 HYPERVISOR: exec_cmd: vm slot_add_nio_binding Mgt 1 2 udp-c751454a-ea51-440e-a7e6-d6acff9d4430 
Nov 29 15:34:39.173 HYPERVISOR: exec_cmd: vm get_status Mgt 
Nov 29 15:34:39.196 HYPERVISOR: exec_cmd: nio create_udp udp-01994547-5fbe-47df-80ec-c60b295293cb 15050 127.0.0.1 15052 
Nov 29 15:34:39.197 HYPERVISOR: exec_cmd: vm slot_add_nio_binding Mgt 1 3 udp-01994547-5fbe-47df-80ec-c60b295293cb 
Nov 29 15:34:39.197 HYPERVISOR: exec_cmd: vm get_status Mgt 
Nov 29 15:34:39.212 HYPERVISOR: exec_cmd: nio create_udp udp-f42b5845-4bd4-4b56-bb9c-f9d865aa467f 15051 127.0.0.1 15053 
Nov 29 15:34:39.212 HYPERVISOR: exec_cmd: vm slot_add_nio_binding Mgt 1 4 udp-f42b5845-4bd4-4b56-bb9c-f9d865aa467f 
Nov 29 15:34:39.213 HYPERVISOR: exec_cmd: vm get_status Mgt 
Nov 29 15:34:39.228 HYPERVISOR: exec_cmd: nio create_udp udp-9ac73fcd-8d53-4bc4-b0ab-0644f8bdcedf 15054 127.0.0.1 15055 
Nov 29 15:34:39.228 HYPERVISOR: exec_cmd: vm slot_add_nio_binding Mgt 1 11 udp-9ac73fcd-8d53-4bc4-b0ab-0644f8bdcedf 
Nov 29 15:34:39.229 HYPERVISOR: exec_cmd: vm get_status Mgt 
Nov 29 15:34:39.252 HYPERVISOR: exec_cmd: nio create_udp udp-24237062-abdc-4d33-8e4c-dfed2b3874aa 15057 127.0.0.1 15056 
Nov 29 15:34:39.252 HYPERVISOR: exec_cmd: vm slot_add_nio_binding Mgt 1 12 udp-24237062-abdc-4d33-8e4c-dfed2b3874aa 
Nov 29 15:34:39.252 HYPERVISOR: exec_cmd: vm get_status Mgt 
Nov 29 15:34:51.839 HYPERVISOR: exec_cmd: vm get_status Mgt 
Nov 29 15:34:51.839 HYPERVISOR: exec_cmd: vm extract_config Mgt 
Nov 29 15:34:51.840 HYPERVISOR: exec_cmd: vm delete Mgt 
Nov 29 15:34:51.840 VM: VM Mgt destroyed.
Nov 29 15:34:51.841 HYPERVISOR: exec_cmd: hypervisor stop 
Nov 29 15:34:51.903 HYPERVISOR: Stopped.
Nov 29 15:34:51.904 GENERAL: reset done.
