Dec 04 11:06:58.536 HYPERVISOR: Release 0.2.17-amd64/Linux (tag 2017072410)
Dec 04 11:06:58.536 HYPERVISOR: Started on IP = 127.0.0.1, TCP port = 45011.
Dec 04 11:06:58.560 HYPERVISOR: exec_cmd: hypervisor version 
Dec 04 11:06:58.563 HYPERVISOR: exec_cmd: hypervisor working_dir /media/actionmystique/SAMSUNG5-VMs/Labs/GNS3/git-Public-Labs-Collection/CCNP/TBSHOOT/L3-Technologies/IPv6/Routing-Protocols/OSPFv3/Jean-Christophe_Manciot/1+/TT 1-solutions-linux/project-files/dynamips 
Dec 04 11:06:58.563 GENERAL: working_dir=/media/actionmystique/SAMSUNG5-VMs/Labs/GNS3/git-Public-Labs-Collection/CCNP/TBSHOOT/L3-Technologies/IPv6/Routing-Protocols/OSPFv3/Jean-Christophe_Manciot/1+/TT 1-solutions-linux/project-files/dynamips
Dec 04 11:06:58.564 HYPERVISOR: exec_cmd: vm create ESW3 3 c3725 
Dec 04 11:06:58.564 VM: VM ESW3 created.
Dec 04 11:06:58.565 HYPERVISOR: exec_cmd: vm set_con_tcp_port ESW3 2006 
Dec 04 11:06:58.566 HYPERVISOR: exec_cmd: c3725 get_mac_addr ESW3 
Dec 04 11:06:58.566 HYPERVISOR: exec_cmd: vm set_nvram ESW3 256 
Dec 04 11:06:58.567 HYPERVISOR: exec_cmd: vm set_ios ESW3 /media/actionmystique/SAMSUNG5-VMs/Images/GNS3/IOS/c3725-adventerprisek9-mz.124-15.T10.image 
Dec 04 11:06:58.568 HYPERVISOR: exec_cmd: c3725 set_mac_addr ESW3 c203.1bfb.0000 
Dec 04 11:06:58.568 HYPERVISOR: exec_cmd: vm get_status ESW3 
Dec 04 11:06:58.569 HYPERVISOR: exec_cmd: vm slot_add_binding ESW3 1 0 NM-16ESW 
Dec 04 11:06:58.569 HYPERVISOR: exec_cmd: vm get_status ESW3 
Dec 04 11:06:58.570 HYPERVISOR: exec_cmd: vm set_idle_pc ESW3 0x6026b804 
Dec 04 11:06:58.570 HYPERVISOR: exec_cmd: vm set_disk0 ESW3 1 
Dec 04 11:06:58.571 HYPERVISOR: exec_cmd: vm slot_add_binding ESW3 0 16 WIC-2T 
Dec 04 11:06:58.573 HYPERVISOR: exec_cmd: vm set_config ESW3 configs/ios_base_startup-config.txt 
Dec 04 11:06:58.576 HYPERVISOR: exec_cmd: vm set_config ESW3 configs/ios_base_startup-config.txt configs/ios_base_private-config.txt 
Dec 04 11:06:58.827 HYPERVISOR: exec_cmd: nio create_udp udp-444d8aad-e498-4643-9948-74ae43f562b5 15005 127.0.0.1 15006 
Dec 04 11:06:58.828 HYPERVISOR: exec_cmd: vm slot_add_nio_binding ESW3 1 0 udp-444d8aad-e498-4643-9948-74ae43f562b5 
Dec 04 11:06:58.829 HYPERVISOR: exec_cmd: vm get_status ESW3 
Dec 04 11:07:00.400 HYPERVISOR: exec_cmd: nio create_tap tap-c4b809a8-9338-4fa3-bd89-f097046fec90 tap0 
Dec 04 11:07:00.401 HYPERVISOR: exec_cmd: vm slot_add_nio_binding ESW3 1 1 tap-c4b809a8-9338-4fa3-bd89-f097046fec90 
Dec 04 11:07:00.402 HYPERVISOR: exec_cmd: vm get_status ESW3 
