Nov 26 20:53:21.434 HYPERVISOR: Release 0.2.17-amd64/Linux (tag 2017072410)
Nov 26 20:53:21.435 HYPERVISOR: Started on IP = 127.0.0.1, TCP port = 46405.
Nov 26 20:53:21.478 HYPERVISOR: exec_cmd: hypervisor version 
Nov 26 20:53:21.486 HYPERVISOR: exec_cmd: hypervisor working_dir /media/actionmystique/SAMSUNG5-VMs/Labs/GNS3/VPN Tunnels/project-files/dynamips 
Nov 26 20:53:21.486 GENERAL: working_dir=/media/actionmystique/SAMSUNG5-VMs/Labs/GNS3/VPN Tunnels/project-files/dynamips
Nov 26 20:53:21.496 HYPERVISOR: exec_cmd: vm create I3 14 c7200 
Nov 26 20:53:21.496 VM: VM I3 created.
Nov 26 20:53:21.500 HYPERVISOR: exec_cmd: vm set_con_tcp_port I3 2015 
Nov 26 20:53:21.503 HYPERVISOR: exec_cmd: vm set_aux_tcp_port I3 2115 
Nov 26 20:53:21.505 HYPERVISOR: exec_cmd: c7200 get_mac_addr I3 
Nov 26 20:53:21.506 HYPERVISOR: exec_cmd: vm get_status I3 
Nov 26 20:53:21.507 HYPERVISOR: exec_cmd: vm slot_add_binding I3 0 0 C7200-IO-FE 
Nov 26 20:53:21.509 HYPERVISOR: exec_cmd: vm get_status I3 
Nov 26 20:53:21.515 HYPERVISOR: exec_cmd: vm slot_remove_binding I3 0 0 
Nov 26 20:53:21.529 HYPERVISOR: exec_cmd: vm get_status I3 
Nov 26 20:53:21.531 HYPERVISOR: exec_cmd: vm slot_add_binding I3 0 0 C7200-IO-GE-E 
Nov 26 20:53:21.538 HYPERVISOR: exec_cmd: vm set_ram I3 512 
Nov 26 20:53:21.539 HYPERVISOR: exec_cmd: vm get_status I3 
Nov 26 20:53:21.541 HYPERVISOR: exec_cmd: vm set_idle_pc I3 0x60188e14 
Nov 26 20:53:21.543 HYPERVISOR: exec_cmd: vm get_status I3 
Nov 26 20:53:21.545 HYPERVISOR: exec_cmd: vm slot_add_binding I3 1 0 PA-8T 
Nov 26 20:53:21.547 HYPERVISOR: exec_cmd: vm set_ios I3 /media/actionmystique/SAMSUNG5-VMs/Images/GNS3/IOS/c7200-adventerprisek9-mz.152-4.M2.image 
Nov 26 20:53:21.549 HYPERVISOR: exec_cmd: vm set_config I3 configs/i14_startup-config.cfg 
Nov 26 20:53:22.960 HYPERVISOR: exec_cmd: nio create_udp udp-98f62ad7-4060-4a64-b03e-7cee07ab0778 15040 127.0.0.1 15037 
Nov 26 20:53:22.961 HYPERVISOR: exec_cmd: vm slot_add_nio_binding I3 1 0 udp-98f62ad7-4060-4a64-b03e-7cee07ab0778 
Nov 26 20:53:22.961 HYPERVISOR: exec_cmd: vm get_status I3 
Nov 26 20:53:22.984 HYPERVISOR: exec_cmd: nio create_udp udp-53bee8b8-e90d-4524-b272-11df40ea25cc 15041 127.0.0.1 15039 
Nov 26 20:53:22.985 HYPERVISOR: exec_cmd: vm slot_add_nio_binding I3 1 3 udp-53bee8b8-e90d-4524-b272-11df40ea25cc 
Nov 26 20:53:22.985 HYPERVISOR: exec_cmd: vm get_status I3 
Nov 26 20:53:23.005 HYPERVISOR: exec_cmd: nio create_udp udp-15ebbb21-5473-4fcf-8722-01e11c05bcf7 15042 127.0.0.1 15043 
Nov 26 20:53:23.008 HYPERVISOR: exec_cmd: vm slot_add_nio_binding I3 1 2 udp-15ebbb21-5473-4fcf-8722-01e11c05bcf7 
Nov 26 20:53:23.009 HYPERVISOR: exec_cmd: vm get_status I3 
Nov 26 20:53:23.061 HYPERVISOR: exec_cmd: nio create_udp udp-ef142a44-2bc5-471c-be1f-f6550a43e794 15047 127.0.0.1 15050 
Nov 26 20:53:23.064 HYPERVISOR: exec_cmd: vm slot_add_nio_binding I3 0 0 udp-ef142a44-2bc5-471c-be1f-f6550a43e794 
Nov 26 20:53:23.064 HYPERVISOR: exec_cmd: vm get_status I3 
Nov 26 20:53:23.075 HYPERVISOR: exec_cmd: nio create_udp udp-4c4bf7c9-f22a-432b-9c28-8ab159854eb8 15049 127.0.0.1 15051 
Nov 26 20:53:23.076 HYPERVISOR: exec_cmd: vm slot_add_nio_binding I3 1 1 udp-4c4bf7c9-f22a-432b-9c28-8ab159854eb8 
Nov 26 20:53:23.076 HYPERVISOR: exec_cmd: vm get_status I3 
Nov 26 20:53:27.560 HYPERVISOR: exec_cmd: vm extract_config I3 
Nov 26 20:54:29.869 HYPERVISOR: exec_cmd: vm get_status I3 
Nov 26 20:54:29.876 HYPERVISOR: exec_cmd: vm extract_config I3 
Nov 26 20:54:29.881 HYPERVISOR: exec_cmd: vm delete I3 
Nov 26 20:54:29.881 VM: VM I3 destroyed.
Nov 26 20:54:29.887 HYPERVISOR: exec_cmd: hypervisor stop 
Nov 26 20:54:30.027 HYPERVISOR: Stopped.
Nov 26 20:54:30.027 GENERAL: reset done.
