Nov 26 20:53:21.476 HYPERVISOR: Release 0.2.17-amd64/Linux (tag 2017072410)
Nov 26 20:53:21.476 HYPERVISOR: Started on IP = 127.0.0.1, TCP port = 38763.
Nov 26 20:53:21.507 HYPERVISOR: exec_cmd: hypervisor version 
Nov 26 20:53:21.508 HYPERVISOR: exec_cmd: hypervisor working_dir /media/actionmystique/SAMSUNG5-VMs/Labs/GNS3/VPN Tunnels/project-files/dynamips 
Nov 26 20:53:21.508 GENERAL: working_dir=/media/actionmystique/SAMSUNG5-VMs/Labs/GNS3/VPN Tunnels/project-files/dynamips
Nov 26 20:53:21.514 HYPERVISOR: exec_cmd: vm create I4 16 c7200 
Nov 26 20:53:21.514 VM: VM I4 created.
Nov 26 20:53:21.527 HYPERVISOR: exec_cmd: vm set_con_tcp_port I4 2017 
Nov 26 20:53:21.530 HYPERVISOR: exec_cmd: vm set_aux_tcp_port I4 2117 
Nov 26 20:53:21.537 HYPERVISOR: exec_cmd: c7200 get_mac_addr I4 
Nov 26 20:53:21.539 HYPERVISOR: exec_cmd: vm get_status I4 
Nov 26 20:53:21.540 HYPERVISOR: exec_cmd: vm slot_add_binding I4 0 0 C7200-IO-FE 
Nov 26 20:53:21.542 HYPERVISOR: exec_cmd: vm get_status I4 
Nov 26 20:53:21.544 HYPERVISOR: exec_cmd: vm slot_remove_binding I4 0 0 
Nov 26 20:53:21.546 HYPERVISOR: exec_cmd: vm get_status I4 
Nov 26 20:53:21.547 HYPERVISOR: exec_cmd: vm slot_add_binding I4 0 0 C7200-IO-GE-E 
Nov 26 20:53:21.549 HYPERVISOR: exec_cmd: vm set_ram I4 512 
Nov 26 20:53:21.555 HYPERVISOR: exec_cmd: vm get_status I4 
Nov 26 20:53:21.566 HYPERVISOR: exec_cmd: vm set_idle_pc I4 0x60188e14 
Nov 26 20:53:21.569 HYPERVISOR: exec_cmd: vm get_status I4 
Nov 26 20:53:21.571 HYPERVISOR: exec_cmd: vm slot_add_binding I4 1 0 PA-8T 
Nov 26 20:53:21.577 HYPERVISOR: exec_cmd: vm set_ios I4 /media/actionmystique/SAMSUNG5-VMs/Images/GNS3/IOS/c7200-adventerprisek9-mz.152-4.M2.image 
Nov 26 20:53:21.589 HYPERVISOR: exec_cmd: vm set_config I4 configs/i16_startup-config.cfg 
Nov 26 20:53:23.093 HYPERVISOR: exec_cmd: nio create_udp udp-a3ac0aa1-5469-4dc4-92b0-2fbdfc17c1a9 15051 127.0.0.1 15049 
Nov 26 20:53:23.094 HYPERVISOR: exec_cmd: vm slot_add_nio_binding I4 1 0 udp-a3ac0aa1-5469-4dc4-92b0-2fbdfc17c1a9 
Nov 26 20:53:23.094 HYPERVISOR: exec_cmd: vm get_status I4 
Nov 26 20:53:23.100 HYPERVISOR: exec_cmd: nio create_udp udp-0c493548-92ef-48cf-9987-d83d52eb1744 15053 127.0.0.1 15052 
Nov 26 20:53:23.101 HYPERVISOR: exec_cmd: vm slot_add_nio_binding I4 1 1 udp-0c493548-92ef-48cf-9987-d83d52eb1744 
Nov 26 20:53:23.103 HYPERVISOR: exec_cmd: vm get_status I4 
Nov 26 20:53:23.329 HYPERVISOR: exec_cmd: nio create_udp udp-3d199cad-1675-40f5-abbc-a69c2ed8e351 15072 127.0.0.1 15073 
Nov 26 20:53:23.329 HYPERVISOR: exec_cmd: vm slot_add_nio_binding I4 1 2 udp-3d199cad-1675-40f5-abbc-a69c2ed8e351 
Nov 26 20:53:23.330 HYPERVISOR: exec_cmd: vm get_status I4 
Nov 26 20:53:27.559 HYPERVISOR: exec_cmd: vm extract_config I4 
Nov 26 20:54:29.868 HYPERVISOR: exec_cmd: vm get_status I4 
Nov 26 20:54:29.875 HYPERVISOR: exec_cmd: vm extract_config I4 
Nov 26 20:54:29.881 HYPERVISOR: exec_cmd: vm delete I4 
Nov 26 20:54:29.881 VM: VM I4 destroyed.
Nov 26 20:54:29.886 HYPERVISOR: exec_cmd: hypervisor stop 
Nov 26 20:54:30.072 HYPERVISOR: Stopped.
Nov 26 20:54:30.072 GENERAL: reset done.
