Nov 26 20:53:21.496 HYPERVISOR: Release 0.2.17-amd64/Linux (tag 2017072410)
Nov 26 20:53:21.496 HYPERVISOR: Started on IP = 127.0.0.1, TCP port = 35155.
Nov 26 20:53:21.540 HYPERVISOR: exec_cmd: hypervisor version 
Nov 26 20:53:21.542 HYPERVISOR: exec_cmd: hypervisor working_dir /media/actionmystique/SAMSUNG5-VMs/Labs/GNS3/VPN Tunnels/project-files/dynamips 
Nov 26 20:53:21.542 GENERAL: working_dir=/media/actionmystique/SAMSUNG5-VMs/Labs/GNS3/VPN Tunnels/project-files/dynamips
Nov 26 20:53:21.544 HYPERVISOR: exec_cmd: vm create R14 17 c7200 
Nov 26 20:53:21.544 VM: VM R14 created.
Nov 26 20:53:21.546 HYPERVISOR: exec_cmd: vm set_con_tcp_port R14 2019 
Nov 26 20:53:21.547 HYPERVISOR: exec_cmd: vm set_aux_tcp_port R14 2119 
Nov 26 20:53:21.549 HYPERVISOR: exec_cmd: c7200 get_mac_addr R14 
Nov 26 20:53:21.555 HYPERVISOR: exec_cmd: vm get_status R14 
Nov 26 20:53:21.565 HYPERVISOR: exec_cmd: vm slot_add_binding R14 0 0 C7200-IO-FE 
Nov 26 20:53:21.569 HYPERVISOR: exec_cmd: vm get_status R14 
Nov 26 20:53:21.571 HYPERVISOR: exec_cmd: vm slot_remove_binding R14 0 0 
Nov 26 20:53:21.577 HYPERVISOR: exec_cmd: vm get_status R14 
Nov 26 20:53:21.588 HYPERVISOR: exec_cmd: vm slot_add_binding R14 0 0 C7200-IO-GE-E 
Nov 26 20:53:21.591 HYPERVISOR: exec_cmd: vm get_status R14 
Nov 26 20:53:21.597 HYPERVISOR: exec_cmd: vm slot_add_binding R14 2 0 PA-2FE-TX 
Nov 26 20:53:21.610 HYPERVISOR: exec_cmd: vm set_ram R14 512 
Nov 26 20:53:21.612 HYPERVISOR: exec_cmd: vm get_status R14 
Nov 26 20:53:21.613 HYPERVISOR: exec_cmd: vm set_idle_pc R14 0x60188e14 
Nov 26 20:53:21.616 HYPERVISOR: exec_cmd: vm get_status R14 
Nov 26 20:53:21.617 HYPERVISOR: exec_cmd: vm slot_add_binding R14 1 0 PA-2FE-TX 
Nov 26 20:53:21.619 HYPERVISOR: exec_cmd: vm set_ios R14 /media/actionmystique/SAMSUNG5-VMs/Images/GNS3/IOS/c7200-adventerprisek9-mz.152-4.M2.image 
Nov 26 20:53:21.620 HYPERVISOR: exec_cmd: vm set_config R14 configs/i17_startup-config.cfg 
Nov 26 20:53:23.130 HYPERVISOR: exec_cmd: nio create_udp udp-5baf61c6-bf6d-42c8-b2ce-461cd68f9013 15054 127.0.0.1 15055 
Nov 26 20:53:23.130 HYPERVISOR: exec_cmd: vm slot_add_nio_binding R14 0 0 udp-5baf61c6-bf6d-42c8-b2ce-461cd68f9013 
Nov 26 20:53:23.131 HYPERVISOR: exec_cmd: vm get_status R14 
Nov 26 20:53:23.145 HYPERVISOR: exec_cmd: nio create_udp udp-06aa2c3f-a1bc-4dec-b7ba-90fa4e82ffcb 15056 127.0.0.1 15058 
Nov 26 20:53:23.145 HYPERVISOR: exec_cmd: vm slot_add_nio_binding R14 1 0 udp-06aa2c3f-a1bc-4dec-b7ba-90fa4e82ffcb 
Nov 26 20:53:23.145 HYPERVISOR: exec_cmd: vm get_status R14 
Nov 26 20:53:23.168 HYPERVISOR: exec_cmd: nio create_udp udp-6de1df45-f998-4163-b3ec-5c736758868e 15057 127.0.0.1 15060 
Nov 26 20:53:23.169 HYPERVISOR: exec_cmd: vm slot_add_nio_binding R14 1 1 udp-6de1df45-f998-4163-b3ec-5c736758868e 
Nov 26 20:53:23.169 HYPERVISOR: exec_cmd: vm get_status R14 
Nov 26 20:53:23.184 HYPERVISOR: exec_cmd: nio create_udp udp-055c0150-f625-403c-a5d9-86274c7adc19 15059 127.0.0.1 15061 
Nov 26 20:53:23.185 HYPERVISOR: exec_cmd: vm slot_add_nio_binding R14 2 0 udp-055c0150-f625-403c-a5d9-86274c7adc19 
Nov 26 20:53:23.185 HYPERVISOR: exec_cmd: vm get_status R14 
Nov 26 20:53:27.560 HYPERVISOR: exec_cmd: vm extract_config R14 
Nov 26 20:54:29.868 HYPERVISOR: exec_cmd: vm get_status R14 
Nov 26 20:54:29.875 HYPERVISOR: exec_cmd: vm extract_config R14 
Nov 26 20:54:29.880 HYPERVISOR: exec_cmd: vm delete R14 
Nov 26 20:54:29.880 VM: VM R14 destroyed.
Nov 26 20:54:29.886 HYPERVISOR: exec_cmd: hypervisor stop 
Nov 26 20:54:30.098 HYPERVISOR: Stopped.
Nov 26 20:54:30.098 GENERAL: reset done.
