Nov 26 20:53:21.167 HYPERVISOR: Release 0.2.17-amd64/Linux (tag 2017072410)
Nov 26 20:53:21.167 HYPERVISOR: Started on IP = 127.0.0.1, TCP port = 51949.
Nov 26 20:53:21.190 HYPERVISOR: exec_cmd: hypervisor version 
Nov 26 20:53:21.191 HYPERVISOR: exec_cmd: hypervisor working_dir /media/actionmystique/SAMSUNG5-VMs/Labs/GNS3/VPN Tunnels/project-files/dynamips 
Nov 26 20:53:21.191 GENERAL: working_dir=/media/actionmystique/SAMSUNG5-VMs/Labs/GNS3/VPN Tunnels/project-files/dynamips
Nov 26 20:53:21.192 HYPERVISOR: exec_cmd: vm create WAN1 3 c7200 
Nov 26 20:53:21.192 VM: VM WAN1 created.
Nov 26 20:53:21.192 HYPERVISOR: exec_cmd: vm set_con_tcp_port WAN1 2001 
Nov 26 20:53:21.193 HYPERVISOR: exec_cmd: vm set_aux_tcp_port WAN1 2100 
Nov 26 20:53:21.194 HYPERVISOR: exec_cmd: c7200 get_mac_addr WAN1 
Nov 26 20:53:21.195 HYPERVISOR: exec_cmd: vm get_status WAN1 
Nov 26 20:53:21.196 HYPERVISOR: exec_cmd: vm slot_add_binding WAN1 0 0 C7200-IO-FE 
Nov 26 20:53:21.197 HYPERVISOR: exec_cmd: vm get_status WAN1 
Nov 26 20:53:21.198 HYPERVISOR: exec_cmd: vm slot_remove_binding WAN1 0 0 
Nov 26 20:53:21.199 HYPERVISOR: exec_cmd: vm get_status WAN1 
Nov 26 20:53:21.199 HYPERVISOR: exec_cmd: vm slot_add_binding WAN1 0 0 C7200-IO-GE-E 
Nov 26 20:53:21.200 HYPERVISOR: exec_cmd: vm get_status WAN1 
Nov 26 20:53:21.202 HYPERVISOR: exec_cmd: vm slot_add_binding WAN1 2 0 PA-2FE-TX 
Nov 26 20:53:21.204 HYPERVISOR: exec_cmd: vm set_ram WAN1 512 
Nov 26 20:53:21.206 HYPERVISOR: exec_cmd: vm get_status WAN1 
Nov 26 20:53:21.207 HYPERVISOR: exec_cmd: vm set_idle_pc WAN1 0x60188e14 
Nov 26 20:53:21.209 HYPERVISOR: exec_cmd: vm get_status WAN1 
Nov 26 20:53:21.210 HYPERVISOR: exec_cmd: vm slot_add_binding WAN1 1 0 PA-8T 
Nov 26 20:53:21.212 HYPERVISOR: exec_cmd: vm set_con_tcp_port WAN1 2001 
Nov 26 20:53:21.213 HYPERVISOR: exec_cmd: vm set_ios WAN1 /media/actionmystique/SAMSUNG5-VMs/Images/GNS3/IOS/c7200-adventerprisek9-mz.152-4.M2.image 
Nov 26 20:53:21.218 HYPERVISOR: exec_cmd: vm set_config WAN1 configs/i3_startup-config.cfg 
Nov 26 20:53:22.441 HYPERVISOR: exec_cmd: nio create_udp udp-5d638e17-3563-494b-9ba1-cd3f44b95740 15002 127.0.0.1 15000 
Nov 26 20:53:22.444 HYPERVISOR: exec_cmd: vm slot_add_nio_binding WAN1 2 0 udp-5d638e17-3563-494b-9ba1-cd3f44b95740 
Nov 26 20:53:22.445 HYPERVISOR: exec_cmd: vm get_status WAN1 
Nov 26 20:53:22.551 HYPERVISOR: exec_cmd: nio create_udp udp-e55f11b0-92a4-43fd-975f-250baebe3e87 15005 127.0.0.1 15001 
Nov 26 20:53:22.556 HYPERVISOR: exec_cmd: vm slot_add_nio_binding WAN1 1 0 udp-e55f11b0-92a4-43fd-975f-250baebe3e87 
Nov 26 20:53:22.561 HYPERVISOR: exec_cmd: vm get_status WAN1 
Nov 26 20:53:22.677 HYPERVISOR: exec_cmd: nio create_udp udp-6a0522c8-9404-4b23-8b20-f3b40dc7b5f7 15016 127.0.0.1 15018 
Nov 26 20:53:22.677 HYPERVISOR: exec_cmd: vm slot_add_nio_binding WAN1 0 0 udp-6a0522c8-9404-4b23-8b20-f3b40dc7b5f7 
Nov 26 20:53:22.678 HYPERVISOR: exec_cmd: vm get_status WAN1 
Nov 26 20:53:23.192 HYPERVISOR: exec_cmd: nio create_udp udp-66b8c063-86df-4b2d-b730-cc87fcec19dc 15061 127.0.0.1 15059 
Nov 26 20:53:23.192 HYPERVISOR: exec_cmd: vm slot_add_nio_binding WAN1 2 1 udp-66b8c063-86df-4b2d-b730-cc87fcec19dc 
Nov 26 20:53:23.193 HYPERVISOR: exec_cmd: vm get_status WAN1 
Nov 26 20:53:27.558 HYPERVISOR: exec_cmd: vm extract_config WAN1 
Nov 26 20:54:29.867 HYPERVISOR: exec_cmd: vm get_status WAN1 
Nov 26 20:54:29.874 HYPERVISOR: exec_cmd: vm extract_config WAN1 
Nov 26 20:54:29.880 HYPERVISOR: exec_cmd: vm delete WAN1 
Nov 26 20:54:29.880 VM: VM WAN1 destroyed.
Nov 26 20:54:29.885 HYPERVISOR: exec_cmd: hypervisor stop 
Nov 26 20:54:30.253 HYPERVISOR: Stopped.
Nov 26 20:54:30.253 GENERAL: reset done.
