Nov 28 08:38:43.429 HYPERVISOR: Release 0.2.17-amd64/Linux (tag 2017072410)
Nov 28 08:38:43.429 HYPERVISOR: Started on IP = 127.0.0.1, TCP port = 38249.
Nov 28 08:38:43.453 HYPERVISOR: exec_cmd: hypervisor version 
Nov 28 08:38:43.460 HYPERVISOR: exec_cmd: hypervisor working_dir /media/actionmystique/SAMSUNG5-VMs/Labs/GNS3/git-Public-Labs-Collection/CCNP/TBSHOOT/L3-Technologies/IPv4/Routing-Protocols/OSPFv2/Jean-Christophe_Manciot/1+/TT 1-linux/project-files/dynamips 
Nov 28 08:38:43.460 GENERAL: working_dir=/media/actionmystique/SAMSUNG5-VMs/Labs/GNS3/git-Public-Labs-Collection/CCNP/TBSHOOT/L3-Technologies/IPv4/Routing-Protocols/OSPFv2/Jean-Christophe_Manciot/1+/TT 1-linux/project-files/dynamips
Nov 28 08:38:43.462 HYPERVISOR: exec_cmd: vm create ESW3 3 c3725 
Nov 28 08:38:43.462 VM: VM ESW3 created.
Nov 28 08:38:43.463 HYPERVISOR: exec_cmd: vm set_con_tcp_port ESW3 2006 
Nov 28 08:38:43.463 HYPERVISOR: exec_cmd: c3725 get_mac_addr ESW3 
Nov 28 08:38:43.464 HYPERVISOR: exec_cmd: vm set_disk0 ESW3 1 
Nov 28 08:38:43.465 HYPERVISOR: exec_cmd: vm get_status ESW3 
Nov 28 08:38:43.466 HYPERVISOR: exec_cmd: vm slot_add_binding ESW3 1 0 NM-16ESW 
Nov 28 08:38:43.467 HYPERVISOR: exec_cmd: vm set_ios ESW3 /media/actionmystique/SAMSUNG5-VMs/Images/GNS3/IOS/c3725-adventerprisek9-mz.124-15.T10.image 
Nov 28 08:38:43.467 HYPERVISOR: exec_cmd: c3725 set_mac_addr ESW3 c203.1bfb.0000 
Nov 28 08:38:43.468 HYPERVISOR: exec_cmd: vm slot_add_binding ESW3 0 16 WIC-2T 
Nov 28 08:38:43.469 HYPERVISOR: exec_cmd: vm get_status ESW3 
Nov 28 08:38:43.469 HYPERVISOR: exec_cmd: vm set_idle_pc ESW3 0x614ac27c 
Nov 28 08:38:43.470 HYPERVISOR: exec_cmd: vm set_nvram ESW3 256 
Nov 28 08:38:43.471 HYPERVISOR: exec_cmd: vm set_config ESW3 configs/ios_base_startup-config.txt 
Nov 28 08:38:43.472 HYPERVISOR: exec_cmd: vm set_config ESW3 configs/ios_base_startup-config.txt configs/ios_base_private-config.txt 
Nov 28 08:38:43.693 HYPERVISOR: exec_cmd: nio create_udp udp-ca33a793-6e95-495f-84f3-eaa2538f38a2 15013 127.0.0.1 15012 
Nov 28 08:38:43.699 HYPERVISOR: exec_cmd: vm slot_add_nio_binding ESW3 1 0 udp-ca33a793-6e95-495f-84f3-eaa2538f38a2 
Nov 28 08:38:43.699 HYPERVISOR: exec_cmd: vm get_status ESW3 
Nov 28 08:38:50.516 HYPERVISOR: exec_cmd: nio create_tap tap-37a6d6f0-2fe4-4ba3-9f59-17956bf8f748 tap0 
Nov 28 08:38:50.516 HYPERVISOR: exec_cmd: vm slot_add_nio_binding ESW3 1 1 tap-37a6d6f0-2fe4-4ba3-9f59-17956bf8f748 
Nov 28 08:38:50.517 HYPERVISOR: exec_cmd: vm get_status ESW3 
