Nov 28 08:39:34.800 HYPERVISOR: Release 0.2.17-amd64/Linux (tag 2017072410)
Nov 28 08:39:34.800 HYPERVISOR: Started on IP = 127.0.0.1, TCP port = 50517.
Nov 28 08:39:34.816 HYPERVISOR: exec_cmd: hypervisor version 
Nov 28 08:39:34.816 HYPERVISOR: exec_cmd: hypervisor working_dir /media/actionmystique/SAMSUNG5-VMs/Labs/GNS3/TT 1-linux-/project-files/dynamips 
Nov 28 08:39:34.816 GENERAL: working_dir=/media/actionmystique/SAMSUNG5-VMs/Labs/GNS3/TT 1-linux-/project-files/dynamips
Nov 28 08:39:34.816 HYPERVISOR: exec_cmd: vm create ESW4 4 c3725 
Nov 28 08:39:34.816 VM: VM ESW4 created.
Nov 28 08:39:34.817 HYPERVISOR: exec_cmd: vm set_con_tcp_port ESW4 2009 
Nov 28 08:39:34.817 HYPERVISOR: exec_cmd: c3725 get_mac_addr ESW4 
Nov 28 08:39:34.817 HYPERVISOR: exec_cmd: vm set_disk0 ESW4 1 
Nov 28 08:39:34.818 HYPERVISOR: exec_cmd: vm get_status ESW4 
Nov 28 08:39:34.818 HYPERVISOR: exec_cmd: vm slot_add_binding ESW4 1 0 NM-16ESW 
Nov 28 08:39:34.819 HYPERVISOR: exec_cmd: vm set_ios ESW4 /media/actionmystique/SAMSUNG5-VMs/Images/GNS3/IOS/c3725-adventerprisek9-mz.124-15.T10.image 
Nov 28 08:39:34.820 HYPERVISOR: exec_cmd: c3725 set_mac_addr ESW4 c204.11f4.0000 
Nov 28 08:39:34.821 HYPERVISOR: exec_cmd: vm slot_add_binding ESW4 0 16 WIC-2T 
Nov 28 08:39:34.821 HYPERVISOR: exec_cmd: vm get_status ESW4 
Nov 28 08:39:34.821 HYPERVISOR: exec_cmd: vm set_idle_pc ESW4 0x614ac27c 
Nov 28 08:39:34.822 HYPERVISOR: exec_cmd: vm set_nvram ESW4 256 
Nov 28 08:39:34.822 HYPERVISOR: exec_cmd: vm set_config ESW4 configs/ios_base_startup-config.txt 
Nov 28 08:39:34.823 HYPERVISOR: exec_cmd: vm set_config ESW4 configs/ios_base_startup-config.txt configs/ios_base_private-config.txt 
Nov 28 08:39:35.164 HYPERVISOR: exec_cmd: nio create_udp udp-813e6a1c-12bc-439e-a8c8-224712889cef 15015 127.0.0.1 15014 
Nov 28 08:39:35.164 HYPERVISOR: exec_cmd: vm slot_add_nio_binding ESW4 1 0 udp-813e6a1c-12bc-439e-a8c8-224712889cef 
Nov 28 08:39:35.164 HYPERVISOR: exec_cmd: vm get_status ESW4 
Nov 28 08:39:35.179 HYPERVISOR: exec_cmd: nio create_udp udp-ebb2cf21-a96e-4df0-9223-f534158e21b3 15017 127.0.0.1 15016 
Nov 28 08:39:35.180 HYPERVISOR: exec_cmd: vm slot_add_nio_binding ESW4 1 1 udp-ebb2cf21-a96e-4df0-9223-f534158e21b3 
Nov 28 08:39:35.180 HYPERVISOR: exec_cmd: vm get_status ESW4 
Nov 28 08:39:49.726 HYPERVISOR: exec_cmd: vm get_status ESW4 
Nov 28 08:39:49.727 HYPERVISOR: exec_cmd: vm extract_config ESW4 
Nov 28 08:39:49.729 HYPERVISOR: exec_cmd: vm delete ESW4 
Nov 28 08:39:49.729 VM: VM ESW4 destroyed.
Nov 28 08:39:49.730 HYPERVISOR: exec_cmd: hypervisor stop 
Nov 28 08:39:49.832 HYPERVISOR: Stopped.
Nov 28 08:39:49.832 GENERAL: reset done.
