autostart = False
version = 0.8.7
[127.0.0.1:7200]
    workingdir = working
    udp = 10001
    [[3725]]
        image = c3725-adventerprisek9-mz.124-15.T10.image
        ram = 256
        idlepc = 0x6026b804
        sparsemem = True
    [[ROUTER SW1_Management]]
        model = 3725
        console = 2001
        aux = 2102
        cnfg = configs/SW1_Management.cfg
        slot1 = NM-16ESW
        f1/0 = CSR_1000V_3.12_2 e3
        f1/1 = nio_tap:tap0
        f1/2 = CSR_1000V_3.11_2 e3
        symbol = EtherSwitch router
        x = 284.5
        y = -114.5
        z = 1.0
        hx = -50.609375
        hy = -26.0
    [[ROUTER SW0_Management]]
        model = 3725
        console = 2101
        aux = 2501
        cnfg = configs/SW0_Management.cfg
        slot1 = NM-16ESW
        f1/0 = CSR_1000V_3.11_1 e3
        f1/1 = CSR_1000V_3.12_1 e3
        f1/2 = nio_tap:tap1
        symbol = EtherSwitch router
        x = -581.5
        y = -111.5
        z = 1.0
[vbox 127.0.0.1:11525]
    workingdir = /tmp
    udp = 20900
    [[VBoxDevice]]
        image = CSR 1000V 3.12 1
        nics = 4
        first_nic_managed = False
        console_support = True
    [[VBOX CSR_1000V_3.11_1]]
        image = CSR 1000V 3.11 1
        e0 = CSR_1000V_3.11_2 e0
        e1 = CSR_1000V_3.12_1 e1
        e2 = CSR_1000V_3.12_2 e2
        e3 = SW0_Management f1/0
        symbol = gateway
        x = -321.5
        y = -200.5
        z = 1.0
    [[VBOX CSR_1000V_3.11_2]]
        image = CSR 1000V 3.11 2
        e0 = CSR_1000V_3.11_1 e0
        e1 = CSR_1000V_3.12_2 e1
        e2 = CSR_1000V_3.12_1 e2
        e3 = SW1_Management f1/2
        symbol = gateway
        x = 97.5
        y = -202.5
        z = 1.0
    [[VBOX CSR_1000V_3.12_2]]
        image = CSR 1000V 3.12 2
        e0 = CSR_1000V_3.12_1 e0
        e1 = CSR_1000V_3.11_2 e1
        e2 = CSR_1000V_3.11_1 e2
        e3 = SW1_Management f1/0
        symbol = gateway
        x = 98.5
        y = -7.5
        z = 1.0
        hx = -35.546875
        hy = 55.0
    [[VBOX CSR_1000V_3.12_1]]
        e0 = CSR_1000V_3.12_2 e0
        e1 = CSR_1000V_3.11_1 e1
        e2 = CSR_1000V_3.11_2 e2
        e3 = SW0_Management f1/1
        symbol = gateway
        x = -320.5
        y = -12.5
        z = 1.0
        hx = -36.546875
        hy = 57.0
[GNS3-DATA]
    configs = configs
    workdir = working
    [[NOTE 1]]
        text = "10.11.0.0/16"
        x = -131.0
        y = -249.5
    [[NOTE 2]]
        text = "CSR 1000V (IOS-XE 3.14 - IOS 15.5)"
        x = -385.0
        y = -405.5
        font = "Arial Black,26,-1,5,50,0,0,0,0,0"
    [[NOTE 3]]
        text = "Credentials\n----------------\nOn all CSR 1000V routers, the username is actionmystique and password Csr-1000v"
        x = 50.0
        y = 207.5
    [[NOTE 4]]
        text = "14.4"
        x = -238.0
        y = -14.5
    [[NOTE 5]]
        text = ".111"
        x = -366.0
        y = -187.5
    [[NOTE 6]]
        text = ".1"
        x = 468.0
        y = -59.5
    [[NOTE 7]]
        text = "192.168.127.0/24"
        x = -656.0
        y = -276.5
    [[NOTE 8]]
        text = "34.3"
        x = -288.0
        y = -122.5
    [[NOTE 9]]
        text = "service udp-small-servers"
        x = -392.0
        y = -246.5
        color = "#ff0000"
    [[NOTE 10]]
        text = "service udp-small-servers"
        x = -381.0
        y = -62.5
        color = "#ff0000"
    [[NOTE 11]]
        text = "13.1"
        x = 48.0
        y = -197.5
    [[NOTE 12]]
        text = ".122"
        x = 173.0
        y = -3.5
    [[NOTE 13]]
        text = "192.168.137.0/24"
        x = 268.0
        y = -314.5
    [[NOTE 14]]
        text = "------------| 4.1"
        x = -263.0
        y = -4.5
        color = "#ff0000"
    [[NOTE 15]]
        text = "Iperf (sending UDP packets to port 7) on the Host through loopback interface\n"service udp-small-servers" on CSR_1000V_3.11_1 (and CSR_1000V_3.12_1 if necessary)\nto echo UDP packets from IPerf\nUDP communication must be allowed on Host Internet Security Firewall\nYou must make sure that the UDP packets go through that loopback interface.\n"iperf -c 10.11.3.1 -u -p 7 -i  1 -t 100000 -b 200K""
        x = 222.0
        y = 23.5
    [[NOTE 16]]
        text = "13.3"
        x = -246.0
        y = -197.5
    [[NOTE 17]]
        text = "24.4"
        x = -240.0
        y = 16.5
    [[NOTE 18]]
        text = "Dampening\n---------------\nThe purpose here is to test EIGRP potential ability to take the live interface Load into \naccount to calculate a route metric.\nWe try to overload CSR_1000V_3.12_2 - CSR_1000V_3.11_1 link so that the EIGRP "10.11.3.0/24" metric \nchanges and CSR_1000V_3.12_2 redirects traffic through CSR_1000V_3.11_2 or CSR_1000V_3.12_1.\nSpecial IOS commands must be used on specific routers in service-family mode: \n- "dampening-change": If a change-percentage value is not specified, the default is 50 percent of\nthe computed metric.\n- "dampening-interval": If an interval value is not specified, the default is 30 seconds.\nBoth commands cannot be configured at the same time on any interface.\nI used these K values: K1=0 K2=128 K3=0 K4=0 K5=0 K6=0 \nWith dampening-change = 1 between CSR_1000V_3.12_2 and CSR_1000V_3.11_1"
        x = -860.0
        y = 105.5
    [[NOTE 19]]
        text = ".112"
        x = 170.0
        y = -179.5
    [[NOTE 20]]
        text = "BUG in IOS 15.4\n----------------------\nThere's a bug in IOS 15.2/4 in service-family configuration which does not take into account  hello-interval and hold-time \nconfiguration: Hellos are always sent every 5 seconds  and hold timer is always set at 15 seconds which makes this test \nimpossible without QoS; when the  CSR_1000V_3.12_2 - CSR_1000V_3.11_1 link becomes overloaded,  without any QoS, \nHellos are easily lost and  neighborships are easily Down."
        x = -46.0
        y = 281.5
    [[NOTE 21]]
        text = "--------| 3.1"
        x = -261.0
        y = -171.5
        color = "#ff0000"
    [[NOTE 22]]
        text = ".121"
        x = -367.0
        y = 4.5
    [[NOTE 23]]
        text = "Putty_Telnet_SSH"
        x = 409.0
        y = -163.5
    [[NOTE 24]]
        text = "12.1"
        x = 132.0
        y = -128.5
    [[NOTE 25]]
        text = "14.1"
        x = 68.0
        y = -151.5
    [[NOTE 26]]
        text = ".102"
        x = -577.0
        y = -60.5
    [[NOTE 27]]
        text = "23.3"
        x = -274.0
        y = -150.5
    [[NOTE 28]]
        text = "24.2"
        x = 45.0
        y = 20.5
    [[NOTE 29]]
        text = ".1"
        x = -768.0
        y = -56.5
    [[NOTE 30]]
        text = "12.2"
        x = 89.0
        y = -46.5
    [[NOTE 31]]
        text = "23.2"
        x = 45.0
        y = -9.5
    [[NOTE 32]]
        text = "Iperf UDP echo 7"
        x = 382.0
        y = -34.5
        font = "Sans Serif,16,-1,5,75,0,0,0,0,0"
        color = "#ff0000"
    [[NOTE 33]]
        text = ".102"
        x = 289.0
        y = -63.5
    [[NOTE 34]]
        text = "EIGRP K2 Load Metric Weight Implementation"
        x = -491.0
        y = -451.5
        font = "Arial Black,26,-1,5,50,0,0,0,0,0"
    [[NOTE 35]]
        text = "34.4"
        x = -280.0
        y = -36.5
    [[Cloud Iperf_Host]]
        symbol = Host
        x = 445.5
        y = -120.5
        z = 1.0
        connections = SW1_Management:f1/1:nio_tap:tap0
    [[Cloud Putty_Telnet_SSH]]
        symbol = Host
        x = -786.5
        y = -115.5
        z = 1.0
        connections = SW0_Management:f1/2:nio_tap:tap1
    [[SHAPE 1]]
        type = ellipse
        x = 151.0
        y = -332.0
        width = 390.0
        height = 488.0
        fill_color = "#ffff00"
        border_style = 2
        z = -1.0
    [[SHAPE 2]]
        type = ellipse
        x = -858.0
        y = -284.0
        width = 570.0
        height = 413.0
        fill_color = "#ffff00"
        border_style = 2
        z = -1.0
    [[SHAPE 3]]
        type = ellipse
        x = -302.0
        y = -256.0
        width = 471.0
        height = 341.0
        fill_color = "#00aaff"
        border_style = 2
        z = -1.0
