Nov 27 16:14:21.710 HYPERVISOR: Release 0.2.17-amd64/Linux (tag 2017072410)
Nov 27 16:14:21.710 HYPERVISOR: Started on IP = 127.0.0.1, TCP port = 50337.
Nov 27 16:14:21.736 HYPERVISOR: exec_cmd: hypervisor version 
Nov 27 16:14:21.737 HYPERVISOR: exec_cmd: hypervisor working_dir /media/actionmystique/SAMSUNG5-VMs/Labs/GNS3/git-Public-Labs-Collection/CCNP/TBSHOOT/L2-Technologies/STP/Jean-Christophe_Manciot/1+/TT 2-linux/project-files/dynamips 
Nov 27 16:14:21.737 GENERAL: working_dir=/media/actionmystique/SAMSUNG5-VMs/Labs/GNS3/git-Public-Labs-Collection/CCNP/TBSHOOT/L2-Technologies/STP/Jean-Christophe_Manciot/1+/TT 2-linux/project-files/dynamips
Nov 27 16:14:21.737 HYPERVISOR: exec_cmd: vm create SW2 2 c3725 
Nov 27 16:14:21.737 VM: VM SW2 created.
Nov 27 16:14:21.737 HYPERVISOR: exec_cmd: vm set_con_tcp_port SW2 2002 
Nov 27 16:14:21.738 HYPERVISOR: exec_cmd: c3725 get_mac_addr SW2 
Nov 27 16:14:21.738 HYPERVISOR: exec_cmd: vm get_status SW2 
Nov 27 16:14:21.739 HYPERVISOR: exec_cmd: vm slot_add_binding SW2 1 0 NM-16ESW 
Nov 27 16:14:21.739 HYPERVISOR: exec_cmd: vm set_nvram SW2 256 
Nov 27 16:14:21.740 HYPERVISOR: exec_cmd: vm get_status SW2 
Nov 27 16:14:21.740 HYPERVISOR: exec_cmd: vm set_idle_pc SW2 0x614ac2c4 
Nov 27 16:14:21.740 HYPERVISOR: exec_cmd: c3725 set_mac_addr SW2 eeee.eeee.eeee 
Nov 27 16:14:21.741 HYPERVISOR: exec_cmd: vm set_ios SW2 /media/actionmystique/SAMSUNG5-VMs/Images/GNS3/IOS/c3725-adventerprisek9-mz.124-15.T10.image 
Nov 27 16:14:21.741 HYPERVISOR: exec_cmd: vm set_exec_area SW2 16 
Nov 27 16:14:21.742 HYPERVISOR: exec_cmd: vm slot_add_binding SW2 0 16 WIC-2T 
Nov 27 16:14:21.743 HYPERVISOR: exec_cmd: vm set_disk0 SW2 1 
Nov 27 16:14:21.744 HYPERVISOR: exec_cmd: vm set_config SW2 configs/i2_startup-config.cfg 
Nov 27 16:14:21.748 HYPERVISOR: exec_cmd: vm set_config SW2 configs/i2_startup-config.cfg configs/i2_private-config.cfg 
Nov 27 16:14:21.917 HYPERVISOR: exec_cmd: nio create_udp udp-22a8f681-da5b-4650-8ab8-17377250f09c 15001 127.0.0.1 15002 
Nov 27 16:14:21.918 HYPERVISOR: exec_cmd: vm slot_add_nio_binding SW2 1 2 udp-22a8f681-da5b-4650-8ab8-17377250f09c 
Nov 27 16:14:21.918 HYPERVISOR: exec_cmd: vm get_status SW2 
Nov 27 16:14:21.924 HYPERVISOR: exec_cmd: nio create_udp udp-c381ff52-0239-4e32-97ff-11798ac31c8f 15000 127.0.0.1 15003 
Nov 27 16:14:21.930 HYPERVISOR: exec_cmd: vm slot_add_nio_binding SW2 1 0 udp-c381ff52-0239-4e32-97ff-11798ac31c8f 
Nov 27 16:14:21.931 HYPERVISOR: exec_cmd: vm get_status SW2 
Nov 27 16:14:21.978 HYPERVISOR: exec_cmd: nio create_udp udp-6c48470d-7e6c-4c85-90b8-ce1a03ba32e8 15007 127.0.0.1 15004 
Nov 27 16:14:21.982 HYPERVISOR: exec_cmd: vm slot_add_nio_binding SW2 1 1 udp-6c48470d-7e6c-4c85-90b8-ce1a03ba32e8 
Nov 27 16:14:21.982 HYPERVISOR: exec_cmd: vm get_status SW2 
