Nov 28 08:54:53.292 HYPERVISOR: Release 0.2.17-amd64/Linux (tag 2017072410)
Nov 28 08:54:53.292 HYPERVISOR: Started on IP = 127.0.0.1, TCP port = 32785.
Nov 28 08:54:53.327 HYPERVISOR: exec_cmd: hypervisor version 
Nov 28 08:54:53.328 HYPERVISOR: exec_cmd: hypervisor working_dir /media/actionmystique/SAMSUNG5-VMs/Labs/GNS3/TT 3-solutions-linux-/project-files/dynamips 
Nov 28 08:54:53.328 GENERAL: working_dir=/media/actionmystique/SAMSUNG5-VMs/Labs/GNS3/TT 3-solutions-linux-/project-files/dynamips
Nov 28 08:54:53.328 HYPERVISOR: exec_cmd: vm create ESW1 1 c3725 
Nov 28 08:54:53.328 VM: VM ESW1 created.
Nov 28 08:54:53.328 HYPERVISOR: exec_cmd: vm set_con_tcp_port ESW1 2004 
Nov 28 08:54:53.329 HYPERVISOR: exec_cmd: c3725 get_mac_addr ESW1 
Nov 28 08:54:53.329 HYPERVISOR: exec_cmd: vm set_disk0 ESW1 1 
Nov 28 08:54:53.330 HYPERVISOR: exec_cmd: vm get_status ESW1 
Nov 28 08:54:53.330 HYPERVISOR: exec_cmd: vm slot_add_binding ESW1 1 0 NM-16ESW 
Nov 28 08:54:53.330 HYPERVISOR: exec_cmd: vm set_ios ESW1 /media/actionmystique/SAMSUNG5-VMs/Images/GNS3/IOS/c3725-adventerprisek9-mz.124-15.T10.image 
Nov 28 08:54:53.331 HYPERVISOR: exec_cmd: c3725 set_mac_addr ESW1 c201.1b91.0000 
Nov 28 08:54:53.331 HYPERVISOR: exec_cmd: vm slot_add_binding ESW1 0 16 WIC-2T 
Nov 28 08:54:53.331 HYPERVISOR: exec_cmd: vm get_status ESW1 
Nov 28 08:54:53.332 HYPERVISOR: exec_cmd: vm set_idle_pc ESW1 0x6026b804 
Nov 28 08:54:53.332 HYPERVISOR: exec_cmd: vm set_nvram ESW1 256 
Nov 28 08:54:53.333 HYPERVISOR: exec_cmd: vm set_config ESW1 configs/ios_base_startup-config.txt 
Nov 28 08:54:53.333 HYPERVISOR: exec_cmd: vm set_config ESW1 configs/ios_base_startup-config.txt configs/ios_base_private-config.txt 
Nov 28 08:54:53.631 HYPERVISOR: exec_cmd: nio create_udp udp-242bf49e-1ecf-4302-a46e-2d9264232d9c 15005 127.0.0.1 15007 
Nov 28 08:54:53.631 HYPERVISOR: exec_cmd: vm slot_add_nio_binding ESW1 1 0 udp-242bf49e-1ecf-4302-a46e-2d9264232d9c 
Nov 28 08:54:53.632 HYPERVISOR: exec_cmd: vm get_status ESW1 
Nov 28 08:54:53.652 HYPERVISOR: exec_cmd: nio create_udp udp-1bad66f2-90e2-4370-b773-a9670e93bd32 15009 127.0.0.1 15008 
Nov 28 08:54:53.653 HYPERVISOR: exec_cmd: vm slot_add_nio_binding ESW1 1 1 udp-1bad66f2-90e2-4370-b773-a9670e93bd32 
Nov 28 08:54:53.654 HYPERVISOR: exec_cmd: vm get_status ESW1 
Nov 28 08:55:04.312 HYPERVISOR: exec_cmd: vm get_status ESW1 
Nov 28 08:55:04.314 HYPERVISOR: exec_cmd: vm extract_config ESW1 
Nov 28 08:55:04.319 HYPERVISOR: exec_cmd: vm delete ESW1 
Nov 28 08:55:04.319 VM: VM ESW1 destroyed.
Nov 28 08:55:04.325 HYPERVISOR: exec_cmd: hypervisor stop 
Nov 28 08:55:04.338 HYPERVISOR: Stopped.
Nov 28 08:55:04.338 GENERAL: reset done.
