Dec 04 11:07:28.413 HYPERVISOR: Release 0.2.17-amd64/Linux (tag 2017072410)
Dec 04 11:07:28.413 HYPERVISOR: Started on IP = 127.0.0.1, TCP port = 47279.
Dec 04 11:07:28.425 HYPERVISOR: exec_cmd: hypervisor version 
Dec 04 11:07:28.425 HYPERVISOR: exec_cmd: hypervisor working_dir /media/actionmystique/SAMSUNG5-VMs/Labs/GNS3/git-Public-Labs-Collection/CCNP/TBSHOOT/L3-Technologies/IPv6/Routing-Protocols/OSPFv3/Jean-Christophe_Manciot/1+/TT 2-linux/project-files/dynamips 
Dec 04 11:07:28.425 GENERAL: working_dir=/media/actionmystique/SAMSUNG5-VMs/Labs/GNS3/git-Public-Labs-Collection/CCNP/TBSHOOT/L3-Technologies/IPv6/Routing-Protocols/OSPFv3/Jean-Christophe_Manciot/1+/TT 2-linux/project-files/dynamips
Dec 04 11:07:28.426 HYPERVISOR: exec_cmd: vm create ESW3 3 c3725 
Dec 04 11:07:28.426 VM: VM ESW3 created.
Dec 04 11:07:28.426 HYPERVISOR: exec_cmd: vm set_con_tcp_port ESW3 2006 
Dec 04 11:07:28.426 HYPERVISOR: exec_cmd: c3725 get_mac_addr ESW3 
Dec 04 11:07:28.427 HYPERVISOR: exec_cmd: vm set_nvram ESW3 256 
Dec 04 11:07:28.427 HYPERVISOR: exec_cmd: vm get_status ESW3 
Dec 04 11:07:28.428 HYPERVISOR: exec_cmd: vm slot_add_binding ESW3 1 0 NM-16ESW 
Dec 04 11:07:28.428 HYPERVISOR: exec_cmd: vm set_ios ESW3 /media/actionmystique/SAMSUNG5-VMs/Images/GNS3/IOS/c3725-adventerprisek9-mz.124-15.T10.image 
Dec 04 11:07:28.429 HYPERVISOR: exec_cmd: vm set_disk0 ESW3 1 
Dec 04 11:07:28.429 HYPERVISOR: exec_cmd: c3725 set_mac_addr ESW3 c203.1bfb.0000 
Dec 04 11:07:28.430 HYPERVISOR: exec_cmd: vm slot_add_binding ESW3 0 16 WIC-2T 
Dec 04 11:07:28.430 HYPERVISOR: exec_cmd: vm get_status ESW3 
Dec 04 11:07:28.431 HYPERVISOR: exec_cmd: vm set_idle_pc ESW3 0x614ac27c 
Dec 04 11:07:28.431 HYPERVISOR: exec_cmd: vm set_config ESW3 configs/ios_base_startup-config.txt 
Dec 04 11:07:28.431 HYPERVISOR: exec_cmd: vm set_config ESW3 configs/ios_base_startup-config.txt configs/ios_base_private-config.txt 
Dec 04 11:07:28.758 HYPERVISOR: exec_cmd: nio create_udp udp-588226d5-2bf8-465c-b9d7-860e11ec2149 15019 127.0.0.1 15018 
Dec 04 11:07:28.759 HYPERVISOR: exec_cmd: vm slot_add_nio_binding ESW3 1 0 udp-588226d5-2bf8-465c-b9d7-860e11ec2149 
Dec 04 11:07:28.759 HYPERVISOR: exec_cmd: vm get_status ESW3 
Dec 04 11:07:30.206 HYPERVISOR: exec_cmd: nio create_tap tap-9d38216f-5571-4c38-bf07-22aece03d1b3 tap0 
Dec 04 11:07:30.207 HYPERVISOR: exec_cmd: vm slot_add_nio_binding ESW3 1 1 tap-9d38216f-5571-4c38-bf07-22aece03d1b3 
Dec 04 11:07:30.208 HYPERVISOR: exec_cmd: vm get_status ESW3 
