Nov 26 20:12:28.645 HYPERVISOR: Release 0.2.17-amd64/Linux (tag 2017072410)
Nov 26 20:12:28.645 HYPERVISOR: Started on IP = 127.0.0.1, TCP port = 45725.
Nov 26 20:12:28.681 HYPERVISOR: exec_cmd: hypervisor version 
Nov 26 20:12:28.684 HYPERVISOR: exec_cmd: hypervisor working_dir /media/actionmystique/SAMSUNG5-VMs/Labs/GNS3/OSPF-EIGRP/project-files/dynamips 
Nov 26 20:12:28.684 GENERAL: working_dir=/media/actionmystique/SAMSUNG5-VMs/Labs/GNS3/OSPF-EIGRP/project-files/dynamips
Nov 26 20:12:28.690 HYPERVISOR: exec_cmd: vm create C3 12 c7200 
Nov 26 20:12:28.690 VM: VM C3 created.
Nov 26 20:12:28.701 HYPERVISOR: exec_cmd: vm set_con_tcp_port C3 2044 
Nov 26 20:12:28.704 HYPERVISOR: exec_cmd: vm set_aux_tcp_port C3 2144 
Nov 26 20:12:28.707 HYPERVISOR: exec_cmd: c7200 get_mac_addr C3 
Nov 26 20:12:28.712 HYPERVISOR: exec_cmd: vm get_status C3 
Nov 26 20:12:28.723 HYPERVISOR: exec_cmd: vm slot_add_binding C3 0 0 C7200-IO-FE 
Nov 26 20:12:28.726 HYPERVISOR: exec_cmd: vm set_ios C3 /media/actionmystique/SAMSUNG5-VMs/Images/GNS3/IOS/c7200-adventerprisek9-mz.152-4.M2.image 
Nov 26 20:12:28.728 HYPERVISOR: exec_cmd: vm get_status C3 
Nov 26 20:12:28.729 HYPERVISOR: exec_cmd: vm slot_add_binding C3 1 0 PA-8T 
Nov 26 20:12:28.731 HYPERVISOR: exec_cmd: vm get_status C3 
Nov 26 20:12:28.732 HYPERVISOR: exec_cmd: vm set_idle_pc C3 0x60188e14 
Nov 26 20:12:28.734 HYPERVISOR: exec_cmd: vm get_status C3 
Nov 26 20:12:28.740 HYPERVISOR: exec_cmd: vm slot_remove_binding C3 0 0 
Nov 26 20:12:28.750 HYPERVISOR: exec_cmd: vm get_status C3 
Nov 26 20:12:28.752 HYPERVISOR: exec_cmd: vm slot_add_binding C3 0 0 C7200-IO-GE-E 
Nov 26 20:12:28.754 HYPERVISOR: exec_cmd: vm set_ram C3 512 
Nov 26 20:12:28.755 HYPERVISOR: exec_cmd: vm set_config C3 configs/i12_startup-config.cfg 
Nov 26 20:12:29.946 HYPERVISOR: exec_cmd: vm extract_config C3 
Nov 26 20:12:30.233 HYPERVISOR: exec_cmd: nio create_udp udp-15e33ae4-b03b-4550-911d-d3ac1185883a 15027 127.0.0.1 15026 
Nov 26 20:12:30.235 HYPERVISOR: exec_cmd: vm slot_add_nio_binding C3 1 0 udp-15e33ae4-b03b-4550-911d-d3ac1185883a 
Nov 26 20:12:30.239 HYPERVISOR: exec_cmd: vm get_status C3 
Nov 26 20:14:16.136 HYPERVISOR: exec_cmd: vm get_status C3 
Nov 26 20:14:16.151 HYPERVISOR: exec_cmd: vm extract_config C3 
Nov 26 20:14:16.165 HYPERVISOR: exec_cmd: vm delete C3 
Nov 26 20:14:16.165 VM: VM C3 destroyed.
Nov 26 20:14:16.178 HYPERVISOR: exec_cmd: hypervisor stop 
Nov 26 20:14:16.275 HYPERVISOR: Stopped.
Nov 26 20:14:16.275 GENERAL: reset done.
