Nov 29 19:00:19.137 HYPERVISOR: Release 0.2.17-amd64/Linux (tag 2017072410)
Nov 29 19:00:19.137 HYPERVISOR: Started on IP = 127.0.0.1, TCP port = 34029.
Nov 29 19:00:19.150 HYPERVISOR: exec_cmd: hypervisor version 
Nov 29 19:00:19.151 HYPERVISOR: exec_cmd: hypervisor working_dir /media/actionmystique/SAMSUNG5-VMs/Labs/GNS3/TT 1-linux-/project-files/dynamips 
Nov 29 19:00:19.151 GENERAL: working_dir=/media/actionmystique/SAMSUNG5-VMs/Labs/GNS3/TT 1-linux-/project-files/dynamips
Nov 29 19:00:19.151 HYPERVISOR: exec_cmd: vm create ESW2 2 c3725 
Nov 29 19:00:19.151 VM: VM ESW2 created.
Nov 29 19:00:19.152 HYPERVISOR: exec_cmd: vm set_con_tcp_port ESW2 2002 
Nov 29 19:00:19.152 HYPERVISOR: exec_cmd: vm set_aux_tcp_port ESW2 2502 
Nov 29 19:00:19.152 HYPERVISOR: exec_cmd: c3725 get_mac_addr ESW2 
Nov 29 19:00:19.153 HYPERVISOR: exec_cmd: vm slot_add_binding ESW2 0 16 WIC-2T 
Nov 29 19:00:19.153 HYPERVISOR: exec_cmd: vm set_ios ESW2 /media/actionmystique/SAMSUNG5-VMs/Images/GNS3/IOS/c3725-adventerprisek9-mz.124-15.T10.image 
Nov 29 19:00:19.156 HYPERVISOR: exec_cmd: vm get_status ESW2 
Nov 29 19:00:19.156 HYPERVISOR: exec_cmd: vm set_idle_pc ESW2 0x60c06d20 
Nov 29 19:00:19.156 HYPERVISOR: exec_cmd: vm get_status ESW2 
Nov 29 19:00:19.157 HYPERVISOR: exec_cmd: vm slot_add_binding ESW2 1 0 NM-16ESW 
Nov 29 19:00:19.157 HYPERVISOR: exec_cmd: c3725 set_mac_addr ESW2 c202.28c2.0000 
Nov 29 19:00:19.158 HYPERVISOR: exec_cmd: vm set_nvram ESW2 256 
Nov 29 19:00:19.158 HYPERVISOR: exec_cmd: vm set_disk0 ESW2 1 
Nov 29 19:00:19.158 HYPERVISOR: exec_cmd: vm set_config ESW2 configs/i2_startup-config.cfg 
Nov 29 19:00:19.159 HYPERVISOR: exec_cmd: vm set_config ESW2 configs/i2_startup-config.cfg configs/i2_private-config.cfg 
Nov 29 19:00:19.301 HYPERVISOR: exec_cmd: nio create_tap tap-cd04dc18-d6e9-4f56-902e-84f8f6e53a80 tap2 
Nov 29 19:00:19.307 HYPERVISOR: exec_cmd: vm slot_add_nio_binding ESW2 1 0 tap-cd04dc18-d6e9-4f56-902e-84f8f6e53a80 
Nov 29 19:00:19.315 HYPERVISOR: exec_cmd: vm get_status ESW2 
Nov 29 19:00:19.404 HYPERVISOR: exec_cmd: nio create_udp udp-d77499a0-dfb1-4031-9a79-9f1d20f837df 15011 127.0.0.1 15010 
Nov 29 19:00:19.405 HYPERVISOR: exec_cmd: vm slot_add_nio_binding ESW2 1 2 udp-d77499a0-dfb1-4031-9a79-9f1d20f837df 
Nov 29 19:00:19.405 HYPERVISOR: exec_cmd: vm get_status ESW2 
Nov 29 19:00:34.748 HYPERVISOR: exec_cmd: vm get_status ESW2 
Nov 29 19:00:34.750 HYPERVISOR: exec_cmd: vm extract_config ESW2 
Nov 29 19:00:34.751 HYPERVISOR: exec_cmd: vm delete ESW2 
Nov 29 19:00:34.751 VM: VM ESW2 destroyed.
Nov 29 19:00:34.752 HYPERVISOR: exec_cmd: hypervisor stop 
Nov 29 19:00:35.166 HYPERVISOR: Stopped.
Nov 29 19:00:35.166 GENERAL: reset done.
