Nov 29 15:25:04.095 HYPERVISOR: Release 0.2.17-amd64/Linux (tag 2017072410)
Nov 29 15:25:04.095 HYPERVISOR: Started on IP = 127.0.0.1, TCP port = 38487.
Nov 29 15:25:04.117 HYPERVISOR: exec_cmd: hypervisor version 
Nov 29 15:25:04.118 HYPERVISOR: exec_cmd: hypervisor working_dir /media/actionmystique/SAMSUNG5-VMs/Labs/GNS3/TT 2-linux-/project-files/dynamips 
Nov 29 15:25:04.118 GENERAL: working_dir=/media/actionmystique/SAMSUNG5-VMs/Labs/GNS3/TT 2-linux-/project-files/dynamips
Nov 29 15:25:04.119 HYPERVISOR: exec_cmd: vm create ESW5 5 c3725 
Nov 29 15:25:04.119 VM: VM ESW5 created.
Nov 29 15:25:04.119 HYPERVISOR: exec_cmd: vm set_con_tcp_port ESW5 2010 
Nov 29 15:25:04.120 HYPERVISOR: exec_cmd: c3725 get_mac_addr ESW5 
Nov 29 15:25:04.121 HYPERVISOR: exec_cmd: vm get_status ESW5 
Nov 29 15:25:04.121 HYPERVISOR: exec_cmd: vm slot_add_binding ESW5 1 0 NM-16ESW 
Nov 29 15:25:04.122 HYPERVISOR: exec_cmd: c3725 set_mac_addr ESW5 c205.6a03.0000 
Nov 29 15:25:04.123 HYPERVISOR: exec_cmd: vm set_disk0 ESW5 1 
Nov 29 15:25:04.124 HYPERVISOR: exec_cmd: vm set_nvram ESW5 256 
Nov 29 15:25:04.130 HYPERVISOR: exec_cmd: vm set_ios ESW5 /media/actionmystique/SAMSUNG5-VMs/Images/GNS3/IOS/c3725-adventerprisek9-mz.124-15.T10.image 
Nov 29 15:25:04.135 HYPERVISOR: exec_cmd: vm get_status ESW5 
Nov 29 15:25:04.137 HYPERVISOR: exec_cmd: vm set_idle_pc ESW5 0x614ac27c 
Nov 29 15:25:04.137 HYPERVISOR: exec_cmd: vm slot_add_binding ESW5 0 16 WIC-2T 
Nov 29 15:25:04.138 HYPERVISOR: exec_cmd: vm set_config ESW5 configs/ios_base_startup-config.txt 
Nov 29 15:25:04.139 HYPERVISOR: exec_cmd: vm set_config ESW5 configs/ios_base_startup-config.txt configs/ios_base_private-config.txt 
Nov 29 15:25:04.464 HYPERVISOR: exec_cmd: nio create_udp udp-c55d9498-c0a5-410e-b70d-f2fe8dfba54e 15014 127.0.0.1 15012 
Nov 29 15:25:04.465 HYPERVISOR: exec_cmd: vm slot_add_nio_binding ESW5 1 0 udp-c55d9498-c0a5-410e-b70d-f2fe8dfba54e 
Nov 29 15:25:04.465 HYPERVISOR: exec_cmd: vm get_status ESW5 
Nov 29 15:25:04.472 HYPERVISOR: exec_cmd: nio create_udp udp-63ad4c0e-cae4-4e3a-9741-b3b5c3ac4951 15013 127.0.0.1 15015 
Nov 29 15:25:04.472 HYPERVISOR: exec_cmd: vm slot_add_nio_binding ESW5 1 1 udp-63ad4c0e-cae4-4e3a-9741-b3b5c3ac4951 
Nov 29 15:25:04.472 HYPERVISOR: exec_cmd: vm get_status ESW5 
Nov 29 15:25:21.919 HYPERVISOR: exec_cmd: vm get_status ESW5 
Nov 29 15:25:21.921 HYPERVISOR: exec_cmd: vm extract_config ESW5 
Nov 29 15:25:21.923 HYPERVISOR: exec_cmd: vm delete ESW5 
Nov 29 15:25:21.923 VM: VM ESW5 destroyed.
Nov 29 15:25:21.924 HYPERVISOR: exec_cmd: hypervisor stop 
Nov 29 15:25:22.134 HYPERVISOR: Stopped.
Nov 29 15:25:22.134 GENERAL: reset done.
