Nov 27 16:17:55.820 HYPERVISOR: Release 0.2.17-amd64/Linux (tag 2017072410)
Nov 27 16:17:55.820 HYPERVISOR: Started on IP = 127.0.0.1, TCP port = 58095.
Nov 27 16:17:55.842 HYPERVISOR: exec_cmd: hypervisor version 
Nov 27 16:17:55.844 HYPERVISOR: exec_cmd: hypervisor working_dir /media/actionmystique/SAMSUNG5-VMs/Labs/GNS3/git-Public-Labs-Collection/CCNP/TBSHOOT/L3-Technologies/IPv4/High-Availability/GLBP/Jean-Christophe_Manciot/1+/TT 1-linux/project-files/dynamips 
Nov 27 16:17:55.844 GENERAL: working_dir=/media/actionmystique/SAMSUNG5-VMs/Labs/GNS3/git-Public-Labs-Collection/CCNP/TBSHOOT/L3-Technologies/IPv4/High-Availability/GLBP/Jean-Christophe_Manciot/1+/TT 1-linux/project-files/dynamips
Nov 27 16:17:55.846 HYPERVISOR: exec_cmd: vm create SW2 2 c3725 
Nov 27 16:17:55.846 VM: VM SW2 created.
Nov 27 16:17:55.850 HYPERVISOR: exec_cmd: vm set_con_tcp_port SW2 2002 
Nov 27 16:17:55.852 HYPERVISOR: exec_cmd: c3725 get_mac_addr SW2 
Nov 27 16:17:55.853 HYPERVISOR: exec_cmd: vm set_nvram SW2 256 
Nov 27 16:17:55.854 HYPERVISOR: exec_cmd: vm get_status SW2 
Nov 27 16:17:55.855 HYPERVISOR: exec_cmd: vm set_idle_pc SW2 0x60c056e4 
Nov 27 16:17:55.856 HYPERVISOR: exec_cmd: c3725 set_mac_addr SW2 eeee.eeee.eeee 
Nov 27 16:17:55.856 HYPERVISOR: exec_cmd: vm set_exec_area SW2 16 
Nov 27 16:17:55.857 HYPERVISOR: exec_cmd: vm get_status SW2 
Nov 27 16:17:55.858 HYPERVISOR: exec_cmd: vm slot_add_binding SW2 1 0 NM-16ESW 
Nov 27 16:17:55.859 HYPERVISOR: exec_cmd: vm set_ios SW2 /media/actionmystique/SAMSUNG5-VMs/Images/GNS3/IOS/c3725-adventerprisek9-mz.124-15.T10.image 
Nov 27 16:17:55.859 HYPERVISOR: exec_cmd: vm slot_add_binding SW2 0 16 WIC-2T 
Nov 27 16:17:55.860 HYPERVISOR: exec_cmd: vm set_disk0 SW2 1 
Nov 27 16:17:55.861 HYPERVISOR: exec_cmd: vm set_config SW2 configs/i2_startup-config.cfg 
Nov 27 16:17:55.862 HYPERVISOR: exec_cmd: vm set_config SW2 configs/i2_startup-config.cfg configs/i2_private-config.cfg 
Nov 27 16:17:56.005 HYPERVISOR: exec_cmd: nio create_udp udp-9c522d32-d866-4485-8ff9-b8058b4893bc 15000 127.0.0.1 15001 
Nov 27 16:17:56.005 HYPERVISOR: exec_cmd: vm slot_add_nio_binding SW2 1 3 udp-9c522d32-d866-4485-8ff9-b8058b4893bc 
Nov 27 16:17:56.006 HYPERVISOR: exec_cmd: vm get_status SW2 
Nov 27 16:17:56.073 HYPERVISOR: exec_cmd: nio create_udp udp-1bd96eff-e2b5-4aed-93db-07f3d24775c8 15004 127.0.0.1 15002 
Nov 27 16:17:56.073 HYPERVISOR: exec_cmd: vm slot_add_nio_binding SW2 1 0 udp-1bd96eff-e2b5-4aed-93db-07f3d24775c8 
Nov 27 16:17:56.074 HYPERVISOR: exec_cmd: vm get_status SW2 
Nov 27 16:17:56.093 HYPERVISOR: exec_cmd: nio create_udp udp-918292be-5cca-40c0-a6c6-b5a23bc44a1e 15005 127.0.0.1 15006 
Nov 27 16:17:56.095 HYPERVISOR: exec_cmd: vm slot_add_nio_binding SW2 1 2 udp-918292be-5cca-40c0-a6c6-b5a23bc44a1e 
Nov 27 16:17:56.096 HYPERVISOR: exec_cmd: vm get_status SW2 
Nov 27 16:17:56.121 HYPERVISOR: exec_cmd: nio create_udp udp-95b49f61-9072-421e-9bb0-8b84baf721a6 15003 127.0.0.1 15007 
Nov 27 16:17:56.121 HYPERVISOR: exec_cmd: vm slot_add_nio_binding SW2 1 1 udp-95b49f61-9072-421e-9bb0-8b84baf721a6 
Nov 27 16:17:56.122 HYPERVISOR: exec_cmd: vm get_status SW2 
