Nov 26 22:12:36.764 HYPERVISOR: Release 0.2.17-amd64/Linux (tag 2017072410)
Nov 26 22:12:36.764 HYPERVISOR: Started on IP = 127.0.0.1, TCP port = 33707.
Nov 26 22:12:36.779 HYPERVISOR: exec_cmd: hypervisor version 
Nov 26 22:12:36.779 HYPERVISOR: exec_cmd: hypervisor working_dir /media/actionmystique/SAMSUNG5-VMs/Labs/GNS3/TT 3-linux-/project-files/dynamips 
Nov 26 22:12:36.779 GENERAL: working_dir=/media/actionmystique/SAMSUNG5-VMs/Labs/GNS3/TT 3-linux-/project-files/dynamips
Nov 26 22:12:36.780 HYPERVISOR: exec_cmd: vm create ESW2 2 c3725 
Nov 26 22:12:36.780 VM: VM ESW2 created.
Nov 26 22:12:36.780 HYPERVISOR: exec_cmd: vm set_con_tcp_port ESW2 2002 
Nov 26 22:12:36.781 HYPERVISOR: exec_cmd: vm set_aux_tcp_port ESW2 2502 
Nov 26 22:12:36.781 HYPERVISOR: exec_cmd: c3725 get_mac_addr ESW2 
Nov 26 22:12:36.781 HYPERVISOR: exec_cmd: vm slot_add_binding ESW2 0 16 WIC-2T 
Nov 26 22:12:36.782 HYPERVISOR: exec_cmd: vm get_status ESW2 
Nov 26 22:12:36.782 HYPERVISOR: exec_cmd: vm set_idle_pc ESW2 0x60c06d20 
Nov 26 22:12:36.782 HYPERVISOR: exec_cmd: vm set_nvram ESW2 256 
Nov 26 22:12:36.783 HYPERVISOR: exec_cmd: vm get_status ESW2 
Nov 26 22:12:36.783 HYPERVISOR: exec_cmd: vm slot_add_binding ESW2 1 0 NM-16ESW 
Nov 26 22:12:36.784 HYPERVISOR: exec_cmd: vm set_ios ESW2 /media/actionmystique/SAMSUNG5-VMs/Images/GNS3/IOS/c3725-adventerprisek9-mz.124-15.T10.image 
Nov 26 22:12:36.784 HYPERVISOR: exec_cmd: vm set_disk0 ESW2 1 
Nov 26 22:12:36.785 HYPERVISOR: exec_cmd: c3725 set_mac_addr ESW2 c202.28c2.0000 
Nov 26 22:12:36.786 HYPERVISOR: exec_cmd: vm set_config ESW2 configs/i2_startup-config.cfg 
Nov 26 22:12:36.789 HYPERVISOR: exec_cmd: vm set_config ESW2 configs/i2_startup-config.cfg configs/i2_private-config.cfg 
Nov 26 22:12:36.885 HYPERVISOR: exec_cmd: nio create_tap tap-fa9f7221-5d28-45bc-9561-57aa27fb1111 tap0 
Nov 26 22:12:36.885 HYPERVISOR: exec_cmd: vm slot_add_nio_binding ESW2 1 0 tap-fa9f7221-5d28-45bc-9561-57aa27fb1111 
Nov 26 22:12:36.886 HYPERVISOR: exec_cmd: vm get_status ESW2 
Nov 26 22:12:36.977 HYPERVISOR: exec_cmd: nio create_udp udp-295621d9-b06e-44be-8cbb-28ccffa4a671 15008 127.0.0.1 15009 
Nov 26 22:12:36.977 HYPERVISOR: exec_cmd: vm slot_add_nio_binding ESW2 1 2 udp-295621d9-b06e-44be-8cbb-28ccffa4a671 
Nov 26 22:12:36.977 HYPERVISOR: exec_cmd: vm get_status ESW2 
Nov 26 22:12:55.176 HYPERVISOR: exec_cmd: vm get_status ESW2 
Nov 26 22:12:55.177 HYPERVISOR: exec_cmd: vm extract_config ESW2 
Nov 26 22:12:55.178 HYPERVISOR: exec_cmd: vm delete ESW2 
Nov 26 22:12:55.178 VM: VM ESW2 destroyed.
Nov 26 22:12:55.178 HYPERVISOR: exec_cmd: hypervisor stop 
Nov 26 22:12:55.298 HYPERVISOR: Stopped.
Nov 26 22:12:55.298 GENERAL: reset done.
