Nov 28 08:22:19.073 HYPERVISOR: Release 0.2.17-amd64/Linux (tag 2017072410)
Nov 28 08:22:19.073 HYPERVISOR: Started on IP = 127.0.0.1, TCP port = 57843.
Nov 28 08:22:19.083 HYPERVISOR: exec_cmd: hypervisor version 
Nov 28 08:22:19.083 HYPERVISOR: exec_cmd: hypervisor working_dir /media/actionmystique/SAMSUNG5-VMs/Labs/GNS3/git-Public-Labs-Collection/CCNP/TBSHOOT/L3-Technologies/IPv4/Routing/Router-on-a-Stick/Jean-Christophe_Manciot/1+/TT 2-linux/project-files/dynamips 
Nov 28 08:22:19.083 GENERAL: working_dir=/media/actionmystique/SAMSUNG5-VMs/Labs/GNS3/git-Public-Labs-Collection/CCNP/TBSHOOT/L3-Technologies/IPv4/Routing/Router-on-a-Stick/Jean-Christophe_Manciot/1+/TT 2-linux/project-files/dynamips
Nov 28 08:22:19.084 HYPERVISOR: exec_cmd: vm create ESW1 1 c3725 
Nov 28 08:22:19.084 VM: VM ESW1 created.
Nov 28 08:22:19.084 HYPERVISOR: exec_cmd: vm set_con_tcp_port ESW1 2001 
Nov 28 08:22:19.084 HYPERVISOR: exec_cmd: vm set_aux_tcp_port ESW1 2501 
Nov 28 08:22:19.085 HYPERVISOR: exec_cmd: c3725 get_mac_addr ESW1 
Nov 28 08:22:19.085 HYPERVISOR: exec_cmd: vm set_disk0 ESW1 1 
Nov 28 08:22:19.085 HYPERVISOR: exec_cmd: vm set_ios ESW1 /media/actionmystique/SAMSUNG5-VMs/Images/GNS3/IOS/c3725-adventerprisek9-mz.124-15.T10.image 
Nov 28 08:22:19.086 HYPERVISOR: exec_cmd: c3725 set_mac_addr ESW1 c201.3297.0000 
Nov 28 08:22:19.086 HYPERVISOR: exec_cmd: vm slot_add_binding ESW1 0 16 WIC-2T 
Nov 28 08:22:19.086 HYPERVISOR: exec_cmd: vm get_status ESW1 
Nov 28 08:22:19.087 HYPERVISOR: exec_cmd: vm slot_add_binding ESW1 1 0 NM-16ESW 
Nov 28 08:22:19.087 HYPERVISOR: exec_cmd: vm get_status ESW1 
Nov 28 08:22:19.087 HYPERVISOR: exec_cmd: vm set_idle_pc ESW1 0x614ac2c4 
Nov 28 08:22:19.088 HYPERVISOR: exec_cmd: vm set_nvram ESW1 256 
Nov 28 08:22:19.088 HYPERVISOR: exec_cmd: vm set_config ESW1 configs/i1_startup-config.cfg 
Nov 28 08:22:19.090 HYPERVISOR: exec_cmd: vm set_config ESW1 configs/i1_startup-config.cfg configs/i1_private-config.cfg 
Nov 28 08:22:19.158 HYPERVISOR: exec_cmd: vm extract_config ESW1 
Nov 28 08:22:19.203 HYPERVISOR: exec_cmd: nio create_udp udp-559a13a6-b9f0-4471-9676-8db6eedfeac8 15001 127.0.0.1 15002 
Nov 28 08:22:19.209 HYPERVISOR: exec_cmd: vm slot_add_nio_binding ESW1 1 2 udp-559a13a6-b9f0-4471-9676-8db6eedfeac8 
Nov 28 08:22:19.209 HYPERVISOR: exec_cmd: vm get_status ESW1 
Nov 28 08:22:19.244 HYPERVISOR: exec_cmd: nio create_udp udp-8d71aa32-d769-463c-aa40-2ff90402f6f8 15000 127.0.0.1 15003 
Nov 28 08:22:19.245 HYPERVISOR: exec_cmd: vm slot_add_nio_binding ESW1 1 1 udp-8d71aa32-d769-463c-aa40-2ff90402f6f8 
Nov 28 08:22:19.245 HYPERVISOR: exec_cmd: vm get_status ESW1 
