Nov 28 08:22:24.817 HYPERVISOR: Release 0.2.17-amd64/Linux (tag 2017072410)
Nov 28 08:22:24.817 HYPERVISOR: Started on IP = 127.0.0.1, TCP port = 43345.
Nov 28 08:22:24.835 HYPERVISOR: exec_cmd: hypervisor version 
Nov 28 08:22:24.836 HYPERVISOR: exec_cmd: hypervisor working_dir /media/actionmystique/SAMSUNG5-VMs/Labs/GNS3/TT 2-linux-/project-files/dynamips 
Nov 28 08:22:24.836 GENERAL: working_dir=/media/actionmystique/SAMSUNG5-VMs/Labs/GNS3/TT 2-linux-/project-files/dynamips
Nov 28 08:22:24.836 HYPERVISOR: exec_cmd: vm create ESW1 1 c3725 
Nov 28 08:22:24.836 VM: VM ESW1 created.
Nov 28 08:22:24.836 HYPERVISOR: exec_cmd: vm set_con_tcp_port ESW1 2001 
Nov 28 08:22:24.837 HYPERVISOR: exec_cmd: vm set_aux_tcp_port ESW1 2501 
Nov 28 08:22:24.837 HYPERVISOR: exec_cmd: c3725 get_mac_addr ESW1 
Nov 28 08:22:24.837 HYPERVISOR: exec_cmd: vm set_disk0 ESW1 1 
Nov 28 08:22:24.838 HYPERVISOR: exec_cmd: vm get_status ESW1 
Nov 28 08:22:24.838 HYPERVISOR: exec_cmd: vm slot_add_binding ESW1 1 0 NM-16ESW 
Nov 28 08:22:24.839 HYPERVISOR: exec_cmd: vm set_ios ESW1 /media/actionmystique/SAMSUNG5-VMs/Images/GNS3/IOS/c3725-adventerprisek9-mz.124-15.T10.image 
Nov 28 08:22:24.839 HYPERVISOR: exec_cmd: c3725 set_mac_addr ESW1 c201.3297.0000 
Nov 28 08:22:24.839 HYPERVISOR: exec_cmd: vm slot_add_binding ESW1 0 16 WIC-2T 
Nov 28 08:22:24.840 HYPERVISOR: exec_cmd: vm get_status ESW1 
Nov 28 08:22:24.840 HYPERVISOR: exec_cmd: vm set_idle_pc ESW1 0x614ac2c4 
Nov 28 08:22:24.840 HYPERVISOR: exec_cmd: vm set_nvram ESW1 256 
Nov 28 08:22:24.841 HYPERVISOR: exec_cmd: vm set_config ESW1 configs/i1_startup-config.cfg 
Nov 28 08:22:24.841 HYPERVISOR: exec_cmd: vm set_config ESW1 configs/i1_startup-config.cfg configs/i1_private-config.cfg 
Nov 28 08:22:24.960 HYPERVISOR: exec_cmd: nio create_udp udp-e6ce6f53-57f1-4200-bb24-09137a7b660d 15000 127.0.0.1 15001 
Nov 28 08:22:24.960 HYPERVISOR: exec_cmd: vm slot_add_nio_binding ESW1 1 1 udp-e6ce6f53-57f1-4200-bb24-09137a7b660d 
Nov 28 08:22:24.961 HYPERVISOR: exec_cmd: vm get_status ESW1 
Nov 28 08:22:24.967 HYPERVISOR: exec_cmd: nio create_udp udp-3322ea57-f755-42d7-a6e0-036e013d84fd 15002 127.0.0.1 15003 
Nov 28 08:22:24.968 HYPERVISOR: exec_cmd: vm slot_add_nio_binding ESW1 1 2 udp-3322ea57-f755-42d7-a6e0-036e013d84fd 
Nov 28 08:22:24.968 HYPERVISOR: exec_cmd: vm get_status ESW1 
Nov 28 08:22:50.958 HYPERVISOR: exec_cmd: vm get_status ESW1 
Nov 28 08:22:50.959 HYPERVISOR: exec_cmd: vm extract_config ESW1 
Nov 28 08:22:50.960 HYPERVISOR: exec_cmd: vm delete ESW1 
Nov 28 08:22:50.960 VM: VM ESW1 destroyed.
Nov 28 08:22:50.962 HYPERVISOR: exec_cmd: hypervisor stop 
Nov 28 08:22:51.364 HYPERVISOR: Stopped.
Nov 28 08:22:51.364 GENERAL: reset done.
