Nov 28 08:23:09.438 HYPERVISOR: Release 0.2.17-amd64/Linux (tag 2017072410)
Nov 28 08:23:09.438 HYPERVISOR: Started on IP = 127.0.0.1, TCP port = 49121.
Nov 28 08:23:09.451 HYPERVISOR: exec_cmd: hypervisor version 
Nov 28 08:23:09.451 HYPERVISOR: exec_cmd: hypervisor working_dir /media/actionmystique/SAMSUNG5-VMs/Labs/GNS3/TT 2-linux-/project-files/dynamips 
Nov 28 08:23:09.451 GENERAL: working_dir=/media/actionmystique/SAMSUNG5-VMs/Labs/GNS3/TT 2-linux-/project-files/dynamips
Nov 28 08:23:09.452 HYPERVISOR: exec_cmd: vm create ESW1 1 c3725 
Nov 28 08:23:09.452 VM: VM ESW1 created.
Nov 28 08:23:09.452 HYPERVISOR: exec_cmd: vm set_con_tcp_port ESW1 2001 
Nov 28 08:23:09.452 HYPERVISOR: exec_cmd: vm set_aux_tcp_port ESW1 2501 
Nov 28 08:23:09.453 HYPERVISOR: exec_cmd: c3725 get_mac_addr ESW1 
Nov 28 08:23:09.453 HYPERVISOR: exec_cmd: vm set_disk0 ESW1 1 
Nov 28 08:23:09.453 HYPERVISOR: exec_cmd: vm get_status ESW1 
Nov 28 08:23:09.454 HYPERVISOR: exec_cmd: vm slot_add_binding ESW1 1 0 NM-16ESW 
Nov 28 08:23:09.454 HYPERVISOR: exec_cmd: vm set_ios ESW1 /media/actionmystique/SAMSUNG5-VMs/Images/GNS3/IOS/c3725-adventerprisek9-mz.124-15.T10.image 
Nov 28 08:23:09.455 HYPERVISOR: exec_cmd: c3725 set_mac_addr ESW1 c201.3297.0000 
Nov 28 08:23:09.455 HYPERVISOR: exec_cmd: vm slot_add_binding ESW1 0 16 WIC-2T 
Nov 28 08:23:09.456 HYPERVISOR: exec_cmd: vm get_status ESW1 
Nov 28 08:23:09.456 HYPERVISOR: exec_cmd: vm set_idle_pc ESW1 0x614ac2c4 
Nov 28 08:23:09.456 HYPERVISOR: exec_cmd: vm set_nvram ESW1 256 
Nov 28 08:23:09.457 HYPERVISOR: exec_cmd: vm set_config ESW1 configs/i1_startup-config.cfg 
Nov 28 08:23:09.457 HYPERVISOR: exec_cmd: vm set_config ESW1 configs/i1_startup-config.cfg configs/i1_private-config.cfg 
Nov 28 08:23:09.572 HYPERVISOR: exec_cmd: nio create_udp udp-f7be4a5c-4268-496f-8654-09d7f068a405 15000 127.0.0.1 15001 
Nov 28 08:23:09.579 HYPERVISOR: exec_cmd: vm slot_add_nio_binding ESW1 1 1 udp-f7be4a5c-4268-496f-8654-09d7f068a405 
Nov 28 08:23:09.580 HYPERVISOR: exec_cmd: vm get_status ESW1 
Nov 28 08:23:09.585 HYPERVISOR: exec_cmd: nio create_udp udp-1122dee5-b683-4ec2-8ff9-033078ed8d89 15002 127.0.0.1 15003 
Nov 28 08:23:09.586 HYPERVISOR: exec_cmd: vm slot_add_nio_binding ESW1 1 2 udp-1122dee5-b683-4ec2-8ff9-033078ed8d89 
Nov 28 08:23:09.586 HYPERVISOR: exec_cmd: vm get_status ESW1 
Nov 28 08:23:18.794 HYPERVISOR: exec_cmd: vm get_status ESW1 
Nov 28 08:23:18.795 HYPERVISOR: exec_cmd: vm extract_config ESW1 
Nov 28 08:23:18.796 HYPERVISOR: exec_cmd: vm delete ESW1 
Nov 28 08:23:18.796 VM: VM ESW1 destroyed.
Nov 28 08:23:18.796 HYPERVISOR: exec_cmd: hypervisor stop 
Nov 28 08:23:18.961 HYPERVISOR: Stopped.
Nov 28 08:23:18.961 GENERAL: reset done.
