tclsh
foreach address {
10.1.1.1
10.1.33.1
10.1.65.1
10.1.97.1
10.1.129.1
10.1.161.1
10.2.1.1
10.2.33.1
10.2.65.1
10.2.97.1
10.2.129.1
10.2.161.1
10.3.1.1
10.3.33.1
10.3.65.1
10.3.97.1
10.3.129.1
10.3.161.1
172.16.124.1
172.16.124.2
172.16.124.3
} {
ping $address }
exit
