Nov 27 16:23:17.148 HYPERVISOR: Release 0.2.17-amd64/Linux (tag 2017072410)
Nov 27 16:23:17.148 HYPERVISOR: Started on IP = 127.0.0.1, TCP port = 35841.
Nov 27 16:23:17.168 HYPERVISOR: exec_cmd: hypervisor version 
Nov 27 16:23:17.169 HYPERVISOR: exec_cmd: hypervisor working_dir /media/actionmystique/SAMSUNG5-VMs/Labs/GNS3/TT 1-linux-/project-files/dynamips 
Nov 27 16:23:17.169 GENERAL: working_dir=/media/actionmystique/SAMSUNG5-VMs/Labs/GNS3/TT 1-linux-/project-files/dynamips
Nov 27 16:23:17.170 HYPERVISOR: exec_cmd: vm create SW1 1 c3725 
Nov 27 16:23:17.170 VM: VM SW1 created.
Nov 27 16:23:17.171 HYPERVISOR: exec_cmd: vm set_con_tcp_port SW1 2001 
Nov 27 16:23:17.171 HYPERVISOR: exec_cmd: c3725 get_mac_addr SW1 
Nov 27 16:23:17.172 HYPERVISOR: exec_cmd: vm set_nvram SW1 256 
Nov 27 16:23:17.173 HYPERVISOR: exec_cmd: vm get_status SW1 
Nov 27 16:23:17.174 HYPERVISOR: exec_cmd: vm set_idle_pc SW1 0x60c056e4 
Nov 27 16:23:17.175 HYPERVISOR: exec_cmd: c3725 set_mac_addr SW1 aaaa.aaaa.aaaa 
Nov 27 16:23:17.176 HYPERVISOR: exec_cmd: vm set_exec_area SW1 16 
Nov 27 16:23:17.177 HYPERVISOR: exec_cmd: vm get_status SW1 
Nov 27 16:23:17.178 HYPERVISOR: exec_cmd: vm slot_add_binding SW1 1 0 NM-16ESW 
Nov 27 16:23:17.179 HYPERVISOR: exec_cmd: vm set_disk0 SW1 1 
Nov 27 16:23:17.181 HYPERVISOR: exec_cmd: vm set_ios SW1 /media/actionmystique/SAMSUNG5-VMs/Images/GNS3/IOS/c3725-adventerprisek9-mz.124-15.T10.image 
Nov 27 16:23:17.182 HYPERVISOR: exec_cmd: vm slot_add_binding SW1 0 16 WIC-2T 
Nov 27 16:23:17.183 HYPERVISOR: exec_cmd: vm set_config SW1 configs/i1_startup-config.cfg 
Nov 27 16:23:17.185 HYPERVISOR: exec_cmd: vm set_config SW1 configs/i1_startup-config.cfg configs/i1_private-config.cfg 
Nov 27 16:23:17.425 HYPERVISOR: exec_cmd: nio create_udp udp-4731e87d-5642-42d3-87af-4d8fd968e7ff 15006 127.0.0.1 15005 
Nov 27 16:23:17.429 HYPERVISOR: exec_cmd: vm slot_add_nio_binding SW1 1 5 udp-4731e87d-5642-42d3-87af-4d8fd968e7ff 
Nov 27 16:23:17.429 HYPERVISOR: exec_cmd: vm get_status SW1 
Nov 27 16:23:17.446 HYPERVISOR: exec_cmd: nio create_udp udp-417a4caf-3db8-48b5-a4f5-8f5e4eaaaeb7 15009 127.0.0.1 15008 
Nov 27 16:23:17.447 HYPERVISOR: exec_cmd: vm slot_add_nio_binding SW1 1 6 udp-417a4caf-3db8-48b5-a4f5-8f5e4eaaaeb7 
Nov 27 16:23:17.451 HYPERVISOR: exec_cmd: vm get_status SW1 
Nov 27 16:23:17.484 HYPERVISOR: exec_cmd: nio create_udp udp-0fe10b4d-63f1-45e1-82b2-f9902fb3291a 15012 127.0.0.1 15011 
Nov 27 16:23:17.485 HYPERVISOR: exec_cmd: vm slot_add_nio_binding SW1 1 0 udp-0fe10b4d-63f1-45e1-82b2-f9902fb3291a 
Nov 27 16:23:17.485 HYPERVISOR: exec_cmd: vm get_status SW1 
Nov 27 16:23:17.497 HYPERVISOR: exec_cmd: nio create_udp udp-7ffd5de4-185d-46fd-962a-969405b7ba9d 15010 127.0.0.1 15013 
Nov 27 16:23:17.500 HYPERVISOR: exec_cmd: vm slot_add_nio_binding SW1 1 1 udp-7ffd5de4-185d-46fd-962a-969405b7ba9d 
Nov 27 16:23:17.503 HYPERVISOR: exec_cmd: vm get_status SW1 
Nov 27 16:23:31.789 HYPERVISOR: exec_cmd: vm get_status SW1 
Nov 27 16:23:31.791 HYPERVISOR: exec_cmd: vm extract_config SW1 
Nov 27 16:23:31.793 HYPERVISOR: exec_cmd: vm delete SW1 
Nov 27 16:23:31.793 VM: VM SW1 destroyed.
Nov 27 16:23:31.795 HYPERVISOR: exec_cmd: hypervisor stop 
Nov 27 16:23:32.181 HYPERVISOR: Stopped.
Nov 27 16:23:32.181 GENERAL: reset done.
