autostart = False
version = 0.8.7
[127.0.0.1:7202]
    workingdir = /tmp
    udp = 10200
    [[7200]]
        image = /home/actionmystique/Google Drive/Missions/Certifications/Cisco/IOS/Binaries/c7200-adventerprisek9-mz.152-4.M2.image
        ram = 512
        idlepc = 0x60188e14
        sparsemem = True
        ghostios = True
    [[ROUTER R5]]
        console = 2003
        aux = 2103
        cnfg = configs/R5.cfg
        slot0 = C7200-IO-GE-E
        slot1 = PA-8T
        s1/0 = FR1 5
        x = -4.8284271247
        y = 197.414213562
        z = 1.0
    [[ROUTER WAN2]]
        console = 2005
        aux = 2105
        cnfg = configs/WAN2.cfg
        slot0 = C7200-IO-GE-E
        g0/0 = WAN1 g0/0
        slot1 = PA-8T
        s1/0 = FR1 2
        slot2 = PA-2FE-TX
        f2/0 = R14 f1/0
        f2/1 = R13 f2/0
        x = 75.585786438
        y = 47.0
        z = 1.0
[127.0.0.1:7203]
    workingdir = /tmp
    udp = 10100
    [[7200]]
        image = /home/actionmystique/Google Drive/Missions/Certifications/Cisco/IOS/Binaries/c7200-adventerprisek9-mz.152-4.M2.image
        ram = 512
        idlepc = 0x60188e14
        sparsemem = True
        ghostios = True
    [[ROUTER R11]]
        console = 2051
        aux = 2151
        cnfg = configs/R11.cfg
        slot0 = C7200-IO-GE-E
        g0/0 = I11 g0/0
        slot1 = PA-2FE-TX
        f1/0 = R13 f1/1
        f1/1 = R16 f1/1
        slot2 = PA-8T
        s2/0 = I11 s1/0
        s2/1 = I16 s1/0
        x = 451.757359313
        y = -254.757359313
        z = 1.0
    [[ROUTER I11]]
        console = 2012
        aux = 2112
        cnfg = configs/I11.cfg
        slot0 = C7200-IO-GE-E
        g0/0 = R11 g0/0
        slot1 = PA-8T
        s1/0 = R11 s2/0
        s1/1 = I6 s1/1
        s1/2 = I7 s1/2
        s1/3 = I16 s1/1
        s1/4 = I12 s1/0
        x = 779.91883092
        y = -308.17871555
        z = 1.0
[127.0.0.1:7200]
    workingdir = /tmp
    udp = 10000
    [[7200]]
        image = /home/actionmystique/Google Drive/Missions/Certifications/Cisco/IOS/Binaries/c7200-adventerprisek9-mz.152-4.M2.image
        ram = 512
        idlepc = 0x60188e14
        sparsemem = True
        ghostios = True
    [[ROUTER R13]]
        console = 2013
        aux = 2113
        cnfg = configs/R13.cfg
        slot0 = C7200-IO-GE-E
        g0/0 = R14 g0/0
        slot1 = PA-2FE-TX
        f1/0 = WAN1 f2/0
        f1/1 = R11 f1/0
        slot2 = PA-2FE-TX
        f2/0 = WAN2 f2/1
        x = 311.749350086
        y = -254.249783362
        z = 1.0
    [[FRSW FR1]]
        1:103 = 3:301
        1:104 = 4:401
        1:105 = 5:501
        2:203 = 3:302
        2:204 = 4:402
        2:205 = 5:502
        3:301 = 1:103
        3:302 = 2:203
        4:401 = 1:104
        4:402 = 2:204
        5:501 = 1:105
        5:502 = 2:205
        1 = WAN1 s1/0
        2 = WAN2 s1/0
        3 = ASBR3 s1/0
        4 = ASBR4 s1/0
        5 = R5 s1/0
        x = -93.3578643763
        y = -110.5
        z = 1.0
    [[ROUTER WAN1]]
        console = 2000
        aux = 2100
        cnfg = configs/WAN1.cfg
        slot0 = C7200-IO-GE-E
        g0/0 = WAN2 g0/0
        slot1 = PA-8T
        s1/0 = FR1 1
        slot2 = PA-2FE-TX
        f2/0 = R13 f1/0
        f2/1 = R14 f2/0
        x = 76.0
        y = -252.0
        z = 1.0
[127.0.0.1:7201]
    workingdir = /tmp
    udp = 10300
    [[7200]]
        image = /home/actionmystique/Google Drive/Missions/Certifications/Cisco/IOS/Binaries/c7200-adventerprisek9-mz.152-4.M2.image
        ram = 512
        idlepc = 0x60188e14
        sparsemem = True
        ghostios = True
    [[ROUTER ASBR3]]
        console = 2001
        aux = 2101
        cnfg = configs/ASBR3.cfg
        slot0 = C7200-IO-GE-E
        g0/0 = ASBR4 g0/0
        slot1 = PA-8T
        s1/0 = FR1 3
        s1/1 = I3 s1/0
        s1/2 = I5 s1/2
        s1/3 = I3 s1/3
        x = -472.225396745
        y = -168.017243942
        z = 1.0
    [[ROUTER ASBR4]]
        console = 2002
        aux = 2102
        cnfg = configs/ASBR4.cfg
        slot0 = C7200-IO-GE-E
        g0/0 = ASBR3 g0/0
        slot1 = PA-8T
        s1/0 = FR1 4
        s1/1 = I5 s1/0
        s1/2 = I3 s1/2
        x = -471.811183182
        y = 2.9949493662
        z = 1.0
        hx = 37.1984848099
        hy = -16.5147186257
[127.0.0.1:7206]
    workingdir = /tmp
    udp = 10600
    [[7200]]
        image = /home/actionmystique/Google Drive/Missions/Certifications/Cisco/IOS/Binaries/c7200-adventerprisek9-mz.152-4.M2.image
        ram = 512
        idlepc = 0x60188e14
        sparsemem = True
        ghostios = True
    [[ROUTER I3]]
        console = 2015
        aux = 2115
        cnfg = configs/I3.cfg
        slot0 = C7200-IO-GE-E
        g0/0 = I5 g0/0
        slot1 = PA-8T
        s1/0 = ASBR3 s1/1
        s1/1 = I4 s1/0
        s1/2 = ASBR4 s1/2
        s1/3 = ASBR3 s1/3
        x = -748.910821693
        y = -242.936074863
        z = 1.0
    [[ROUTER I5]]
        console = 2056
        aux = 2156
        cnfg = configs/I5.cfg
        slot0 = C7200-IO-GE-E
        g0/0 = I3 g0/0
        slot1 = PA-8T
        s1/0 = ASBR4 s1/1
        s1/1 = I4 s1/1
        s1/2 = ASBR3 s1/2
        s1/3 = I105 s1/0
        s1/4 = IR4 s1/0
        slot2 = PA-GE
        g2/0 = IR1 g0/0
        slot3 = PA-GE
        g3/0 = IR2 g0/0
        x = -855.217281017
        y = 230.408351355
        z = 1.0
        hx = 28.2225837297
        hy = 45.1016506892
[127.0.0.1:7207]
    workingdir = /tmp
    udp = 10700
    [[7200]]
        image = /home/actionmystique/Google Drive/Missions/Certifications/Cisco/IOS/Binaries/c7200-adventerprisek9-mz.152-4.M2.image
        ram = 512
        idlepc = 0x60188e14
        sparsemem = True
        ghostios = True
    [[ROUTER R14]]
        console = 2019
        aux = 2119
        cnfg = configs/R14.cfg
        slot0 = C7200-IO-GE-E
        g0/0 = R13 g0/0
        slot1 = PA-2FE-TX
        f1/0 = WAN2 f2/0
        f1/1 = R16 f1/0
        slot2 = PA-2FE-TX
        f2/0 = WAN1 f2/1
        x = 313.163563648
        y = 46.977705423
        z = 1.0
    [[ROUTER I4]]
        console = 2017
        aux = 2117
        cnfg = configs/I4.cfg
        slot0 = C7200-IO-GE-E
        slot1 = PA-8T
        s1/0 = I3 s1/1
        s1/1 = I5 s1/1
        s1/2 = IR4 s1/2
        x = -915.738724943
        y = -87.3397182619
        z = 1.0
[127.0.0.1:7204]
    workingdir = /tmp
    udp = 10400
    [[7200]]
        image = /home/actionmystique/Google Drive/Missions/Certifications/Cisco/IOS/Binaries/c7200-adventerprisek9-mz.152-4.M2.image
        ram = 512
        idlepc = 0x60188e14
        sparsemem = True
        ghostios = True
    [[ROUTER R16]]
        console = 2016
        aux = 2116
        cnfg = configs/R16.cfg
        slot0 = C7200-IO-GE-E
        slot1 = PA-2FE-TX
        f1/0 = R14 f1/1
        f1/1 = R11 f1/1
        slot2 = PA-8T
        s2/0 = I6 s1/0
        s2/1 = I16 s1/3
        x = 457.171572876
        y = 48.242640687
        z = 1.0
        hx = 15.0857864376
        hy = -19.3431457505
    [[ROUTER I6]]
        console = 2014
        aux = 2114
        cnfg = configs/I6.cfg
        slot0 = C7200-IO-GE-E
        g0/0 = I7 g0/0
        slot1 = PA-8T
        s1/0 = R16 s2/0
        s1/1 = I11 s1/1
        slot2 = PA-GE
        g2/0 = C1 g0/0
        x = 740.610173055
        y = 136.663996924
        z = 1.0
        hx = 45.390334919
        hy = -22.1387081352
[127.0.0.1:7205]
    workingdir = /tmp
    udp = 10500
    [[7200]]
        image = /home/actionmystique/Google Drive/Missions/Certifications/Cisco/IOS/Binaries/c7200-adventerprisek9-mz.152-4.M2.image
        ram = 512
        idlepc = 0x60188e14
        sparsemem = True
        ghostios = True
    [[ROUTER I7]]
        console = 2041
        aux = 2141
        cnfg = configs/I7.cfg
        slot0 = C7200-IO-GE-E
        g0/0 = I6 g0/0
        slot1 = PA-8T
        s1/0 = C3 s1/0
        s1/1 = I107 s1/1
        s1/2 = I11 s1/2
        s1/3 = I12 s1/2
        slot2 = PA-GE
        g2/0 = C2 g0/0
        x = 871.35533906
        y = 323.345237792
        z = 1.0
        hx = 61.1274401757
        hy = 33.6564832298
    [[ROUTER C3]]
        console = 2044
        aux = 2144
        cnfg = configs/C3.cfg
        slot0 = C7200-IO-GE-E
        slot1 = PA-8T
        s1/0 = I7 s1/0
        x = 421.939297976
        y = 396.442721153
        z = 1.0
        hx = 13.8632027079
        hy = -25.1314589605
[127.0.0.1:7208]
    workingdir = /tmp
    udp = 10800
    [[7200]]
        image = /home/actionmystique/Google Drive/Missions/Certifications/Cisco/IOS/Binaries/c7200-adventerprisek9-mz.152-4.M2.image
        ram = 512
        idlepc = 0x60188e14
        sparsemem = True
        ghostios = True
    [[ROUTER I107]]
        console = 2031
        aux = 2131
        cnfg = configs/I107.cfg
        slot0 = C7200-IO-GE-E
        g0/0 = I106 g1/0
        slot1 = PA-8T
        s1/0 = I105 s1/1
        s1/1 = I7 s1/1
        x = -725.080236724
        y = 459.15113467
        z = 1.0
    [[ROUTER I105]]
        console = 2018
        aux = 2118
        cnfg = configs/I105.cfg
        slot0 = C7200-IO-GE-E
        g0/0 = I106 g0/0
        slot1 = PA-8T
        s1/0 = I5 s1/3
        s1/1 = I107 s1/0
        x = -997.021362219
        y = 451.255823815
        z = 1.0
[127.0.0.1:7209]
    workingdir = /tmp
    udp = 10900
    [[7200]]
        image = /home/actionmystique/Google Drive/Missions/Certifications/Cisco/IOS/Binaries/c7200-adventerprisek9-mz.152-4.M2.image
        ram = 512
        idlepc = 0x60188e14
        sparsemem = True
        ghostios = True
    [[ROUTER IR4]]
        console = 2026
        aux = 2126
        cnfg = configs/IR4.cfg
        slot0 = C7200-IO-GE-E
        slot1 = PA-8T
        s1/0 = I5 s1/4
        s1/2 = I4 s1/2
        x = -456.428527254
        y = 383.383311185
        z = 1.0
        hx = 26.517046844
        hy = -20.3886443524
    [[ROUTER I106]]
        console = 2027
        aux = 2127
        cnfg = configs/I106.cfg
        slot0 = C7200-IO-GE-E
        g0/0 = I105 g0/0
        slot1 = PA-GE
        g1/0 = I107 g0/0
        x = -875.398995856
        y = 517.723861247
        z = 1.0
[127.0.0.1:7212]
    workingdir = /tmp
    udp = 11020
    [[7200]]
        image = /home/actionmystique/Google Drive/Missions/Certifications/Cisco/IOS/Binaries/c7200-adventerprisek9-mz.152-4.M2.image
        ram = 512
        idlepc = 0x60188e14
        sparsemem = True
        ghostios = True
    [[ROUTER C2]]
        console = 2030
        aux = 2526
        cnfg = configs/C2.cfg
        slot0 = C7200-IO-GE-E
        g0/0 = I7 g2/0
        slot1 = PA-GE
        x = 439.993324971
        y = 284.996282525
        z = 1.0
        hx = 21.0
        hy = -20.7080622027
    [[ROUTER C1]]
        console = 2032
        aux = 2528
        cnfg = configs/C1.cfg
        slot0 = C7200-IO-GE-E
        g0/0 = I6 g2/0
        slot1 = PA-GE
        x = 445.500227961
        y = 196.440021874
        z = 1.0
[127.0.0.1:7210]
    workingdir = /tmp
    udp = 10910
    [[7200]]
        image = /home/actionmystique/Google Drive/Missions/Certifications/Cisco/IOS/Binaries/c7200-adventerprisek9-mz.152-4.M2.image
        ram = 512
        idlepc = 0x60188e14
        sparsemem = True
        ghostios = True
    [[ROUTER I16]]
        console = 2024
        aux = 2124
        cnfg = configs/I16.cfg
        slot0 = C7200-IO-GE-E
        slot1 = PA-8T
        s1/0 = R11 s2/1
        s1/1 = I11 s1/3
        s1/2 = I12 s1/1
        s1/3 = R16 s2/1
        x = 679.444876303
        y = -194.852813742
        z = 1.0
    [[ROUTER I12]]
        console = 2025
        aux = 2125
        cnfg = configs/I12.cfg
        slot0 = C7200-IO-GE-E
        slot1 = PA-8T
        s1/0 = I11 s1/4
        s1/1 = I16 s1/2
        s1/2 = I7 s1/3
        x = 918.446968343
        y = -186.367532368
        z = 1.0
[127.0.0.1:7211]
    workingdir = /tmp
    udp = 10920
    [[7200]]
        image = /home/actionmystique/Google Drive/Missions/Certifications/Cisco/IOS/Binaries/c7200-adventerprisek9-mz.152-4.M2.image
        ram = 512
        idlepc = 0x60188e14
        sparsemem = True
        ghostios = True
    [[ROUTER IR1]]
        console = 2029
        aux = 2525
        cnfg = configs/IR1.cfg
        slot0 = C7200-IO-GE-E
        g0/0 = I5 g2/0
        slot1 = PA-GE
        x = -463.468303514
        y = 170.891740843
        z = 1.0
    [[ROUTER IR2]]
        console = 2028
        aux = 2524
        cnfg = configs/IR2.cfg
        slot0 = C7200-IO-GE-E
        g0/0 = I5 g3/0
        slot1 = PA-GE
        x = -460.67890523
        y = 271.641884049
        z = 1.0
[GNS3-DATA]
    configs = configs
    m11 = 0.988514020354
    m22 = 0.988514020354
    [[NOTE 1]]
        text = "1.10/30"
        x = 620.520994749
        y = -183.431457505
    [[NOTE 2]]
        text = "13.3/29"
        x = -396.730932175
        y = -157.664914997
    [[NOTE 3]]
        text = "GooglISP"
        x = -764.19509294
        y = -352.87720036
        font = "MS Shell Dlg 2,16,-1,5,75,0,0,0,0,0"
    [[NOTE 4]]
        text = "10.12.16.2/29"
        x = -13.5269119346
        y = 41.928932188
    [[NOTE 5]]
        text = "eBGP"
        x = 908.975972321
        y = 1.29350596265
        font = "MS Shell Dlg 2,16,-1,5,75,0,0,0,0,0"
    [[NOTE 6]]
        text = "---"
        x = -25.2426406871
        y = 209.242640687
    [[NOTE 7]]
        text = "402"
        x = -265.04163056
        y = -24.4817100368
    [[NOTE 8]]
        text = "1.6/30"
        x = 722.344371239
        y = -296.568542494
    [[NOTE 9]]
        text = "5.1/30"
        x = -796.520994749
        y = -215.147186257
    [[NOTE 10]]
        text = "27.2/24"
        x = 140.414213562
        y = 28.656854249
    [[NOTE 11]]
        text = "15.5/29"
        x = -54.0
        y = 178.0
    [[NOTE 12]]
        text = "200.17.3.1/30"
        x = -577.534592046
        y = -185.852443306
    [[NOTE 13]]
        text = "eBGP"
        x = -982.056035147
        y = 362.162742899
        font = "MS Shell Dlg 2,16,-1,5,75,0,0,0,0,0"
    [[NOTE 14]]
        text = "12.2/24"
        x = 96.970562748
        y = -1.8284271247
    [[NOTE 15]]
        text = "AS 6"
        x = 717.219479559
        y = 69.0315292913
        font = "MS Shell Dlg 2,14,-1,5,75,0,0,0,0,0"
    [[NOTE 16]]
        text = "Tu3 10.11.3.12/28"
        x = -450.902481873
        y = 303.362245558
    [[NOTE 17]]
        text = "401"
        x = -287.254833996
        y = -59.4522727853
    [[NOTE 18]]
        text = "3.10/30"
        x = -674.898628385
        y = -216.159379567
    [[NOTE 19]]
        text = "1.26/30"
        x = 853.866232541
        y = -199.590837072
    [[NOTE 20]]
        text = "205"
        x = -1.56935406757
        y = -6.9651416791
    [[NOTE 21]]
        text = "200.17.3.5/30"
        x = -569.451904795
        y = -116.147963558
    [[NOTE 22]]
        text = "eBGP"
        x = -688.536091669
        y = 382.645783387
        font = "MS Shell Dlg 2,16,-1,5,75,0,0,0,0,0"
    [[NOTE 23]]
        text = "2.6/30"
        x = -789.821828044
        y = 270.106335469
    [[NOTE 24]]
        text = "1.2/30"
        x = -935.737090972
        y = 445.706617304
    [[NOTE 25]]
        text = "3.3/24"
        x = -805.629443234
        y = 525.512749852
    [[NOTE 26]]
        text = "AT&ISP"
        x = -911.614389914
        y = 570.255299114
        font = "MS Shell Dlg 2,16,-1,5,75,0,0,0,0,0"
    [[NOTE 27]]
        text = "13.4/29"
        x = -390.012193309
        y = 4.19595949323
    [[NOTE 28]]
        text = "AS 100"
        x = -884.203902914
        y = 430.388724722
        font = "MS Shell Dlg 2,14,-1,5,75,0,0,0,0,0"
    [[NOTE 29]]
        text = "L1 23.23.23.23/32"
        x = -704.597113194
        y = -278.190908859
    [[NOTE 30]]
        text = "NAT service"
        x = 396.387451155
        y = 465.137723495
        font = "MS Shell Dlg 2,11,-1,5,75,0,0,0,0,0"
    [[NOTE 31]]
        text = "10.10.0.0/16"
        x = -216.693434176
        y = -346.27416998
    [[NOTE 32]]
        text = "---"
        x = -395.876011342
        y = 393.363057129
    [[NOTE 33]]
        text = "100.16.7.2/30"
        x = -653.139977778
        y = 479.615062717
    [[NOTE 34]]
        text = "iBGP"
        x = 786.226622234
        y = -125.230447379
        font = "MS Shell Dlg 2,16,-1,5,75,0,0,0,0,0"
    [[NOTE 35]]
        text = "100.16.7.10/30"
        x = 506.380481196
        y = 284.099491991
    [[NOTE 36]]
        text = "|"
        x = -943.549908125
        y = -78.7539318243
    [[NOTE 37]]
        text = "1.22/30"
        x = 770.959594929
        y = 92.4701294725
    [[NOTE 38]]
        text = "18.1/24"
        x = 141.585786438
        y = -211.828427125
    [[NOTE 39]]
        text = "4.17/29"
        x = -376.628020734
        y = 177.350307379
    [[NOTE 40]]
        text = "100.16.6.2/30"
        x = 537.08239457
        y = 56.5828278446
    [[NOTE 41]]
        text = "Tu16 10.9.163.2/27"
        x = 374.029742478
        y = 325.659987529
    [[NOTE 42]]
        text = "6.9/30"
        x = 700.068160739
        y = 171.612970169
    [[NOTE 43]]
        text = "100.16.7.0/24"
        x = 852.256059484
        y = 420.773736703
    [[NOTE 44]]
        text = "98.8/24"
        x = 370.205194209
        y = 35.9726547893
    [[NOTE 45]]
        text = "1.25/30"
        x = 842.552524042
        y = -285.656854249
    [[NOTE 46]]
        text = "Backbone Area"
        x = -233.663996924
        y = -322.031529293
        font = "MS Shell Dlg 2,12,-1,5,75,0,0,0,0,0"
        color = "#ffffff"
    [[NOTE 47]]
        text = "200.17.9.1/29"
        x = -554.575189637
        y = 206.440887208
    [[NOTE 48]]
        text = "Securing communications between Dual Muti-homed Core Enterprise network and Remote Branch Offices"
        x = -924.0
        y = -610.0
        font = "MS Shell Dlg 2,28,-1,5,75,0,1,0,0,0"
        color = "#0055ff"
    [[NOTE 49]]
        text = "28.8/24"
        x = 251.41125497
        y = 69.102597104
    [[NOTE 50]]
        text = "|"
        x = 416.906958918
        y = 294.230324441
    [[NOTE 51]]
        text = "Tu3 10.11.3.3/28"
        x = -414.33150466
        y = -179.043263094
    [[NOTE 52]]
        text = "200.17.7.5/29"
        x = -564.589711164
        y = 378.060312992
    [[NOTE 53]]
        text = "L11 10.9.11.11/32"
        x = 422.531096017
        y = -299.605122421
    [[NOTE 54]]
        text = "|"
        x = -383.039798052
        y = 393.350503106
    [[NOTE 55]]
        text = "EIGRP"
        x = 264.13917703
        y = -459.612265097
        font = "MS Shell Dlg 2,16,-1,5,75,0,0,0,0,0"
    [[NOTE 56]]
        text = "1.18/30"
        x = 865.226622234
        y = 265.962553522
    [[NOTE 57]]
        text = "OSPF"
        x = -205.379725677
        y = -403.244732729
        font = "MS Shell Dlg 2,16,-1,5,75,0,0,0,0,0"
    [[NOTE 58]]
        text = "Tu16 10.9.163.16/27"
        x = 412.298213921
        y = 96.4804119376
    [[NOTE 59]]
        text = "1.13/30"
        x = 732.243866176
        y = -210.502525317
    [[NOTE 60]]
        text = "NAT service"
        x = -420.965646956
        y = 447.746497993
        font = "MS Shell Dlg 2,11,-1,5,75,0,0,0,0,0"
    [[NOTE 61]]
        text = "10.11.0.0/16"
        x = -216.693434176
        y = -364.457936164
    [[NOTE 62]]
        text = "1.1/30"
        x = -774.516744862
        y = 456.819315676
    [[NOTE 63]]
        text = "10.12.0.0/16"
        x = -46.9878066912
        y = -383.043722601
    [[NOTE 64]]
        text = "99.1/24"
        x = 408.388960393
        y = -225.254833996
    [[NOTE 65]]
        text = "1.2/30"
        x = 729.415439052
        y = -311.923881554
    [[NOTE 66]]
        text = "16.5/29"
        x = 12.0
        y = 150.0
    [[NOTE 67]]
        text = "16.38/27"
        x = 340.506709399
        y = 2.2325394194
    [[NOTE 68]]
        text = "501"
        x = -60.5664504539
        y = 72.066017178
    [[NOTE 69]]
        text = "203"
        x = -5.0
        y = -46.0
    [[NOTE 70]]
        text = "160.1/24"
        x = 429.602163829
        y = -198.585786438
    [[NOTE 71]]
        text = "100.16.6.0/24"
        x = 729.947401619
        y = 230.452885529
    [[NOTE 72]]
        text = "200.17.0.0/16"
        x = -854.526989687
        y = 332.806194452
    [[NOTE 73]]
        text = "200.17.0.0/16"
        x = -760.579869252
        y = -312.936074863
    [[NOTE 74]]
        text = "4.6/30"
        x = -771.141269071
        y = 211.913780286
    [[NOTE 75]]
        text = "eBGP"
        x = -924.937750292
        y = 88.5194352047
        font = "MS Shell Dlg 2,16,-1,5,75,0,0,0,0,0"
    [[NOTE 76]]
        text = "NAT service"
        x = -444.381817717
        y = -227.681240867
        font = "MS Shell Dlg 2,11,-1,5,75,0,0,0,0,0"
    [[NOTE 77]]
        text = "L16 10.9.16.16/27"
        x = 519.354472508
        y = 43.5046173578
    [[NOTE 78]]
        text = "6.4/24"
        x = -820.638743755
        y = 184.239682094
    [[NOTE 79]]
        text = "7.33/29"
        x = 368.823551266
        y = 387.098492886
    [[NOTE 80]]
        text = "200.17.4.5/30"
        x = -575.17459655
        y = 52.2825758741
    [[NOTE 81]]
        text = "6.3/24"
        x = -745.609306503
        y = -175.750216638
    [[NOTE 82]]
        text = "7.13/30"
        x = 809.020667974
        y = 340.308709384
    [[NOTE 83]]
        text = "7.9/30"
        x = 803.298084244
        y = 318.878063452
    [[NOTE 84]]
        text = "17.1/24"
        x = 143.0
        y = -259.0
    [[NOTE 85]]
        text = "16.37/27"
        x = 343.335136524
        y = -210.710678119
    [[NOTE 86]]
        text = "9.6/29"
        x = -759.449616061
        y = 233.987464014
    [[NOTE 87]]
        text = "100.16.6.10/30"
        x = 511.938220624
        y = 216.707360095
    [[NOTE 88]]
        text = "10.9.0.0/16"
        x = 264.139177031
        y = -421.428498912
    [[NOTE 89]]
        text = "San Jose Branch Office"
        x = -577.915078637
        y = 539.263865279
        font = "MS Shell Dlg 2,20,-1,5,75,0,0,0,0,0"
        color = "#0055ff"
    [[NOTE 90]]
        text = "1.29/30"
        x = 739.314933989
        y = -174.336003076
    [[NOTE 91]]
        text = "Tu4 10.11.4.14/28"
        x = -440.887960345
        y = 427.712269464
    [[NOTE 92]]
        text = "7.26/29"
        x = 363.627021765
        y = 295.753300287
    [[NOTE 93]]
        text = "eBGP"
        x = 643.467170881
        y = 60.5462479176
        font = "MS Shell Dlg 2,16,-1,5,75,0,0,0,0,0"
    [[NOTE 94]]
        text = "18.8/24"
        x = 249.997041407
        y = 22.232539419
    [[NOTE 95]]
        text = "Santa Barbara\nBranch Office"
        x = 413.243507238
        y = 524.317892581
        font = "MS Shell Dlg 2,20,-1,5,75,0,0,0,0,0"
        color = "#0055ff"
    [[NOTE 96]]
        text = "5.9/30"
        x = -848.748302335
        y = -53.9042457884
    [[NOTE 97]]
        text = "AS 64494"
        x = -946.409140061
        y = 1.24409031659
        font = "MS Shell Dlg 2,14,-1,5,75,0,0,0,0,0"
    [[NOTE 98]]
        text = "1.30/30"
        x = 853.866232541
        y = -163.223304703
    [[NOTE 99]]
        text = "Tu16 10.9.163.1/27"
        x = 380.476371327
        y = 241.81542741
    [[NOTE 100]]
        text = "7.6/29"
        x = -792.354472507
        y = 286.863277406
    [[NOTE 101]]
        text = "L1 3.3.3.3/32"
        x = -444.381817717
        y = -207.681240867
    [[NOTE 102]]
        text = "|"
        x = 814.800215362
        y = 140.747258045
    [[NOTE 103]]
        text = "5.6/30"
        x = -874.378859125
        y = 206.256926037
    [[NOTE 104]]
        text = "eBGP"
        x = 683.508824619
        y = 440.554035522
        font = "MS Shell Dlg 2,16,-1,5,75,0,0,0,0,0"
    [[NOTE 105]]
        text = "iBGP"
        x = 392.788022054
        y = -107.60093834
        font = "MS Shell Dlg 2,16,-1,5,75,0,0,0,0,0"
    [[NOTE 106]]
        text = "eBGP"
        x = 834.022653515
        y = -26.789755158
        font = "MS Shell Dlg 2,16,-1,5,75,0,0,0,0,0"
    [[NOTE 107]]
        text = "2.2/24"
        x = -964.021362219
        y = 493.387858171
    [[NOTE 108]]
        text = "10.12.15.1/29"
        x = -18.3259018078
        y = -234.526911935
    [[NOTE 109]]
        text = "7.17/29"
        x = 390.644450179
        y = 228.061593016
    [[NOTE 110]]
        text = "1.33/30"
        x = 882.150503789
        y = -135.140043583
    [[NOTE 111]]
        text = "200.17..2.5/30"
        x = -1094.71775499
        y = 435.996805737
    [[NOTE 112]]
        text = "NAT service"
        x = 426.773736705
        y = -320.409162928
        font = "MS Shell Dlg 2,11,-1,5,75,0,0,0,0,0"
    [[NOTE 113]]
        text = "AS 65534"
        x = -219.521861301
        y = 187.49451609
        font = "MS Shell Dlg 2,14,-1,5,75,0,0,0,0,0"
    [[NOTE 114]]
        text = "---"
        x = -937.893053876
        y = -77.3397182619
    [[NOTE 115]]
        text = "1.38/30"
        x = 520.111831821
        y = 15.5706345354
    [[NOTE 116]]
        text = "eBGP"
        x = 747.983981547
        y = -33.4415587736
        font = "MS Shell Dlg 2,16,-1,5,75,0,0,0,0,0"
    [[NOTE 117]]
        text = "Tu4 10.11.4.4/28"
        x = -462.973466363
        y = 49.8310430411
    [[NOTE 118]]
        text = "NAT service"
        x = -467.009234715
        y = -56.7624099466
        font = "MS Shell Dlg 2,11,-1,5,75,0,0,0,0,0"
    [[NOTE 119]]
        text = "3.1/24"
        x = -732.090337991
        y = 499.855895603
    [[NOTE 120]]
        text = "eBGP"
        x = -14.3749816705
        y = 375.2337636
        font = "MS Shell Dlg 2,16,-1,5,75,0,0,0,0,0"
    [[NOTE 121]]
        text = "6.5/30"
        x = 803.486506862
        y = 168.636651714
    [[NOTE 122]]
        text = "AS 64512"
        x = 257.068109219
        y = 219.619407771
        font = "MS Shell Dlg 2,14,-1,5,75,0,0,0,0,0"
    [[NOTE 123]]
        text = "10.11.13.2/29"
        x = -9.5269119346
        y = 24.242640687
    [[NOTE 124]]
        text = "3.6/30"
        x = -792.354472507
        y = 194.742207411
    [[NOTE 125]]
        text = "100.16.1.0/24"
        x = 769.013418797
        y = -92.1177490067
    [[NOTE 126]]
        text = "VerISPon"
        x = 761.841845923
        y = -387.788888606
        font = "MS Shell Dlg 2,16,-1,5,75,0,0,0,0,0"
    [[NOTE 127]]
        text = "1.34/30"
        x = 911.067242669
        y = 287.484414823
    [[NOTE 128]]
        text = "104"
        x = -26.0
        y = -162.0
    [[NOTE 129]]
        text = "4.2/30"
        x = -703.182899632
        y = -196.159379566
    [[NOTE 130]]
        text = "204"
        x = -3.58578643763
        y = -28.0
    [[NOTE 131]]
        text = "103"
        x = -26.0
        y = -179.0
    [[NOTE 132]]
        text = "AS 64493"
        x = -763.994082814
        y = -149.289321882
        font = "MS Shell Dlg 2,14,-1,5,75,0,0,0,0,0"
    [[NOTE 133]]
        text = "---"
        x = 426.554389043
        y = 209.152849615
    [[NOTE 134]]
        text = "Tu4 10.11.4.11/28"
        x = -446.610544075
        y = 218.896049437
    [[NOTE 135]]
        text = "1.9/30"
        x = 493.241774136
        y = -222.828427125
    [[NOTE 136]]
        text = "502"
        x = -29.2426406871
        y = 71.585786438
    [[NOTE 137]]
        text = "ClearwISP"
        x = 848.581961294
        y = 452.371716449
        font = "MS Shell Dlg 2,16,-1,5,75,0,0,0,0,0"
    [[NOTE 138]]
        text = "5.5/30"
        x = -928.683718481
        y = -29.0405408562
    [[NOTE 139]]
        text = "4.44/29"
        x = -372.892729095
        y = 393.233319774
    [[NOTE 140]]
        text = "6.6/30"
        x = 826.214428923
        y = 299.702668892
    [[NOTE 141]]
        text = "|"
        x = 399.335953261
        y = 406.249535596
    [[NOTE 142]]
        text = "|"
        x = -385.673074189
        y = 278.637742586
    [[NOTE 143]]
        text = "AS 64495"
        x = -852.923015002
        y = 313.388960392
        font = "MS Shell Dlg 2,14,-1,5,75,0,0,0,0,0"
    [[NOTE 144]]
        text = "Tu3 10.11.3.14/28"
        x = -440.887960346
        y = 413.55102541
    [[NOTE 145]]
        text = "200.17.5.10/30"
        x = -533.11550065
        y = 346.615145532
    [[NOTE 146]]
        text = "1.21/30"
        x = 766.184991674
        y = -231.916738879
    [[NOTE 147]]
        text = "Tu3 10.11.3.11/28"
        x = -448.041190008
        y = 203.187987234
    [[NOTE 148]]
        text = "ISPcast"
        x = 726.805265997
        y = 28.2203461091
        font = "MS Shell Dlg 2,16,-1,5,75,0,0,0,0,0"
    [[NOTE 149]]
        text = "eBGP"
        x = 568.150503789
        y = -295.289321882
        font = "MS Shell Dlg 2,16,-1,5,75,0,0,0,0,0"
    [[NOTE 150]]
        text = "BelISP"
        x = -916.780355503
        y = -190.136616094
        font = "MS Shell Dlg 2,16,-1,5,75,0,0,0,0,0"
    [[NOTE 151]]
        text = "3.2/30"
        x = -676.312841947
        y = -238.585786438
    [[NOTE 152]]
        text = "100.16.7.14/30"
        x = 482.642579613
        y = 375.866169432
    [[NOTE 153]]
        text = "5.5/27"
        x = -50.0710678119
        y = 223.849242405
    [[NOTE 154]]
        text = "10.10.34.3/24"
        x = -439.573593129
        y = -130.088311755
    [[NOTE 155]]
        text = "Tu4 10.11.4.12/28"
        x = -450.902481873
        y = 317.581575721
    [[NOTE 156]]
        text = "|"
        x = -29.8284271247
        y = 208.914213562
    [[NOTE 157]]
        text = "3..0.0.0/8"
        x = -1014.93305047
        y = 524.091393615
    [[NOTE 158]]
        text = "eBGP"
        x = 558.251008852
        y = -146.99790796
        font = "MS Shell Dlg 2,16,-1,5,75,0,0,0,0,0"
    [[NOTE 159]]
        text = "1.1/30"
        x = 501.727055509
        y = -276.367532368
    [[NOTE 160]]
        text = "10.11.4.0/24"
        x = -463.567986818
        y = 118.515430974
    [[NOTE 161]]
        text = "4.26/29"
        x = -372.605154775
        y = 279.149098992
    [[NOTE 162]]
        text = "200.17.0.0/16"
        x = -927.407772502
        y = -150.469660577
    [[NOTE 163]]
        text = "Tu16 10.9.163.3/27"
        x = 372.190830703
        y = 436.857297111
    [[NOTE 164]]
        text = "6.1/30"
        x = 701.498806672
        y = 115.78873575
    [[NOTE 165]]
        text = "301"
        x = -277.133513652
        y = -153.686291501
    [[NOTE 166]]
        text = "1.17/30"
        x = 807.197184983
        y = -244.443650814
    [[NOTE 167]]
        text = "San Francisco Central Office"
        x = -152.170706324
        y = -498.782612482
        font = "MS Shell Dlg 2,24,-1,5,75,0,0,0,0,0"
        color = "#0055ff"
    [[NOTE 168]]
        text = "BGP with EIGRP and OSPF"
        x = 485.392882539
        y = -554.569354068
        font = "MS Shell Dlg 2,26,-1,5,75,0,1,0,0,0"
    [[NOTE 169]]
        text = "1.14/30"
        x = 736.486506863
        y = -268.284271247
    [[NOTE 170]]
        text = "27.7/24"
        x = 257.068109219
        y = -213.338095117
    [[NOTE 171]]
        text = "105"
        x = -24.0
        y = -143.0
    [[NOTE 172]]
        text = "1.37/30"
        x = 686.989032181
        y = -142.620274323
    [[NOTE 173]]
        text = "7.1/30"
        x = 842.924894044
        y = 360.286729143
    [[NOTE 174]]
        text = "99.7/24"
        x = 358.89148571
        y = -267.48023074
    [[NOTE 175]]
        text = "6.18/28"
        x = 809.143361113
        y = 129.038671967
    [[NOTE 176]]
        text = "98.2/24"
        x = 401.317892581
        y = 49.9137802865
    [[NOTE 177]]
        text = "28.2/24"
        x = 139.0
        y = 70.0
    [[NOTE 178]]
        text = "|"
        x = -388.013666685
        y = 175.791730677
    [[NOTE 179]]
        text = "200.17.3.9/30"
        x = -576.719135533
        y = -156.561399819
    [[NOTE 180]]
        text = "160.2/24"
        x = 425.359523142
        y = 2.03152929237
    [[NOTE 181]]
        text = "---"
        x = -401.565202942
        y = 175.992740804
    [[NOTE 182]]
        text = "MetroISP"
        x = -856.986940138
        y = 357.582827845
        font = "MS Shell Dlg 2,16,-1,5,75,0,0,0,0,0"
    [[NOTE 183]]
        text = "12.1/24"
        x = 93.970562748
        y = -182.828427125
    [[NOTE 184]]
        text = "10.10.34.4/24"
        x = -434.845671067
        y = -34.5613998203
    [[NOTE 185]]
        text = "2.3/24"
        x = -925.837596035
        y = 522.885332854
    [[NOTE 186]]
        text = "17.7/24"
        x = 251.41125497
        y = -262.634559673
    [[NOTE 187]]
        text = "200.17.16.0/20"
        x = -1000.20022936
        y = -57.5115631127
    [[NOTE 188]]
        text = "200.17.8.2/29"
        x = -548.852605908
        y = 292.2506001
    [[NOTE 189]]
        text = "5.2/30"
        x = -855.063479014
        y = -113.11047144
    [[NOTE 190]]
        text = "---"
        x = 800.658079738
        y = 142.161471607
    [[NOTE 191]]
        text = "OSPF"
        x = -32.8456710674
        y = -440.014285351
        font = "MS Shell Dlg 2,16,-1,5,75,0,0,0,0,0"
    [[NOTE 192]]
        text = "AS 7"
        x = 939.351513915
        y = 320.305699271
        font = "MS Shell Dlg 2,14,-1,5,75,0,0,0,0,0"
    [[NOTE 193]]
        text = "eBGP"
        x = -639.882112574
        y = -149.599783299
        font = "MS Shell Dlg 2,16,-1,5,75,0,0,0,0,0"
    [[NOTE 194]]
        text = "ISP & T"
        x = 18.7125995055
        y = 636.709661494
        font = "MS Shell Dlg 2,16,-1,5,75,0,0,0,0,0"
    [[NOTE 195]]
        text = "iBGP"
        x = -855.241708329
        y = 459.103586923
        font = "MS Shell Dlg 2,16,-1,5,75,0,0,0,0,0"
    [[NOTE 196]]
        text = "NAT service"
        x = 423.94530958
        y = -26.051731828
        font = "MS Shell Dlg 2,11,-1,5,75,0,0,0,0,0"
    [[NOTE 197]]
        text = "Area 5"
        x = -1.7329726953
        y = -336.374675043
        font = "MS Shell Dlg 2,12,-1,5,75,0,0,0,0,0"
        color = "#ffffff"
    [[NOTE 198]]
        text = "1.5/30"
        x = 521.526045382
        y = -249.69848481
    [[NOTE 199]]
        text = "AS 1"
        x = 872.251008851
        y = -317.178715551
        font = "MS Shell Dlg 2,14,-1,5,75,0,0,0,0,0"
    [[NOTE 200]]
        text = "---"
        x = 402.978297573
        y = 407.01223324
    [[NOTE 201]]
        text = "---"
        x = -399.643636938
        y = 278.838752713
    [[NOTE 202]]
        text = "Area 4"
        x = -454.963805647
        y = 96.3313286268
        font = "MS Shell Dlg 2,12,-1,5,75,0,0,0,0,0"
        color = "#ffffff"
    [[NOTE 203]]
        text = "10.11.13.1/29"
        x = -19.0121933088
        y = -212.029437252
    [[NOTE 204]]
        text = "302"
        x = -272.06244584
        y = -109.765981284
    [[NOTE 205]]
        text = "200.17.4.1/30"
        x = -562.701269255
        y = -26.4932325679
    [[NOTE 206]]
        text = "|"
        x = 422.464698346
        y = 209.37086598
    [[NOTE 207]]
        text = "8.6/29"
        x = -766.602845723
        y = 252.556818082
    [[NOTE 208]]
        text = "Redundant DMVPN Tunnels (phase II): mGRE over IPsec with NHRP"
        x = -873.463936534
        y = -554.177771247
        font = "MS Shell Dlg 2,26,-1,5,75,0,1,0,0,0"
    [[NOTE 209]]
        text = "---"
        x = 420.996649615
        y = 294.012308076
    [[SHAPE 1]]
        type = ellipse
        x = -1063.01631159
        y = 433.657844069
        width = 431.335136523
        height = 131.5218613
        fill_color = "#ff5500"
        border_style = 2
    [[SHAPE 2]]
        type = ellipse
        x = 93.019335984
        y = -425.997041407
        width = 425.997041407
        height = 681.650937064
        fill_color = "#00ffff"
        border_style = 2
    [[SHAPE 3]]
        type = ellipse
        x = 351.223576413
        y = -214.596889865
        width = 160.232344433
        height = 734.596889865
        fill_color = "#00ffff"
        border_style = 2
        z = -1.0
    [[SHAPE 4]]
        type = ellipse
        x = -830.462120245
        y = -317.102597104
        width = 236.173664916
        height = 199.404112294
        fill_color = "#ffaaff"
        border_style = 2
        z = -2.0
    [[SHAPE 5]]
        type = ellipse
        x = -978.954544294
        y = -158.710678119
        width = 200.0
        height = 200.0
        fill_color = "#ffd8ff"
        border_style = 2
        z = -2.0
    [[SHAPE 6]]
        type = ellipse
        x = -455.0
        y = -367.0
        width = 565.0
        height = 588.0
        fill_color = "#00aaff"
        border_style = 2
        z = -2.0
    [[SHAPE 7]]
        type = ellipse
        x = -901.24891681
        y = 154.811183182
        width = 200.0
        height = 200.0
        fill_color = "#ff00ff"
        border_style = 2
        z = -2.0
    [[SHAPE 8]]
        type = ellipse
        x = 785.071067812
        y = 249.759451354
        width = 213.202235616
        height = 209.193867452
        fill_color = "#c9ff15"
        border_style = 2
        z = -2.0
    [[SHAPE 9]]
        type = ellipse
        x = 677.621499812
        y = 59.4091629284
        width = 200.0
        height = 200.0
        fill_color = "#ffff7f"
        border_style = 2
        z = -2.0
    [[SHAPE 10]]
        type = ellipse
        x = 617.692567624
        y = -348.215295476
        width = 381.83766184
        height = 284.256926037
        fill_color = "#ffff00"
        border_style = 2
        z = -2.0
    [[SHAPE 11]]
        type = ellipse
        x = -457.806698379
        y = -148.787176973
        width = 170.24686596
        height = 685.186238633
        fill_color = "#55aaff"
        border_style = 2
        z = -3.0
    [[SHAPE 12]]
        type = ellipse
        x = -102.142135624
        y = -406.198051534
        width = 205.060966544
        height = 719.834703248
        fill_color = "#0055ff"
        border_style = 2
        z = -3.0
