Nov 29 15:24:36.488 HYPERVISOR: Release 0.2.17-amd64/Linux (tag 2017072410)
Nov 29 15:24:36.488 HYPERVISOR: Started on IP = 127.0.0.1, TCP port = 45297.
Nov 29 15:24:36.529 HYPERVISOR: exec_cmd: hypervisor version 
Nov 29 15:24:36.530 HYPERVISOR: exec_cmd: hypervisor working_dir /media/actionmystique/SAMSUNG5-VMs/Labs/GNS3/TT 1-solutions-linux-/project-files/dynamips 
Nov 29 15:24:36.530 GENERAL: working_dir=/media/actionmystique/SAMSUNG5-VMs/Labs/GNS3/TT 1-solutions-linux-/project-files/dynamips
Nov 29 15:24:36.530 HYPERVISOR: exec_cmd: vm create ESW1 1 c3725 
Nov 29 15:24:36.531 VM: VM ESW1 created.
Nov 29 15:24:36.531 HYPERVISOR: exec_cmd: vm set_con_tcp_port ESW1 2004 
Nov 29 15:24:36.531 HYPERVISOR: exec_cmd: c3725 get_mac_addr ESW1 
Nov 29 15:24:36.532 HYPERVISOR: exec_cmd: vm get_status ESW1 
Nov 29 15:24:36.532 HYPERVISOR: exec_cmd: vm slot_add_binding ESW1 1 0 NM-16ESW 
Nov 29 15:24:36.533 HYPERVISOR: exec_cmd: c3725 set_mac_addr ESW1 c201.1b91.0000 
Nov 29 15:24:36.533 HYPERVISOR: exec_cmd: vm set_disk0 ESW1 1 
Nov 29 15:24:36.534 HYPERVISOR: exec_cmd: vm set_nvram ESW1 256 
Nov 29 15:24:36.535 HYPERVISOR: exec_cmd: vm set_ios ESW1 /media/actionmystique/SAMSUNG5-VMs/Images/GNS3/IOS/c3725-adventerprisek9-mz.124-15.T10.image 
Nov 29 15:24:36.536 HYPERVISOR: exec_cmd: vm get_status ESW1 
Nov 29 15:24:36.537 HYPERVISOR: exec_cmd: vm set_idle_pc ESW1 0x60c06d20 
Nov 29 15:24:36.537 HYPERVISOR: exec_cmd: vm slot_add_binding ESW1 0 16 WIC-2T 
Nov 29 15:24:36.542 HYPERVISOR: exec_cmd: vm set_config ESW1 configs/ios_base_startup-config.txt 
Nov 29 15:24:36.544 HYPERVISOR: exec_cmd: vm set_config ESW1 configs/ios_base_startup-config.txt configs/ios_base_private-config.txt 
Nov 29 15:24:36.852 HYPERVISOR: exec_cmd: nio create_udp udp-4358c956-2e24-4222-b027-7560b268283e 15008 127.0.0.1 15007 
Nov 29 15:24:36.853 HYPERVISOR: exec_cmd: vm slot_add_nio_binding ESW1 1 0 udp-4358c956-2e24-4222-b027-7560b268283e 
Nov 29 15:24:36.853 HYPERVISOR: exec_cmd: vm get_status ESW1 
Nov 29 15:24:36.877 HYPERVISOR: exec_cmd: nio create_udp udp-c68fe07b-80a7-4d5e-9297-6defb902d25d 15009 127.0.0.1 15004 
Nov 29 15:24:36.878 HYPERVISOR: exec_cmd: vm slot_add_nio_binding ESW1 1 1 udp-c68fe07b-80a7-4d5e-9297-6defb902d25d 
Nov 29 15:24:36.884 HYPERVISOR: exec_cmd: vm get_status ESW1 
Nov 29 15:24:54.868 HYPERVISOR: exec_cmd: vm get_status ESW1 
Nov 29 15:24:54.870 HYPERVISOR: exec_cmd: vm extract_config ESW1 
Nov 29 15:24:54.872 HYPERVISOR: exec_cmd: vm delete ESW1 
Nov 29 15:24:54.872 VM: VM ESW1 destroyed.
Nov 29 15:24:54.875 HYPERVISOR: exec_cmd: hypervisor stop 
Nov 29 15:24:55.047 HYPERVISOR: Stopped.
Nov 29 15:24:55.047 GENERAL: reset done.
