Nov 29 15:24:29.749 HYPERVISOR: Release 0.2.17-amd64/Linux (tag 2017072410)
Nov 29 15:24:29.749 HYPERVISOR: Started on IP = 127.0.0.1, TCP port = 46515.
Nov 29 15:24:29.761 HYPERVISOR: exec_cmd: hypervisor version 
Nov 29 15:24:29.765 HYPERVISOR: exec_cmd: hypervisor working_dir /media/actionmystique/SAMSUNG5-VMs/Labs/GNS3/git-Public-Labs-Collection/CCNP/TBSHOOT/L3-Technologies/IPv4/Routing-Protocols/Redistribution/Jean-Christophe_Manciot/1+/TT 1-solutions-linux/project-files/dynamips 
Nov 29 15:24:29.765 GENERAL: working_dir=/media/actionmystique/SAMSUNG5-VMs/Labs/GNS3/git-Public-Labs-Collection/CCNP/TBSHOOT/L3-Technologies/IPv4/Routing-Protocols/Redistribution/Jean-Christophe_Manciot/1+/TT 1-solutions-linux/project-files/dynamips
Nov 29 15:24:29.766 HYPERVISOR: exec_cmd: vm create ESW5 5 c3725 
Nov 29 15:24:29.766 VM: VM ESW5 created.
Nov 29 15:24:29.767 HYPERVISOR: exec_cmd: vm set_con_tcp_port ESW5 2010 
Nov 29 15:24:29.768 HYPERVISOR: exec_cmd: c3725 get_mac_addr ESW5 
Nov 29 15:24:29.769 HYPERVISOR: exec_cmd: vm get_status ESW5 
Nov 29 15:24:29.769 HYPERVISOR: exec_cmd: vm set_idle_pc ESW5 0x60c06d20 
Nov 29 15:24:29.769 HYPERVISOR: exec_cmd: vm get_status ESW5 
Nov 29 15:24:29.770 HYPERVISOR: exec_cmd: vm slot_add_binding ESW5 1 0 NM-16ESW 
Nov 29 15:24:29.770 HYPERVISOR: exec_cmd: vm set_disk0 ESW5 1 
Nov 29 15:24:29.771 HYPERVISOR: exec_cmd: vm set_nvram ESW5 256 
Nov 29 15:24:29.773 HYPERVISOR: exec_cmd: vm set_ios ESW5 /media/actionmystique/SAMSUNG5-VMs/Images/GNS3/IOS/c3725-adventerprisek9-mz.124-15.T10.image 
Nov 29 15:24:29.774 HYPERVISOR: exec_cmd: c3725 set_mac_addr ESW5 c205.6a03.0000 
Nov 29 15:24:29.774 HYPERVISOR: exec_cmd: vm slot_add_binding ESW5 0 16 WIC-2T 
Nov 29 15:24:29.775 HYPERVISOR: exec_cmd: vm set_config ESW5 configs/ios_base_startup-config.txt 
Nov 29 15:24:29.775 HYPERVISOR: exec_cmd: vm set_config ESW5 configs/ios_base_startup-config.txt configs/ios_base_private-config.txt 
Nov 29 15:24:30.117 HYPERVISOR: exec_cmd: nio create_udp udp-aa793a08-cbf9-4e74-a774-548721f3c135 15017 127.0.0.1 15016 
Nov 29 15:24:30.117 HYPERVISOR: exec_cmd: vm slot_add_nio_binding ESW5 1 0 udp-aa793a08-cbf9-4e74-a774-548721f3c135 
Nov 29 15:24:30.117 HYPERVISOR: exec_cmd: vm get_status ESW5 
Nov 29 15:24:30.132 HYPERVISOR: exec_cmd: nio create_udp udp-e34cc130-9322-4ea5-9988-374ddfe17039 15018 127.0.0.1 15019 
Nov 29 15:24:30.133 HYPERVISOR: exec_cmd: vm slot_add_nio_binding ESW5 1 1 udp-e34cc130-9322-4ea5-9988-374ddfe17039 
Nov 29 15:24:30.133 HYPERVISOR: exec_cmd: vm get_status ESW5 
