Nov 28 08:15:42.917 HYPERVISOR: Release 0.2.17-amd64/Linux (tag 2017072410)
Nov 28 08:15:42.917 HYPERVISOR: Started on IP = 127.0.0.1, TCP port = 35241.
Nov 28 08:15:42.939 HYPERVISOR: exec_cmd: hypervisor version 
Nov 28 08:15:42.940 HYPERVISOR: exec_cmd: hypervisor working_dir /media/actionmystique/SAMSUNG5-VMs/Labs/GNS3/TT 3-linux-/project-files/dynamips 
Nov 28 08:15:42.940 GENERAL: working_dir=/media/actionmystique/SAMSUNG5-VMs/Labs/GNS3/TT 3-linux-/project-files/dynamips
Nov 28 08:15:42.940 HYPERVISOR: exec_cmd: vm create ESW3 3 c3725 
Nov 28 08:15:42.940 VM: VM ESW3 created.
Nov 28 08:15:42.948 HYPERVISOR: exec_cmd: vm set_con_tcp_port ESW3 2006 
Nov 28 08:15:42.952 HYPERVISOR: exec_cmd: c3725 get_mac_addr ESW3 
Nov 28 08:15:42.962 HYPERVISOR: exec_cmd: vm set_disk0 ESW3 1 
Nov 28 08:15:42.963 HYPERVISOR: exec_cmd: vm get_status ESW3 
Nov 28 08:15:42.963 HYPERVISOR: exec_cmd: vm slot_add_binding ESW3 1 0 NM-16ESW 
Nov 28 08:15:42.964 HYPERVISOR: exec_cmd: vm set_ios ESW3 /media/actionmystique/SAMSUNG5-VMs/Images/GNS3/IOS/c3725-adventerprisek9-mz.124-15.T10.image 
Nov 28 08:15:42.965 HYPERVISOR: exec_cmd: c3725 set_mac_addr ESW3 c203.1bfb.0000 
Nov 28 08:15:42.965 HYPERVISOR: exec_cmd: vm slot_add_binding ESW3 0 16 WIC-2T 
Nov 28 08:15:42.965 HYPERVISOR: exec_cmd: vm get_status ESW3 
Nov 28 08:15:42.966 HYPERVISOR: exec_cmd: vm set_idle_pc ESW3 0x614ac27c 
Nov 28 08:15:42.966 HYPERVISOR: exec_cmd: vm set_nvram ESW3 256 
Nov 28 08:15:42.967 HYPERVISOR: exec_cmd: vm set_config ESW3 configs/ios_base_startup-config.txt 
Nov 28 08:15:42.967 HYPERVISOR: exec_cmd: vm set_config ESW3 configs/ios_base_startup-config.txt configs/ios_base_private-config.txt 
Nov 28 08:15:43.124 HYPERVISOR: exec_cmd: nio create_tap tap-c27f5334-3e87-4b54-876d-7e507ffc1e1e tap0 
Nov 28 08:15:43.127 HYPERVISOR: exec_cmd: vm slot_add_nio_binding ESW3 1 1 tap-c27f5334-3e87-4b54-876d-7e507ffc1e1e 
Nov 28 08:15:43.128 HYPERVISOR: exec_cmd: vm get_status ESW3 
Nov 28 08:15:43.319 HYPERVISOR: exec_cmd: nio create_udp udp-98a3c9f9-754a-4b5f-a0ae-373d4ee5a4f2 15014 127.0.0.1 15015 
Nov 28 08:15:43.320 HYPERVISOR: exec_cmd: vm slot_add_nio_binding ESW3 1 0 udp-98a3c9f9-754a-4b5f-a0ae-373d4ee5a4f2 
Nov 28 08:15:43.320 HYPERVISOR: exec_cmd: vm get_status ESW3 
Nov 28 08:15:56.960 HYPERVISOR: exec_cmd: vm get_status ESW3 
Nov 28 08:15:56.963 HYPERVISOR: exec_cmd: vm extract_config ESW3 
Nov 28 08:15:56.965 HYPERVISOR: exec_cmd: vm delete ESW3 
Nov 28 08:15:56.965 VM: VM ESW3 destroyed.
Nov 28 08:15:56.966 HYPERVISOR: exec_cmd: hypervisor stop 
Nov 28 08:15:57.445 HYPERVISOR: Stopped.
Nov 28 08:15:57.445 GENERAL: reset done.
