Nov 28 08:34:30.754 HYPERVISOR: Release 0.2.17-amd64/Linux (tag 2017072410)
Nov 28 08:34:30.754 HYPERVISOR: Started on IP = 127.0.0.1, TCP port = 49683.
Nov 28 08:34:30.767 HYPERVISOR: exec_cmd: hypervisor version 
Nov 28 08:34:30.767 HYPERVISOR: exec_cmd: hypervisor working_dir /media/actionmystique/SAMSUNG5-VMs/Labs/GNS3/TT 1-linux-/project-files/dynamips 
Nov 28 08:34:30.767 GENERAL: working_dir=/media/actionmystique/SAMSUNG5-VMs/Labs/GNS3/TT 1-linux-/project-files/dynamips
Nov 28 08:34:30.767 HYPERVISOR: exec_cmd: vm create ESW2 2 c3725 
Nov 28 08:34:30.768 VM: VM ESW2 created.
Nov 28 08:34:30.768 HYPERVISOR: exec_cmd: vm set_con_tcp_port ESW2 2005 
Nov 28 08:34:30.768 HYPERVISOR: exec_cmd: c3725 get_mac_addr ESW2 
Nov 28 08:34:30.769 HYPERVISOR: exec_cmd: vm set_disk0 ESW2 1 
Nov 28 08:34:30.769 HYPERVISOR: exec_cmd: vm get_status ESW2 
Nov 28 08:34:30.769 HYPERVISOR: exec_cmd: vm slot_add_binding ESW2 1 0 NM-16ESW 
Nov 28 08:34:30.770 HYPERVISOR: exec_cmd: vm set_ios ESW2 /media/actionmystique/SAMSUNG5-VMs/Images/GNS3/IOS/c3725-adventerprisek9-mz.124-15.T10.image 
Nov 28 08:34:30.770 HYPERVISOR: exec_cmd: c3725 set_mac_addr ESW2 c202.1bd4.0000 
Nov 28 08:34:30.770 HYPERVISOR: exec_cmd: vm slot_add_binding ESW2 0 16 WIC-2T 
Nov 28 08:34:30.771 HYPERVISOR: exec_cmd: vm get_status ESW2 
Nov 28 08:34:30.771 HYPERVISOR: exec_cmd: vm set_idle_pc ESW2 0x614ac27c 
Nov 28 08:34:30.771 HYPERVISOR: exec_cmd: vm set_nvram ESW2 256 
Nov 28 08:34:30.772 HYPERVISOR: exec_cmd: vm set_config ESW2 configs/ios_base_startup-config.txt 
Nov 28 08:34:30.772 HYPERVISOR: exec_cmd: vm set_config ESW2 configs/ios_base_startup-config.txt configs/ios_base_private-config.txt 
Nov 28 08:34:30.991 HYPERVISOR: exec_cmd: nio create_udp udp-274eb9d6-6806-40a5-b7a6-a1feed77aa87 15000 127.0.0.1 15002 
Nov 28 08:34:31.001 HYPERVISOR: exec_cmd: vm slot_add_nio_binding ESW2 1 0 udp-274eb9d6-6806-40a5-b7a6-a1feed77aa87 
Nov 28 08:34:31.002 HYPERVISOR: exec_cmd: vm get_status ESW2 
Nov 28 08:34:51.844 HYPERVISOR: exec_cmd: vm get_status ESW2 
Nov 28 08:34:51.846 HYPERVISOR: exec_cmd: vm extract_config ESW2 
Nov 28 08:34:51.847 HYPERVISOR: exec_cmd: vm delete ESW2 
Nov 28 08:34:51.847 VM: VM ESW2 destroyed.
Nov 28 08:34:51.848 HYPERVISOR: exec_cmd: hypervisor stop 
Nov 28 08:34:52.289 HYPERVISOR: Stopped.
Nov 28 08:34:52.289 GENERAL: reset done.
