Nov 28 08:33:41.406 HYPERVISOR: Release 0.2.17-amd64/Linux (tag 2017072410)
Nov 28 08:33:41.406 HYPERVISOR: Started on IP = 127.0.0.1, TCP port = 56471.
Nov 28 08:33:41.428 HYPERVISOR: exec_cmd: hypervisor version 
Nov 28 08:33:41.428 HYPERVISOR: exec_cmd: hypervisor working_dir /media/actionmystique/SAMSUNG5-VMs/Labs/GNS3/git-Public-Labs-Collection/CCNP/TBSHOOT/L3-Technologies/IPv4/Routing-Protocols/EIGRP/Jean-Christophe_Manciot/1+/TT 1-linux/project-files/dynamips 
Nov 28 08:33:41.428 GENERAL: working_dir=/media/actionmystique/SAMSUNG5-VMs/Labs/GNS3/git-Public-Labs-Collection/CCNP/TBSHOOT/L3-Technologies/IPv4/Routing-Protocols/EIGRP/Jean-Christophe_Manciot/1+/TT 1-linux/project-files/dynamips
Nov 28 08:33:41.428 HYPERVISOR: exec_cmd: vm create ESW2 2 c3725 
Nov 28 08:33:41.429 VM: VM ESW2 created.
Nov 28 08:33:41.429 HYPERVISOR: exec_cmd: vm set_con_tcp_port ESW2 2005 
Nov 28 08:33:41.429 HYPERVISOR: exec_cmd: c3725 get_mac_addr ESW2 
Nov 28 08:33:41.430 HYPERVISOR: exec_cmd: vm set_disk0 ESW2 1 
Nov 28 08:33:41.430 HYPERVISOR: exec_cmd: vm get_status ESW2 
Nov 28 08:33:41.430 HYPERVISOR: exec_cmd: vm slot_add_binding ESW2 1 0 NM-16ESW 
Nov 28 08:33:41.431 HYPERVISOR: exec_cmd: vm set_ios ESW2 /media/actionmystique/SAMSUNG5-VMs/Images/GNS3/IOS/c3725-adventerprisek9-mz.124-15.T10.image 
Nov 28 08:33:41.431 HYPERVISOR: exec_cmd: c3725 set_mac_addr ESW2 c202.1bd4.0000 
Nov 28 08:33:41.432 HYPERVISOR: exec_cmd: vm slot_add_binding ESW2 0 16 WIC-2T 
Nov 28 08:33:41.432 HYPERVISOR: exec_cmd: vm get_status ESW2 
Nov 28 08:33:41.432 HYPERVISOR: exec_cmd: vm set_idle_pc ESW2 0x614ac27c 
Nov 28 08:33:41.433 HYPERVISOR: exec_cmd: vm set_nvram ESW2 256 
Nov 28 08:33:41.433 HYPERVISOR: exec_cmd: vm set_config ESW2 configs/ios_base_startup-config.txt 
Nov 28 08:33:41.434 HYPERVISOR: exec_cmd: vm set_config ESW2 configs/ios_base_startup-config.txt configs/ios_base_private-config.txt 
Nov 28 08:33:41.595 HYPERVISOR: exec_cmd: nio create_udp udp-c1246799-33c6-4e41-a177-5e738b296e31 15007 127.0.0.1 15004 
Nov 28 08:33:41.596 HYPERVISOR: exec_cmd: vm slot_add_nio_binding ESW2 1 0 udp-c1246799-33c6-4e41-a177-5e738b296e31 
Nov 28 08:33:41.597 HYPERVISOR: exec_cmd: vm get_status ESW2 
