Nov 27 16:17:24.810 HYPERVISOR: Release 0.2.17-amd64/Linux (tag 2017072410)
Nov 27 16:17:24.811 HYPERVISOR: Started on IP = 127.0.0.1, TCP port = 35305.
Nov 27 16:17:24.836 HYPERVISOR: exec_cmd: hypervisor version 
Nov 27 16:17:24.836 HYPERVISOR: exec_cmd: hypervisor working_dir /media/actionmystique/SAMSUNG5-VMs/Labs/GNS3/git-Public-Labs-Collection/CCNP/TBSHOOT/L3-Technologies/BFD/Jean-Christophe_Manciot/1+/TT 1-solutions-linux/project-files/dynamips 
Nov 27 16:17:24.837 GENERAL: working_dir=/media/actionmystique/SAMSUNG5-VMs/Labs/GNS3/git-Public-Labs-Collection/CCNP/TBSHOOT/L3-Technologies/BFD/Jean-Christophe_Manciot/1+/TT 1-solutions-linux/project-files/dynamips
Nov 27 16:17:24.838 HYPERVISOR: exec_cmd: vm create ESW3 3 c3725 
Nov 27 16:17:24.838 VM: VM ESW3 created.
Nov 27 16:17:24.839 HYPERVISOR: exec_cmd: vm set_con_tcp_port ESW3 2006 
Nov 27 16:17:24.840 HYPERVISOR: exec_cmd: c3725 get_mac_addr ESW3 
Nov 27 16:17:24.841 HYPERVISOR: exec_cmd: vm set_nvram ESW3 256 
Nov 27 16:17:24.842 HYPERVISOR: exec_cmd: vm get_status ESW3 
Nov 27 16:17:24.843 HYPERVISOR: exec_cmd: vm set_idle_pc ESW3 0x60c06d20 
Nov 27 16:17:24.844 HYPERVISOR: exec_cmd: c3725 set_mac_addr ESW3 c203.1bfb.0000 
Nov 27 16:17:24.845 HYPERVISOR: exec_cmd: vm get_status ESW3 
Nov 27 16:17:24.847 HYPERVISOR: exec_cmd: vm slot_add_binding ESW3 1 0 NM-16ESW 
Nov 27 16:17:24.848 HYPERVISOR: exec_cmd: vm set_disk0 ESW3 1 
Nov 27 16:17:24.854 HYPERVISOR: exec_cmd: vm set_ios ESW3 /media/actionmystique/SAMSUNG5-VMs/Images/GNS3/IOS/c3725-adventerprisek9-mz.124-15.T10.image 
Nov 27 16:17:24.856 HYPERVISOR: exec_cmd: vm slot_add_binding ESW3 0 16 WIC-2T 
Nov 27 16:17:24.858 HYPERVISOR: exec_cmd: vm set_config ESW3 configs/ios_base_startup-config.txt 
Nov 27 16:17:24.859 HYPERVISOR: exec_cmd: vm set_config ESW3 configs/ios_base_startup-config.txt configs/ios_base_private-config.txt 
Nov 27 16:17:25.225 HYPERVISOR: exec_cmd: nio create_udp udp-728ff6f9-e0da-4967-801f-4ba8aa2d4492 15014 127.0.0.1 15015 
Nov 27 16:17:25.226 HYPERVISOR: exec_cmd: vm slot_add_nio_binding ESW3 1 0 udp-728ff6f9-e0da-4967-801f-4ba8aa2d4492 
Nov 27 16:17:25.231 HYPERVISOR: exec_cmd: vm get_status ESW3 
Nov 27 16:17:31.536 HYPERVISOR: exec_cmd: nio create_tap tap-0caa249c-975b-47a1-9959-529f7afee98b tap0 
Nov 27 16:17:31.536 HYPERVISOR: exec_cmd: vm slot_add_nio_binding ESW3 1 1 tap-0caa249c-975b-47a1-9959-529f7afee98b 
Nov 27 16:17:31.536 HYPERVISOR: exec_cmd: vm get_status ESW3 
