Nov 27 16:17:40.173 HYPERVISOR: Release 0.2.17-amd64/Linux (tag 2017072410)
Nov 27 16:17:40.173 HYPERVISOR: Started on IP = 127.0.0.1, TCP port = 42477.
Nov 27 16:17:40.185 HYPERVISOR: exec_cmd: hypervisor version 
Nov 27 16:17:40.186 HYPERVISOR: exec_cmd: hypervisor working_dir /media/actionmystique/SAMSUNG5-VMs/Labs/GNS3/TT 1-solutions-linux-/project-files/dynamips 
Nov 27 16:17:40.186 GENERAL: working_dir=/media/actionmystique/SAMSUNG5-VMs/Labs/GNS3/TT 1-solutions-linux-/project-files/dynamips
Nov 27 16:17:40.186 HYPERVISOR: exec_cmd: vm create ESW2 2 c3725 
Nov 27 16:17:40.186 VM: VM ESW2 created.
Nov 27 16:17:40.187 HYPERVISOR: exec_cmd: vm set_con_tcp_port ESW2 2005 
Nov 27 16:17:40.187 HYPERVISOR: exec_cmd: c3725 get_mac_addr ESW2 
Nov 27 16:17:40.187 HYPERVISOR: exec_cmd: vm set_nvram ESW2 256 
Nov 27 16:17:40.188 HYPERVISOR: exec_cmd: vm get_status ESW2 
Nov 27 16:17:40.188 HYPERVISOR: exec_cmd: vm set_idle_pc ESW2 0x60c06d20 
Nov 27 16:17:40.188 HYPERVISOR: exec_cmd: c3725 set_mac_addr ESW2 c202.1bd4.0000 
Nov 27 16:17:40.189 HYPERVISOR: exec_cmd: vm get_status ESW2 
Nov 27 16:17:40.189 HYPERVISOR: exec_cmd: vm slot_add_binding ESW2 1 0 NM-16ESW 
Nov 27 16:17:40.189 HYPERVISOR: exec_cmd: vm set_disk0 ESW2 1 
Nov 27 16:17:40.190 HYPERVISOR: exec_cmd: vm set_ios ESW2 /media/actionmystique/SAMSUNG5-VMs/Images/GNS3/IOS/c3725-adventerprisek9-mz.124-15.T10.image 
Nov 27 16:17:40.190 HYPERVISOR: exec_cmd: vm slot_add_binding ESW2 0 16 WIC-2T 
Nov 27 16:17:40.191 HYPERVISOR: exec_cmd: vm set_config ESW2 configs/ios_base_startup-config.txt 
Nov 27 16:17:40.191 HYPERVISOR: exec_cmd: vm set_config ESW2 configs/ios_base_startup-config.txt configs/ios_base_private-config.txt 
Nov 27 16:17:40.600 HYPERVISOR: exec_cmd: nio create_udp udp-f7272c25-a645-4e5f-b798-55aeeec90782 15002 127.0.0.1 15000 
Nov 27 16:17:40.601 HYPERVISOR: exec_cmd: vm slot_add_nio_binding ESW2 1 0 udp-f7272c25-a645-4e5f-b798-55aeeec90782 
Nov 27 16:17:40.601 HYPERVISOR: exec_cmd: vm get_status ESW2 
Nov 27 16:17:40.697 HYPERVISOR: exec_cmd: nio create_udp udp-4a784ced-ac1e-4ed3-b0f3-7f12bc613b55 15011 127.0.0.1 15009 
Nov 27 16:17:40.697 HYPERVISOR: exec_cmd: vm slot_add_nio_binding ESW2 1 1 udp-4a784ced-ac1e-4ed3-b0f3-7f12bc613b55 
Nov 27 16:17:40.698 HYPERVISOR: exec_cmd: vm get_status ESW2 
Nov 27 16:17:54.794 HYPERVISOR: exec_cmd: vm get_status ESW2 
Nov 27 16:17:54.797 HYPERVISOR: exec_cmd: vm extract_config ESW2 
Nov 27 16:17:54.799 HYPERVISOR: exec_cmd: vm delete ESW2 
Nov 27 16:17:54.799 VM: VM ESW2 destroyed.
Nov 27 16:17:54.801 HYPERVISOR: exec_cmd: hypervisor stop 
Nov 27 16:17:55.200 HYPERVISOR: Stopped.
Nov 27 16:17:55.201 GENERAL: reset done.
