Nov 26 21:03:04.724 HYPERVISOR: Release 0.2.17-amd64/Linux (tag 2017072410)
Nov 26 21:03:04.724 HYPERVISOR: Started on IP = 127.0.0.1, TCP port = 42615.
Nov 26 21:03:04.761 HYPERVISOR: exec_cmd: hypervisor version 
Nov 26 21:03:04.763 HYPERVISOR: exec_cmd: hypervisor working_dir /media/actionmystique/SAMSUNG5-VMs/Labs/GNS3/PVST+ EIGRP DHCP/project-files/dynamips 
Nov 26 21:03:04.763 GENERAL: working_dir=/media/actionmystique/SAMSUNG5-VMs/Labs/GNS3/PVST+ EIGRP DHCP/project-files/dynamips
Nov 26 21:03:04.769 HYPERVISOR: exec_cmd: vm create SW9 10 c3725 
Nov 26 21:03:04.769 VM: VM SW9 created.
Nov 26 21:03:04.778 HYPERVISOR: exec_cmd: vm set_con_tcp_port SW9 2017 
Nov 26 21:03:04.780 HYPERVISOR: exec_cmd: vm set_aux_tcp_port SW9 2517 
Nov 26 21:03:04.781 HYPERVISOR: exec_cmd: c3725 get_mac_addr SW9 
Nov 26 21:03:04.782 HYPERVISOR: exec_cmd: vm set_ios SW9 /media/actionmystique/SAMSUNG5-VMs/Images/GNS3/IOS/c3725-adventerprisek9-mz.124-15.T5.image 
Nov 26 21:03:04.787 HYPERVISOR: exec_cmd: vm get_status SW9 
Nov 26 21:03:04.790 HYPERVISOR: exec_cmd: vm set_idle_pc SW9 0x62af9f1c 
Nov 26 21:03:04.794 HYPERVISOR: exec_cmd: vm get_status SW9 
Nov 26 21:03:04.795 HYPERVISOR: exec_cmd: vm slot_add_binding SW9 1 0 NM-16ESW 
Nov 26 21:03:04.796 HYPERVISOR: exec_cmd: vm set_config SW9 configs/i10_startup-config.cfg 
Nov 26 21:03:05.329 HYPERVISOR: exec_cmd: nio create_udp udp-44d28052-357a-4fdf-9e30-9a720e36763b 30006 127.0.0.1 20006 
Nov 26 21:03:05.329 HYPERVISOR: exec_cmd: vm slot_add_nio_binding SW9 1 2 udp-44d28052-357a-4fdf-9e30-9a720e36763b 
Nov 26 21:03:05.329 HYPERVISOR: exec_cmd: vm get_status SW9 
Nov 26 21:03:05.335 HYPERVISOR: exec_cmd: nio create_udp udp-bad748c5-5b32-4dbe-918e-effc4f22ec32 30007 127.0.0.1 20007 
Nov 26 21:03:05.337 HYPERVISOR: exec_cmd: vm slot_add_nio_binding SW9 1 3 udp-bad748c5-5b32-4dbe-918e-effc4f22ec32 
Nov 26 21:03:05.338 HYPERVISOR: exec_cmd: vm get_status SW9 
Nov 26 21:03:05.371 HYPERVISOR: exec_cmd: vm extract_config SW9 
Nov 26 21:03:05.680 HYPERVISOR: exec_cmd: nio create_udp udp-d77e4d5c-53a4-4509-b76a-93972134b860 15030 127.0.0.1 15031 
Nov 26 21:03:05.681 HYPERVISOR: exec_cmd: vm slot_add_nio_binding SW9 1 0 udp-d77e4d5c-53a4-4509-b76a-93972134b860 
Nov 26 21:03:05.681 HYPERVISOR: exec_cmd: vm get_status SW9 
Nov 26 21:03:05.707 HYPERVISOR: exec_cmd: nio create_udp udp-fcfef02e-c70c-4e0b-a9b8-a4515b3cae82 15033 127.0.0.1 15032 
Nov 26 21:03:05.708 HYPERVISOR: exec_cmd: vm slot_add_nio_binding SW9 1 1 udp-fcfef02e-c70c-4e0b-a9b8-a4515b3cae82 
Nov 26 21:03:05.709 HYPERVISOR: exec_cmd: vm get_status SW9 
Nov 26 21:03:42.413 HYPERVISOR: exec_cmd: vm get_status SW9 
Nov 26 21:03:42.417 HYPERVISOR: exec_cmd: vm extract_config SW9 
Nov 26 21:03:42.467 HYPERVISOR: exec_cmd: vm delete SW9 
Nov 26 21:03:42.467 VM: VM SW9 destroyed.
Nov 26 21:03:42.471 HYPERVISOR: exec_cmd: hypervisor stop 
Nov 26 21:03:42.787 HYPERVISOR: Stopped.
Nov 26 21:03:42.787 GENERAL: reset done.
