Nov 29 15:29:01.102 HYPERVISOR: Release 0.2.17-amd64/Linux (tag 2017072410)
Nov 29 15:29:01.102 HYPERVISOR: Started on IP = 127.0.0.1, TCP port = 33303.
Nov 29 15:29:01.132 HYPERVISOR: exec_cmd: hypervisor version 
Nov 29 15:29:01.132 HYPERVISOR: exec_cmd: hypervisor working_dir /media/actionmystique/SAMSUNG5-VMs/Labs/GNS3/git-Public-Labs-Collection/CCNP/TBSHOOT/L3-Technologies/IPv4/Routing-Protocols/Redistribution/Jean-Christophe_Manciot/1+/TT 4-linux/project-files/dynamips 
Nov 29 15:29:01.132 GENERAL: working_dir=/media/actionmystique/SAMSUNG5-VMs/Labs/GNS3/git-Public-Labs-Collection/CCNP/TBSHOOT/L3-Technologies/IPv4/Routing-Protocols/Redistribution/Jean-Christophe_Manciot/1+/TT 4-linux/project-files/dynamips
Nov 29 15:29:01.132 HYPERVISOR: exec_cmd: vm create ESW6 6 c3725 
Nov 29 15:29:01.132 VM: VM ESW6 created.
Nov 29 15:29:01.133 HYPERVISOR: exec_cmd: vm set_con_tcp_port ESW6 2012 
Nov 29 15:29:01.133 HYPERVISOR: exec_cmd: c3725 get_mac_addr ESW6 
Nov 29 15:29:01.134 HYPERVISOR: exec_cmd: vm set_nvram ESW6 256 
Nov 29 15:29:01.142 HYPERVISOR: exec_cmd: vm slot_add_binding ESW6 0 16 WIC-2T 
Nov 29 15:29:01.143 HYPERVISOR: exec_cmd: c3725 set_mac_addr ESW6 c206.1f5a.0000 
Nov 29 15:29:01.143 HYPERVISOR: exec_cmd: vm set_disk0 ESW6 1 
Nov 29 15:29:01.144 HYPERVISOR: exec_cmd: vm set_ios ESW6 /media/actionmystique/SAMSUNG5-VMs/Images/GNS3/IOS/c3725-adventerprisek9-mz.124-15.T10.image 
Nov 29 15:29:01.144 HYPERVISOR: exec_cmd: vm get_status ESW6 
Nov 29 15:29:01.144 HYPERVISOR: exec_cmd: vm set_idle_pc ESW6 0x6026b804 
Nov 29 15:29:01.145 HYPERVISOR: exec_cmd: vm get_status ESW6 
Nov 29 15:29:01.145 HYPERVISOR: exec_cmd: vm slot_add_binding ESW6 1 0 NM-16ESW 
Nov 29 15:29:01.145 HYPERVISOR: exec_cmd: vm set_config ESW6 configs/i6_startup-config.cfg 
Nov 29 15:29:01.757 HYPERVISOR: exec_cmd: nio create_udp udp-1659ddd5-ac89-4102-b758-f4d433481d3a 15021 127.0.0.1 15023 
Nov 29 15:29:01.758 HYPERVISOR: exec_cmd: vm slot_add_nio_binding ESW6 1 2 udp-1659ddd5-ac89-4102-b758-f4d433481d3a 
Nov 29 15:29:01.758 HYPERVISOR: exec_cmd: vm get_status ESW6 
Nov 29 15:29:01.784 HYPERVISOR: exec_cmd: nio create_udp udp-c4c07071-c9ac-46c7-aa1a-d33548353fa9 15024 127.0.0.1 15025 
Nov 29 15:29:01.785 HYPERVISOR: exec_cmd: vm slot_add_nio_binding ESW6 1 1 udp-c4c07071-c9ac-46c7-aa1a-d33548353fa9 
Nov 29 15:29:01.785 HYPERVISOR: exec_cmd: vm get_status ESW6 
Nov 29 15:29:01.808 HYPERVISOR: exec_cmd: nio create_udp udp-fd07ca0d-d23f-4700-a01d-df2dbfa12b7a 15027 127.0.0.1 15026 
Nov 29 15:29:01.809 HYPERVISOR: exec_cmd: vm slot_add_nio_binding ESW6 1 3 udp-fd07ca0d-d23f-4700-a01d-df2dbfa12b7a 
Nov 29 15:29:01.809 HYPERVISOR: exec_cmd: vm get_status ESW6 
