Nov 29 15:27:08.337 HYPERVISOR: Release 0.2.17-amd64/Linux (tag 2017072410)
Nov 29 15:27:08.337 HYPERVISOR: Started on IP = 127.0.0.1, TCP port = 38383.
Nov 29 15:27:08.366 HYPERVISOR: exec_cmd: hypervisor version 
Nov 29 15:27:08.367 HYPERVISOR: exec_cmd: hypervisor working_dir /media/actionmystique/SAMSUNG5-VMs/Labs/GNS3/git-Public-Labs-Collection/CCNP/TBSHOOT/L3-Technologies/IPv4/Routing-Protocols/Redistribution/Jean-Christophe_Manciot/1+/TT 4-linux/project-files/dynamips 
Nov 29 15:27:08.367 GENERAL: working_dir=/media/actionmystique/SAMSUNG5-VMs/Labs/GNS3/git-Public-Labs-Collection/CCNP/TBSHOOT/L3-Technologies/IPv4/Routing-Protocols/Redistribution/Jean-Christophe_Manciot/1+/TT 4-linux/project-files/dynamips
Nov 29 15:27:08.367 HYPERVISOR: exec_cmd: vm create ESW4 4 c3725 
Nov 29 15:27:08.368 VM: VM ESW4 created.
Nov 29 15:27:08.368 HYPERVISOR: exec_cmd: vm set_con_tcp_port ESW4 2009 
Nov 29 15:27:08.369 HYPERVISOR: exec_cmd: c3725 get_mac_addr ESW4 
Nov 29 15:27:08.369 HYPERVISOR: exec_cmd: vm get_status ESW4 
Nov 29 15:27:08.370 HYPERVISOR: exec_cmd: vm set_idle_pc ESW4 0x6026b804 
Nov 29 15:27:08.371 HYPERVISOR: exec_cmd: vm get_status ESW4 
Nov 29 15:27:08.372 HYPERVISOR: exec_cmd: vm slot_add_binding ESW4 1 0 NM-16ESW 
Nov 29 15:27:08.373 HYPERVISOR: exec_cmd: vm set_disk0 ESW4 1 
Nov 29 15:27:08.374 HYPERVISOR: exec_cmd: vm set_nvram ESW4 256 
Nov 29 15:27:08.375 HYPERVISOR: exec_cmd: vm set_ios ESW4 /media/actionmystique/SAMSUNG5-VMs/Images/GNS3/IOS/c3725-adventerprisek9-mz.124-15.T10.image 
Nov 29 15:27:08.386 HYPERVISOR: exec_cmd: c3725 set_mac_addr ESW4 c204.68ae.0000 
Nov 29 15:27:08.398 HYPERVISOR: exec_cmd: vm slot_add_binding ESW4 0 16 WIC-2T 
Nov 29 15:27:08.400 HYPERVISOR: exec_cmd: vm set_config ESW4 configs/ios_base_startup-config.txt 
Nov 29 15:27:31.069 HYPERVISOR: exec_cmd: vm get_status ESW4 
Nov 29 15:27:31.071 HYPERVISOR: exec_cmd: vm extract_config ESW4 
Nov 29 15:27:31.108 HYPERVISOR: exec_cmd: vm delete ESW4 
Nov 29 15:27:31.108 VM: VM ESW4 destroyed.
Nov 29 15:27:31.111 HYPERVISOR: exec_cmd: hypervisor stop 
Nov 29 15:27:31.385 HYPERVISOR: Stopped.
Nov 29 15:27:31.385 GENERAL: reset done.
