Nov 29 15:29:01.062 HYPERVISOR: Release 0.2.17-amd64/Linux (tag 2017072410)
Nov 29 15:29:01.062 HYPERVISOR: Started on IP = 127.0.0.1, TCP port = 60593.
Nov 29 15:29:01.070 HYPERVISOR: exec_cmd: hypervisor version 
Nov 29 15:29:01.071 HYPERVISOR: exec_cmd: hypervisor working_dir /media/actionmystique/SAMSUNG5-VMs/Labs/GNS3/git-Public-Labs-Collection/CCNP/TBSHOOT/L3-Technologies/IPv4/Routing-Protocols/Redistribution/Jean-Christophe_Manciot/1+/TT 4-linux/project-files/dynamips 
Nov 29 15:29:01.071 GENERAL: working_dir=/media/actionmystique/SAMSUNG5-VMs/Labs/GNS3/git-Public-Labs-Collection/CCNP/TBSHOOT/L3-Technologies/IPv4/Routing-Protocols/Redistribution/Jean-Christophe_Manciot/1+/TT 4-linux/project-files/dynamips
Nov 29 15:29:01.072 HYPERVISOR: exec_cmd: vm create ESW2 2 c3725 
Nov 29 15:29:01.072 VM: VM ESW2 created.
Nov 29 15:29:01.073 HYPERVISOR: exec_cmd: vm set_con_tcp_port ESW2 2005 
Nov 29 15:29:01.074 HYPERVISOR: exec_cmd: c3725 get_mac_addr ESW2 
Nov 29 15:29:01.075 HYPERVISOR: exec_cmd: vm set_nvram ESW2 256 
Nov 29 15:29:01.076 HYPERVISOR: exec_cmd: vm slot_add_binding ESW2 0 16 WIC-2T 
Nov 29 15:29:01.082 HYPERVISOR: exec_cmd: c3725 set_mac_addr ESW2 c202.1bd4.0000 
Nov 29 15:29:01.093 HYPERVISOR: exec_cmd: vm set_disk0 ESW2 1 
Nov 29 15:29:01.110 HYPERVISOR: exec_cmd: vm set_ios ESW2 /media/actionmystique/SAMSUNG5-VMs/Images/GNS3/IOS/c3725-adventerprisek9-mz.124-15.T10.image 
Nov 29 15:29:01.119 HYPERVISOR: exec_cmd: vm get_status ESW2 
Nov 29 15:29:01.120 HYPERVISOR: exec_cmd: vm set_idle_pc ESW2 0x6026b804 
Nov 29 15:29:01.120 HYPERVISOR: exec_cmd: vm get_status ESW2 
Nov 29 15:29:01.120 HYPERVISOR: exec_cmd: vm slot_add_binding ESW2 1 0 NM-16ESW 
Nov 29 15:29:01.121 HYPERVISOR: exec_cmd: vm set_config ESW2 configs/ios_base_startup-config.txt 
Nov 29 15:29:01.121 HYPERVISOR: exec_cmd: vm set_config ESW2 configs/ios_base_startup-config.txt configs/ios_base_private-config.txt 
Nov 29 15:29:01.744 HYPERVISOR: exec_cmd: nio create_udp udp-5c79fbab-b5e1-4a00-8de9-5bf7d7028f1a 15022 127.0.0.1 15019 
Nov 29 15:29:01.745 HYPERVISOR: exec_cmd: vm slot_add_nio_binding ESW2 1 0 udp-5c79fbab-b5e1-4a00-8de9-5bf7d7028f1a 
Nov 29 15:29:01.745 HYPERVISOR: exec_cmd: vm get_status ESW2 
