Nov 29 15:27:08.313 HYPERVISOR: Release 0.2.17-amd64/Linux (tag 2017072410)
Nov 29 15:27:08.313 HYPERVISOR: Started on IP = 127.0.0.1, TCP port = 32883.
Nov 29 15:27:08.320 HYPERVISOR: exec_cmd: hypervisor version 
Nov 29 15:27:08.321 HYPERVISOR: exec_cmd: hypervisor working_dir /media/actionmystique/SAMSUNG5-VMs/Labs/GNS3/git-Public-Labs-Collection/CCNP/TBSHOOT/L3-Technologies/IPv4/Routing-Protocols/Redistribution/Jean-Christophe_Manciot/1+/TT 4-linux/project-files/dynamips 
Nov 29 15:27:08.322 GENERAL: working_dir=/media/actionmystique/SAMSUNG5-VMs/Labs/GNS3/git-Public-Labs-Collection/CCNP/TBSHOOT/L3-Technologies/IPv4/Routing-Protocols/Redistribution/Jean-Christophe_Manciot/1+/TT 4-linux/project-files/dynamips
Nov 29 15:27:08.322 HYPERVISOR: exec_cmd: vm create ESW3 3 c3725 
Nov 29 15:27:08.322 VM: VM ESW3 created.
Nov 29 15:27:08.323 HYPERVISOR: exec_cmd: vm set_con_tcp_port ESW3 2006 
Nov 29 15:27:08.323 HYPERVISOR: exec_cmd: c3725 get_mac_addr ESW3 
Nov 29 15:27:08.324 HYPERVISOR: exec_cmd: vm get_status ESW3 
Nov 29 15:27:08.325 HYPERVISOR: exec_cmd: vm set_idle_pc ESW3 0x6026b804 
Nov 29 15:27:08.325 HYPERVISOR: exec_cmd: vm get_status ESW3 
Nov 29 15:27:08.326 HYPERVISOR: exec_cmd: vm slot_add_binding ESW3 1 0 NM-16ESW 
Nov 29 15:27:08.327 HYPERVISOR: exec_cmd: vm set_disk0 ESW3 1 
Nov 29 15:27:08.327 HYPERVISOR: exec_cmd: vm set_nvram ESW3 256 
Nov 29 15:27:08.328 HYPERVISOR: exec_cmd: vm set_ios ESW3 /media/actionmystique/SAMSUNG5-VMs/Images/GNS3/IOS/c3725-adventerprisek9-mz.124-15.T10.image 
Nov 29 15:27:08.329 HYPERVISOR: exec_cmd: c3725 set_mac_addr ESW3 c203.1bfb.0000 
Nov 29 15:27:08.331 HYPERVISOR: exec_cmd: vm slot_add_binding ESW3 0 16 WIC-2T 
Nov 29 15:27:08.332 HYPERVISOR: exec_cmd: vm set_config ESW3 configs/ios_base_startup-config.txt 
Nov 29 15:27:31.069 HYPERVISOR: exec_cmd: vm get_status ESW3 
Nov 29 15:27:31.071 HYPERVISOR: exec_cmd: vm extract_config ESW3 
Nov 29 15:27:31.078 HYPERVISOR: exec_cmd: vm delete ESW3 
Nov 29 15:27:31.078 VM: VM ESW3 destroyed.
Nov 29 15:27:31.079 HYPERVISOR: exec_cmd: hypervisor stop 
Nov 29 15:27:31.338 HYPERVISOR: Stopped.
Nov 29 15:27:31.338 GENERAL: reset done.
