Aug 31 18:28:02.259 HYPERVISOR: Release 0.2.16-amd64/Linux (tag 2015060118)
Aug 31 18:28:02.259 HYPERVISOR: Started on IP = 127.0.0.1, TCP port = 48360.
Aug 31 18:28:02.275 HYPERVISOR: exec_cmd: hypervisor version 
Aug 31 18:28:02.276 HYPERVISOR: exec_cmd: hypervisor working_dir /media/actionmystique/SAMSUNG-850-Ext4/Labs/GNS3/Route Reflectors/project-files/dynamips 
Aug 31 18:28:02.276 GENERAL: working_dir=/media/actionmystique/SAMSUNG-850-Ext4/Labs/GNS3/Route Reflectors/project-files/dynamips
Aug 31 18:28:02.276 HYPERVISOR: exec_cmd: vm create RR-London 4 c7200 
Aug 31 18:28:02.276 VM: VM RR-London created.
Aug 31 18:28:02.277 HYPERVISOR: exec_cmd: vm set_con_tcp_port RR-London 2105 
Aug 31 18:28:02.277 HYPERVISOR: exec_cmd: vm set_aux_tcp_port RR-London 2505 
Aug 31 18:28:02.278 HYPERVISOR: exec_cmd: c7200 get_mac_addr RR-London 
Aug 31 18:28:02.278 HYPERVISOR: exec_cmd: vm get_status RR-London 
Aug 31 18:28:02.279 HYPERVISOR: exec_cmd: vm slot_add_binding RR-London 0 0 C7200-IO-FE 
Aug 31 18:28:02.280 HYPERVISOR: exec_cmd: vm get_status RR-London 
Aug 31 18:28:02.280 HYPERVISOR: exec_cmd: vm slot_add_binding RR-London 2 0 PA-GE 
Aug 31 18:28:02.281 HYPERVISOR: exec_cmd: vm get_status RR-London 
Aug 31 18:28:02.281 HYPERVISOR: exec_cmd: vm set_idle_pc RR-London 0x6062d534 
Aug 31 18:28:02.282 HYPERVISOR: exec_cmd: vm set_ram RR-London 512 
Aug 31 18:28:02.283 HYPERVISOR: exec_cmd: vm get_status RR-London 
Aug 31 18:28:02.283 HYPERVISOR: exec_cmd: vm slot_add_binding RR-London 1 0 PA-GE 
Aug 31 18:28:02.284 HYPERVISOR: exec_cmd: vm get_status RR-London 
Aug 31 18:28:02.289 HYPERVISOR: exec_cmd: vm slot_add_binding RR-London 3 0 PA-GE 
Aug 31 18:28:02.290 HYPERVISOR: exec_cmd: vm get_status RR-London 
Aug 31 18:28:02.290 HYPERVISOR: exec_cmd: vm slot_remove_binding RR-London 0 0 
Aug 31 18:28:02.291 HYPERVISOR: exec_cmd: vm get_status RR-London 
Aug 31 18:28:02.291 HYPERVISOR: exec_cmd: vm slot_add_binding RR-London 0 0 C7200-IO-GE-E 
Aug 31 18:28:02.291 HYPERVISOR: exec_cmd: vm set_ios RR-London /media/actionmystique/SAMSUNG-850-Ext4/Images/GNS3/IOS/c7200-adventerprisek9-mz.152-4.M2.image 
Aug 31 18:28:02.292 HYPERVISOR: exec_cmd: vm set_config RR-London configs/i4_startup-config.cfg 
Aug 31 18:28:02.696 HYPERVISOR: exec_cmd: vm extract_config RR-London 
Aug 31 18:28:02.799 HYPERVISOR: exec_cmd: nio create_udp udp-072a7059-03c3-459f-ad0f-4092c52e60fd 15012 127.0.0.1 15010 
Aug 31 18:28:02.799 HYPERVISOR: exec_cmd: vm slot_add_nio_binding RR-London 3 0 udp-072a7059-03c3-459f-ad0f-4092c52e60fd 
Aug 31 18:28:02.799 HYPERVISOR: exec_cmd: vm get_status RR-London 
Aug 31 18:28:02.819 HYPERVISOR: exec_cmd: nio create_udp udp-d98742d1-7321-4bc0-b431-beb60b672669 15014 127.0.0.1 15011 
Aug 31 18:28:02.820 HYPERVISOR: exec_cmd: vm slot_add_nio_binding RR-London 2 0 udp-d98742d1-7321-4bc0-b431-beb60b672669 
Aug 31 18:28:02.820 HYPERVISOR: exec_cmd: vm get_status RR-London 
Aug 31 18:28:02.835 HYPERVISOR: exec_cmd: nio create_udp udp-8a6bb63a-36c2-4251-be3d-4a1c0795f064 15015 127.0.0.1 15013 
Aug 31 18:28:02.836 HYPERVISOR: exec_cmd: vm slot_add_nio_binding RR-London 0 0 udp-8a6bb63a-36c2-4251-be3d-4a1c0795f064 
Aug 31 18:28:02.836 HYPERVISOR: exec_cmd: vm get_status RR-London 
Aug 31 18:28:02.856 HYPERVISOR: exec_cmd: nio create_udp udp-902002c2-216d-4c67-94f6-f72705e1480c 15016 127.0.0.1 15017 
Aug 31 18:28:02.856 HYPERVISOR: exec_cmd: vm slot_add_nio_binding RR-London 1 0 udp-902002c2-216d-4c67-94f6-f72705e1480c 
Aug 31 18:28:02.857 HYPERVISOR: exec_cmd: vm get_status RR-London 
Aug 31 18:28:07.798 HYPERVISOR: exec_cmd: vm set_ghost_status RR-London 2 
Aug 31 18:28:07.799 HYPERVISOR: exec_cmd: vm set_ghost_file RR-London c7200-adventerprisek9-mz.152-4.M2.image-512.ghost 
Aug 31 18:28:07.799 HYPERVISOR: exec_cmd: vm get_status RR-London 
Aug 31 18:28:07.800 HYPERVISOR: exec_cmd: vm start RR-London 
Aug 31 18:40:58.212 HYPERVISOR: exec_cmd: vm extract_config RR-London 
Aug 31 18:46:15.794 HYPERVISOR: exec_cmd: vm extract_config RR-London 
Aug 31 18:46:18.950 HYPERVISOR: exec_cmd: vm get_status RR-London 
Aug 31 18:46:18.952 HYPERVISOR: exec_cmd: vm stop RR-London 
Aug 31 18:46:19.096 VM: VM RR-London shutdown.
Aug 31 18:46:19.097 HYPERVISOR: exec_cmd: vm extract_config RR-London 
Aug 31 18:46:36.236 HYPERVISOR: exec_cmd: vm get_status RR-London 
Aug 31 18:46:36.239 HYPERVISOR: exec_cmd: vm extract_config RR-London 
Aug 31 18:46:36.244 HYPERVISOR: exec_cmd: vm delete RR-London 
Aug 31 18:46:36.244 VM: VM RR-London destroyed.
Aug 31 18:46:36.249 HYPERVISOR: exec_cmd: hypervisor stop 
Aug 31 18:46:36.296 HYPERVISOR: Stopped.
Aug 31 18:46:36.296 GENERAL: reset done.
