autostart = False
version = 0.8.6
[127.0.0.1:7202]
    workingdir = C:\Users\ActionMystique\AppData\Local\GNS3
    udp = 10200
    [[7200]]
        image = C:\Users\ActionMystique\Google Drive\Missions\Certifications\Cisco\IOS\Binaries\c7200-adventerprisek9-mz.152-4.M2.image
        ram = 512
        idlepc = 0x6062d534
        sparsemem = True
        ghostios = True
    [[ROUTER R4]]
        console = 2007
        aux = 2107
        cnfg = configs\R4.cfg
        slot0 = C7200-IO-GE-E
        g0/0 = R8 g0/0
        slot1 = PA-8T
        s1/0 = RD1 s1/3
        s1/1 = RD5 s1/1
        s1/2 = R10 s1/1
        slot2 = PA-GE
        g2/0 = SW1 4
        slot3 = PA-2FE-TX
        slot4 = PA-2FE-TX
        slot5 = PA-2FE-TX
        slot6 = PA-GE
        x = 107.0
        y = 107.0
        z = 1.0
    [[ROUTER RD1]]
        console = 2004
        aux = 2104
        cnfg = configs\RD1.cfg
        slot0 = C7200-IO-GE-E
        g0/0 = R3 g0/0
        slot1 = PA-8T
        s1/0 = R7 s1/0
        s1/1 = R2 s1/0
        s1/2 = R8 s1/0
        s1/3 = R4 s1/0
        slot2 = PA-GE
        g2/0 = SW2 4
        slot3 = PA-GE
        g3/0 = SW1 1
        x = -128.0
        y = -30.0
        z = 1.0
    [[ETHSW SW1]]
        1 = access 1 RD1 g3/0
        2 = access 1 R8 g2/0
        3 = access 1 R10 g2/0
        4 = access 1 R4 g2/0
        x = 50.2391156528
        y = -16.5674675246
        z = 1.0
[127.0.0.1:7203]
    workingdir = C:\Users\ActionMystique\AppData\Local\GNS3
    udp = 10300
    [[7200]]
        image = C:\Users\ActionMystique\Google Drive\Missions\Certifications\Cisco\IOS\Binaries\c7200-adventerprisek9-mz.152-4.M2.image
        ram = 512
        idlepc = 0x6062d534
        sparsemem = True
        ghostios = True
    [[ROUTER RD5]]
        console = 2006
        aux = 2106
        cnfg = configs\RD5.cfg
        slot0 = C7200-IO-GE-E
        slot1 = PA-8T
        s1/0 = R3 s1/0
        s1/1 = R4 s1/1
        s1/2 = R6 s1/0
        x = 56.5979797464
        y = 281.518289963
        z = 1.0
    [[ROUTER R6]]
        console = 2008
        aux = 2108
        cnfg = configs\R6.cfg
        slot0 = C7200-IO-GE-E
        slot1 = PA-8T
        s1/0 = RD5 s1/2
        s1/1 = RD9 s1/1
        x = -126.338095117
        y = 375.394011027
        z = 1.0
[127.0.0.1:7200]
    workingdir = C:\Users\ActionMystique\AppData\Local\GNS3
    udp = 10000
    [[7200]]
        image = C:\Users\ActionMystique\Google Drive\Missions\Certifications\Cisco\IOS\Binaries\c7200-adventerprisek9-mz.152-4.M2.image
        ram = 512
        idlepc = 0x6062d534
        sparsemem = True
        ghostios = True
    [[ROUTER R3]]
        console = 2003
        aux = 2103
        cnfg = configs\R3.cfg
        slot0 = C7200-IO-GE-E
        g0/0 = RD1 g0/0
        slot1 = PA-8T
        s1/0 = RD5 s1/0
        x = -5.50252531694
        y = 107.455844123
        z = 1.0
    [[ROUTER R8]]
        console = 2000
        aux = 2100
        cnfg = configs\R8.cfg
        slot0 = C7200-IO-GE-E
        g0/0 = R4 g0/0
        slot1 = PA-8T
        s1/0 = RD1 s1/2
        s1/1 = R10 s1/0
        s1/2 = RD33 s1/1
        slot2 = PA-GE
        g2/0 = SW1 2
        x = 102.42650893
        y = -214.538934512
        z = 1.0
[127.0.0.1:7201]
    workingdir = C:\Users\ActionMystique\AppData\Local\GNS3
    udp = 10100
    [[7200]]
        image = C:\Users\ActionMystique\Google Drive\Missions\Certifications\Cisco\IOS\Binaries\c7200-adventerprisek9-mz.152-4.M2.image
        ram = 512
        idlepc = 0x6062d534
        sparsemem = True
        ghostios = True
    [[ROUTER R7]]
        console = 2001
        aux = 2101
        cnfg = configs\R7.cfg
        slot0 = C7200-IO-GE-E
        g0/0 = R2 g0/0
        slot1 = PA-8T
        s1/0 = RD1 s1/0
        s1/1 = RD11 s1/1
        s1/2 = RD33 s1/0
        slot2 = PA-GE
        g2/0 = SW2 2
        x = -351.0
        y = -181.0
        z = 1.0
    [[ROUTER R2]]
        console = 2002
        aux = 2102
        cnfg = configs\R2.cfg
        slot0 = C7200-IO-GE-E
        g0/0 = R7 g0/0
        slot1 = PA-8T
        s1/0 = RD1 s1/1
        s1/1 = RD9 s1/0
        s1/2 = RD11 s1/0
        slot2 = PA-GE
        g2/0 = SW2 3
        x = -348.0
        y = 110.0
        z = 1.0
        hx = -21.1178204723
        hy = 28.8583559054
[127.0.0.1:7206]
    workingdir = C:\Users\ActionMystique\AppData\Local\GNS3
    udp = 10600
    [[7200]]
        image = C:\Users\ActionMystique\Google Drive\Missions\Certifications\Cisco\IOS\Binaries\c7200-adventerprisek9-mz.152-4.M2.image
        ram = 512
        idlepc = 0x6062d534
        sparsemem = True
        ghostios = True
    [[ROUTER RD33]]
        console = 2014
        aux = 2114
        cnfg = configs\RD33.cfg
        slot0 = C7200-IO-GE-E
        g0/0 = R13 g0/0
        slot1 = PA-8T
        s1/0 = R7 s1/2
        s1/1 = R8 s1/2
        x = -124.757359313
        y = -92.2010101264
        z = 1.0
    [[ROUTER R12]]
        console = 2013
        aux = 2113
        cnfg = configs\R12.cfg
        slot0 = C7200-IO-2FE
        f0/0 = RD11 f0/0
        x = -597.271211387
        y = -20.5857864376
        z = 1.0
[127.0.0.1:7207]
    workingdir = C:\Users\ActionMystique\AppData\Local\GNS3
    udp = 10700
    [[7200]]
        image = C:\Users\ActionMystique\Google Drive\Missions\Certifications\Cisco\IOS\Binaries\c7200-adventerprisek9-mz.152-4.M2.image
        ram = 512
        idlepc = 0x6062d534
        sparsemem = True
        ghostios = True
    [[ROUTER R13]]
        console = 2015
        aux = 2115
        cnfg = configs\R13.cfg
        slot0 = C7200-IO-GE-E
        g0/0 = RD33 g0/0
        slot1 = PA-GE
        x = -125.0
        y = -227.0
        z = 1.0
[127.0.0.1:7204]
    workingdir = C:\Users\ActionMystique\AppData\Local\GNS3
    udp = 10400
    [[7200]]
        image = C:\Users\ActionMystique\Google Drive\Missions\Certifications\Cisco\IOS\Binaries\c7200-adventerprisek9-mz.152-4.M2.image
        ram = 512
        idlepc = 0x6062d534
        sparsemem = True
        ghostios = True
    [[ROUTER RD9]]
        console = 2009
        aux = 2109
        cnfg = configs\RD9.cfg
        slot0 = C7200-IO-GE-E
        slot1 = PA-8T
        s1/0 = R2 s1/1
        s1/1 = R6 s1/1
        x = -266.345237791
        y = 279.227488785
        z = 1.0
    [[ROUTER R9]]
        console = 2010
        aux = 2110
        cnfg = configs\R9.cfg
        slot0 = C7200-IO-GE-E
        g0/0 = R10 g0/0
        x = 440.33988098
        y = -50.3945547084
        z = 1.0
[127.0.0.1:7205]
    workingdir = C:\Users\ActionMystique\AppData\Local\GNS3
    udp = 10500
    [[7200]]
        image = C:\Users\ActionMystique\Google Drive\Missions\Certifications\Cisco\IOS\Binaries\c7200-adventerprisek9-mz.152-4.M2.image
        ram = 512
        idlepc = 0x6062d534
        sparsemem = True
        ghostios = True
    [[ROUTER RD11]]
        console = 2012
        aux = 2112
        cnfg = configs\RD11.cfg
        slot0 = C7200-IO-2FE
        f0/0 = R12 f0/0
        slot1 = PA-8T
        s1/0 = R2 s1/2
        s1/1 = R7 s1/1
        slot2 = PA-GE
        g2/0 = SW2 1
        x = -445.950360213
        y = -22.0
        z = 1.0
    [[ROUTER R10]]
        console = 2011
        aux = 2111
        cnfg = configs\R10.cfg
        slot0 = C7200-IO-GE-E
        g0/0 = R9 g0/0
        slot1 = PA-8T
        s1/0 = R8 s1/1
        s1/1 = R4 s1/2
        slot2 = PA-GE
        g2/0 = SW1 3
        x = 273.884343035
        y = -48.8700576851
        z = 1.0
    [[ETHSW SW2]]
        1 = access 1 RD11 g2/0
        2 = access 1 R7 g2/0
        3 = access 1 R2 g2/0
        4 = access 1 RD1 g2/0
        x = -286.118398773
        y = -33.7376365662
        z = 1.0
        hx = 21.5734910698
        hy = -18.902011907
[GNS3-DATA]
    configs = configs
    m11 = 1.15535269687
    m22 = 1.15535269687
    [[NOTE 1]]
        text = ":1D::2/64"
        x = -360.920922961
        y = 160.65894629
    [[NOTE 2]]
        text = ":12::1/64"
        x = -70.9827727504
        y = -52.5685591881
    [[NOTE 3]]
        text = ":C::2/64"
        x = -280.678928014
        y = 104.754842343
    [[NOTE 4]]
        text = ":2F::4/64 2"
        x = 339.411254969
        y = 142.558441227
    [[NOTE 5]]
        text = ":2::2/64"
        x = -286.928932188
        y = 132.928932188
    [[NOTE 6]]
        text = ":D::3/64"
        x = -68.1787155501
        y = 85.6984848098
    [[NOTE 7]]
        text = "|"
        x = -262.0
        y = -180.0
    [[NOTE 8]]
        text = ":18A4::8/64"
        x = 46.4034980402
        y = -120.009505607
    [[NOTE 9]]
        text = ":E::1/64"
        x = -73.6714791628
        y = -3.90201190698
    [[NOTE 10]]
        text = "* Not redistributed in EIGRP"
        x = 444.063058585
        y = 120.936074863
    [[NOTE 11]]
        text = "2 Redistributed in EIGRP with metric 100 4444 255 1 1500"
        x = 429.920922961
        y = 149.019335984
    [[NOTE 12]]
        text = "OSPFv3"
        x = 408.342279198
        y = -149.140043583
        font = "MS Shell Dlg 2,14,-1,5,75,0,0,0,0,0"
    [[NOTE 13]]
        text = ":75::B/64"
        x = -396.142135624
        y = -43.3710721091
    [[NOTE 14]]
        text = ":2E::4/64 *"
        x = 339.411254969
        y = 128.61731573
    [[NOTE 15]]
        text = "EIGRPv6"
        x = 240.501658765
        y = 344.307791313
        font = "MS Shell Dlg 2,14,-1,5,75,0,0,0,0,0"
    [[NOTE 16]]
        text = "|"
        x = 325.936074863
        y = 102.154328933
    [[NOTE 17]]
        text = "Area 1"
        x = 172.605122421
        y = 211.719912835
        font = "MS Shell Dlg 2,12,-1,5,75,0,0,0,0,0"
        color = "#0000ff"
    [[NOTE 18]]
        text = ":133::B/64"
        x = -411.69848481
        y = 27.0315292925
    [[NOTE 19]]
        text = ":25::7/64"
        x = -265.414298928
        y = -163.789211476
    [[NOTE 20]]
        text = "2340:1111:1C1F::/48"
        x = -629.498700172
        y = -80.9878066903
        font = "MS Shell Dlg 2,10,-1,5,75,0,0,0,0,0"
        color = "#00ff00"
    [[NOTE 21]]
        text = ":23::3/64"
        x = 20.9167388794
        y = 162.066017178
    [[NOTE 22]]
        text = "Redistribution and Filtering"
        x = -231.931024229
        y = -378.281312655
        font = "MS Shell Dlg 2,20,-1,5,75,0,1,0,0,0"
    [[NOTE 23]]
        text = ":26::33/64"
        x = -67.8751083191
        y = -117.615223689
    [[NOTE 24]]
        text = "1 Redistributed in EIGRP with metric 1000 44 255 1 1500"
        x = 428.506709399
        y = 95.48023074
    [[NOTE 25]]
        text = "2340:1111:1C10::/48"
        x = -118.252741956
        y = 211.342279199
        font = "MS Shell Dlg 2,10,-1,5,75,0,0,0,0,0"
        color = "#0000ff"
    [[NOTE 26]]
        text = ":18A4::1/64"
        x = -58.7867965644
        y = -32.9316365835
    [[NOTE 27]]
        text = ":18A4::A/64"
        x = 164.034513252
        y = -20.197407353
    [[NOTE 28]]
        text = ":11::1/64"
        x = -193.284271247
        y = -53.1005050634
    [[NOTE 29]]
        text = "2340:1111:1C10::/48"
        x = 386.621499811
        y = -114.939033455
        font = "MS Shell Dlg 2,10,-1,5,75,0,0,0,0,0"
        color = "#0000ff"
    [[NOTE 30]]
        text = "NSSA"
        x = 178.261976671
        y = 191.719912835
        font = "MS Shell Dlg 2,12,-1,5,75,0,0,0,0,0"
        color = "#0000ff"
    [[NOTE 31]]
        text = ":85::D/64"
        x = -123.029437252
        y = -178.426406872
    [[NOTE 32]]
        text = "2340:1111:1C1E::/48"
        x = 76.0365799259
        y = 348.641702348
        font = "MS Shell Dlg 2,10,-1,5,75,0,0,0,0,0"
        color = "#ff5500"
    [[NOTE 33]]
        text = "EIGRPv6"
        x = -295.485281374
        y = -287.0
        font = "MS Shell Dlg 2,14,-1,5,75,0,0,0,0,0"
    [[NOTE 34]]
        text = "|"
        x = 325.936074863
        y = 120.740115371
    [[NOTE 35]]
        text = ":68::4/64"
        x = 164.516165626
        y = 92.9439962843
    [[NOTE 36]]
        text = "Stub Area 4"
        x = -145.46385335
        y = -272.086219713
        font = "MS Shell Dlg 2,12,-1,5,75,0,0,0,0,0"
        color = "#0000ff"
    [[NOTE 37]]
        text = "-----"
        x = -286.414213562
        y = 120.928932188
    [[NOTE 38]]
        text = ":12::8/64"
        x = 33.3089640422
        y = -153.391952372
    [[NOTE 39]]
        text = ":11::7/64"
        x = -274.522252844
        y = -137.071067812
    [[NOTE 40]]
        text = ":6D::A/64"
        x = 322.144227665
        y = -61.7746032551
    [[NOTE 41]]
        text = "|"
        x = 72.7918471984
        y = 119.727922061
    [[NOTE 42]]
        text = "|"
        x = 325.936074863
        y = 82.154328933
    [[NOTE 43]]
        text = ":29::4/64 *"
        x = 339.411254969
        y = 78.5096679918
    [[NOTE 44]]
        text = ":31::8/64"
        x = 138.279254
        y = -157.899222145
    [[NOTE 45]]
        text = ":45::6/64"
        x = -186.972654789
        y = 380.465078839
    [[NOTE 46]]
        text = ":2D::4/64"
        x = 97.2842712474
        y = 154.592929112
    [[NOTE 47]]
        text = "---------------------------"
        x = 168.291413922
        y = 120.936074863
    [[NOTE 48]]
        text = "-----"
        x = 78.5734910698
        y = -218.734910698
    [[NOTE 49]]
        text = "Stub Area 2"
        x = 403.121933088
        y = 31.9137802871
        font = "MS Shell Dlg 2,12,-1,5,75,0,0,0,0,0"
        color = "#0000ff"
    [[NOTE 50]]
        text = ":2C::4/64 *"
        x = 339.41125497
        y = 117.504617358
    [[NOTE 51]]
        text = ":71::B/64"
        x = -513.533188057
        y = -40.3776336352
        font = "MS Shell Dlg 2,12,-1,5,75,0,0,0,0,0"
        color = "#00ff00"
    [[NOTE 52]]
        text = "2340:1111:1C10::/48"
        x = 245.200143574
        y = 183.259018078
        font = "MS Shell Dlg 2,10,-1,5,75,0,0,0,0,0"
        color = "#0000ff"
    [[NOTE 53]]
        text = ":C::1/64"
        x = -138.816319182
        y = 16.9314491586
    [[NOTE 54]]
        text = ":85::33/64"
        x = -125.857864376
        y = -143.27207794
    [[NOTE 55]]
        text = "|"
        x = 325.936074863
        y = 140.338095117
    [[NOTE 56]]
        text = ":2B::4/64 1"
        x = 340.825468531
        y = 104.977705423
    [[NOTE 57]]
        text = ":6C::A/64"
        x = 221.754536165
        y = -63.1176469465
    [[NOTE 58]]
        text = "RIPng"
        x = -591.05591591
        y = -117.495382642
        font = "MS Shell Dlg 2,14,-1,5,75,0,0,0,0,0"
    [[NOTE 59]]
        text = ":38::6/64"
        x = -61.1076477383
        y = 375.009234716
    [[NOTE 60]]
        text = "Backbone\n    Area"
        x = -51.6419398521
        y = -189.91925585
        font = "MS Shell Dlg 2,12,-1,5,75,0,0,0,0,0"
        color = "#0000ff"
    [[NOTE 61]]
        text = ":1B::7/64"
        x = -356.201255364
        y = -94.1796602476
    [[NOTE 62]]
        text = ":70::C/64"
        x = -544.64588643
        y = 10.735064737
        font = "MS Shell Dlg 2,12,-1,5,75,0,0,0,0,0"
        color = "#00ff00"
    [[NOTE 63]]
        text = "|"
        x = -259.414213562
        y = 120.928932188
    [[NOTE 64]]
        text = ":68::A/64"
        x = 265.744382918
        y = 2.08548860761
    [[NOTE 65]]
        text = ":75::7/64"
        x = -413.463020184
        y = -143.504258762
    [[NOTE 66]]
        text = "|"
        x = 325.936074863
        y = 158.521861301
    [[NOTE 67]]
        text = "AS 1"
        x = -195.230447378
        y = -196.774603256
        font = "MS Shell Dlg 2,12,-1,5,75,0,0,0,0,0"
        color = "#ff5500"
    [[NOTE 68]]
        text = "OSPFv3"
        x = 235.808224589
        y = 215.526045383
        font = "MS Shell Dlg 2,14,-1,5,75,0,0,0,0,0"
    [[NOTE 69]]
        text = ":31::4/64"
        x = 137.691134977
        y = 66.2101070571
    [[NOTE 70]]
        text = "AS 2"
        x = -108.762409947
        y = 297.815367264
        font = "MS Shell Dlg 2,12,-1,5,75,0,0,0,0,0"
        color = "#ff5500"
    [[NOTE 71]]
        text = ":1D::9/64"
        x = -326.979797464
        y = 264.097546471
    [[NOTE 72]]
        text = ":38::5/64"
        x = 49.2010101268
        y = 325.71277016
    [[NOTE 73]]
        text = ":12B2::1/64"
        x = -215.278407161
        y = -3.07535697308
    [[NOTE 74]]
        text = "|"
        x = 74.0489940465
        y = -221.259407721
    [[NOTE 75]]
        text = "Stub Area 3"
        x = 200.889393668
        y = 146.264068712
        font = "MS Shell Dlg 2,12,-1,5,75,0,0,0,0,0"
        color = "#0000ff"
    [[NOTE 76]]
        text = ":30::4/64 2"
        x = 339.411254969
        y = 155.085353162
    [[NOTE 77]]
        text = "|"
        x = -7.81832585685
        y = 135.083261121
    [[NOTE 78]]
        text = ":12B2::B/64"
        x = -378.399588649
        y = -2.7122795777
    [[NOTE 79]]
        text = "IPv6 Routing Protocols : EIGRPv6, OSPFv3 and RIPng"
        x = -395.979797464
        y = -413.636651714
        font = "MS Shell Dlg 2,20,-1,5,75,0,1,0,0,0"
    [[NOTE 80]]
        text = ":3::3/64"
        x = -49.9364102464
        y = 154.675687158
    [[NOTE 81]]
        text = ":25::33/64"
        x = -193.74011537
        y = -110.343145752
    [[NOTE 82]]
        text = ":4::4/64"
        x = 57.377633636
        y = 112.201010127
    [[NOTE 83]]
        text = "2340:1111:1C10::/48"
        x = -160.679148827
        y = -302.627416997
        font = "MS Shell Dlg 2,10,-1,5,75,0,0,0,0,0"
        color = "#0000ff"
    [[NOTE 84]]
        text = ":E::4/64"
        x = 55.2425219348
        y = 96.9678416599
    [[NOTE 85]]
        text = "-----"
        x = -289.0
        y = -179.0
    [[NOTE 86]]
        text = ":D::1/64"
        x = -80.3746917361
        y = 32.4190600782
    [[NOTE 87]]
        text = ":7::7/64"
        x = -291.0
        y = -197.0
    [[NOTE 88]]
        text = ":6C::8/64"
        x = 173.541520155
        y = -184.558474613
    [[NOTE 89]]
        text = ":45::9/64"
        x = -203.943217538
        y = 296.825468532
    [[NOTE 90]]
        text = ":8::8/64"
        x = 12.1327320761
        y = -224.759501433
    [[NOTE 91]]
        text = ":2A::4/64 1"
        x = 339.411254969
        y = 92.4507934888
    [[NOTE 92]]
        text = ":1B::2/64"
        x = -353.4598839
        y = 46.6054877111
    [[NOTE 93]]
        text = ":133::2/64"
        x = -418.568457129
        y = 98.2382153608
    [[NOTE 94]]
        text = ":12BB::2/64"
        x = -305.223731533
        y = 67.2330447943
    [[NOTE 95]]
        text = ":2D::5/64"
        x = 101.526911935
        y = 259.043722601
    [[NOTE 96]]
        text = ":2D::/64 filtered in area 2"
        x = 373.366164481
        y = 13.2400204445
    [[NOTE 97]]
        text = "2340:1111:1C10::/48"
        x = 33.0681092178
        y = -256.159379566
        font = "MS Shell Dlg 2,10,-1,5,75,0,0,0,0,0"
        color = "#0000ff"
    [[NOTE 98]]
        text = "OSPFv3"
        x = -130.473088066
        y = -338.242640687
        font = "MS Shell Dlg 2,14,-1,5,75,0,0,0,0,0"
    [[NOTE 99]]
        text = ":6D::9/64"
        x = 381.541197285
        y = -18.1349929483
    [[NOTE 100]]
        text = "OSPFv3"
        x = 67.5168106662
        y = -294.60303038
        font = "MS Shell Dlg 2,14,-1,5,75,0,0,0,0,0"
    [[NOTE 101]]
        text = ":23::5/64"
        x = 1.11774900612
        y = 265.102597105
    [[NOTE 102]]
        text = ":26::8/64"
        x = 25.9949326728
        y = -197.161419628
    [[NOTE 103]]
        text = "2340:1111:1C1E::/48"
        x = -320.840620434
        y = -239.092495836
        font = "MS Shell Dlg 2,10,-1,5,75,0,0,0,0,0"
        color = "#ff5500"
    [[NOTE 104]]
        text = ":18AA::4/64"
        x = 45.7803314568
        y = 64.4365595386
    [[NOTE 105]]
        text = "-----"
        x = 76.0883117542
        y = 121.154328932
    [[NOTE 106]]
        text = "12B2::7/64"
        x = -305.223731533
        y = -116.868017624
    [[SHAPE 1]]
        type = ellipse
        x = -144.730880654
        y = -304.0
        width = 102.730880654
        height = 204.610173056
        fill_color = "#00aaff"
        border_color = "#0055ff"
        border_style = 2
        z = -2.0
    [[SHAPE 2]]
        type = ellipse
        x = 305.269119346
        y = -117.580735803
        width = 299.813275223
        height = 178.190908859
        fill_color = "#00aaff"
        border_color = "#0055ff"
        border_style = 2
        z = -2.0
    [[SHAPE 3]]
        type = ellipse
        x = -414.364573775
        y = 289.913780286
        width = 648.604255869
        height = 142.086219714
        fill_color = "#ffaa00"
        border_color = "#0055ff"
        border_style = 2
        z = -2.0
    [[SHAPE 4]]
        type = ellipse
        x = -92.6568542495
        y = -260.242640687
        width = 399.0
        height = 400.956890143
        fill_color = "#00ffff"
        border_color = "#0055ff"
        border_style = 2
        z = -2.0
    [[SHAPE 5]]
        type = ellipse
        x = -117.379725677
        y = 131.521861301
        width = 353.553390593
        height = 178.190908859
        fill_color = "#00aaff"
        border_color = "#0055ff"
        border_style = 2
        z = -2.0
    [[SHAPE 6]]
        type = ellipse
        x = -707.508801439
        y = -86.6690475576
        width = 299.813275223
        height = 178.190908859
        fill_color = "#00aa00"
        border_color = "#0055ff"
        border_style = 2
        z = -2.0
    [[SHAPE 7]]
        type = ellipse
        x = -408.585786438
        y = -257.0
        width = 322.0
        height = 561.05591591
        fill_color = "#ffff00"
        border_color = "#0055ff"
        border_style = 2
        z = -2.0
    [[SHAPE 8]]
        type = ellipse
        x = 157.989898733
        y = 77.7817459305
        width = 299.813275223
        height = 131.521861301
        fill_color = "#00aaff"
        border_color = "#0055ff"
        border_style = 2
        z = -2.0
