Nov 26 21:57:52.364 HYPERVISOR: Release 0.2.17-amd64/Linux (tag 2017072410)
Nov 26 21:57:52.364 HYPERVISOR: Started on IP = 127.0.0.1, TCP port = 56625.
Nov 26 21:57:52.401 HYPERVISOR: exec_cmd: hypervisor version 
Nov 26 21:57:52.402 HYPERVISOR: exec_cmd: hypervisor working_dir /media/actionmystique/SAMSUNG5-VMs/Labs/GNS3/v2-solutions-linux-/project-files/dynamips 
Nov 26 21:57:52.402 GENERAL: working_dir=/media/actionmystique/SAMSUNG5-VMs/Labs/GNS3/v2-solutions-linux-/project-files/dynamips
Nov 26 21:57:52.402 HYPERVISOR: exec_cmd: vm create R5 9 c7200 
Nov 26 21:57:52.402 VM: VM R5 created.
Nov 26 21:57:52.402 HYPERVISOR: exec_cmd: vm set_con_tcp_port R5 2015 
Nov 26 21:57:52.403 HYPERVISOR: exec_cmd: c7200 get_mac_addr R5 
Nov 26 21:57:52.403 HYPERVISOR: exec_cmd: vm get_status R5 
Nov 26 21:57:52.403 HYPERVISOR: exec_cmd: vm slot_add_binding R5 0 0 C7200-IO-FE 
Nov 26 21:57:52.404 HYPERVISOR: exec_cmd: vm get_status R5 
Nov 26 21:57:52.404 HYPERVISOR: exec_cmd: vm set_idle_pc R5 0x6062f0e0 
Nov 26 21:57:52.404 HYPERVISOR: exec_cmd: vm get_status R5 
Nov 26 21:57:52.405 HYPERVISOR: exec_cmd: vm slot_add_binding R5 1 0 PA-GE 
Nov 26 21:57:52.405 HYPERVISOR: exec_cmd: vm set_nvram R5 256 
Nov 26 21:57:52.405 HYPERVISOR: exec_cmd: vm get_status R5 
Nov 26 21:57:52.406 HYPERVISOR: exec_cmd: vm slot_add_binding R5 3 0 PA-GE 
Nov 26 21:57:52.406 HYPERVISOR: exec_cmd: vm get_status R5 
Nov 26 21:57:52.406 HYPERVISOR: exec_cmd: vm slot_remove_binding R5 0 0 
Nov 26 21:57:52.407 HYPERVISOR: exec_cmd: vm get_status R5 
Nov 26 21:57:52.407 HYPERVISOR: exec_cmd: vm slot_add_binding R5 0 0 C7200-IO-GE-E 
Nov 26 21:57:52.407 HYPERVISOR: exec_cmd: vm get_status R5 
Nov 26 21:57:52.408 HYPERVISOR: exec_cmd: vm slot_add_binding R5 4 0 PA-4T+ 
Nov 26 21:57:52.408 HYPERVISOR: exec_cmd: vm get_status R5 
Nov 26 21:57:52.409 HYPERVISOR: exec_cmd: vm slot_add_binding R5 2 0 PA-GE 
Nov 26 21:57:52.409 HYPERVISOR: exec_cmd: vm set_ram R5 512 
Nov 26 21:57:52.409 HYPERVISOR: exec_cmd: vm get_status R5 
Nov 26 21:57:52.410 HYPERVISOR: exec_cmd: vm slot_add_binding R5 6 0 PA-POS-OC3 
Nov 26 21:57:52.410 HYPERVISOR: exec_cmd: c7200 set_mac_addr R5 ca09.71f1.0000 
Nov 26 21:57:52.411 HYPERVISOR: exec_cmd: vm set_disk0 R5 1 
Nov 26 21:57:52.411 HYPERVISOR: exec_cmd: vm set_ios R5 /media/actionmystique/SAMSUNG5-VMs/Images/GNS3/IOS/c7200-adventerprisek9-mz.152-4.M2.image 
Nov 26 21:57:52.411 HYPERVISOR: exec_cmd: vm get_status R5 
Nov 26 21:57:52.412 HYPERVISOR: exec_cmd: vm slot_add_binding R5 5 0 PA-POS-OC3 
Nov 26 21:57:52.412 HYPERVISOR: exec_cmd: vm set_config R5 configs/i9_startup-config.cfg 
Nov 26 21:57:52.413 HYPERVISOR: exec_cmd: vm set_config R5 configs/i9_startup-config.cfg configs/i9_private-config.cfg 
Nov 26 21:57:53.508 HYPERVISOR: exec_cmd: nio create_udp udp-b0e6de67-1f79-4d0c-8b84-327ecb4647d5 15044 127.0.0.1 15045 
Nov 26 21:57:53.509 HYPERVISOR: exec_cmd: vm slot_add_nio_binding R5 4 0 udp-b0e6de67-1f79-4d0c-8b84-327ecb4647d5 
Nov 26 21:57:53.509 HYPERVISOR: exec_cmd: vm get_status R5 
Nov 26 21:57:53.540 HYPERVISOR: exec_cmd: nio create_udp udp-c931c49f-f1c8-481f-8dd2-b44cd76817e6 15047 127.0.0.1 15046 
Nov 26 21:57:53.540 HYPERVISOR: exec_cmd: vm slot_add_nio_binding R5 2 0 udp-c931c49f-f1c8-481f-8dd2-b44cd76817e6 
Nov 26 21:57:53.541 HYPERVISOR: exec_cmd: vm get_status R5 
Nov 26 21:57:53.558 HYPERVISOR: exec_cmd: nio create_udp udp-950d0aa4-d39e-426c-8899-29bf7381e3dd 15049 127.0.0.1 15048 
Nov 26 21:57:53.559 HYPERVISOR: exec_cmd: vm slot_add_nio_binding R5 3 0 udp-950d0aa4-d39e-426c-8899-29bf7381e3dd 
Nov 26 21:57:53.560 HYPERVISOR: exec_cmd: vm get_status R5 
Nov 26 21:57:53.568 HYPERVISOR: exec_cmd: nio create_udp udp-2d97d076-5829-4752-84e1-b803675f216c 15050 127.0.0.1 15051 
Nov 26 21:57:53.568 HYPERVISOR: exec_cmd: vm slot_add_nio_binding R5 1 0 udp-2d97d076-5829-4752-84e1-b803675f216c 
Nov 26 21:57:53.569 HYPERVISOR: exec_cmd: vm get_status R5 
Nov 26 21:58:35.480 HYPERVISOR: exec_cmd: vm get_status R5 
Nov 26 21:58:35.482 HYPERVISOR: exec_cmd: vm extract_config R5 
Nov 26 21:58:35.487 HYPERVISOR: exec_cmd: vm delete R5 
Nov 26 21:58:35.487 VM: VM R5 destroyed.
Nov 26 21:58:35.489 HYPERVISOR: exec_cmd: hypervisor stop 
Nov 26 21:58:35.946 HYPERVISOR: Stopped.
Nov 26 21:58:35.946 GENERAL: reset done.
