Mar 02 16:04:39.925 HYPERVISOR: Release 0.2.16-amd64/Linux (tag 2015060118)
Mar 02 16:04:39.925 HYPERVISOR: Started on IP = 127.0.0.1, TCP port = 34893.
Mar 02 16:04:39.959 HYPERVISOR: exec_cmd: hypervisor version 
Mar 02 16:04:39.960 HYPERVISOR: exec_cmd: hypervisor working_dir /media/actionmystique/SAMSUNG-850-Ext4/Labs/GNS3/CCNP/TBSHOOT/Exam-Topology/Jean-Christophe_Manciot/1+/v2-solutions-linux/project-files/dynamips 
Mar 02 16:04:39.960 GENERAL: working_dir=/media/actionmystique/SAMSUNG-850-Ext4/Labs/GNS3/CCNP/TBSHOOT/Exam-Topology/Jean-Christophe_Manciot/1+/v2-solutions-linux/project-files/dynamips
Mar 02 16:04:39.961 HYPERVISOR: exec_cmd: vm create R4 8 c7200 
Mar 02 16:04:39.961 VM: VM R4 created.
Mar 02 16:04:39.962 HYPERVISOR: exec_cmd: vm set_con_tcp_port R4 2003 
Mar 02 16:04:39.962 HYPERVISOR: exec_cmd: c7200 get_mac_addr R4 
Mar 02 16:04:39.963 HYPERVISOR: exec_cmd: vm get_status R4 
Mar 02 16:04:39.964 HYPERVISOR: exec_cmd: vm slot_add_binding R4 0 0 C7200-IO-FE 
Mar 02 16:04:39.965 HYPERVISOR: exec_cmd: vm get_status R4 
Mar 02 16:04:39.965 HYPERVISOR: exec_cmd: vm slot_add_binding R4 5 0 PA-POS-OC3 
Mar 02 16:04:39.970 HYPERVISOR: exec_cmd: vm set_ios R4 /media/actionmystique/SAMSUNG-850-Ext4/Images/GNS3/IOS/c7200-adventerprisek9-mz.152-4.M2.image 
Mar 02 16:04:39.972 HYPERVISOR: exec_cmd: vm set_disk0 R4 1 
Mar 02 16:04:39.973 HYPERVISOR: exec_cmd: vm get_status R4 
Mar 02 16:04:39.974 HYPERVISOR: exec_cmd: vm slot_remove_binding R4 0 0 
Mar 02 16:04:39.984 HYPERVISOR: exec_cmd: vm get_status R4 
Mar 02 16:04:39.992 HYPERVISOR: exec_cmd: vm slot_add_binding R4 0 0 C7200-IO-GE-E 
Mar 02 16:04:39.993 HYPERVISOR: exec_cmd: vm get_status R4 
Mar 02 16:04:39.994 HYPERVISOR: exec_cmd: vm slot_add_binding R4 4 0 PA-4T+ 
Mar 02 16:04:39.995 HYPERVISOR: exec_cmd: vm get_status R4 
Mar 02 16:04:39.995 HYPERVISOR: exec_cmd: vm slot_add_binding R4 3 0 PA-GE 
Mar 02 16:04:39.996 HYPERVISOR: exec_cmd: vm get_status R4 
Mar 02 16:04:39.996 HYPERVISOR: exec_cmd: vm set_idle_pc R4 0x6062f0e0 
Mar 02 16:04:39.997 HYPERVISOR: exec_cmd: vm get_status R4 
Mar 02 16:04:39.998 HYPERVISOR: exec_cmd: vm slot_add_binding R4 6 0 PA-POS-OC3 
Mar 02 16:04:40.007 HYPERVISOR: exec_cmd: vm get_status R4 
Mar 02 16:04:40.007 HYPERVISOR: exec_cmd: vm slot_add_binding R4 1 0 PA-GE 
Mar 02 16:04:40.008 HYPERVISOR: exec_cmd: vm set_nvram R4 256 
Mar 02 16:04:40.009 HYPERVISOR: exec_cmd: vm set_ram R4 512 
Mar 02 16:04:40.010 HYPERVISOR: exec_cmd: vm get_status R4 
Mar 02 16:04:40.010 HYPERVISOR: exec_cmd: vm slot_add_binding R4 2 0 PA-GE 
Mar 02 16:04:40.011 HYPERVISOR: exec_cmd: c7200 set_mac_addr R4 ca08.2e77.0000 
Mar 02 16:04:40.012 HYPERVISOR: exec_cmd: vm set_config R4 configs/i8_startup-config.cfg 
Mar 02 16:04:40.013 HYPERVISOR: exec_cmd: vm set_config R4 configs/i8_startup-config.cfg configs/i8_private-config.cfg 
Mar 02 16:04:41.024 HYPERVISOR: exec_cmd: nio create_udp udp-0b2622ec-71dd-4ebd-8c52-77cfc81d34de 15038 127.0.0.1 15039 
Mar 02 16:04:41.025 HYPERVISOR: exec_cmd: vm slot_add_nio_binding R4 4 0 udp-0b2622ec-71dd-4ebd-8c52-77cfc81d34de 
Mar 02 16:04:41.025 HYPERVISOR: exec_cmd: vm get_status R4 
Mar 02 16:04:41.046 HYPERVISOR: exec_cmd: nio create_udp udp-a110e4be-3f5e-47fa-bdc7-b408803bf2cc 15040 127.0.0.1 15042 
Mar 02 16:04:41.047 HYPERVISOR: exec_cmd: vm slot_add_nio_binding R4 1 0 udp-a110e4be-3f5e-47fa-bdc7-b408803bf2cc 
Mar 02 16:04:41.047 HYPERVISOR: exec_cmd: vm get_status R4 
Mar 02 16:04:41.066 HYPERVISOR: exec_cmd: nio create_udp udp-ccf69e4c-32c3-43f4-a534-61a6ffd16d9f 15043 127.0.0.1 15041 
Mar 02 16:04:41.067 HYPERVISOR: exec_cmd: vm slot_add_nio_binding R4 2 0 udp-ccf69e4c-32c3-43f4-a534-61a6ffd16d9f 
Mar 02 16:04:41.068 HYPERVISOR: exec_cmd: vm get_status R4 
Mar 02 16:05:22.503 HYPERVISOR: exec_cmd: vm get_status R4 
Mar 02 16:05:22.507 HYPERVISOR: exec_cmd: vm extract_config R4 
Mar 02 16:05:22.511 HYPERVISOR: exec_cmd: vm delete R4 
Mar 02 16:05:22.511 VM: VM R4 destroyed.
Mar 02 16:05:22.514 HYPERVISOR: exec_cmd: hypervisor stop 
Mar 02 16:05:22.998 HYPERVISOR: Stopped.
Mar 02 16:05:22.998 GENERAL: reset done.
