Mar 02 16:04:39.875 HYPERVISOR: Release 0.2.16-amd64/Linux (tag 2015060118)
Mar 02 16:04:39.875 HYPERVISOR: Started on IP = 127.0.0.1, TCP port = 36835.
Mar 02 16:04:39.886 HYPERVISOR: exec_cmd: hypervisor version 
Mar 02 16:04:39.888 HYPERVISOR: exec_cmd: hypervisor working_dir /media/actionmystique/SAMSUNG-850-Ext4/Labs/GNS3/CCNP/TBSHOOT/Exam-Topology/Jean-Christophe_Manciot/1+/v2-solutions-linux/project-files/dynamips 
Mar 02 16:04:39.888 GENERAL: working_dir=/media/actionmystique/SAMSUNG-850-Ext4/Labs/GNS3/CCNP/TBSHOOT/Exam-Topology/Jean-Christophe_Manciot/1+/v2-solutions-linux/project-files/dynamips
Mar 02 16:04:39.890 HYPERVISOR: exec_cmd: vm create R1 5 c7200 
Mar 02 16:04:39.890 VM: VM R1 created.
Mar 02 16:04:39.891 HYPERVISOR: exec_cmd: vm set_con_tcp_port R1 2012 
Mar 02 16:04:39.892 HYPERVISOR: exec_cmd: c7200 get_mac_addr R1 
Mar 02 16:04:39.893 HYPERVISOR: exec_cmd: vm get_status R1 
Mar 02 16:04:39.894 HYPERVISOR: exec_cmd: vm slot_add_binding R1 0 0 C7200-IO-FE 
Mar 02 16:04:39.895 HYPERVISOR: exec_cmd: vm get_status R1 
Mar 02 16:04:39.897 HYPERVISOR: exec_cmd: vm slot_add_binding R1 5 0 PA-POS-OC3 
Mar 02 16:04:39.898 HYPERVISOR: exec_cmd: vm set_ios R1 /media/actionmystique/SAMSUNG-850-Ext4/Images/GNS3/IOS/c7200-adventerprisek9-mz.152-4.M2.image 
Mar 02 16:04:39.900 HYPERVISOR: exec_cmd: vm set_disk0 R1 1 
Mar 02 16:04:39.901 HYPERVISOR: exec_cmd: vm get_status R1 
Mar 02 16:04:39.902 HYPERVISOR: exec_cmd: vm slot_remove_binding R1 0 0 
Mar 02 16:04:39.903 HYPERVISOR: exec_cmd: vm get_status R1 
Mar 02 16:04:39.904 HYPERVISOR: exec_cmd: vm slot_add_binding R1 0 0 C7200-IO-GE-E 
Mar 02 16:04:39.905 HYPERVISOR: exec_cmd: vm get_status R1 
Mar 02 16:04:39.907 HYPERVISOR: exec_cmd: vm slot_add_binding R1 4 0 PA-4T+ 
Mar 02 16:04:39.908 HYPERVISOR: exec_cmd: vm get_status R1 
Mar 02 16:04:39.909 HYPERVISOR: exec_cmd: vm slot_add_binding R1 3 0 PA-GE 
Mar 02 16:04:39.910 HYPERVISOR: exec_cmd: vm get_status R1 
Mar 02 16:04:39.912 HYPERVISOR: exec_cmd: vm set_idle_pc R1 0x6062f0e0 
Mar 02 16:04:39.913 HYPERVISOR: exec_cmd: vm get_status R1 
Mar 02 16:04:39.915 HYPERVISOR: exec_cmd: vm slot_add_binding R1 6 0 PA-POS-OC3 
Mar 02 16:04:39.916 HYPERVISOR: exec_cmd: vm get_status R1 
Mar 02 16:04:39.917 HYPERVISOR: exec_cmd: vm slot_add_binding R1 1 0 PA-GE 
Mar 02 16:04:39.918 HYPERVISOR: exec_cmd: vm set_nvram R1 256 
Mar 02 16:04:39.920 HYPERVISOR: exec_cmd: vm set_ram R1 512 
Mar 02 16:04:39.924 HYPERVISOR: exec_cmd: vm get_status R1 
Mar 02 16:04:39.932 HYPERVISOR: exec_cmd: vm slot_add_binding R1 2 0 PA-GE 
Mar 02 16:04:39.935 HYPERVISOR: exec_cmd: c7200 set_mac_addr R1 ca05.2e32.0000 
Mar 02 16:04:39.937 HYPERVISOR: exec_cmd: vm set_config R1 configs/i5_startup-config.cfg 
Mar 02 16:04:39.942 HYPERVISOR: exec_cmd: vm set_config R1 configs/i5_startup-config.cfg configs/i5_private-config.cfg 
Mar 02 16:04:40.922 HYPERVISOR: exec_cmd: nio create_udp udp-25ad838b-0a29-4e65-8701-48ee4e3cea45 15029 127.0.0.1 15028 
Mar 02 16:04:40.923 HYPERVISOR: exec_cmd: vm slot_add_nio_binding R1 3 0 udp-25ad838b-0a29-4e65-8701-48ee4e3cea45 
Mar 02 16:04:40.923 HYPERVISOR: exec_cmd: vm get_status R1 
Mar 02 16:04:40.934 HYPERVISOR: exec_cmd: nio create_udp udp-0b8229d6-ff4d-4b16-808f-dc4d3cedd2b8 15030 127.0.0.1 15031 
Mar 02 16:04:40.935 HYPERVISOR: exec_cmd: vm slot_add_nio_binding R1 4 0 udp-0b8229d6-ff4d-4b16-808f-dc4d3cedd2b8 
Mar 02 16:04:40.935 HYPERVISOR: exec_cmd: vm get_status R1 
Mar 02 16:04:41.016 HYPERVISOR: exec_cmd: nio create_udp udp-bb5654c9-fe8d-4607-868c-290592aeded5 15037 127.0.0.1 15036 
Mar 02 16:04:41.016 HYPERVISOR: exec_cmd: vm slot_add_nio_binding R1 2 0 udp-bb5654c9-fe8d-4607-868c-290592aeded5 
Mar 02 16:04:41.017 HYPERVISOR: exec_cmd: vm get_status R1 
Mar 02 16:04:41.174 HYPERVISOR: exec_cmd: nio create_udp udp-b994e986-f3b4-4f56-80f7-74ff359ca3a5 15054 127.0.0.1 15051 
Mar 02 16:04:41.174 HYPERVISOR: exec_cmd: vm slot_add_nio_binding R1 1 0 udp-b994e986-f3b4-4f56-80f7-74ff359ca3a5 
Mar 02 16:04:41.174 HYPERVISOR: exec_cmd: vm get_status R1 
Mar 02 16:05:22.504 HYPERVISOR: exec_cmd: vm get_status R1 
Mar 02 16:05:22.508 HYPERVISOR: exec_cmd: vm extract_config R1 
Mar 02 16:05:22.512 HYPERVISOR: exec_cmd: vm delete R1 
Mar 02 16:05:22.512 VM: VM R1 destroyed.
Mar 02 16:05:22.514 HYPERVISOR: exec_cmd: hypervisor stop 
Mar 02 16:05:22.925 HYPERVISOR: Stopped.
Mar 02 16:05:22.925 GENERAL: reset done.
