Nov 26 21:57:34.364 HYPERVISOR: Release 0.2.17-amd64/Linux (tag 2017072410)
Nov 26 21:57:34.364 HYPERVISOR: Started on IP = 127.0.0.1, TCP port = 51607.
Nov 26 21:57:34.388 HYPERVISOR: exec_cmd: hypervisor version 
Nov 26 21:57:34.398 HYPERVISOR: exec_cmd: hypervisor working_dir /media/actionmystique/SAMSUNG5-VMs/Labs/GNS3/git-Public-Labs-Collection/CCNP/TBSHOOT/Exam-Topology/Jean-Christophe_Manciot/1+/v2-solutions-linux/project-files/dynamips 
Nov 26 21:57:34.398 GENERAL: working_dir=/media/actionmystique/SAMSUNG5-VMs/Labs/GNS3/git-Public-Labs-Collection/CCNP/TBSHOOT/Exam-Topology/Jean-Christophe_Manciot/1+/v2-solutions-linux/project-files/dynamips
Nov 26 21:57:34.401 HYPERVISOR: exec_cmd: vm create POP 10 c3725 
Nov 26 21:57:34.401 VM: VM POP created.
Nov 26 21:57:34.403 HYPERVISOR: exec_cmd: vm set_con_tcp_port POP 2017 
Nov 26 21:57:34.403 HYPERVISOR: exec_cmd: c3725 get_mac_addr POP 
Nov 26 21:57:34.404 HYPERVISOR: exec_cmd: vm slot_add_binding POP 0 16 WIC-2T 
Nov 26 21:57:34.405 HYPERVISOR: exec_cmd: vm get_status POP 
Nov 26 21:57:34.406 HYPERVISOR: exec_cmd: vm set_idle_pc POP 0x6026b804 
Nov 26 21:57:34.412 HYPERVISOR: exec_cmd: vm set_nvram POP 256 
Nov 26 21:57:34.413 HYPERVISOR: exec_cmd: vm get_status POP 
Nov 26 21:57:34.422 HYPERVISOR: exec_cmd: vm slot_add_binding POP 1 0 NM-16ESW 
Nov 26 21:57:34.425 HYPERVISOR: exec_cmd: vm set_ios POP /media/actionmystique/SAMSUNG5-VMs/Images/GNS3/IOS/c3725-adventerprisek9-mz.124-15.T10.image 
Nov 26 21:57:34.426 HYPERVISOR: exec_cmd: vm set_disk0 POP 1 
Nov 26 21:57:34.427 HYPERVISOR: exec_cmd: c3725 set_mac_addr POP c20a.12bf.0000 
Nov 26 21:57:34.427 HYPERVISOR: exec_cmd: vm set_config POP configs/i10_startup-config.cfg 
Nov 26 21:57:34.428 HYPERVISOR: exec_cmd: vm set_config POP configs/i10_startup-config.cfg configs/i10_private-config.cfg 
Nov 26 21:57:35.561 HYPERVISOR: exec_cmd: nio create_udp udp-ae7fca5c-5fcb-4aac-9772-9a406f9d2cec 15054 127.0.0.1 15055 
Nov 26 21:57:35.562 HYPERVISOR: exec_cmd: vm slot_add_nio_binding POP 1 4 udp-ae7fca5c-5fcb-4aac-9772-9a406f9d2cec 
Nov 26 21:57:35.563 HYPERVISOR: exec_cmd: vm get_status POP 
Nov 26 21:57:35.593 HYPERVISOR: exec_cmd: nio create_udp udp-820ad8a5-c27f-4c17-a450-032fd40920ea 15057 127.0.0.1 15056 
Nov 26 21:57:35.593 HYPERVISOR: exec_cmd: vm slot_add_nio_binding POP 1 2 udp-820ad8a5-c27f-4c17-a450-032fd40920ea 
Nov 26 21:57:35.594 HYPERVISOR: exec_cmd: vm get_status POP 
Nov 26 21:57:35.605 HYPERVISOR: exec_cmd: nio create_udp udp-b76750fe-3d15-441f-b4aa-008a72869f44 15059 127.0.0.1 15058 
Nov 26 21:57:35.605 HYPERVISOR: exec_cmd: vm slot_add_nio_binding POP 1 1 udp-b76750fe-3d15-441f-b4aa-008a72869f44 
Nov 26 21:57:35.606 HYPERVISOR: exec_cmd: vm get_status POP 
Nov 26 21:57:35.617 HYPERVISOR: exec_cmd: nio create_udp udp-ed087f68-9dfc-4da7-92c3-474dfe1b20c9 15060 127.0.0.1 15061 
Nov 26 21:57:35.623 HYPERVISOR: exec_cmd: vm slot_add_nio_binding POP 1 3 udp-ed087f68-9dfc-4da7-92c3-474dfe1b20c9 
Nov 26 21:57:35.623 HYPERVISOR: exec_cmd: vm get_status POP 
