Mar 02 16:04:39.891 HYPERVISOR: Release 0.2.16-amd64/Linux (tag 2015060118)
Mar 02 16:04:39.891 HYPERVISOR: Started on IP = 127.0.0.1, TCP port = 33753.
Mar 02 16:04:39.903 HYPERVISOR: exec_cmd: hypervisor version 
Mar 02 16:04:39.905 HYPERVISOR: exec_cmd: hypervisor working_dir /media/actionmystique/SAMSUNG-850-Ext4/Labs/GNS3/CCNP/TBSHOOT/Exam-Topology/Jean-Christophe_Manciot/1+/v2-solutions-linux/project-files/dynamips 
Mar 02 16:04:39.905 GENERAL: working_dir=/media/actionmystique/SAMSUNG-850-Ext4/Labs/GNS3/CCNP/TBSHOOT/Exam-Topology/Jean-Christophe_Manciot/1+/v2-solutions-linux/project-files/dynamips
Mar 02 16:04:39.906 HYPERVISOR: exec_cmd: vm create R3 7 c7200 
Mar 02 16:04:39.906 VM: VM R3 created.
Mar 02 16:04:39.907 HYPERVISOR: exec_cmd: vm set_con_tcp_port R3 2002 
Mar 02 16:04:39.909 HYPERVISOR: exec_cmd: c7200 get_mac_addr R3 
Mar 02 16:04:39.910 HYPERVISOR: exec_cmd: vm get_status R3 
Mar 02 16:04:39.911 HYPERVISOR: exec_cmd: vm slot_add_binding R3 0 0 C7200-IO-FE 
Mar 02 16:04:39.913 HYPERVISOR: exec_cmd: vm get_status R3 
Mar 02 16:04:39.914 HYPERVISOR: exec_cmd: vm slot_add_binding R3 5 0 PA-POS-OC3 
Mar 02 16:04:39.915 HYPERVISOR: exec_cmd: vm set_ios R3 /media/actionmystique/SAMSUNG-850-Ext4/Images/GNS3/IOS/c7200-adventerprisek9-mz.152-4.M2.image 
Mar 02 16:04:39.917 HYPERVISOR: exec_cmd: vm set_disk0 R3 1 
Mar 02 16:04:39.918 HYPERVISOR: exec_cmd: vm get_status R3 
Mar 02 16:04:39.919 HYPERVISOR: exec_cmd: vm slot_remove_binding R3 0 0 
Mar 02 16:04:39.923 HYPERVISOR: exec_cmd: vm get_status R3 
Mar 02 16:04:39.932 HYPERVISOR: exec_cmd: vm slot_add_binding R3 0 0 C7200-IO-GE-E 
Mar 02 16:04:39.934 HYPERVISOR: exec_cmd: vm get_status R3 
Mar 02 16:04:39.936 HYPERVISOR: exec_cmd: vm slot_add_binding R3 4 0 PA-4T+ 
Mar 02 16:04:39.937 HYPERVISOR: exec_cmd: vm get_status R3 
Mar 02 16:04:39.942 HYPERVISOR: exec_cmd: vm slot_add_binding R3 3 0 PA-GE 
Mar 02 16:04:39.947 HYPERVISOR: exec_cmd: vm get_status R3 
Mar 02 16:04:39.949 HYPERVISOR: exec_cmd: vm set_idle_pc R3 0x6062f0e0 
Mar 02 16:04:39.950 HYPERVISOR: exec_cmd: vm get_status R3 
Mar 02 16:04:39.951 HYPERVISOR: exec_cmd: vm slot_add_binding R3 6 0 PA-POS-OC3 
Mar 02 16:04:39.958 HYPERVISOR: exec_cmd: vm get_status R3 
Mar 02 16:04:39.960 HYPERVISOR: exec_cmd: vm slot_add_binding R3 1 0 PA-GE 
Mar 02 16:04:39.961 HYPERVISOR: exec_cmd: vm set_nvram R3 256 
Mar 02 16:04:39.961 HYPERVISOR: exec_cmd: vm set_ram R3 512 
Mar 02 16:04:39.962 HYPERVISOR: exec_cmd: vm get_status R3 
Mar 02 16:04:39.963 HYPERVISOR: exec_cmd: vm slot_add_binding R3 2 0 PA-GE 
Mar 02 16:04:39.963 HYPERVISOR: exec_cmd: c7200 set_mac_addr R3 ca07.2e65.0000 
Mar 02 16:04:39.964 HYPERVISOR: exec_cmd: vm set_config R3 configs/i7_startup-config.cfg 
Mar 02 16:04:39.965 HYPERVISOR: exec_cmd: vm set_config R3 configs/i7_startup-config.cfg configs/i7_private-config.cfg 
Mar 02 16:04:40.353 HYPERVISOR: exec_cmd: nio create_tap tap-b172fe85-5929-4fa6-af32-34bb9d945c92 tap0 
Mar 02 16:04:40.354 HYPERVISOR: exec_cmd: vm slot_add_nio_binding R3 0 0 tap-b172fe85-5929-4fa6-af32-34bb9d945c92 
Mar 02 16:04:40.355 HYPERVISOR: exec_cmd: vm get_status R3 
Mar 02 16:04:40.946 HYPERVISOR: exec_cmd: nio create_udp udp-c5fd8b9b-1232-4ff9-813e-ac22fea28437 15032 127.0.0.1 15033 
Mar 02 16:04:40.947 HYPERVISOR: exec_cmd: vm slot_add_nio_binding R3 4 0 udp-c5fd8b9b-1232-4ff9-813e-ac22fea28437 
Mar 02 16:04:40.947 HYPERVISOR: exec_cmd: vm get_status R3 
Mar 02 16:05:22.506 HYPERVISOR: exec_cmd: vm get_status R3 
Mar 02 16:05:22.508 HYPERVISOR: exec_cmd: vm extract_config R3 
Mar 02 16:05:22.513 HYPERVISOR: exec_cmd: vm delete R3 
Mar 02 16:05:22.513 VM: VM R3 destroyed.
Mar 02 16:05:22.515 HYPERVISOR: exec_cmd: hypervisor stop 
Mar 02 16:05:22.945 HYPERVISOR: Stopped.
Mar 02 16:05:22.946 GENERAL: reset done.
