Mar 02 16:04:40.006 HYPERVISOR: Release 0.2.16-amd64/Linux (tag 2015060118)
Mar 02 16:04:40.006 HYPERVISOR: Started on IP = 127.0.0.1, TCP port = 54593.
Mar 02 16:04:40.023 HYPERVISOR: exec_cmd: hypervisor version 
Mar 02 16:04:40.023 HYPERVISOR: exec_cmd: hypervisor working_dir /media/actionmystique/SAMSUNG-850-Ext4/Labs/GNS3/CCNP/TBSHOOT/Exam-Topology/Jean-Christophe_Manciot/1+/v2-solutions-linux/project-files/dynamips 
Mar 02 16:04:40.023 GENERAL: working_dir=/media/actionmystique/SAMSUNG-850-Ext4/Labs/GNS3/CCNP/TBSHOOT/Exam-Topology/Jean-Christophe_Manciot/1+/v2-solutions-linux/project-files/dynamips
Mar 02 16:04:40.024 HYPERVISOR: exec_cmd: vm create POP 10 c3725 
Mar 02 16:04:40.024 VM: VM POP created.
Mar 02 16:04:40.025 HYPERVISOR: exec_cmd: vm set_con_tcp_port POP 2017 
Mar 02 16:04:40.025 HYPERVISOR: exec_cmd: c3725 get_mac_addr POP 
Mar 02 16:04:40.026 HYPERVISOR: exec_cmd: vm set_ios POP /media/actionmystique/SAMSUNG-850-Ext4/Images/GNS3/IOS/c3725-adventerprisek9-mz.124-15.T10.image 
Mar 02 16:04:40.027 HYPERVISOR: exec_cmd: vm set_disk0 POP 1 
Mar 02 16:04:40.028 HYPERVISOR: exec_cmd: vm get_status POP 
Mar 02 16:04:40.035 HYPERVISOR: exec_cmd: vm set_idle_pc POP 0x6026b804 
Mar 02 16:04:40.040 HYPERVISOR: exec_cmd: vm slot_add_binding POP 0 16 WIC-2T 
Mar 02 16:04:40.042 HYPERVISOR: exec_cmd: vm get_status POP 
Mar 02 16:04:40.043 HYPERVISOR: exec_cmd: vm slot_add_binding POP 1 0 NM-16ESW 
Mar 02 16:04:40.044 HYPERVISOR: exec_cmd: vm set_nvram POP 256 
Mar 02 16:04:40.044 HYPERVISOR: exec_cmd: c3725 set_mac_addr POP c20a.12bf.0000 
Mar 02 16:04:40.044 HYPERVISOR: exec_cmd: vm set_config POP configs/i10_startup-config.cfg 
Mar 02 16:04:40.045 HYPERVISOR: exec_cmd: vm set_config POP configs/i10_startup-config.cfg configs/i10_private-config.cfg 
Mar 02 16:04:41.196 HYPERVISOR: exec_cmd: nio create_udp udp-08d01b21-91ae-45c0-9f94-f4bcc372e756 15053 127.0.0.1 15055 
Mar 02 16:04:41.197 HYPERVISOR: exec_cmd: vm slot_add_nio_binding POP 1 4 udp-08d01b21-91ae-45c0-9f94-f4bcc372e756 
Mar 02 16:04:41.197 HYPERVISOR: exec_cmd: vm get_status POP 
Mar 02 16:04:41.214 HYPERVISOR: exec_cmd: nio create_udp udp-86fbdbbd-1516-4b44-9dd3-40ba04d8ea13 15056 127.0.0.1 15057 
Mar 02 16:04:41.215 HYPERVISOR: exec_cmd: vm slot_add_nio_binding POP 1 2 udp-86fbdbbd-1516-4b44-9dd3-40ba04d8ea13 
Mar 02 16:04:41.215 HYPERVISOR: exec_cmd: vm get_status POP 
Mar 02 16:04:41.238 HYPERVISOR: exec_cmd: nio create_udp udp-d635072a-aad5-4b22-8532-ec296e86bd75 15058 127.0.0.1 15059 
Mar 02 16:04:41.238 HYPERVISOR: exec_cmd: vm slot_add_nio_binding POP 1 1 udp-d635072a-aad5-4b22-8532-ec296e86bd75 
Mar 02 16:04:41.239 HYPERVISOR: exec_cmd: vm get_status POP 
Mar 02 16:04:41.246 HYPERVISOR: exec_cmd: nio create_udp udp-84b60407-7b51-4d89-a39d-e8467c07b61f 15060 127.0.0.1 15061 
Mar 02 16:04:41.247 HYPERVISOR: exec_cmd: vm slot_add_nio_binding POP 1 3 udp-84b60407-7b51-4d89-a39d-e8467c07b61f 
Mar 02 16:04:41.247 HYPERVISOR: exec_cmd: vm get_status POP 
Mar 02 16:05:22.502 HYPERVISOR: exec_cmd: vm get_status POP 
Mar 02 16:05:22.507 HYPERVISOR: exec_cmd: vm extract_config POP 
Mar 02 16:05:22.509 HYPERVISOR: exec_cmd: vm delete POP 
Mar 02 16:05:22.509 VM: VM POP destroyed.
Mar 02 16:05:22.513 HYPERVISOR: exec_cmd: hypervisor stop 
Mar 02 16:05:22.564 HYPERVISOR: Stopped.
Mar 02 16:05:22.564 GENERAL: reset done.
