Nov 26 21:57:52.239 HYPERVISOR: Release 0.2.17-amd64/Linux (tag 2017072410)
Nov 26 21:57:52.239 HYPERVISOR: Started on IP = 127.0.0.1, TCP port = 33981.
Nov 26 21:57:52.274 HYPERVISOR: exec_cmd: hypervisor version 
Nov 26 21:57:52.278 HYPERVISOR: exec_cmd: hypervisor working_dir /media/actionmystique/SAMSUNG5-VMs/Labs/GNS3/v2-solutions-linux-/project-files/dynamips 
Nov 26 21:57:52.278 GENERAL: working_dir=/media/actionmystique/SAMSUNG5-VMs/Labs/GNS3/v2-solutions-linux-/project-files/dynamips
Nov 26 21:57:52.280 HYPERVISOR: exec_cmd: vm create R2 6 c7200 
Nov 26 21:57:52.280 VM: VM R2 created.
Nov 26 21:57:52.282 HYPERVISOR: exec_cmd: vm set_con_tcp_port R2 2001 
Nov 26 21:57:52.284 HYPERVISOR: exec_cmd: c7200 get_mac_addr R2 
Nov 26 21:57:52.285 HYPERVISOR: exec_cmd: vm get_status R2 
Nov 26 21:57:52.287 HYPERVISOR: exec_cmd: vm slot_add_binding R2 0 0 C7200-IO-FE 
Nov 26 21:57:52.288 HYPERVISOR: exec_cmd: vm get_status R2 
Nov 26 21:57:52.289 HYPERVISOR: exec_cmd: vm set_idle_pc R2 0x6062f0e0 
Nov 26 21:57:52.291 HYPERVISOR: exec_cmd: vm get_status R2 
Nov 26 21:57:52.292 HYPERVISOR: exec_cmd: vm slot_add_binding R2 1 0 PA-GE 
Nov 26 21:57:52.294 HYPERVISOR: exec_cmd: vm set_nvram R2 256 
Nov 26 21:57:52.295 HYPERVISOR: exec_cmd: vm get_status R2 
Nov 26 21:57:52.297 HYPERVISOR: exec_cmd: vm slot_add_binding R2 3 0 PA-GE 
Nov 26 21:57:52.299 HYPERVISOR: exec_cmd: vm get_status R2 
Nov 26 21:57:52.304 HYPERVISOR: exec_cmd: vm slot_remove_binding R2 0 0 
Nov 26 21:57:52.312 HYPERVISOR: exec_cmd: vm get_status R2 
Nov 26 21:57:52.315 HYPERVISOR: exec_cmd: vm slot_add_binding R2 0 0 C7200-IO-GE-E 
Nov 26 21:57:52.316 HYPERVISOR: exec_cmd: vm get_status R2 
Nov 26 21:57:52.318 HYPERVISOR: exec_cmd: vm slot_add_binding R2 4 0 PA-4T+ 
Nov 26 21:57:52.323 HYPERVISOR: exec_cmd: vm get_status R2 
Nov 26 21:57:52.325 HYPERVISOR: exec_cmd: vm slot_add_binding R2 2 0 PA-GE 
Nov 26 21:57:52.327 HYPERVISOR: exec_cmd: vm set_ram R2 512 
Nov 26 21:57:52.330 HYPERVISOR: exec_cmd: vm get_status R2 
Nov 26 21:57:52.332 HYPERVISOR: exec_cmd: vm slot_add_binding R2 6 0 PA-POS-OC3 
Nov 26 21:57:52.334 HYPERVISOR: exec_cmd: c7200 set_mac_addr R2 ca06.2e53.0000 
Nov 26 21:57:52.335 HYPERVISOR: exec_cmd: vm set_disk0 R2 1 
Nov 26 21:57:52.337 HYPERVISOR: exec_cmd: vm set_ios R2 /media/actionmystique/SAMSUNG5-VMs/Images/GNS3/IOS/c7200-adventerprisek9-mz.152-4.M2.image 
Nov 26 21:57:52.338 HYPERVISOR: exec_cmd: vm get_status R2 
Nov 26 21:57:52.341 HYPERVISOR: exec_cmd: vm slot_add_binding R2 5 0 PA-POS-OC3 
Nov 26 21:57:52.343 HYPERVISOR: exec_cmd: vm set_config R2 configs/i6_startup-config.cfg 
Nov 26 21:57:52.344 HYPERVISOR: exec_cmd: vm set_config R2 configs/i6_startup-config.cfg configs/i6_private-config.cfg 
Nov 26 21:57:53.329 HYPERVISOR: exec_cmd: nio create_udp udp-1b7d9bd7-4219-4bb9-a588-e00b901c87e4 15028 127.0.0.1 15029 
Nov 26 21:57:53.331 HYPERVISOR: exec_cmd: vm slot_add_nio_binding R2 4 0 udp-1b7d9bd7-4219-4bb9-a588-e00b901c87e4 
Nov 26 21:57:53.332 HYPERVISOR: exec_cmd: vm get_status R2 
Nov 26 21:58:35.479 HYPERVISOR: exec_cmd: vm get_status R2 
Nov 26 21:58:35.482 HYPERVISOR: exec_cmd: vm extract_config R2 
Nov 26 21:58:35.486 HYPERVISOR: exec_cmd: vm delete R2 
Nov 26 21:58:35.486 VM: VM R2 destroyed.
Nov 26 21:58:35.489 HYPERVISOR: exec_cmd: hypervisor stop 
Nov 26 21:58:35.811 HYPERVISOR: Stopped.
Nov 26 21:58:35.811 GENERAL: reset done.
