autostart = False
[127.0.0.1:7200]
    workingdir = /tmp
    udp = 10000
    [[3640]]
        image = /Data/GNS3/IOS/C3640-JK.BIN
        idlepc = 0x603e26f0
        ghostios = True
        chassis = 3640
    [[ROUTER This]]
        model = 3640
        console = 2000
        slot0 = NM-1FE-TX
        f0/0 = Is f0/0
        slot1 = NM-1FE-TX
        f1/0 = Sparta f0/0
        cnfg = configs/This.cfg
        x = -408.535533906
        y = -110.221825407
    [[ROUTER Is]]
        model = 3640
        console = 2001
        slot0 = NM-1FE-TX
        f0/0 = This f0/0
        slot1 = NM-1FE-TX
        f1/0 = Sparta f1/0
        cnfg = configs/Is.cfg
        x = -153.121320344
        y = -111.0
    [[ROUTER Sparta]]
        model = 3640
        console = 2002
        slot0 = NM-1FE-TX
        f0/0 = This f1/0
        slot1 = NM-1FE-TX
        f1/0 = Is f1/0
        cnfg = configs/Sparta.cfg
        x = -290.422835534
        y = 85.7573593129
        hx = 2.87867965644
        hy = 38.6396103068
[GNS3-DATA]
    configs = configs
    m11 = 1.41421356237
    m22 = 1.41421356237
    [[NOTE 1]]
        text = .3
        x = -259.508188695
        y = 66.2949852599
        color = "#0000ff"
    [[NOTE 2]]
        text = .3
        x = -275.771644663
        y = 66.4959953866
        color = "#0000ff"
    [[NOTE 3]]
        text = .2
        x = -163.341666454
        y = -72.6030303803
        color = "#0000ff"
    [[NOTE 4]]
        text = .2
        x = -174.655374953
        y = -90.7867965644
        color = "#0000ff"
    [[NOTE 5]]
        text = .1
        x = -357.088924499
        y = -74.3223304703
        color = "#0000ff"
    [[NOTE 6]]
        text = .1
        x = -345.068109219
        y = -91.7989898732
        color = "#0000ff"
    [[NOTE 7]]
        text = 192.168.23.0 /24
        x = -225.567063199
        y = -24.4228355337
        color = "#0000ff"
    [[NOTE 8]]
        text = 192.168.13.0 /24
        x = -396.686904246
        y = -25.6360389693
        color = "#0000ff"
    [[NOTE 9]]
        text = 192.168.12.0 /24
        x = -317.490944753
        y = -91.9030662741
        color = "#0000ff"
    [[NOTE 10]]
        text = f1/0
        x = 54.4762952412
        y = -14.3383479119
        interface = Sparta f1/0
        color = "#323232"
    [[NOTE 11]]
        text = f0/0
        x = -25.12395572
        y = -15.7946809296
        interface = Sparta f0/0
        color = "#323232"
    [[NOTE 12]]
        text = f1/0
        x = 15.7663454459
        y = 40.6606783823
        interface = Is f1/0
        color = "#323232"
    [[NOTE 13]]
        text = f0/0
        x = -34.576978818
        y = 0.201557861039
        interface = Is f0/0
        color = "#323232"
    [[NOTE 14]]
        text = f0/0
        x = 67.3429601022
        y = -0.0421782946051
        interface = This f0/0
        color = "#323232"
    [[NOTE 15]]
        text = f1/0
        x = 11.2208894459
        y = 41.4099046188
        interface = This f1/0
        color = "#323232"
