Nov 28 08:53:33.605 HYPERVISOR: Release 0.2.17-amd64/Linux (tag 2017072410)
Nov 28 08:53:33.605 HYPERVISOR: Started on IP = 127.0.0.1, TCP port = 36495.
Nov 28 08:53:33.624 HYPERVISOR: exec_cmd: hypervisor version 
Nov 28 08:53:33.626 HYPERVISOR: exec_cmd: hypervisor working_dir /media/actionmystique/SAMSUNG5-VMs/Labs/GNS3/TT 2-linux-/project-files/dynamips 
Nov 28 08:53:33.626 GENERAL: working_dir=/media/actionmystique/SAMSUNG5-VMs/Labs/GNS3/TT 2-linux-/project-files/dynamips
Nov 28 08:53:33.627 HYPERVISOR: exec_cmd: vm create ESW4 4 c3725 
Nov 28 08:53:33.627 VM: VM ESW4 created.
Nov 28 08:53:33.628 HYPERVISOR: exec_cmd: vm set_con_tcp_port ESW4 2009 
Nov 28 08:53:33.628 HYPERVISOR: exec_cmd: c3725 get_mac_addr ESW4 
Nov 28 08:53:33.630 HYPERVISOR: exec_cmd: vm set_disk0 ESW4 1 
Nov 28 08:53:33.631 HYPERVISOR: exec_cmd: vm get_status ESW4 
Nov 28 08:53:33.631 HYPERVISOR: exec_cmd: vm slot_add_binding ESW4 1 0 NM-16ESW 
Nov 28 08:53:33.632 HYPERVISOR: exec_cmd: vm set_ios ESW4 /media/actionmystique/SAMSUNG5-VMs/Images/GNS3/IOS/c3725-adventerprisek9-mz.124-15.T10.image 
Nov 28 08:53:33.632 HYPERVISOR: exec_cmd: c3725 set_mac_addr ESW4 c204.11f4.0000 
Nov 28 08:53:33.632 HYPERVISOR: exec_cmd: vm slot_add_binding ESW4 0 16 WIC-2T 
Nov 28 08:53:33.633 HYPERVISOR: exec_cmd: vm get_status ESW4 
Nov 28 08:53:33.633 HYPERVISOR: exec_cmd: vm set_idle_pc ESW4 0x6026b804 
Nov 28 08:53:33.634 HYPERVISOR: exec_cmd: vm set_nvram ESW4 256 
Nov 28 08:53:33.634 HYPERVISOR: exec_cmd: vm set_config ESW4 configs/ios_base_startup-config.txt 
Nov 28 08:53:33.635 HYPERVISOR: exec_cmd: vm set_config ESW4 configs/ios_base_startup-config.txt configs/ios_base_private-config.txt 
Nov 28 08:53:33.931 HYPERVISOR: exec_cmd: nio create_udp udp-c8765908-5bb8-4b3f-9df7-ca70b110bd27 15015 127.0.0.1 15014 
Nov 28 08:53:33.932 HYPERVISOR: exec_cmd: vm slot_add_nio_binding ESW4 1 0 udp-c8765908-5bb8-4b3f-9df7-ca70b110bd27 
Nov 28 08:53:33.932 HYPERVISOR: exec_cmd: vm get_status ESW4 
Nov 28 08:53:33.951 HYPERVISOR: exec_cmd: nio create_udp udp-e79b484f-2b74-4eb2-ad24-ee5802379a91 15017 127.0.0.1 15016 
Nov 28 08:53:33.952 HYPERVISOR: exec_cmd: vm slot_add_nio_binding ESW4 1 1 udp-e79b484f-2b74-4eb2-ad24-ee5802379a91 
Nov 28 08:53:33.952 HYPERVISOR: exec_cmd: vm get_status ESW4 
Nov 28 08:53:50.333 HYPERVISOR: exec_cmd: vm get_status ESW4 
Nov 28 08:53:50.334 HYPERVISOR: exec_cmd: vm extract_config ESW4 
Nov 28 08:53:50.336 HYPERVISOR: exec_cmd: vm delete ESW4 
Nov 28 08:53:50.336 VM: VM ESW4 destroyed.
Nov 28 08:53:50.338 HYPERVISOR: exec_cmd: hypervisor stop 
Nov 28 08:53:50.640 HYPERVISOR: Stopped.
Nov 28 08:53:50.640 GENERAL: reset done.
