Nov 27 16:21:01.995 HYPERVISOR: Release 0.2.17-amd64/Linux (tag 2017072410)
Nov 27 16:21:01.995 HYPERVISOR: Started on IP = 127.0.0.1, TCP port = 37953.
Nov 27 16:21:02.008 HYPERVISOR: exec_cmd: hypervisor version 
Nov 27 16:21:02.008 HYPERVISOR: exec_cmd: hypervisor working_dir /media/actionmystique/SAMSUNG5-VMs/Labs/GNS3/TT 1-solutions-linux-/project-files/dynamips 
Nov 27 16:21:02.008 GENERAL: working_dir=/media/actionmystique/SAMSUNG5-VMs/Labs/GNS3/TT 1-solutions-linux-/project-files/dynamips
Nov 27 16:21:02.008 HYPERVISOR: exec_cmd: vm create Core 4 c3725 
Nov 27 16:21:02.009 VM: VM Core created.
Nov 27 16:21:02.009 HYPERVISOR: exec_cmd: vm set_con_tcp_port Core 2005 
Nov 27 16:21:02.009 HYPERVISOR: exec_cmd: c3725 get_mac_addr Core 
Nov 27 16:21:02.009 HYPERVISOR: exec_cmd: vm set_ram Core 256 
Nov 27 16:21:02.010 HYPERVISOR: exec_cmd: vm set_nvram Core 256 
Nov 27 16:21:02.010 HYPERVISOR: exec_cmd: vm get_status Core 
Nov 27 16:21:02.011 HYPERVISOR: exec_cmd: vm set_idle_pc Core 0x6026b804 
Nov 27 16:21:02.011 HYPERVISOR: exec_cmd: c3725 set_mac_addr Core c204.0c3e.0000 
Nov 27 16:21:02.011 HYPERVISOR: exec_cmd: vm get_status Core 
Nov 27 16:21:02.012 HYPERVISOR: exec_cmd: vm slot_add_binding Core 1 0 NM-16ESW 
Nov 27 16:21:02.012 HYPERVISOR: exec_cmd: vm set_disk0 Core 1 
Nov 27 16:21:02.012 HYPERVISOR: exec_cmd: vm set_ios Core /media/actionmystique/SAMSUNG5-VMs/Images/GNS3/IOS/c3725-adventerprisek9-mz.124-15.T10.image 
Nov 27 16:21:02.013 HYPERVISOR: exec_cmd: vm slot_add_binding Core 0 16 WIC-2T 
Nov 27 16:21:02.013 HYPERVISOR: exec_cmd: vm set_config Core configs/i4_startup-config.cfg 
Nov 27 16:21:02.014 HYPERVISOR: exec_cmd: vm set_config Core configs/i4_startup-config.cfg configs/i4_private-config.cfg 
Nov 27 16:21:02.282 HYPERVISOR: exec_cmd: nio create_udp udp-d932245c-981f-499e-8b39-9ddabd8ec5cd 15003 127.0.0.1 15004 
Nov 27 16:21:02.291 HYPERVISOR: exec_cmd: vm slot_add_nio_binding Core 1 1 udp-d932245c-981f-499e-8b39-9ddabd8ec5cd 
Nov 27 16:21:02.292 HYPERVISOR: exec_cmd: vm get_status Core 
Nov 27 16:21:02.342 HYPERVISOR: exec_cmd: nio create_udp udp-3d306a30-7218-427e-a67f-25eb4e2df4a8 15007 127.0.0.1 15005 
Nov 27 16:21:02.343 HYPERVISOR: exec_cmd: vm slot_add_nio_binding Core 1 0 udp-3d306a30-7218-427e-a67f-25eb4e2df4a8 
Nov 27 16:21:02.344 HYPERVISOR: exec_cmd: vm get_status Core 
Nov 27 16:21:14.992 HYPERVISOR: exec_cmd: vm get_status Core 
Nov 27 16:21:14.994 HYPERVISOR: exec_cmd: vm extract_config Core 
Nov 27 16:21:14.996 HYPERVISOR: exec_cmd: vm delete Core 
Nov 27 16:21:14.996 VM: VM Core destroyed.
Nov 27 16:21:15.001 HYPERVISOR: exec_cmd: hypervisor stop 
Nov 27 16:21:15.021 HYPERVISOR: Stopped.
Nov 27 16:21:15.021 GENERAL: reset done.
