Nov 26 21:01:59.346 HYPERVISOR: Release 0.2.17-amd64/Linux (tag 2017072410)
Nov 26 21:01:59.347 HYPERVISOR: Started on IP = 127.0.0.1, TCP port = 52273.
Nov 26 21:01:59.396 HYPERVISOR: exec_cmd: hypervisor version 
Nov 26 21:01:59.399 HYPERVISOR: exec_cmd: hypervisor working_dir /media/actionmystique/SAMSUNG5-VMs/Labs/GNS3/PVST+ EtherChannel HSRP/project-files/dynamips 
Nov 26 21:01:59.399 GENERAL: working_dir=/media/actionmystique/SAMSUNG5-VMs/Labs/GNS3/PVST+ EtherChannel HSRP/project-files/dynamips
Nov 26 21:01:59.405 HYPERVISOR: exec_cmd: vm create SW9 10 c3725 
Nov 26 21:01:59.405 VM: VM SW9 created.
Nov 26 21:01:59.407 HYPERVISOR: exec_cmd: vm set_con_tcp_port SW9 2017 
Nov 26 21:01:59.409 HYPERVISOR: exec_cmd: vm set_aux_tcp_port SW9 2517 
Nov 26 21:01:59.414 HYPERVISOR: exec_cmd: c3725 get_mac_addr SW9 
Nov 26 21:01:59.416 HYPERVISOR: exec_cmd: vm set_ios SW9 /media/actionmystique/SAMSUNG5-VMs/Images/GNS3/IOS/c3725-adventerprisek9-mz.124-15.T10.image 
Nov 26 21:01:59.418 HYPERVISOR: exec_cmd: vm set_ram SW9 256 
Nov 26 21:01:59.419 HYPERVISOR: exec_cmd: vm get_status SW9 
Nov 26 21:01:59.420 HYPERVISOR: exec_cmd: vm set_idle_pc SW9 0x6026b804 
Nov 26 21:01:59.421 HYPERVISOR: exec_cmd: vm get_status SW9 
Nov 26 21:01:59.422 HYPERVISOR: exec_cmd: vm slot_add_binding SW9 1 0 NM-16ESW 
Nov 26 21:01:59.423 HYPERVISOR: exec_cmd: vm set_config SW9 configs/i10_startup-config.cfg 
Nov 26 21:02:00.117 HYPERVISOR: exec_cmd: nio create_udp udp-c44f6dc6-2f1d-49b9-8ea3-091ce00df900 30006 127.0.0.1 20006 
Nov 26 21:02:00.117 HYPERVISOR: exec_cmd: vm slot_add_nio_binding SW9 1 2 udp-c44f6dc6-2f1d-49b9-8ea3-091ce00df900 
Nov 26 21:02:00.117 HYPERVISOR: exec_cmd: vm get_status SW9 
Nov 26 21:02:00.128 HYPERVISOR: exec_cmd: nio create_udp udp-142a58a4-b187-46f3-bf6d-2c7cc6ba464c 30007 127.0.0.1 20007 
Nov 26 21:02:00.129 HYPERVISOR: exec_cmd: vm slot_add_nio_binding SW9 1 3 udp-142a58a4-b187-46f3-bf6d-2c7cc6ba464c 
Nov 26 21:02:00.129 HYPERVISOR: exec_cmd: vm get_status SW9 
Nov 26 21:02:00.188 HYPERVISOR: exec_cmd: vm extract_config SW9 
Nov 26 21:02:00.721 HYPERVISOR: exec_cmd: nio create_udp udp-8c575b7d-b09d-4faf-bb52-2f3c39d1ee72 15051 127.0.0.1 15050 
Nov 26 21:02:00.724 HYPERVISOR: exec_cmd: vm slot_add_nio_binding SW9 1 0 udp-8c575b7d-b09d-4faf-bb52-2f3c39d1ee72 
Nov 26 21:02:00.725 HYPERVISOR: exec_cmd: vm get_status SW9 
Nov 26 21:02:00.738 HYPERVISOR: exec_cmd: nio create_udp udp-2d62fd86-bf22-468e-8f75-17df11e19fbe 15053 127.0.0.1 15052 
Nov 26 21:02:00.739 HYPERVISOR: exec_cmd: vm slot_add_nio_binding SW9 1 1 udp-2d62fd86-bf22-468e-8f75-17df11e19fbe 
Nov 26 21:02:00.740 HYPERVISOR: exec_cmd: vm get_status SW9 
Nov 26 21:03:00.812 HYPERVISOR: exec_cmd: vm get_status SW9 
Nov 26 21:03:00.816 HYPERVISOR: exec_cmd: vm extract_config SW9 
Nov 26 21:03:00.866 HYPERVISOR: exec_cmd: vm delete SW9 
Nov 26 21:03:00.866 VM: VM SW9 destroyed.
Nov 26 21:03:00.870 HYPERVISOR: exec_cmd: hypervisor stop 
Nov 26 21:03:00.942 HYPERVISOR: Stopped.
Nov 26 21:03:00.942 GENERAL: reset done.
