Nov 26 21:01:59.263 HYPERVISOR: Release 0.2.17-amd64/Linux (tag 2017072410)
Nov 26 21:01:59.263 HYPERVISOR: Started on IP = 127.0.0.1, TCP port = 54659.
Nov 26 21:01:59.283 HYPERVISOR: exec_cmd: hypervisor version 
Nov 26 21:01:59.284 HYPERVISOR: exec_cmd: hypervisor working_dir /media/actionmystique/SAMSUNG5-VMs/Labs/GNS3/PVST+ EtherChannel HSRP/project-files/dynamips 
Nov 26 21:01:59.284 GENERAL: working_dir=/media/actionmystique/SAMSUNG5-VMs/Labs/GNS3/PVST+ EtherChannel HSRP/project-files/dynamips
Nov 26 21:01:59.289 HYPERVISOR: exec_cmd: vm create SW4 4 c3725 
Nov 26 21:01:59.289 VM: VM SW4 created.
Nov 26 21:01:59.303 HYPERVISOR: exec_cmd: vm set_con_tcp_port SW4 2004 
Nov 26 21:01:59.314 HYPERVISOR: exec_cmd: vm set_aux_tcp_port SW4 2504 
Nov 26 21:01:59.315 HYPERVISOR: exec_cmd: c3725 get_mac_addr SW4 
Nov 26 21:01:59.317 HYPERVISOR: exec_cmd: vm set_ios SW4 /media/actionmystique/SAMSUNG5-VMs/Images/GNS3/IOS/c3725-adventerprisek9-mz.124-15.T10.image 
Nov 26 21:01:59.319 HYPERVISOR: exec_cmd: vm set_ram SW4 256 
Nov 26 21:01:59.321 HYPERVISOR: exec_cmd: vm get_status SW4 
Nov 26 21:01:59.322 HYPERVISOR: exec_cmd: vm set_idle_pc SW4 0x6026b804 
Nov 26 21:01:59.323 HYPERVISOR: exec_cmd: vm get_status SW4 
Nov 26 21:01:59.324 HYPERVISOR: exec_cmd: vm slot_add_binding SW4 1 0 NM-16ESW 
Nov 26 21:01:59.326 HYPERVISOR: exec_cmd: vm set_config SW4 configs/i4_startup-config.cfg 
Nov 26 21:02:00.187 HYPERVISOR: exec_cmd: vm extract_config SW4 
Nov 26 21:02:00.313 HYPERVISOR: exec_cmd: nio create_udp udp-9b81e336-72fa-464e-8c42-b51c7d1e37d3 15011 127.0.0.1 15010 
Nov 26 21:02:00.313 HYPERVISOR: exec_cmd: vm slot_add_nio_binding SW4 1 10 udp-9b81e336-72fa-464e-8c42-b51c7d1e37d3 
Nov 26 21:02:00.313 HYPERVISOR: exec_cmd: vm get_status SW4 
Nov 26 21:02:00.332 HYPERVISOR: exec_cmd: nio create_udp udp-9a7fff3f-6363-4921-9443-3d1983a16884 15013 127.0.0.1 15012 
Nov 26 21:02:00.335 HYPERVISOR: exec_cmd: vm slot_add_nio_binding SW4 1 2 udp-9a7fff3f-6363-4921-9443-3d1983a16884 
Nov 26 21:02:00.336 HYPERVISOR: exec_cmd: vm get_status SW4 
Nov 26 21:02:00.350 HYPERVISOR: exec_cmd: nio create_udp udp-2a63dbb5-fa3a-4d0f-b1c1-f9bc8c4f3e07 15015 127.0.0.1 15014 
Nov 26 21:02:00.351 HYPERVISOR: exec_cmd: vm slot_add_nio_binding SW4 1 3 udp-2a63dbb5-fa3a-4d0f-b1c1-f9bc8c4f3e07 
Nov 26 21:02:00.351 HYPERVISOR: exec_cmd: vm get_status SW4 
Nov 26 21:02:00.381 HYPERVISOR: exec_cmd: nio create_udp udp-dc2f0cde-1bf5-4f9a-8c7f-89c307b9dbaf 15017 127.0.0.1 15016 
Nov 26 21:02:00.381 HYPERVISOR: exec_cmd: vm slot_add_nio_binding SW4 1 7 udp-dc2f0cde-1bf5-4f9a-8c7f-89c307b9dbaf 
Nov 26 21:02:00.381 HYPERVISOR: exec_cmd: vm get_status SW4 
Nov 26 21:02:00.396 HYPERVISOR: exec_cmd: nio create_udp udp-06a517f1-9b3b-48a5-9922-9faa4f004022 15019 127.0.0.1 15018 
Nov 26 21:02:00.397 HYPERVISOR: exec_cmd: vm slot_add_nio_binding SW4 1 8 udp-06a517f1-9b3b-48a5-9922-9faa4f004022 
Nov 26 21:02:00.397 HYPERVISOR: exec_cmd: vm get_status SW4 
Nov 26 21:02:00.412 HYPERVISOR: exec_cmd: nio create_udp udp-ba8504ca-9bcf-4e93-bb0b-9d68558bfa5a 15021 127.0.0.1 15020 
Nov 26 21:02:00.412 HYPERVISOR: exec_cmd: vm slot_add_nio_binding SW4 1 9 udp-ba8504ca-9bcf-4e93-bb0b-9d68558bfa5a 
Nov 26 21:02:00.413 HYPERVISOR: exec_cmd: vm get_status SW4 
Nov 26 21:02:00.437 HYPERVISOR: exec_cmd: nio create_udp udp-9f232a42-a0c8-4a25-bd8c-dcbd0536eed6 15023 127.0.0.1 15022 
Nov 26 21:02:00.437 HYPERVISOR: exec_cmd: vm slot_add_nio_binding SW4 1 4 udp-9f232a42-a0c8-4a25-bd8c-dcbd0536eed6 
Nov 26 21:02:00.437 HYPERVISOR: exec_cmd: vm get_status SW4 
Nov 26 21:02:00.444 HYPERVISOR: exec_cmd: nio create_udp udp-a40e6142-08f6-4721-9079-26bc237e36d7 15024 127.0.0.1 15025 
Nov 26 21:02:00.445 HYPERVISOR: exec_cmd: vm slot_add_nio_binding SW4 1 0 udp-a40e6142-08f6-4721-9079-26bc237e36d7 
Nov 26 21:02:00.445 HYPERVISOR: exec_cmd: vm get_status SW4 
Nov 26 21:02:00.460 HYPERVISOR: exec_cmd: nio create_udp udp-e44d3187-5b15-4f85-b429-e6bd5eede064 15026 127.0.0.1 15027 
Nov 26 21:02:00.461 HYPERVISOR: exec_cmd: vm slot_add_nio_binding SW4 1 1 udp-e44d3187-5b15-4f85-b429-e6bd5eede064 
Nov 26 21:02:00.461 HYPERVISOR: exec_cmd: vm get_status SW4 
Nov 26 21:03:00.810 HYPERVISOR: exec_cmd: vm get_status SW4 
Nov 26 21:03:00.815 HYPERVISOR: exec_cmd: vm extract_config SW4 
Nov 26 21:03:00.863 HYPERVISOR: exec_cmd: vm delete SW4 
Nov 26 21:03:00.863 VM: VM SW4 destroyed.
Nov 26 21:03:00.867 HYPERVISOR: exec_cmd: hypervisor stop 
Nov 26 21:03:01.337 HYPERVISOR: Stopped.
Nov 26 21:03:01.337 GENERAL: reset done.
