Nov 26 21:01:59.246 HYPERVISOR: Release 0.2.17-amd64/Linux (tag 2017072410)
Nov 26 21:01:59.246 HYPERVISOR: Started on IP = 127.0.0.1, TCP port = 45919.
Nov 26 21:01:59.254 HYPERVISOR: exec_cmd: hypervisor version 
Nov 26 21:01:59.255 HYPERVISOR: exec_cmd: hypervisor working_dir /media/actionmystique/SAMSUNG5-VMs/Labs/GNS3/PVST+ EtherChannel HSRP/project-files/dynamips 
Nov 26 21:01:59.255 GENERAL: working_dir=/media/actionmystique/SAMSUNG5-VMs/Labs/GNS3/PVST+ EtherChannel HSRP/project-files/dynamips
Nov 26 21:01:59.256 HYPERVISOR: exec_cmd: vm create SW3 3 c3725 
Nov 26 21:01:59.256 VM: VM SW3 created.
Nov 26 21:01:59.257 HYPERVISOR: exec_cmd: vm set_con_tcp_port SW3 2003 
Nov 26 21:01:59.258 HYPERVISOR: exec_cmd: vm set_aux_tcp_port SW3 2503 
Nov 26 21:01:59.259 HYPERVISOR: exec_cmd: c3725 get_mac_addr SW3 
Nov 26 21:01:59.263 HYPERVISOR: exec_cmd: vm set_ios SW3 /media/actionmystique/SAMSUNG5-VMs/Images/GNS3/IOS/c3725-adventerprisek9-mz.124-15.T10.image 
Nov 26 21:01:59.273 HYPERVISOR: exec_cmd: vm set_ram SW3 256 
Nov 26 21:01:59.276 HYPERVISOR: exec_cmd: vm get_status SW3 
Nov 26 21:01:59.278 HYPERVISOR: exec_cmd: vm set_idle_pc SW3 0x6026b804 
Nov 26 21:01:59.280 HYPERVISOR: exec_cmd: vm get_status SW3 
Nov 26 21:01:59.282 HYPERVISOR: exec_cmd: vm slot_add_binding SW3 1 0 NM-16ESW 
Nov 26 21:01:59.284 HYPERVISOR: exec_cmd: vm set_config SW3 configs/i3_startup-config.cfg 
Nov 26 21:02:00.189 HYPERVISOR: exec_cmd: vm extract_config SW3 
Nov 26 21:02:00.208 HYPERVISOR: exec_cmd: nio create_udp udp-c18082e8-fc72-4367-99d1-52f7deb70f43 15002 127.0.0.1 15001 
Nov 26 21:02:00.209 HYPERVISOR: exec_cmd: vm slot_add_nio_binding SW3 1 11 udp-c18082e8-fc72-4367-99d1-52f7deb70f43 
Nov 26 21:02:00.209 HYPERVISOR: exec_cmd: vm get_status SW3 
Nov 26 21:02:00.225 HYPERVISOR: exec_cmd: nio create_udp udp-2b58093e-1cd9-4196-b829-e62afe20b3b8 15004 127.0.0.1 15000 
Nov 26 21:02:00.226 HYPERVISOR: exec_cmd: vm slot_add_nio_binding SW3 1 1 udp-2b58093e-1cd9-4196-b829-e62afe20b3b8 
Nov 26 21:02:00.227 HYPERVISOR: exec_cmd: vm get_status SW3 
Nov 26 21:02:00.241 HYPERVISOR: exec_cmd: nio create_udp udp-db34fb38-d70a-4ebb-aa60-c7b9c445cea2 15005 127.0.0.1 15003 
Nov 26 21:02:00.241 HYPERVISOR: exec_cmd: vm slot_add_nio_binding SW3 1 3 udp-db34fb38-d70a-4ebb-aa60-c7b9c445cea2 
Nov 26 21:02:00.242 HYPERVISOR: exec_cmd: vm get_status SW3 
Nov 26 21:02:00.260 HYPERVISOR: exec_cmd: nio create_udp udp-03f0406f-25bc-40c3-b56b-e15ccec9436e 15006 127.0.0.1 15007 
Nov 26 21:02:00.260 HYPERVISOR: exec_cmd: vm slot_add_nio_binding SW3 1 2 udp-03f0406f-25bc-40c3-b56b-e15ccec9436e 
Nov 26 21:02:00.261 HYPERVISOR: exec_cmd: vm get_status SW3 
Nov 26 21:02:00.429 HYPERVISOR: exec_cmd: nio create_udp udp-6580a93a-ae7b-4df5-badf-3ab640255b8d 15022 127.0.0.1 15023 
Nov 26 21:02:00.429 HYPERVISOR: exec_cmd: vm slot_add_nio_binding SW3 1 4 udp-6580a93a-ae7b-4df5-badf-3ab640255b8d 
Nov 26 21:02:00.430 HYPERVISOR: exec_cmd: vm get_status SW3 
Nov 26 21:03:00.813 HYPERVISOR: exec_cmd: vm get_status SW3 
Nov 26 21:03:00.817 HYPERVISOR: exec_cmd: vm extract_config SW3 
Nov 26 21:03:00.860 HYPERVISOR: exec_cmd: vm delete SW3 
Nov 26 21:03:00.860 VM: VM SW3 destroyed.
Nov 26 21:03:00.865 HYPERVISOR: exec_cmd: hypervisor stop 
Nov 26 21:03:01.313 HYPERVISOR: Stopped.
Nov 26 21:03:01.313 GENERAL: reset done.
