Nov 26 21:01:59.303 HYPERVISOR: Release 0.2.17-amd64/Linux (tag 2017072410)
Nov 26 21:01:59.303 HYPERVISOR: Started on IP = 127.0.0.1, TCP port = 57389.
Nov 26 21:01:59.323 HYPERVISOR: exec_cmd: hypervisor version 
Nov 26 21:01:59.324 HYPERVISOR: exec_cmd: hypervisor working_dir /media/actionmystique/SAMSUNG5-VMs/Labs/GNS3/PVST+ EtherChannel HSRP/project-files/dynamips 
Nov 26 21:01:59.324 GENERAL: working_dir=/media/actionmystique/SAMSUNG5-VMs/Labs/GNS3/PVST+ EtherChannel HSRP/project-files/dynamips
Nov 26 21:01:59.325 HYPERVISOR: exec_cmd: vm create SW8 8 c3725 
Nov 26 21:01:59.325 VM: VM SW8 created.
Nov 26 21:01:59.331 HYPERVISOR: exec_cmd: vm set_con_tcp_port SW8 2015 
Nov 26 21:01:59.346 HYPERVISOR: exec_cmd: vm set_aux_tcp_port SW8 2515 
Nov 26 21:01:59.357 HYPERVISOR: exec_cmd: c3725 get_mac_addr SW8 
Nov 26 21:01:59.358 HYPERVISOR: exec_cmd: vm set_ios SW8 /media/actionmystique/SAMSUNG5-VMs/Images/GNS3/IOS/c3725-adventerprisek9-mz.124-15.T10.image 
Nov 26 21:01:59.359 HYPERVISOR: exec_cmd: vm set_ram SW8 256 
Nov 26 21:01:59.360 HYPERVISOR: exec_cmd: vm get_status SW8 
Nov 26 21:01:59.361 HYPERVISOR: exec_cmd: vm set_idle_pc SW8 0x6026b804 
Nov 26 21:01:59.362 HYPERVISOR: exec_cmd: vm get_status SW8 
Nov 26 21:01:59.368 HYPERVISOR: exec_cmd: vm slot_add_binding SW8 1 0 NM-16ESW 
Nov 26 21:01:59.371 HYPERVISOR: exec_cmd: vm set_config SW8 configs/i8_startup-config.cfg 
Nov 26 21:02:00.184 HYPERVISOR: exec_cmd: vm extract_config SW8 
Nov 26 21:02:00.614 HYPERVISOR: exec_cmd: nio create_udp udp-3cb11176-365d-475a-8b88-277ea0a6978b 15041 127.0.0.1 15040 
Nov 26 21:02:00.618 HYPERVISOR: exec_cmd: vm slot_add_nio_binding SW8 1 11 udp-3cb11176-365d-475a-8b88-277ea0a6978b 
Nov 26 21:02:00.619 HYPERVISOR: exec_cmd: vm get_status SW8 
Nov 26 21:02:00.640 HYPERVISOR: exec_cmd: nio create_udp udp-82f165d5-04dd-4032-a0e4-fe4472246d33 15043 127.0.0.1 15042 
Nov 26 21:02:00.641 HYPERVISOR: exec_cmd: vm slot_add_nio_binding SW8 1 2 udp-82f165d5-04dd-4032-a0e4-fe4472246d33 
Nov 26 21:02:00.641 HYPERVISOR: exec_cmd: vm get_status SW8 
Nov 26 21:02:00.664 HYPERVISOR: exec_cmd: nio create_udp udp-be3d55ac-aec8-44db-97fc-b26003c9a437 15045 127.0.0.1 15044 
Nov 26 21:02:00.664 HYPERVISOR: exec_cmd: vm slot_add_nio_binding SW8 1 4 udp-be3d55ac-aec8-44db-97fc-b26003c9a437 
Nov 26 21:02:00.665 HYPERVISOR: exec_cmd: vm get_status SW8 
Nov 26 21:02:00.704 HYPERVISOR: exec_cmd: nio create_udp udp-50469be6-168b-4a33-8524-5c0cc7efdbe0 15049 127.0.0.1 15048 
Nov 26 21:02:00.705 HYPERVISOR: exec_cmd: vm slot_add_nio_binding SW8 1 3 udp-50469be6-168b-4a33-8524-5c0cc7efdbe0 
Nov 26 21:02:00.705 HYPERVISOR: exec_cmd: vm get_status SW8 
Nov 26 21:02:00.731 HYPERVISOR: exec_cmd: nio create_udp udp-84becf21-9a88-4dd5-850d-5efbc4e66833 15052 127.0.0.1 15053 
Nov 26 21:02:00.732 HYPERVISOR: exec_cmd: vm slot_add_nio_binding SW8 1 1 udp-84becf21-9a88-4dd5-850d-5efbc4e66833 
Nov 26 21:02:00.733 HYPERVISOR: exec_cmd: vm get_status SW8 
Nov 26 21:03:00.812 HYPERVISOR: exec_cmd: vm get_status SW8 
Nov 26 21:03:00.816 HYPERVISOR: exec_cmd: vm extract_config SW8 
Nov 26 21:03:00.861 HYPERVISOR: exec_cmd: vm delete SW8 
Nov 26 21:03:00.862 VM: VM SW8 destroyed.
Nov 26 21:03:00.866 HYPERVISOR: exec_cmd: hypervisor stop 
Nov 26 21:03:00.883 HYPERVISOR: Stopped.
Nov 26 21:03:00.883 GENERAL: reset done.
