Nov 26 21:01:59.272 HYPERVISOR: Release 0.2.17-amd64/Linux (tag 2017072410)
Nov 26 21:01:59.272 HYPERVISOR: Started on IP = 127.0.0.1, TCP port = 41239.
Nov 26 21:01:59.318 HYPERVISOR: exec_cmd: hypervisor version 
Nov 26 21:01:59.320 HYPERVISOR: exec_cmd: hypervisor working_dir /media/actionmystique/SAMSUNG5-VMs/Labs/GNS3/PVST+ EtherChannel HSRP/project-files/dynamips 
Nov 26 21:01:59.320 GENERAL: working_dir=/media/actionmystique/SAMSUNG5-VMs/Labs/GNS3/PVST+ EtherChannel HSRP/project-files/dynamips
Nov 26 21:01:59.322 HYPERVISOR: exec_cmd: vm create SW7 7 c3725 
Nov 26 21:01:59.322 VM: VM SW7 created.
Nov 26 21:01:59.323 HYPERVISOR: exec_cmd: vm set_con_tcp_port SW7 2007 
Nov 26 21:01:59.324 HYPERVISOR: exec_cmd: vm set_aux_tcp_port SW7 2507 
Nov 26 21:01:59.325 HYPERVISOR: exec_cmd: c3725 get_mac_addr SW7 
Nov 26 21:01:59.331 HYPERVISOR: exec_cmd: vm set_ios SW7 /media/actionmystique/SAMSUNG5-VMs/Images/GNS3/IOS/c3725-adventerprisek9-mz.124-15.T10.image 
Nov 26 21:01:59.346 HYPERVISOR: exec_cmd: vm set_ram SW7 256 
Nov 26 21:01:59.358 HYPERVISOR: exec_cmd: vm get_status SW7 
Nov 26 21:01:59.359 HYPERVISOR: exec_cmd: vm set_idle_pc SW7 0x6026b804 
Nov 26 21:01:59.360 HYPERVISOR: exec_cmd: vm get_status SW7 
Nov 26 21:01:59.361 HYPERVISOR: exec_cmd: vm slot_add_binding SW7 1 0 NM-16ESW 
Nov 26 21:01:59.362 HYPERVISOR: exec_cmd: vm set_config SW7 configs/i7_startup-config.cfg 
Nov 26 21:02:00.184 HYPERVISOR: exec_cmd: vm extract_config SW7 
Nov 26 21:02:00.492 HYPERVISOR: exec_cmd: nio create_udp udp-0d45f209-c4e0-4128-9c9c-12701842196d 15029 127.0.0.1 15028 
Nov 26 21:02:00.496 HYPERVISOR: exec_cmd: vm slot_add_nio_binding SW7 1 3 udp-0d45f209-c4e0-4128-9c9c-12701842196d 
Nov 26 21:02:00.497 HYPERVISOR: exec_cmd: vm get_status SW7 
Nov 26 21:02:00.511 HYPERVISOR: exec_cmd: nio create_udp udp-1b552ca0-dd16-4dc5-9069-5f03bc4825c3 15031 127.0.0.1 15030 
Nov 26 21:02:00.511 HYPERVISOR: exec_cmd: vm slot_add_nio_binding SW7 1 7 udp-1b552ca0-dd16-4dc5-9069-5f03bc4825c3 
Nov 26 21:02:00.512 HYPERVISOR: exec_cmd: vm get_status SW7 
Nov 26 21:02:00.540 HYPERVISOR: exec_cmd: nio create_udp udp-c2dd07bf-55d5-4a35-814b-3521998f87a7 15033 127.0.0.1 15032 
Nov 26 21:02:00.541 HYPERVISOR: exec_cmd: vm slot_add_nio_binding SW7 1 8 udp-c2dd07bf-55d5-4a35-814b-3521998f87a7 
Nov 26 21:02:00.541 HYPERVISOR: exec_cmd: vm get_status SW7 
Nov 26 21:02:00.555 HYPERVISOR: exec_cmd: nio create_udp udp-fcb62ce3-3d9d-4371-bf05-f69453a33762 15035 127.0.0.1 15034 
Nov 26 21:02:00.556 HYPERVISOR: exec_cmd: vm slot_add_nio_binding SW7 1 9 udp-fcb62ce3-3d9d-4371-bf05-f69453a33762 
Nov 26 21:02:00.556 HYPERVISOR: exec_cmd: vm get_status SW7 
Nov 26 21:02:00.577 HYPERVISOR: exec_cmd: nio create_udp udp-1831a5c4-185f-4ff5-8852-df8387317e34 15037 127.0.0.1 15036 
Nov 26 21:02:00.577 HYPERVISOR: exec_cmd: vm slot_add_nio_binding SW7 1 1 udp-1831a5c4-185f-4ff5-8852-df8387317e34 
Nov 26 21:02:00.577 HYPERVISOR: exec_cmd: vm get_status SW7 
Nov 26 21:02:00.598 HYPERVISOR: exec_cmd: nio create_udp udp-c0aa7bd9-a372-4671-af18-0bda691b5b97 15039 127.0.0.1 15038 
Nov 26 21:02:00.599 HYPERVISOR: exec_cmd: vm slot_add_nio_binding SW7 1 10 udp-c0aa7bd9-a372-4671-af18-0bda691b5b97 
Nov 26 21:02:00.607 HYPERVISOR: exec_cmd: vm get_status SW7 
Nov 26 21:02:00.657 HYPERVISOR: exec_cmd: nio create_udp udp-9ca526f1-b2c8-4bb9-a08e-9c1a8c7ec228 15044 127.0.0.1 15045 
Nov 26 21:02:00.657 HYPERVISOR: exec_cmd: vm slot_add_nio_binding SW7 1 4 udp-9ca526f1-b2c8-4bb9-a08e-9c1a8c7ec228 
Nov 26 21:02:00.657 HYPERVISOR: exec_cmd: vm get_status SW7 
Nov 26 21:02:00.678 HYPERVISOR: exec_cmd: nio create_udp udp-275bb5ea-7e2e-472d-8552-274503d463a6 15047 127.0.0.1 15046 
Nov 26 21:02:00.679 HYPERVISOR: exec_cmd: vm slot_add_nio_binding SW7 1 2 udp-275bb5ea-7e2e-472d-8552-274503d463a6 
Nov 26 21:02:00.679 HYPERVISOR: exec_cmd: vm get_status SW7 
Nov 26 21:02:00.717 HYPERVISOR: exec_cmd: nio create_udp udp-ec989b30-0ef8-4f94-9a94-b3f1b35399ae 15050 127.0.0.1 15051 
Nov 26 21:02:00.717 HYPERVISOR: exec_cmd: vm slot_add_nio_binding SW7 1 0 udp-ec989b30-0ef8-4f94-9a94-b3f1b35399ae 
Nov 26 21:02:00.717 HYPERVISOR: exec_cmd: vm get_status SW7 
Nov 26 21:03:00.810 HYPERVISOR: exec_cmd: vm get_status SW7 
Nov 26 21:03:00.815 HYPERVISOR: exec_cmd: vm extract_config SW7 
Nov 26 21:03:00.863 HYPERVISOR: exec_cmd: vm delete SW7 
Nov 26 21:03:00.863 VM: VM SW7 destroyed.
Nov 26 21:03:00.867 HYPERVISOR: exec_cmd: hypervisor stop 
Nov 26 21:03:00.878 HYPERVISOR: Stopped.
Nov 26 21:03:00.879 GENERAL: reset done.
