Dec 04 11:12:15.649 HYPERVISOR: Release 0.2.17-amd64/Linux (tag 2017072410)
Dec 04 11:12:15.649 HYPERVISOR: Started on IP = 127.0.0.1, TCP port = 60179.
Dec 04 11:12:15.663 HYPERVISOR: exec_cmd: hypervisor version 
Dec 04 11:12:15.663 HYPERVISOR: exec_cmd: hypervisor working_dir /media/actionmystique/SAMSUNG5-VMs/Labs/GNS3/TT 3-linux-/project-files/dynamips 
Dec 04 11:12:15.663 GENERAL: working_dir=/media/actionmystique/SAMSUNG5-VMs/Labs/GNS3/TT 3-linux-/project-files/dynamips
Dec 04 11:12:15.664 HYPERVISOR: exec_cmd: vm create ESW2 2 c3725 
Dec 04 11:12:15.664 VM: VM ESW2 created.
Dec 04 11:12:15.664 HYPERVISOR: exec_cmd: vm set_con_tcp_port ESW2 2005 
Dec 04 11:12:15.665 HYPERVISOR: exec_cmd: c3725 get_mac_addr ESW2 
Dec 04 11:12:15.665 HYPERVISOR: exec_cmd: vm set_nvram ESW2 256 
Dec 04 11:12:15.666 HYPERVISOR: exec_cmd: vm set_ios ESW2 /media/actionmystique/SAMSUNG5-VMs/Images/GNS3/IOS/c3725-adventerprisek9-mz.124-15.T10.image 
Dec 04 11:12:15.667 HYPERVISOR: exec_cmd: c3725 set_mac_addr ESW2 c202.1bd4.0000 
Dec 04 11:12:15.667 HYPERVISOR: exec_cmd: vm get_status ESW2 
Dec 04 11:12:15.668 HYPERVISOR: exec_cmd: vm slot_add_binding ESW2 1 0 NM-16ESW 
Dec 04 11:12:15.669 HYPERVISOR: exec_cmd: vm get_status ESW2 
Dec 04 11:12:15.669 HYPERVISOR: exec_cmd: vm set_idle_pc ESW2 0x614ac27c 
Dec 04 11:12:15.670 HYPERVISOR: exec_cmd: vm set_disk0 ESW2 1 
Dec 04 11:12:15.670 HYPERVISOR: exec_cmd: vm slot_add_binding ESW2 0 16 WIC-2T 
Dec 04 11:12:15.671 HYPERVISOR: exec_cmd: vm set_config ESW2 configs/ios_base_startup-config.txt 
Dec 04 11:12:15.672 HYPERVISOR: exec_cmd: vm set_config ESW2 configs/ios_base_startup-config.txt configs/ios_base_private-config.txt 
Dec 04 11:12:15.895 HYPERVISOR: exec_cmd: nio create_udp udp-c553846f-0036-4146-b9b9-e596a7f6d2c3 15000 127.0.0.1 15003 
Dec 04 11:12:15.902 HYPERVISOR: exec_cmd: vm slot_add_nio_binding ESW2 1 0 udp-c553846f-0036-4146-b9b9-e596a7f6d2c3 
Dec 04 11:12:15.908 HYPERVISOR: exec_cmd: vm get_status ESW2 
Dec 04 11:12:39.383 HYPERVISOR: exec_cmd: vm get_status ESW2 
Dec 04 11:12:39.386 HYPERVISOR: exec_cmd: vm extract_config ESW2 
Dec 04 11:12:39.389 HYPERVISOR: exec_cmd: vm delete ESW2 
Dec 04 11:12:39.389 VM: VM ESW2 destroyed.
Dec 04 11:12:39.390 HYPERVISOR: exec_cmd: hypervisor stop 
Dec 04 11:12:39.689 HYPERVISOR: Stopped.
Dec 04 11:12:39.689 GENERAL: reset done.
