autostart = False
version = 0.8.3.1
[127.0.0.1:7200]
    workingdir = C:\Users\ActionMystique\AppData\Local\Temp\GNS3
    udp = 10000
    [[3640]]
        image = C:\Users\ActionMystique\Google Drive\Missions\Certifications\Cisco\Labs\GNS3\IOS\Binaries\c3640-jk9o3s-mz.124-16a.bin
        idlepc = 0x605f2458
        sparsemem = True
        ghostios = True
        chassis = 3640
    [[ROUTER Customer]]
        model = 3640
        console = 2006
        aux = 2100
        cnfg = Core - BGP Challenge Lab 2_configs\Customer.cfg
        slot0 = NM-4T
        s0/0 = ISP s0/1
        x = 166.0
        y = 106.0
        z = 1.0
        hx = 8.0
        hy = -32.0
    [[ROUTER SanJose]]
        model = 3640
        console = 2007
        aux = 2101
        cnfg = Core - BGP Challenge Lab 2_configs\SanJose.cfg
        slot0 = NM-4T
        s0/0 = ISP s0/0
        x = -214.0
        y = 105.0
        z = 1.0
        hx = -15.5
        hy = -26.0
    [[ROUTER ISP]]
        model = 3640
        console = 2005
        aux = 2102
        cnfg = Core - BGP Challenge Lab 2_configs\ISP.cfg
        slot0 = NM-4T
        s0/0 = SanJose s0/0
        s0/1 = Customer s0/0
        x = -40.0
        y = -165.0
        z = 1.0
[GNS3-DATA]
    configs = Core - BGP Challenge Lab 2_configs
    [[NOTE 1]]
        text = "Loopback0: 202.0.0.1/24"
        x = 28.0
        y = -177.5
    [[NOTE 2]]
        text = "Loopback0: 172.16.1.1/24"
        x = 106.0
        y = 148.5
    [[NOTE 3]]
        text = "AS 65000"
        x = 172.0
        y = 175.5
    [[NOTE 4]]
        text = "192.168.1.4/30----"
        x = -230.0
        y = -24.5
    [[NOTE 5]]
        text = "----172.24.1.16/30"
        x = 99.0
        y = -23.5
    [[NOTE 6]]
        text = "AS 300"
        x = -37.0
        y = -204.5
    [[NOTE 7]]
        text = "Loopback0: 12.0.1.1/24"
        x = -262.0
        y = 146.5
    [[NOTE 8]]
        text = "AS 100"
        x = -207.0
        y = 171.5
    [[SHAPE 1]]
        type = ellipse
        x = -281.0
        y = 103.0
        width = 200.0
        height = 101.0
        border_style = 2
    [[SHAPE 2]]
        type = ellipse
        x = -109.0
        y = -210.0
        width = 200.0
        height = 100.0
        border_style = 2
    [[SHAPE 3]]
        type = ellipse
        x = 100.0
        y = 102.0
        width = 200.0
        height = 98.0
        border_style = 2
