Nov 27 16:22:33.759 HYPERVISOR: Release 0.2.17-amd64/Linux (tag 2017072410)
Nov 27 16:22:33.759 HYPERVISOR: Started on IP = 127.0.0.1, TCP port = 44643.
Nov 27 16:22:33.786 HYPERVISOR: exec_cmd: hypervisor version 
Nov 27 16:22:33.787 HYPERVISOR: exec_cmd: hypervisor working_dir /media/actionmystique/SAMSUNG5-VMs/Labs/GNS3/TT 3-solutions-linux-/project-files/dynamips 
Nov 27 16:22:33.787 GENERAL: working_dir=/media/actionmystique/SAMSUNG5-VMs/Labs/GNS3/TT 3-solutions-linux-/project-files/dynamips
Nov 27 16:22:33.788 HYPERVISOR: exec_cmd: vm create SW2 2 c3725 
Nov 27 16:22:33.788 VM: VM SW2 created.
Nov 27 16:22:33.789 HYPERVISOR: exec_cmd: vm set_con_tcp_port SW2 2002 
Nov 27 16:22:33.790 HYPERVISOR: exec_cmd: c3725 get_mac_addr SW2 
Nov 27 16:22:33.791 HYPERVISOR: exec_cmd: vm set_nvram SW2 256 
Nov 27 16:22:33.792 HYPERVISOR: exec_cmd: vm get_status SW2 
Nov 27 16:22:33.793 HYPERVISOR: exec_cmd: vm set_idle_pc SW2 0x622a6154 
Nov 27 16:22:33.793 HYPERVISOR: exec_cmd: c3725 set_mac_addr SW2 eeee.eeee.eeee 
Nov 27 16:22:33.794 HYPERVISOR: exec_cmd: vm set_exec_area SW2 16 
Nov 27 16:22:33.795 HYPERVISOR: exec_cmd: vm get_status SW2 
Nov 27 16:22:33.796 HYPERVISOR: exec_cmd: vm slot_add_binding SW2 1 0 NM-16ESW 
Nov 27 16:22:33.797 HYPERVISOR: exec_cmd: vm set_disk0 SW2 1 
Nov 27 16:22:33.798 HYPERVISOR: exec_cmd: vm set_ios SW2 /media/actionmystique/SAMSUNG5-VMs/Images/GNS3/IOS/c3725-adventerprisek9-mz.124-15.T10.image 
Nov 27 16:22:33.799 HYPERVISOR: exec_cmd: vm slot_add_binding SW2 0 16 WIC-2T 
Nov 27 16:22:33.800 HYPERVISOR: exec_cmd: vm set_config SW2 configs/i2_startup-config.cfg 
Nov 27 16:22:33.802 HYPERVISOR: exec_cmd: vm set_config SW2 configs/i2_startup-config.cfg configs/i2_private-config.cfg 
Nov 27 16:22:33.993 HYPERVISOR: exec_cmd: nio create_udp udp-233ad850-8403-422a-991b-13fb18a87fe9 15002 127.0.0.1 15000 
Nov 27 16:22:33.995 HYPERVISOR: exec_cmd: vm slot_add_nio_binding SW2 1 0 udp-233ad850-8403-422a-991b-13fb18a87fe9 
Nov 27 16:22:33.995 HYPERVISOR: exec_cmd: vm get_status SW2 
Nov 27 16:22:34.064 HYPERVISOR: exec_cmd: nio create_udp udp-6dce9bee-d7f2-46a7-ba79-61cb5f9362a6 15007 127.0.0.1 15001 
Nov 27 16:22:34.065 HYPERVISOR: exec_cmd: vm slot_add_nio_binding SW2 1 2 udp-6dce9bee-d7f2-46a7-ba79-61cb5f9362a6 
Nov 27 16:22:34.066 HYPERVISOR: exec_cmd: vm get_status SW2 
Nov 27 16:22:34.093 HYPERVISOR: exec_cmd: nio create_udp udp-779777ce-30f9-4d7d-ace0-c350c5fb37a3 15008 127.0.0.1 15009 
Nov 27 16:22:34.093 HYPERVISOR: exec_cmd: vm slot_add_nio_binding SW2 1 1 udp-779777ce-30f9-4d7d-ace0-c350c5fb37a3 
Nov 27 16:22:34.094 HYPERVISOR: exec_cmd: vm get_status SW2 
Nov 27 16:22:46.945 HYPERVISOR: exec_cmd: vm get_status SW2 
Nov 27 16:22:46.946 HYPERVISOR: exec_cmd: vm extract_config SW2 
Nov 27 16:22:46.949 HYPERVISOR: exec_cmd: vm delete SW2 
Nov 27 16:22:46.949 VM: VM SW2 destroyed.
Nov 27 16:22:46.951 HYPERVISOR: exec_cmd: hypervisor stop 
Nov 27 16:22:47.297 HYPERVISOR: Stopped.
Nov 27 16:22:47.297 GENERAL: reset done.
