Nov 26 20:54:31.024 HYPERVISOR: Release 0.2.17-amd64/Linux (tag 2017072410)
Nov 26 20:54:31.024 HYPERVISOR: Started on IP = 127.0.0.1, TCP port = 59079.
Nov 26 20:54:31.064 HYPERVISOR: exec_cmd: hypervisor version 
Nov 26 20:54:31.071 HYPERVISOR: exec_cmd: hypervisor working_dir /media/actionmystique/SAMSUNG5-VMs/Labs/GNS3/git-Public-Labs-Collection/CCNP/ROUTE/Trunks/project-files/dynamips 
Nov 26 20:54:31.071 GENERAL: working_dir=/media/actionmystique/SAMSUNG5-VMs/Labs/GNS3/git-Public-Labs-Collection/CCNP/ROUTE/Trunks/project-files/dynamips
Nov 26 20:54:31.072 HYPERVISOR: exec_cmd: vm create 3725 2 c3725 
Nov 26 20:54:31.072 VM: VM 3725 created.
Nov 26 20:54:31.072 HYPERVISOR: exec_cmd: vm set_con_tcp_port 3725 2006 
Nov 26 20:54:31.072 HYPERVISOR: exec_cmd: c3725 get_mac_addr 3725 
Nov 26 20:54:31.073 HYPERVISOR: exec_cmd: vm slot_add_binding 3725 0 16 WIC-2T 
Nov 26 20:54:31.073 HYPERVISOR: exec_cmd: vm get_status 3725 
Nov 26 20:54:31.073 HYPERVISOR: exec_cmd: vm set_idle_pc 3725 0x6026b804 
Nov 26 20:54:31.074 HYPERVISOR: exec_cmd: vm set_nvram 3725 256 
Nov 26 20:54:31.074 HYPERVISOR: exec_cmd: vm get_status 3725 
Nov 26 20:54:31.074 HYPERVISOR: exec_cmd: vm slot_add_binding 3725 1 0 NM-16ESW 
Nov 26 20:54:31.075 HYPERVISOR: exec_cmd: vm set_ios 3725 /media/actionmystique/SAMSUNG5-VMs/Images/GNS3/IOS/c3725-adventerprisek9-mz.124-15.T10.image 
Nov 26 20:54:31.075 HYPERVISOR: exec_cmd: vm set_disk0 3725 1 
Nov 26 20:54:31.075 HYPERVISOR: exec_cmd: c3725 set_mac_addr 3725 c202.3a0e.0000 
Nov 26 20:54:31.076 HYPERVISOR: exec_cmd: vm set_config 3725 configs/i2_startup-config.cfg 
Nov 26 20:54:31.076 HYPERVISOR: exec_cmd: vm set_config 3725 configs/i2_startup-config.cfg configs/i2_private-config.cfg 
Nov 26 20:54:31.285 HYPERVISOR: exec_cmd: nio create_udp udp-ca8ad834-83ee-4d58-9e84-11b853df6b26 15019 127.0.0.1 15018 
Nov 26 20:54:31.285 HYPERVISOR: exec_cmd: vm slot_add_nio_binding 3725 1 0 udp-ca8ad834-83ee-4d58-9e84-11b853df6b26 
Nov 26 20:54:31.286 HYPERVISOR: exec_cmd: vm get_status 3725 
Nov 26 20:59:43.711 HYPERVISOR: exec_cmd: vm extract_config 3725 
Nov 26 21:01:55.597 HYPERVISOR: exec_cmd: vm get_status 3725 
Nov 26 21:01:55.598 HYPERVISOR: exec_cmd: vm extract_config 3725 
Nov 26 21:01:55.643 HYPERVISOR: exec_cmd: vm delete 3725 
Nov 26 21:01:55.643 VM: VM 3725 destroyed.
Nov 26 21:01:55.643 HYPERVISOR: exec_cmd: hypervisor stop 
Nov 26 21:01:56.033 HYPERVISOR: Stopped.
Nov 26 21:01:56.033 GENERAL: reset done.
