Nov 27 16:26:10.256 HYPERVISOR: Release 0.2.17-amd64/Linux (tag 2017072410)
Nov 27 16:26:10.256 HYPERVISOR: Started on IP = 127.0.0.1, TCP port = 54763.
Nov 27 16:26:10.266 HYPERVISOR: exec_cmd: hypervisor version 
Nov 27 16:26:10.269 HYPERVISOR: exec_cmd: hypervisor working_dir /media/actionmystique/SAMSUNG5-VMs/Labs/GNS3/git-Public-Labs-Collection/CCNP/TBSHOOT/L3-Technologies/IPv4/IOS-Filtering-Tools/Prefix-List/Jean-Christophe_Manciot/1+/TT 1-linux/project-files/dynamips 
Nov 27 16:26:10.269 GENERAL: working_dir=/media/actionmystique/SAMSUNG5-VMs/Labs/GNS3/git-Public-Labs-Collection/CCNP/TBSHOOT/L3-Technologies/IPv4/IOS-Filtering-Tools/Prefix-List/Jean-Christophe_Manciot/1+/TT 1-linux/project-files/dynamips
Nov 27 16:26:10.276 HYPERVISOR: exec_cmd: vm create ESW4 4 c3725 
Nov 27 16:26:10.276 VM: VM ESW4 created.
Nov 27 16:26:10.279 HYPERVISOR: exec_cmd: vm set_con_tcp_port ESW4 2006 
Nov 27 16:26:10.281 HYPERVISOR: exec_cmd: c3725 get_mac_addr ESW4 
Nov 27 16:26:10.283 HYPERVISOR: exec_cmd: vm set_nvram ESW4 256 
Nov 27 16:26:10.284 HYPERVISOR: exec_cmd: vm get_status ESW4 
Nov 27 16:26:10.285 HYPERVISOR: exec_cmd: vm set_idle_pc ESW4 0x614ac27c 
Nov 27 16:26:10.286 HYPERVISOR: exec_cmd: c3725 set_mac_addr ESW4 c204.44a3.0000 
Nov 27 16:26:10.287 HYPERVISOR: exec_cmd: vm get_status ESW4 
Nov 27 16:26:10.288 HYPERVISOR: exec_cmd: vm slot_add_binding ESW4 1 0 NM-16ESW 
Nov 27 16:26:10.290 HYPERVISOR: exec_cmd: vm set_ios ESW4 /media/actionmystique/SAMSUNG5-VMs/Images/GNS3/IOS/c3725-adventerprisek9-mz.124-15.T10.image 
Nov 27 16:26:10.291 HYPERVISOR: exec_cmd: vm slot_add_binding ESW4 0 16 WIC-2T 
Nov 27 16:26:10.293 HYPERVISOR: exec_cmd: vm set_disk0 ESW4 1 
Nov 27 16:26:10.294 HYPERVISOR: exec_cmd: vm set_config ESW4 configs/ios_base_startup-config.txt 
Nov 27 16:26:10.295 HYPERVISOR: exec_cmd: vm set_config ESW4 configs/ios_base_startup-config.txt configs/ios_base_private-config.txt 
Nov 27 16:26:10.491 HYPERVISOR: exec_cmd: nio create_udp udp-8880c052-af50-4196-9e0d-798e46108560 15009 127.0.0.1 15008 
Nov 27 16:26:10.492 HYPERVISOR: exec_cmd: vm slot_add_nio_binding ESW4 1 0 udp-8880c052-af50-4196-9e0d-798e46108560 
Nov 27 16:26:10.492 HYPERVISOR: exec_cmd: vm get_status ESW4 
Nov 27 16:27:36.321 HYPERVISOR: exec_cmd: vm get_status ESW4 
Nov 27 16:27:36.323 HYPERVISOR: exec_cmd: vm extract_config ESW4 
Nov 27 16:27:36.330 HYPERVISOR: exec_cmd: vm delete ESW4 
Nov 27 16:27:36.330 VM: VM ESW4 destroyed.
Nov 27 16:27:36.330 HYPERVISOR: exec_cmd: hypervisor stop 
Nov 27 16:27:36.351 HYPERVISOR: Stopped.
Nov 27 16:27:36.351 GENERAL: reset done.
