Nov 28 08:08:10.442 HYPERVISOR: Release 0.2.17-amd64/Linux (tag 2017072410)
Nov 28 08:08:10.442 HYPERVISOR: Started on IP = 127.0.0.1, TCP port = 44593.
Nov 28 08:08:10.458 HYPERVISOR: exec_cmd: hypervisor version 
Nov 28 08:08:10.458 HYPERVISOR: exec_cmd: hypervisor working_dir /media/actionmystique/SAMSUNG5-VMs/Labs/GNS3/TT 1-linux-/project-files/dynamips 
Nov 28 08:08:10.458 GENERAL: working_dir=/media/actionmystique/SAMSUNG5-VMs/Labs/GNS3/TT 1-linux-/project-files/dynamips
Nov 28 08:08:10.459 HYPERVISOR: exec_cmd: vm create ESW5 5 c3725 
Nov 28 08:08:10.459 VM: VM ESW5 created.
Nov 28 08:08:10.459 HYPERVISOR: exec_cmd: vm set_con_tcp_port ESW5 2007 
Nov 28 08:08:10.459 HYPERVISOR: exec_cmd: c3725 get_mac_addr ESW5 
Nov 28 08:08:10.460 HYPERVISOR: exec_cmd: vm get_status ESW5 
Nov 28 08:08:10.460 HYPERVISOR: exec_cmd: vm slot_add_binding ESW5 1 0 NM-16ESW 
Nov 28 08:08:10.460 HYPERVISOR: exec_cmd: vm set_disk0 ESW5 1 
Nov 28 08:08:10.461 HYPERVISOR: exec_cmd: vm slot_add_binding ESW5 0 16 WIC-2T 
Nov 28 08:08:10.461 HYPERVISOR: exec_cmd: vm get_status ESW5 
Nov 28 08:08:10.461 HYPERVISOR: exec_cmd: vm set_idle_pc ESW5 0x614ac27c 
Nov 28 08:08:10.462 HYPERVISOR: exec_cmd: c3725 set_mac_addr ESW5 c205.44b5.0000 
Nov 28 08:08:10.462 HYPERVISOR: exec_cmd: vm set_nvram ESW5 256 
Nov 28 08:08:10.463 HYPERVISOR: exec_cmd: vm set_ios ESW5 /media/actionmystique/SAMSUNG5-VMs/Images/GNS3/IOS/c3725-adventerprisek9-mz.124-15.T10.image 
Nov 28 08:08:10.463 HYPERVISOR: exec_cmd: vm set_config ESW5 configs/ios_base_startup-config.txt 
Nov 28 08:08:10.463 HYPERVISOR: exec_cmd: vm set_config ESW5 configs/ios_base_startup-config.txt configs/ios_base_private-config.txt 
Nov 28 08:08:10.699 HYPERVISOR: exec_cmd: nio create_udp udp-b483f9fc-2166-4aa2-9f08-312baeda6670 15012 127.0.0.1 15013 
Nov 28 08:08:10.699 HYPERVISOR: exec_cmd: vm slot_add_nio_binding ESW5 1 0 udp-b483f9fc-2166-4aa2-9f08-312baeda6670 
Nov 28 08:08:10.700 HYPERVISOR: exec_cmd: vm get_status ESW5 
Nov 28 08:08:35.044 HYPERVISOR: exec_cmd: vm get_status ESW5 
Nov 28 08:08:35.046 HYPERVISOR: exec_cmd: vm extract_config ESW5 
Nov 28 08:08:35.047 HYPERVISOR: exec_cmd: vm delete ESW5 
Nov 28 08:08:35.047 VM: VM ESW5 destroyed.
Nov 28 08:08:35.058 HYPERVISOR: exec_cmd: hypervisor stop 
Nov 28 08:08:35.484 HYPERVISOR: Stopped.
Nov 28 08:08:35.484 GENERAL: reset done.
