Nov 28 08:11:25.014 HYPERVISOR: Release 0.2.17-amd64/Linux (tag 2017072410)
Nov 28 08:11:25.014 HYPERVISOR: Started on IP = 127.0.0.1, TCP port = 36737.
Nov 28 08:11:25.028 HYPERVISOR: exec_cmd: hypervisor version 
Nov 28 08:11:25.028 HYPERVISOR: exec_cmd: hypervisor working_dir /media/actionmystique/SAMSUNG5-VMs/Labs/GNS3/git-Public-Labs-Collection/CCNP/TBSHOOT/L3-Technologies/IPv4/IOS-Filtering-Tools/Prefix-List/Jean-Christophe_Manciot/1+/TT 1-linux-/project-files/dynamips 
Nov 28 08:11:25.028 GENERAL: working_dir=/media/actionmystique/SAMSUNG5-VMs/Labs/GNS3/git-Public-Labs-Collection/CCNP/TBSHOOT/L3-Technologies/IPv4/IOS-Filtering-Tools/Prefix-List/Jean-Christophe_Manciot/1+/TT 1-linux-/project-files/dynamips
Nov 28 08:11:25.028 HYPERVISOR: exec_cmd: vm create ESW5 5 c3725 
Nov 28 08:11:25.028 VM: VM ESW5 created.
Nov 28 08:11:25.029 HYPERVISOR: exec_cmd: vm set_con_tcp_port ESW5 2007 
Nov 28 08:11:25.029 HYPERVISOR: exec_cmd: c3725 get_mac_addr ESW5 
Nov 28 08:11:25.030 HYPERVISOR: exec_cmd: vm set_disk0 ESW5 1 
Nov 28 08:11:25.030 HYPERVISOR: exec_cmd: vm get_status ESW5 
Nov 28 08:11:25.031 HYPERVISOR: exec_cmd: vm slot_add_binding ESW5 1 0 NM-16ESW 
Nov 28 08:11:25.031 HYPERVISOR: exec_cmd: vm set_ios ESW5 /media/actionmystique/SAMSUNG5-VMs/Images/GNS3/IOS/c3725-adventerprisek9-mz.124-15.T10.image 
Nov 28 08:11:25.032 HYPERVISOR: exec_cmd: c3725 set_mac_addr ESW5 c205.44b5.0000 
Nov 28 08:11:25.032 HYPERVISOR: exec_cmd: vm slot_add_binding ESW5 0 16 WIC-2T 
Nov 28 08:11:25.032 HYPERVISOR: exec_cmd: vm get_status ESW5 
Nov 28 08:11:25.033 HYPERVISOR: exec_cmd: vm set_idle_pc ESW5 0x614ac27c 
Nov 28 08:11:25.034 HYPERVISOR: exec_cmd: vm set_nvram ESW5 256 
Nov 28 08:11:25.037 HYPERVISOR: exec_cmd: vm set_config ESW5 configs/ios_base_startup-config.txt 
Nov 28 08:11:25.038 HYPERVISOR: exec_cmd: vm set_config ESW5 configs/ios_base_startup-config.txt configs/ios_base_private-config.txt 
Nov 28 08:11:25.266 HYPERVISOR: exec_cmd: nio create_udp udp-3841df8f-36e8-425d-b1bc-7da617187c02 15013 127.0.0.1 15012 
Nov 28 08:11:25.267 HYPERVISOR: exec_cmd: vm slot_add_nio_binding ESW5 1 0 udp-3841df8f-36e8-425d-b1bc-7da617187c02 
Nov 28 08:11:25.267 HYPERVISOR: exec_cmd: vm get_status ESW5 
Nov 28 08:11:45.307 HYPERVISOR: exec_cmd: vm get_status ESW5 
Nov 28 08:11:45.310 HYPERVISOR: exec_cmd: vm extract_config ESW5 
Nov 28 08:11:45.311 HYPERVISOR: exec_cmd: vm delete ESW5 
Nov 28 08:11:45.311 VM: VM ESW5 destroyed.
Nov 28 08:11:45.312 HYPERVISOR: exec_cmd: hypervisor stop 
Nov 28 08:11:45.546 HYPERVISOR: Stopped.
Nov 28 08:11:45.546 GENERAL: reset done.
