Nov 27 16:15:54.040 HYPERVISOR: Release 0.2.17-amd64/Linux (tag 2017072410)
Nov 27 16:15:54.040 HYPERVISOR: Started on IP = 127.0.0.1, TCP port = 60147.
Nov 27 16:15:54.053 HYPERVISOR: exec_cmd: hypervisor version 
Nov 27 16:15:54.053 HYPERVISOR: exec_cmd: hypervisor working_dir /media/actionmystique/SAMSUNG5-VMs/Labs/GNS3/TT 3-solutions-linux-/project-files/dynamips 
Nov 27 16:15:54.054 GENERAL: working_dir=/media/actionmystique/SAMSUNG5-VMs/Labs/GNS3/TT 3-solutions-linux-/project-files/dynamips
Nov 27 16:15:54.054 HYPERVISOR: exec_cmd: vm create PC1 4 c3725 
Nov 27 16:15:54.054 VM: VM PC1 created.
Nov 27 16:15:54.054 HYPERVISOR: exec_cmd: vm set_con_tcp_port PC1 2004 
Nov 27 16:15:54.055 HYPERVISOR: exec_cmd: c3725 get_mac_addr PC1 
Nov 27 16:15:54.055 HYPERVISOR: exec_cmd: vm set_nvram PC1 256 
Nov 27 16:15:54.055 HYPERVISOR: exec_cmd: vm get_status PC1 
Nov 27 16:15:54.055 HYPERVISOR: exec_cmd: vm set_idle_pc PC1 0x6026b804 
Nov 27 16:15:54.056 HYPERVISOR: exec_cmd: c3725 set_mac_addr PC1 c204.12d0.0000 
Nov 27 16:15:54.056 HYPERVISOR: exec_cmd: vm set_exec_area PC1 16 
Nov 27 16:15:54.057 HYPERVISOR: exec_cmd: vm get_status PC1 
Nov 27 16:15:54.057 HYPERVISOR: exec_cmd: vm slot_add_binding PC1 1 0 NM-16ESW 
Nov 27 16:15:54.057 HYPERVISOR: exec_cmd: vm set_disk0 PC1 1 
Nov 27 16:15:54.058 HYPERVISOR: exec_cmd: vm set_ios PC1 /media/actionmystique/SAMSUNG5-VMs/Images/GNS3/IOS/c3725-adventerprisek9-mz.124-15.T10.image 
Nov 27 16:15:54.058 HYPERVISOR: exec_cmd: vm slot_add_binding PC1 0 16 WIC-2T 
Nov 27 16:15:54.058 HYPERVISOR: exec_cmd: vm set_config PC1 configs/i4_startup-config.cfg 
Nov 27 16:15:54.059 HYPERVISOR: exec_cmd: vm set_config PC1 configs/i4_startup-config.cfg configs/i4_private-config.cfg 
Nov 27 16:15:54.339 HYPERVISOR: exec_cmd: nio create_udp udp-7da2607d-7cea-4716-b731-3d57e634af30 15000 127.0.0.1 15003 
Nov 27 16:15:54.343 HYPERVISOR: exec_cmd: vm slot_add_nio_binding PC1 1 0 udp-7da2607d-7cea-4716-b731-3d57e634af30 
Nov 27 16:15:54.347 HYPERVISOR: exec_cmd: vm get_status PC1 
Nov 27 16:16:13.872 HYPERVISOR: exec_cmd: vm get_status PC1 
Nov 27 16:16:13.873 HYPERVISOR: exec_cmd: vm extract_config PC1 
Nov 27 16:16:13.875 HYPERVISOR: exec_cmd: vm delete PC1 
Nov 27 16:16:13.875 VM: VM PC1 destroyed.
Nov 27 16:16:13.877 HYPERVISOR: exec_cmd: hypervisor stop 
Nov 27 16:16:14.073 HYPERVISOR: Stopped.
Nov 27 16:16:14.073 GENERAL: reset done.
