Dec 04 11:04:41.760 HYPERVISOR: Release 0.2.17-amd64/Linux (tag 2017072410)
Dec 04 11:04:41.760 HYPERVISOR: Started on IP = 127.0.0.1, TCP port = 37049.
Dec 04 11:04:41.771 HYPERVISOR: exec_cmd: hypervisor version 
Dec 04 11:04:41.774 HYPERVISOR: exec_cmd: hypervisor working_dir /media/actionmystique/SAMSUNG5-VMs/Labs/GNS3/git-Public-Labs-Collection/CCNP/TBSHOOT/L3-Technologies/IPv6/Routing-Protocols/OSPFv3/Jean-Christophe_Manciot/1+/TT 1-linux/project-files/dynamips 
Dec 04 11:04:41.774 GENERAL: working_dir=/media/actionmystique/SAMSUNG5-VMs/Labs/GNS3/git-Public-Labs-Collection/CCNP/TBSHOOT/L3-Technologies/IPv6/Routing-Protocols/OSPFv3/Jean-Christophe_Manciot/1+/TT 1-linux/project-files/dynamips
Dec 04 11:04:41.776 HYPERVISOR: exec_cmd: vm create ESW5 5 c3725 
Dec 04 11:04:41.776 VM: VM ESW5 created.
Dec 04 11:04:41.777 HYPERVISOR: exec_cmd: vm set_con_tcp_port ESW5 2010 
Dec 04 11:04:41.779 HYPERVISOR: exec_cmd: c3725 get_mac_addr ESW5 
Dec 04 11:04:41.780 HYPERVISOR: exec_cmd: vm set_nvram ESW5 256 
Dec 04 11:04:41.787 HYPERVISOR: exec_cmd: vm set_ios ESW5 /media/actionmystique/SAMSUNG5-VMs/Images/GNS3/IOS/c3725-adventerprisek9-mz.124-15.T10.image 
Dec 04 11:04:41.797 HYPERVISOR: exec_cmd: c3725 set_mac_addr ESW5 c205.6a03.0000 
Dec 04 11:04:41.801 HYPERVISOR: exec_cmd: vm get_status ESW5 
Dec 04 11:04:41.803 HYPERVISOR: exec_cmd: vm slot_add_binding ESW5 1 0 NM-16ESW 
Dec 04 11:04:41.806 HYPERVISOR: exec_cmd: vm get_status ESW5 
Dec 04 11:04:41.807 HYPERVISOR: exec_cmd: vm set_idle_pc ESW5 0x614ac27c 
Dec 04 11:04:41.807 HYPERVISOR: exec_cmd: vm set_disk0 ESW5 1 
Dec 04 11:04:41.808 HYPERVISOR: exec_cmd: vm slot_add_binding ESW5 0 16 WIC-2T 
Dec 04 11:04:41.809 HYPERVISOR: exec_cmd: vm set_config ESW5 configs/ios_base_startup-config.txt 
Dec 04 11:04:41.809 HYPERVISOR: exec_cmd: vm set_config ESW5 configs/ios_base_startup-config.txt configs/ios_base_private-config.txt 
Dec 04 11:04:42.115 HYPERVISOR: exec_cmd: nio create_udp udp-89846568-18c9-4e5b-a043-2959ba4e41fd 15005 127.0.0.1 15007 
Dec 04 11:04:42.116 HYPERVISOR: exec_cmd: vm slot_add_nio_binding ESW5 1 0 udp-89846568-18c9-4e5b-a043-2959ba4e41fd 
Dec 04 11:04:42.116 HYPERVISOR: exec_cmd: vm get_status ESW5 
Dec 04 11:04:42.124 HYPERVISOR: exec_cmd: nio create_udp udp-3f35f5b9-acd3-41c2-9b0e-af3293032f1a 15008 127.0.0.1 15009 
Dec 04 11:04:42.129 HYPERVISOR: exec_cmd: vm slot_add_nio_binding ESW5 1 1 udp-3f35f5b9-acd3-41c2-9b0e-af3293032f1a 
Dec 04 11:04:42.130 HYPERVISOR: exec_cmd: vm get_status ESW5 
