Nov 29 19:10:01.157 HYPERVISOR: Release 0.2.17-amd64/Linux (tag 2017072410)
Nov 29 19:10:01.157 HYPERVISOR: Started on IP = 127.0.0.1, TCP port = 33469.
Nov 29 19:10:01.183 HYPERVISOR: exec_cmd: hypervisor version 
Nov 29 19:10:01.184 HYPERVISOR: exec_cmd: hypervisor working_dir /media/actionmystique/SAMSUNG5-VMs/Labs/GNS3/git-Public-Labs-Collection/CCNP/TBSHOOT/L3-Technologies/IPv6/Routing-Protocols/OSPFv3/Jean-Christophe_Manciot/1+/TT 1-linux/project-files/dynamips 
Nov 29 19:10:01.184 GENERAL: working_dir=/media/actionmystique/SAMSUNG5-VMs/Labs/GNS3/git-Public-Labs-Collection/CCNP/TBSHOOT/L3-Technologies/IPv6/Routing-Protocols/OSPFv3/Jean-Christophe_Manciot/1+/TT 1-linux/project-files/dynamips
Nov 29 19:10:01.185 HYPERVISOR: exec_cmd: vm create ESW5 5 c3725 
Nov 29 19:10:01.185 VM: VM ESW5 created.
Nov 29 19:10:01.186 HYPERVISOR: exec_cmd: vm set_con_tcp_port ESW5 2010 
Nov 29 19:10:01.187 HYPERVISOR: exec_cmd: c3725 get_mac_addr ESW5 
Nov 29 19:10:01.188 HYPERVISOR: exec_cmd: vm set_disk0 ESW5 1 
Nov 29 19:10:01.189 HYPERVISOR: exec_cmd: vm get_status ESW5 
Nov 29 19:10:01.190 HYPERVISOR: exec_cmd: vm set_idle_pc ESW5 0x614ac27c 
Nov 29 19:10:01.191 HYPERVISOR: exec_cmd: c3725 set_mac_addr ESW5 c205.6a03.0000 
Nov 29 19:10:01.192 HYPERVISOR: exec_cmd: vm set_nvram ESW5 256 
Nov 29 19:10:01.193 HYPERVISOR: exec_cmd: vm get_status ESW5 
Nov 29 19:10:01.195 HYPERVISOR: exec_cmd: vm slot_add_binding ESW5 1 0 NM-16ESW 
Nov 29 19:10:01.197 HYPERVISOR: exec_cmd: vm set_ios ESW5 /media/actionmystique/SAMSUNG5-VMs/Images/GNS3/IOS/c3725-adventerprisek9-mz.124-15.T10.image 
Nov 29 19:10:01.199 HYPERVISOR: exec_cmd: vm slot_add_binding ESW5 0 16 WIC-2T 
Nov 29 19:10:01.200 HYPERVISOR: exec_cmd: vm set_config ESW5 configs/ios_base_startup-config.txt 
Nov 29 19:10:01.201 HYPERVISOR: exec_cmd: vm set_config ESW5 configs/ios_base_startup-config.txt configs/ios_base_private-config.txt 
Nov 29 19:10:01.529 HYPERVISOR: exec_cmd: nio create_udp udp-1e3b9739-bcd9-4f37-af69-950f56dbf943 15010 127.0.0.1 15011 
Nov 29 19:10:01.530 HYPERVISOR: exec_cmd: vm slot_add_nio_binding ESW5 1 0 udp-1e3b9739-bcd9-4f37-af69-950f56dbf943 
Nov 29 19:10:01.531 HYPERVISOR: exec_cmd: vm get_status ESW5 
Nov 29 19:10:01.536 HYPERVISOR: exec_cmd: nio create_udp udp-345b70c9-34b7-4437-a7eb-fb3f9477f380 15012 127.0.0.1 15013 
Nov 29 19:10:01.537 HYPERVISOR: exec_cmd: vm slot_add_nio_binding ESW5 1 1 udp-345b70c9-34b7-4437-a7eb-fb3f9477f380 
Nov 29 19:10:01.537 HYPERVISOR: exec_cmd: vm get_status ESW5 
Nov 29 19:11:09.854 HYPERVISOR: exec_cmd: vm get_status ESW5 
Nov 29 19:11:09.856 HYPERVISOR: exec_cmd: vm extract_config ESW5 
Nov 29 19:11:09.859 HYPERVISOR: exec_cmd: vm extract_config ESW5 
Nov 29 19:11:09.861 HYPERVISOR: exec_cmd: vm delete ESW5 
Nov 29 19:11:09.861 VM: VM ESW5 destroyed.
Nov 29 19:11:09.863 HYPERVISOR: exec_cmd: hypervisor stop 
Nov 29 19:11:10.251 HYPERVISOR: Stopped.
Nov 29 19:11:10.251 GENERAL: reset done.
