Nov 28 08:54:17.615 HYPERVISOR: Release 0.2.17-amd64/Linux (tag 2017072410)
Nov 28 08:54:17.615 HYPERVISOR: Started on IP = 127.0.0.1, TCP port = 47817.
Nov 28 08:54:17.637 HYPERVISOR: exec_cmd: hypervisor version 
Nov 28 08:54:17.638 HYPERVISOR: exec_cmd: hypervisor working_dir /media/actionmystique/SAMSUNG5-VMs/Labs/GNS3/git-Public-Labs-Collection/CCNP/TBSHOOT/L3-Technologies/IPv4/Routing-Protocols/OSPFv2/Jean-Christophe_Manciot/1+/TT 3-linux/project-files/dynamips 
Nov 28 08:54:17.638 GENERAL: working_dir=/media/actionmystique/SAMSUNG5-VMs/Labs/GNS3/git-Public-Labs-Collection/CCNP/TBSHOOT/L3-Technologies/IPv4/Routing-Protocols/OSPFv2/Jean-Christophe_Manciot/1+/TT 3-linux/project-files/dynamips
Nov 28 08:54:17.639 HYPERVISOR: exec_cmd: vm create ESW1 1 c3725 
Nov 28 08:54:17.639 VM: VM ESW1 created.
Nov 28 08:54:17.640 HYPERVISOR: exec_cmd: vm set_con_tcp_port ESW1 2004 
Nov 28 08:54:17.641 HYPERVISOR: exec_cmd: c3725 get_mac_addr ESW1 
Nov 28 08:54:17.642 HYPERVISOR: exec_cmd: vm set_disk0 ESW1 1 
Nov 28 08:54:17.643 HYPERVISOR: exec_cmd: vm set_ios ESW1 /media/actionmystique/SAMSUNG5-VMs/Images/GNS3/IOS/c3725-adventerprisek9-mz.124-15.T10.image 
Nov 28 08:54:17.644 HYPERVISOR: exec_cmd: c3725 set_mac_addr ESW1 c201.1b91.0000 
Nov 28 08:54:17.650 HYPERVISOR: exec_cmd: vm get_status ESW1 
Nov 28 08:54:17.657 HYPERVISOR: exec_cmd: vm set_idle_pc ESW1 0x614ac27c 
Nov 28 08:54:17.659 HYPERVISOR: exec_cmd: vm get_status ESW1 
Nov 28 08:54:17.659 HYPERVISOR: exec_cmd: vm slot_add_binding ESW1 1 0 NM-16ESW 
Nov 28 08:54:17.660 HYPERVISOR: exec_cmd: vm slot_add_binding ESW1 0 16 WIC-2T 
Nov 28 08:54:17.661 HYPERVISOR: exec_cmd: vm set_nvram ESW1 256 
Nov 28 08:54:17.662 HYPERVISOR: exec_cmd: vm set_config ESW1 configs/ios_base_startup-config.txt 
Nov 28 08:54:17.663 HYPERVISOR: exec_cmd: vm set_config ESW1 configs/ios_base_startup-config.txt configs/ios_base_private-config.txt 
Nov 28 08:54:17.895 HYPERVISOR: exec_cmd: nio create_udp udp-ca47a7b9-eb8c-4c76-82ee-a0c47eb56108 15012 127.0.0.1 15013 
Nov 28 08:54:17.895 HYPERVISOR: exec_cmd: vm slot_add_nio_binding ESW1 1 0 udp-ca47a7b9-eb8c-4c76-82ee-a0c47eb56108 
Nov 28 08:54:17.896 HYPERVISOR: exec_cmd: vm get_status ESW1 
Nov 28 08:54:17.923 HYPERVISOR: exec_cmd: nio create_udp udp-f548e4fb-b99a-4a13-8dd6-634e629fd17b 15015 127.0.0.1 15014 
Nov 28 08:54:17.924 HYPERVISOR: exec_cmd: vm slot_add_nio_binding ESW1 1 1 udp-f548e4fb-b99a-4a13-8dd6-634e629fd17b 
Nov 28 08:54:17.924 HYPERVISOR: exec_cmd: vm get_status ESW1 
