Nov 28 08:54:17.593 HYPERVISOR: Release 0.2.17-amd64/Linux (tag 2017072410)
Nov 28 08:54:17.593 HYPERVISOR: Started on IP = 127.0.0.1, TCP port = 49013.
Nov 28 08:54:17.604 HYPERVISOR: exec_cmd: hypervisor version 
Nov 28 08:54:17.604 HYPERVISOR: exec_cmd: hypervisor working_dir /media/actionmystique/SAMSUNG5-VMs/Labs/GNS3/git-Public-Labs-Collection/CCNP/TBSHOOT/L3-Technologies/IPv4/Routing-Protocols/OSPFv2/Jean-Christophe_Manciot/1+/TT 3-linux/project-files/dynamips 
Nov 28 08:54:17.604 GENERAL: working_dir=/media/actionmystique/SAMSUNG5-VMs/Labs/GNS3/git-Public-Labs-Collection/CCNP/TBSHOOT/L3-Technologies/IPv4/Routing-Protocols/OSPFv2/Jean-Christophe_Manciot/1+/TT 3-linux/project-files/dynamips
Nov 28 08:54:17.605 HYPERVISOR: exec_cmd: vm create ESW4 4 c3725 
Nov 28 08:54:17.605 VM: VM ESW4 created.
Nov 28 08:54:17.605 HYPERVISOR: exec_cmd: vm set_con_tcp_port ESW4 2009 
Nov 28 08:54:17.607 HYPERVISOR: exec_cmd: c3725 get_mac_addr ESW4 
Nov 28 08:54:17.608 HYPERVISOR: exec_cmd: vm set_disk0 ESW4 1 
Nov 28 08:54:17.610 HYPERVISOR: exec_cmd: vm set_ios ESW4 /media/actionmystique/SAMSUNG5-VMs/Images/GNS3/IOS/c3725-adventerprisek9-mz.124-15.T10.image 
Nov 28 08:54:17.611 HYPERVISOR: exec_cmd: c3725 set_mac_addr ESW4 c204.11f4.0000 
Nov 28 08:54:17.612 HYPERVISOR: exec_cmd: vm get_status ESW4 
Nov 28 08:54:17.613 HYPERVISOR: exec_cmd: vm set_idle_pc ESW4 0x614ac27c 
Nov 28 08:54:17.614 HYPERVISOR: exec_cmd: vm get_status ESW4 
Nov 28 08:54:17.616 HYPERVISOR: exec_cmd: vm slot_add_binding ESW4 1 0 NM-16ESW 
Nov 28 08:54:17.617 HYPERVISOR: exec_cmd: vm slot_add_binding ESW4 0 16 WIC-2T 
Nov 28 08:54:17.618 HYPERVISOR: exec_cmd: vm set_nvram ESW4 256 
Nov 28 08:54:17.619 HYPERVISOR: exec_cmd: vm set_config ESW4 configs/ios_base_startup-config.txt 
Nov 28 08:54:17.619 HYPERVISOR: exec_cmd: vm set_config ESW4 configs/ios_base_startup-config.txt configs/ios_base_private-config.txt 
Nov 28 08:54:17.843 HYPERVISOR: exec_cmd: nio create_udp udp-72d2ad26-d402-447d-9832-cbf59f905ec7 15008 127.0.0.1 15006 
Nov 28 08:54:17.843 HYPERVISOR: exec_cmd: vm slot_add_nio_binding ESW4 1 0 udp-72d2ad26-d402-447d-9832-cbf59f905ec7 
Nov 28 08:54:17.844 HYPERVISOR: exec_cmd: vm get_status ESW4 
Nov 28 08:54:17.856 HYPERVISOR: exec_cmd: nio create_udp udp-eecc944c-7024-4452-9e8d-7f9489ee5f4a 15007 127.0.0.1 15009 
Nov 28 08:54:17.857 HYPERVISOR: exec_cmd: vm slot_add_nio_binding ESW4 1 1 udp-eecc944c-7024-4452-9e8d-7f9489ee5f4a 
Nov 28 08:54:17.858 HYPERVISOR: exec_cmd: vm get_status ESW4 
