Nov 28 08:34:52.883 HYPERVISOR: Release 0.2.17-amd64/Linux (tag 2017072410)
Nov 28 08:34:52.883 HYPERVISOR: Started on IP = 127.0.0.1, TCP port = 35507.
Nov 28 08:34:52.894 HYPERVISOR: exec_cmd: hypervisor version 
Nov 28 08:34:52.895 HYPERVISOR: exec_cmd: hypervisor working_dir /media/actionmystique/SAMSUNG5-VMs/Labs/GNS3/git-Public-Labs-Collection/CCNP/TBSHOOT/L3-Technologies/IPv4/Routing-Protocols/EIGRP/Jean-Christophe_Manciot/1+/TT 1-solutions-linux/project-files/dynamips 
Nov 28 08:34:52.895 GENERAL: working_dir=/media/actionmystique/SAMSUNG5-VMs/Labs/GNS3/git-Public-Labs-Collection/CCNP/TBSHOOT/L3-Technologies/IPv4/Routing-Protocols/EIGRP/Jean-Christophe_Manciot/1+/TT 1-solutions-linux/project-files/dynamips
Nov 28 08:34:52.895 HYPERVISOR: exec_cmd: vm create ESW3 3 c3725 
Nov 28 08:34:52.895 VM: VM ESW3 created.
Nov 28 08:34:52.895 HYPERVISOR: exec_cmd: vm set_con_tcp_port ESW3 2006 
Nov 28 08:34:52.896 HYPERVISOR: exec_cmd: c3725 get_mac_addr ESW3 
Nov 28 08:34:52.896 HYPERVISOR: exec_cmd: vm set_disk0 ESW3 1 
Nov 28 08:34:52.896 HYPERVISOR: exec_cmd: vm get_status ESW3 
Nov 28 08:34:52.897 HYPERVISOR: exec_cmd: vm slot_add_binding ESW3 1 0 NM-16ESW 
Nov 28 08:34:52.897 HYPERVISOR: exec_cmd: vm set_ios ESW3 /media/actionmystique/SAMSUNG5-VMs/Images/GNS3/IOS/c3725-adventerprisek9-mz.124-15.T10.image 
Nov 28 08:34:52.897 HYPERVISOR: exec_cmd: c3725 set_mac_addr ESW3 c203.1bfb.0000 
Nov 28 08:34:52.898 HYPERVISOR: exec_cmd: vm slot_add_binding ESW3 0 16 WIC-2T 
Nov 28 08:34:52.898 HYPERVISOR: exec_cmd: vm get_status ESW3 
Nov 28 08:34:52.899 HYPERVISOR: exec_cmd: vm set_idle_pc ESW3 0x6026b804 
Nov 28 08:34:52.899 HYPERVISOR: exec_cmd: vm set_nvram ESW3 256 
Nov 28 08:34:52.899 HYPERVISOR: exec_cmd: vm set_config ESW3 configs/ios_base_startup-config.txt 
Nov 28 08:34:52.900 HYPERVISOR: exec_cmd: vm set_config ESW3 configs/ios_base_startup-config.txt configs/ios_base_private-config.txt 
Nov 28 08:34:53.037 HYPERVISOR: exec_cmd: nio create_udp udp-ac26833f-dff6-40de-8c90-9c98679fa9c5 15010 127.0.0.1 15005 
Nov 28 08:34:53.043 HYPERVISOR: exec_cmd: vm slot_add_nio_binding ESW3 1 0 udp-ac26833f-dff6-40de-8c90-9c98679fa9c5 
Nov 28 08:34:53.043 HYPERVISOR: exec_cmd: vm get_status ESW3 
Nov 28 08:35:36.404 HYPERVISOR: exec_cmd: nio create_tap tap-84145531-ddb0-48a2-a223-b5035d8b7b7f tap0 
Nov 28 08:35:36.405 HYPERVISOR: exec_cmd: vm slot_add_nio_binding ESW3 1 1 tap-84145531-ddb0-48a2-a223-b5035d8b7b7f 
Nov 28 08:35:36.405 HYPERVISOR: exec_cmd: vm get_status ESW3 
