Nov 27 16:21:22.947 HYPERVISOR: Release 0.2.17-amd64/Linux (tag 2017072410)
Nov 27 16:21:22.947 HYPERVISOR: Started on IP = 127.0.0.1, TCP port = 38545.
Nov 27 16:21:22.973 HYPERVISOR: exec_cmd: hypervisor version 
Nov 27 16:21:22.974 HYPERVISOR: exec_cmd: hypervisor working_dir /media/actionmystique/SAMSUNG5-VMs/Labs/GNS3/TT 2-linux-/project-files/dynamips 
Nov 27 16:21:22.974 GENERAL: working_dir=/media/actionmystique/SAMSUNG5-VMs/Labs/GNS3/TT 2-linux-/project-files/dynamips
Nov 27 16:21:22.975 HYPERVISOR: exec_cmd: vm create SW2 2 c3725 
Nov 27 16:21:22.975 VM: VM SW2 created.
Nov 27 16:21:22.976 HYPERVISOR: exec_cmd: vm set_con_tcp_port SW2 2002 
Nov 27 16:21:22.977 HYPERVISOR: exec_cmd: c3725 get_mac_addr SW2 
Nov 27 16:21:22.977 HYPERVISOR: exec_cmd: vm set_nvram SW2 256 
Nov 27 16:21:22.978 HYPERVISOR: exec_cmd: vm get_status SW2 
Nov 27 16:21:22.979 HYPERVISOR: exec_cmd: vm set_idle_pc SW2 0x614ac21c 
Nov 27 16:21:22.980 HYPERVISOR: exec_cmd: c3725 set_mac_addr SW2 eeee.eeee.eeee 
Nov 27 16:21:22.981 HYPERVISOR: exec_cmd: vm set_exec_area SW2 16 
Nov 27 16:21:22.982 HYPERVISOR: exec_cmd: vm get_status SW2 
Nov 27 16:21:22.983 HYPERVISOR: exec_cmd: vm slot_add_binding SW2 1 0 NM-16ESW 
Nov 27 16:21:22.984 HYPERVISOR: exec_cmd: vm set_disk0 SW2 1 
Nov 27 16:21:22.985 HYPERVISOR: exec_cmd: vm set_ios SW2 /media/actionmystique/SAMSUNG5-VMs/Images/GNS3/IOS/c3725-adventerprisek9-mz.124-15.T10.image 
Nov 27 16:21:22.986 HYPERVISOR: exec_cmd: vm slot_add_binding SW2 0 16 WIC-2T 
Nov 27 16:21:22.988 HYPERVISOR: exec_cmd: vm set_config SW2 configs/i2_startup-config.cfg 
Nov 27 16:21:22.989 HYPERVISOR: exec_cmd: vm set_config SW2 configs/i2_startup-config.cfg configs/i2_private-config.cfg 
Nov 27 16:21:23.169 HYPERVISOR: exec_cmd: nio create_udp udp-02b2a132-cf2f-461e-946f-ef42ee4e28ca 15002 127.0.0.1 15000 
Nov 27 16:21:23.170 HYPERVISOR: exec_cmd: vm slot_add_nio_binding SW2 1 0 udp-02b2a132-cf2f-461e-946f-ef42ee4e28ca 
Nov 27 16:21:23.171 HYPERVISOR: exec_cmd: vm get_status SW2 
Nov 27 16:21:23.225 HYPERVISOR: exec_cmd: nio create_udp udp-0ba5316c-3ae8-49b1-9e5f-f5fbff5b8e73 15005 127.0.0.1 15006 
Nov 27 16:21:23.226 HYPERVISOR: exec_cmd: vm slot_add_nio_binding SW2 1 1 udp-0ba5316c-3ae8-49b1-9e5f-f5fbff5b8e73 
Nov 27 16:21:23.229 HYPERVISOR: exec_cmd: vm get_status SW2 
Nov 27 16:21:23.240 HYPERVISOR: exec_cmd: nio create_udp udp-e76b7dec-6243-4dd1-a291-976ead760d71 15007 127.0.0.1 15001 
Nov 27 16:21:23.243 HYPERVISOR: exec_cmd: vm slot_add_nio_binding SW2 1 2 udp-e76b7dec-6243-4dd1-a291-976ead760d71 
Nov 27 16:21:23.244 HYPERVISOR: exec_cmd: vm get_status SW2 
Nov 27 16:21:39.012 HYPERVISOR: exec_cmd: vm get_status SW2 
Nov 27 16:21:39.014 HYPERVISOR: exec_cmd: vm extract_config SW2 
Nov 27 16:21:39.017 HYPERVISOR: exec_cmd: vm delete SW2 
Nov 27 16:21:39.017 VM: VM SW2 destroyed.
Nov 27 16:21:39.019 HYPERVISOR: exec_cmd: hypervisor stop 
Nov 27 16:21:39.488 HYPERVISOR: Stopped.
Nov 27 16:21:39.488 GENERAL: reset done.
