Nov 27 16:21:15.664 HYPERVISOR: Release 0.2.17-amd64/Linux (tag 2017072410)
Nov 27 16:21:15.664 HYPERVISOR: Started on IP = 127.0.0.1, TCP port = 58179.
Nov 27 16:21:15.680 HYPERVISOR: exec_cmd: hypervisor version 
Nov 27 16:21:15.681 HYPERVISOR: exec_cmd: hypervisor working_dir /media/actionmystique/SAMSUNG5-VMs/Labs/GNS3/git-Public-Labs-Collection/CCNP/TBSHOOT/L3-Technologies/IPv4/High-Availability/HSRP/Jean-Christophe_Manciot/1+/TT 2-linux/project-files/dynamips 
Nov 27 16:21:15.681 GENERAL: working_dir=/media/actionmystique/SAMSUNG5-VMs/Labs/GNS3/git-Public-Labs-Collection/CCNP/TBSHOOT/L3-Technologies/IPv4/High-Availability/HSRP/Jean-Christophe_Manciot/1+/TT 2-linux/project-files/dynamips
Nov 27 16:21:15.682 HYPERVISOR: exec_cmd: vm create Core 4 c3725 
Nov 27 16:21:15.682 VM: VM Core created.
Nov 27 16:21:15.682 HYPERVISOR: exec_cmd: vm set_con_tcp_port Core 2005 
Nov 27 16:21:15.682 HYPERVISOR: exec_cmd: c3725 get_mac_addr Core 
Nov 27 16:21:15.683 HYPERVISOR: exec_cmd: vm set_ram Core 256 
Nov 27 16:21:15.683 HYPERVISOR: exec_cmd: vm set_nvram Core 256 
Nov 27 16:21:15.684 HYPERVISOR: exec_cmd: vm get_status Core 
Nov 27 16:21:15.684 HYPERVISOR: exec_cmd: vm set_idle_pc Core 0x614ac21c 
Nov 27 16:21:15.685 HYPERVISOR: exec_cmd: c3725 set_mac_addr Core c204.0c3e.0000 
Nov 27 16:21:15.686 HYPERVISOR: exec_cmd: vm get_status Core 
Nov 27 16:21:15.686 HYPERVISOR: exec_cmd: vm slot_add_binding Core 1 0 NM-16ESW 
Nov 27 16:21:15.686 HYPERVISOR: exec_cmd: vm set_ios Core /media/actionmystique/SAMSUNG5-VMs/Images/GNS3/IOS/c3725-adventerprisek9-mz.124-15.T10.image 
Nov 27 16:21:15.687 HYPERVISOR: exec_cmd: vm slot_add_binding Core 0 16 WIC-2T 
Nov 27 16:21:15.687 HYPERVISOR: exec_cmd: vm set_disk0 Core 1 
Nov 27 16:21:15.688 HYPERVISOR: exec_cmd: vm set_config Core configs/i4_startup-config.cfg 
Nov 27 16:21:15.688 HYPERVISOR: exec_cmd: vm set_config Core configs/i4_startup-config.cfg configs/i4_private-config.cfg 
Nov 27 16:21:15.877 HYPERVISOR: exec_cmd: nio create_udp udp-be373d90-ae66-452f-89a9-dbd43b2c12ad 15000 127.0.0.1 15004 
Nov 27 16:21:15.880 HYPERVISOR: exec_cmd: vm slot_add_nio_binding Core 1 1 udp-be373d90-ae66-452f-89a9-dbd43b2c12ad 
Nov 27 16:21:15.881 HYPERVISOR: exec_cmd: vm get_status Core 
Nov 27 16:21:15.993 HYPERVISOR: exec_cmd: nio create_udp udp-ba9fe979-ba19-4d41-8a93-eb9c8154171c 15013 127.0.0.1 15011 
Nov 27 16:21:15.993 HYPERVISOR: exec_cmd: vm slot_add_nio_binding Core 1 0 udp-ba9fe979-ba19-4d41-8a93-eb9c8154171c 
Nov 27 16:21:15.994 HYPERVISOR: exec_cmd: vm get_status Core 
