Nov 27 16:21:15.628 HYPERVISOR: Release 0.2.17-amd64/Linux (tag 2017072410)
Nov 27 16:21:15.628 HYPERVISOR: Started on IP = 127.0.0.1, TCP port = 59397.
Nov 27 16:21:15.644 HYPERVISOR: exec_cmd: hypervisor version 
Nov 27 16:21:15.645 HYPERVISOR: exec_cmd: hypervisor working_dir /media/actionmystique/SAMSUNG5-VMs/Labs/GNS3/git-Public-Labs-Collection/CCNP/TBSHOOT/L3-Technologies/IPv4/High-Availability/HSRP/Jean-Christophe_Manciot/1+/TT 2-linux/project-files/dynamips 
Nov 27 16:21:15.645 GENERAL: working_dir=/media/actionmystique/SAMSUNG5-VMs/Labs/GNS3/git-Public-Labs-Collection/CCNP/TBSHOOT/L3-Technologies/IPv4/High-Availability/HSRP/Jean-Christophe_Manciot/1+/TT 2-linux/project-files/dynamips
Nov 27 16:21:15.646 HYPERVISOR: exec_cmd: vm create SW3 3 c3725 
Nov 27 16:21:15.646 VM: VM SW3 created.
Nov 27 16:21:15.646 HYPERVISOR: exec_cmd: vm set_con_tcp_port SW3 2003 
Nov 27 16:21:15.647 HYPERVISOR: exec_cmd: c3725 get_mac_addr SW3 
Nov 27 16:21:15.647 HYPERVISOR: exec_cmd: vm set_nvram SW3 256 
Nov 27 16:21:15.648 HYPERVISOR: exec_cmd: vm get_status SW3 
Nov 27 16:21:15.648 HYPERVISOR: exec_cmd: vm set_idle_pc SW3 0x614ac21c 
Nov 27 16:21:15.649 HYPERVISOR: exec_cmd: c3725 set_mac_addr SW3 cccc.cccc.cccc 
Nov 27 16:21:15.649 HYPERVISOR: exec_cmd: vm set_exec_area SW3 16 
Nov 27 16:21:15.650 HYPERVISOR: exec_cmd: vm get_status SW3 
Nov 27 16:21:15.651 HYPERVISOR: exec_cmd: vm slot_add_binding SW3 1 0 NM-16ESW 
Nov 27 16:21:15.651 HYPERVISOR: exec_cmd: vm set_ios SW3 /media/actionmystique/SAMSUNG5-VMs/Images/GNS3/IOS/c3725-adventerprisek9-mz.124-15.T10.image 
Nov 27 16:21:15.653 HYPERVISOR: exec_cmd: vm slot_add_binding SW3 0 16 WIC-2T 
Nov 27 16:21:15.656 HYPERVISOR: exec_cmd: vm set_disk0 SW3 1 
Nov 27 16:21:15.659 HYPERVISOR: exec_cmd: vm set_config SW3 configs/i3_startup-config.cfg 
Nov 27 16:21:15.662 HYPERVISOR: exec_cmd: vm set_config SW3 configs/i3_startup-config.cfg configs/i3_private-config.cfg 
Nov 27 16:21:15.839 HYPERVISOR: exec_cmd: nio create_udp udp-aac8c302-3b7e-44ac-b9b3-2add6dababcb 15002 127.0.0.1 15003 
Nov 27 16:21:15.841 HYPERVISOR: exec_cmd: vm slot_add_nio_binding SW3 1 2 udp-aac8c302-3b7e-44ac-b9b3-2add6dababcb 
Nov 27 16:21:15.841 HYPERVISOR: exec_cmd: vm get_status SW3 
Nov 27 16:21:15.880 HYPERVISOR: exec_cmd: nio create_udp udp-d25b5506-d021-4438-bdb0-db729db2111e 15004 127.0.0.1 15000 
Nov 27 16:21:15.880 HYPERVISOR: exec_cmd: vm slot_add_nio_binding SW3 1 1 udp-d25b5506-d021-4438-bdb0-db729db2111e 
Nov 27 16:21:15.881 HYPERVISOR: exec_cmd: vm get_status SW3 
Nov 27 16:21:15.948 HYPERVISOR: exec_cmd: nio create_udp udp-4faea5d4-a0c7-4328-bd06-39979e620486 15008 127.0.0.1 15009 
Nov 27 16:21:15.952 HYPERVISOR: exec_cmd: vm slot_add_nio_binding SW3 1 5 udp-4faea5d4-a0c7-4328-bd06-39979e620486 
Nov 27 16:21:15.953 HYPERVISOR: exec_cmd: vm get_status SW3 
Nov 27 16:21:15.960 HYPERVISOR: exec_cmd: nio create_udp udp-41f1e48c-c05f-4c5a-b98f-33d8a30a0983 15012 127.0.0.1 15010 
Nov 27 16:21:15.963 HYPERVISOR: exec_cmd: vm slot_add_nio_binding SW3 1 6 udp-41f1e48c-c05f-4c5a-b98f-33d8a30a0983 
Nov 27 16:21:15.964 HYPERVISOR: exec_cmd: vm get_status SW3 
