Nov 27 16:21:22.954 HYPERVISOR: Release 0.2.17-amd64/Linux (tag 2017072410)
Nov 27 16:21:22.954 HYPERVISOR: Started on IP = 127.0.0.1, TCP port = 42045.
Nov 27 16:21:22.973 HYPERVISOR: exec_cmd: hypervisor version 
Nov 27 16:21:22.974 HYPERVISOR: exec_cmd: hypervisor working_dir /media/actionmystique/SAMSUNG5-VMs/Labs/GNS3/TT 2-linux-/project-files/dynamips 
Nov 27 16:21:22.974 GENERAL: working_dir=/media/actionmystique/SAMSUNG5-VMs/Labs/GNS3/TT 2-linux-/project-files/dynamips
Nov 27 16:21:22.975 HYPERVISOR: exec_cmd: vm create SW1 1 c3725 
Nov 27 16:21:22.975 VM: VM SW1 created.
Nov 27 16:21:22.976 HYPERVISOR: exec_cmd: vm set_con_tcp_port SW1 2001 
Nov 27 16:21:22.977 HYPERVISOR: exec_cmd: c3725 get_mac_addr SW1 
Nov 27 16:21:22.978 HYPERVISOR: exec_cmd: vm set_nvram SW1 256 
Nov 27 16:21:22.979 HYPERVISOR: exec_cmd: vm get_status SW1 
Nov 27 16:21:22.980 HYPERVISOR: exec_cmd: vm set_idle_pc SW1 0x614ac21c 
Nov 27 16:21:22.981 HYPERVISOR: exec_cmd: c3725 set_mac_addr SW1 aaaa.aaaa.aaaa 
Nov 27 16:21:22.982 HYPERVISOR: exec_cmd: vm set_exec_area SW1 16 
Nov 27 16:21:22.983 HYPERVISOR: exec_cmd: vm get_status SW1 
Nov 27 16:21:22.983 HYPERVISOR: exec_cmd: vm slot_add_binding SW1 1 0 NM-16ESW 
Nov 27 16:21:22.984 HYPERVISOR: exec_cmd: vm set_disk0 SW1 1 
Nov 27 16:21:22.986 HYPERVISOR: exec_cmd: vm set_ios SW1 /media/actionmystique/SAMSUNG5-VMs/Images/GNS3/IOS/c3725-adventerprisek9-mz.124-15.T10.image 
Nov 27 16:21:22.987 HYPERVISOR: exec_cmd: vm slot_add_binding SW1 0 16 WIC-2T 
Nov 27 16:21:22.988 HYPERVISOR: exec_cmd: vm set_config SW1 configs/i1_startup-config.cfg 
Nov 27 16:21:22.989 HYPERVISOR: exec_cmd: vm set_config SW1 configs/i1_startup-config.cfg configs/i1_private-config.cfg 
Nov 27 16:21:23.217 HYPERVISOR: exec_cmd: nio create_udp udp-4f124863-a2b9-4059-8aa5-9417b2c6c8e0 15006 127.0.0.1 15005 
Nov 27 16:21:23.217 HYPERVISOR: exec_cmd: vm slot_add_nio_binding SW1 1 1 udp-4f124863-a2b9-4059-8aa5-9417b2c6c8e0 
Nov 27 16:21:23.218 HYPERVISOR: exec_cmd: vm get_status SW1 
Nov 27 16:21:23.243 HYPERVISOR: exec_cmd: nio create_udp udp-d036bbcf-baf3-4efc-9766-686698b6d4d4 15009 127.0.0.1 15008 
Nov 27 16:21:23.244 HYPERVISOR: exec_cmd: vm slot_add_nio_binding SW1 1 5 udp-d036bbcf-baf3-4efc-9766-686698b6d4d4 
Nov 27 16:21:23.244 HYPERVISOR: exec_cmd: vm get_status SW1 
Nov 27 16:21:23.276 HYPERVISOR: exec_cmd: nio create_udp udp-8df72940-7f90-4940-bd60-62139cb77f8b 15012 127.0.0.1 15011 
Nov 27 16:21:23.277 HYPERVISOR: exec_cmd: vm slot_add_nio_binding SW1 1 6 udp-8df72940-7f90-4940-bd60-62139cb77f8b 
Nov 27 16:21:23.277 HYPERVISOR: exec_cmd: vm get_status SW1 
Nov 27 16:21:23.292 HYPERVISOR: exec_cmd: nio create_udp udp-70a8dce2-7126-4533-a7bd-bcf0ddf9ae3f 15010 127.0.0.1 15013 
Nov 27 16:21:23.293 HYPERVISOR: exec_cmd: vm slot_add_nio_binding SW1 1 0 udp-70a8dce2-7126-4533-a7bd-bcf0ddf9ae3f 
Nov 27 16:21:23.293 HYPERVISOR: exec_cmd: vm get_status SW1 
Nov 27 16:21:39.012 HYPERVISOR: exec_cmd: vm get_status SW1 
Nov 27 16:21:39.014 HYPERVISOR: exec_cmd: vm extract_config SW1 
Nov 27 16:21:39.017 HYPERVISOR: exec_cmd: vm delete SW1 
Nov 27 16:21:39.017 VM: VM SW1 destroyed.
Nov 27 16:21:39.019 HYPERVISOR: exec_cmd: hypervisor stop 
Nov 27 16:21:39.488 HYPERVISOR: Stopped.
Nov 27 16:21:39.488 GENERAL: reset done.
