Nov 27 16:14:10.068 HYPERVISOR: Release 0.2.17-amd64/Linux (tag 2017072410)
Nov 27 16:14:10.068 HYPERVISOR: Started on IP = 127.0.0.1, TCP port = 48899.
Nov 27 16:14:10.100 HYPERVISOR: exec_cmd: hypervisor version 
Nov 27 16:14:10.101 HYPERVISOR: exec_cmd: hypervisor working_dir /media/actionmystique/SAMSUNG5-VMs/Labs/GNS3/TT 1-solutions-linux-/project-files/dynamips 
Nov 27 16:14:10.101 GENERAL: working_dir=/media/actionmystique/SAMSUNG5-VMs/Labs/GNS3/TT 1-solutions-linux-/project-files/dynamips
Nov 27 16:14:10.102 HYPERVISOR: exec_cmd: vm create SW3 3 c3725 
Nov 27 16:14:10.102 VM: VM SW3 created.
Nov 27 16:14:10.103 HYPERVISOR: exec_cmd: vm set_con_tcp_port SW3 2003 
Nov 27 16:14:10.103 HYPERVISOR: exec_cmd: c3725 get_mac_addr SW3 
Nov 27 16:14:10.104 HYPERVISOR: exec_cmd: vm set_nvram SW3 256 
Nov 27 16:14:10.105 HYPERVISOR: exec_cmd: vm get_status SW3 
Nov 27 16:14:10.106 HYPERVISOR: exec_cmd: vm set_idle_pc SW3 0x6026b804 
Nov 27 16:14:10.107 HYPERVISOR: exec_cmd: c3725 set_mac_addr SW3 cccc.cccc.cccc 
Nov 27 16:14:10.108 HYPERVISOR: exec_cmd: vm set_exec_area SW3 16 
Nov 27 16:14:10.109 HYPERVISOR: exec_cmd: vm get_status SW3 
Nov 27 16:14:10.110 HYPERVISOR: exec_cmd: vm slot_add_binding SW3 1 0 NM-16ESW 
Nov 27 16:14:10.110 HYPERVISOR: exec_cmd: vm set_disk0 SW3 1 
Nov 27 16:14:10.111 HYPERVISOR: exec_cmd: vm set_ios SW3 /media/actionmystique/SAMSUNG5-VMs/Images/GNS3/IOS/c3725-adventerprisek9-mz.124-15.T10.image 
Nov 27 16:14:10.113 HYPERVISOR: exec_cmd: vm slot_add_binding SW3 0 16 WIC-2T 
Nov 27 16:14:10.114 HYPERVISOR: exec_cmd: vm set_config SW3 configs/i3_startup-config.cfg 
Nov 27 16:14:10.115 HYPERVISOR: exec_cmd: vm set_config SW3 configs/i3_startup-config.cfg configs/i3_private-config.cfg 
Nov 27 16:14:10.201 HYPERVISOR: exec_cmd: nio create_null null-d0585f6f-0798-42b5-902a-3b07013e3936 
Nov 27 16:14:10.201 HYPERVISOR: exec_cmd: vm slot_add_nio_binding SW3 1 0 null-d0585f6f-0798-42b5-902a-3b07013e3936 
Nov 27 16:14:10.202 HYPERVISOR: exec_cmd: vm get_status SW3 
Nov 27 16:14:10.265 HYPERVISOR: exec_cmd: nio create_udp udp-c25e3959-4468-44e7-8ee8-69c3cd3b1d0c 15002 127.0.0.1 15000 
Nov 27 16:14:10.265 HYPERVISOR: exec_cmd: vm slot_add_nio_binding SW3 1 2 udp-c25e3959-4468-44e7-8ee8-69c3cd3b1d0c 
Nov 27 16:14:10.266 HYPERVISOR: exec_cmd: vm get_status SW3 
Nov 27 16:14:10.315 HYPERVISOR: exec_cmd: nio create_udp udp-dbe87c22-8f5a-412b-a06a-80c2dc95ac18 15004 127.0.0.1 15005 
Nov 27 16:14:10.320 HYPERVISOR: exec_cmd: vm slot_add_nio_binding SW3 1 5 udp-dbe87c22-8f5a-412b-a06a-80c2dc95ac18 
Nov 27 16:14:10.320 HYPERVISOR: exec_cmd: vm get_status SW3 
Nov 27 16:14:10.353 HYPERVISOR: exec_cmd: nio create_udp udp-0fbdd693-e6cf-41e0-85e4-738199c90c62 15007 127.0.0.1 15006 
Nov 27 16:14:10.353 HYPERVISOR: exec_cmd: vm slot_add_nio_binding SW3 1 6 udp-0fbdd693-e6cf-41e0-85e4-738199c90c62 
Nov 27 16:14:10.353 HYPERVISOR: exec_cmd: vm get_status SW3 
Nov 27 16:14:20.964 HYPERVISOR: exec_cmd: vm get_status SW3 
Nov 27 16:14:20.965 HYPERVISOR: exec_cmd: vm extract_config SW3 
Nov 27 16:14:20.967 HYPERVISOR: exec_cmd: vm delete SW3 
Nov 27 16:14:20.967 VM: VM SW3 destroyed.
Nov 27 16:14:20.968 HYPERVISOR: exec_cmd: hypervisor stop 
Nov 27 16:14:21.108 HYPERVISOR: Stopped.
Nov 27 16:14:21.108 GENERAL: reset done.
