autostart = False
version = 0.8.6
[127.0.0.1:7202]
    workingdir = working
    udp = 11200
    [[3725]]
        image = c3725-adventerprisek9-mz.124-15.T10.image
        ram = 256
        idlepc = 0x6026b804
        sparsemem = True
        ghostios = True
    [[ROUTER SW10]]
        model = 3725
        console = 2019
        aux = 2519
        cnfg = configs/SW10.cfg
        slot1 = NM-16ESW
        f1/2 = SW7 f1/2
        f1/3 = SW8 f1/3
        f1/4 = NIO_udp:30008:127.0.0.1:20008
        symbol = EtherSwitch router
        x = 143.5
        y = 85.5
        z = 1.0
    [[ROUTER SW9]]
        model = 3725
        console = 2017
        aux = 2517
        cnfg = configs/SW9.cfg
        slot1 = NM-16ESW
        f1/0 = SW7 f1/0
        f1/1 = SW8 f1/1
        f1/2 = NIO_udp:30006:127.0.0.1:20006
        f1/3 = NIO_udp:30007:127.0.0.1:20007
        symbol = EtherSwitch router
        x = -11.5
        y = 88.5
        z = 1.0
[127.0.0.1:7203]
    workingdir = working
    udp = 11300
    [[7200]]
        image = c7200-adventerprisek9-mz.152-4.M2.image
        ram = 512
        idlepc = 0x60188e14
        sparsemem = True
        ghostios = True
    [[ROUTER GooglISP]]
        console = 2012
        aux = 2512
        cnfg = configs/GooglISP.cfg
        slot0 = C7200-IO-FE
        f0/0 = SW1 f0/0
        slot1 = PA-POS-OC3
        p1/0 = VerISPon p1/0
        x = -261.643648086
        y = -419.773080371
        z = 1.0
    [[ROUTER VerISPon]]
        console = 2014
        aux = 2514
        cnfg = configs/VerISPon.cfg
        slot0 = C7200-IO-FE
        f0/0 = SW2 f0/0
        slot1 = PA-POS-OC3
        p1/0 = GooglISP p1/0
        x = 41.1242765417
        y = -419.773080372
        z = 1.0
[127.0.0.1:7200]
    workingdir = working
    udp = 11000
    [[3725]]
        image = c3725-adventerprisek9-mz.124-15.T10.image
        ram = 256
        idlepc = 0x6026b804
        sparsemem = True
        ghostios = True
    [[ROUTER SW1]]
        model = 3725
        console = 2001
        aux = 2501
        cnfg = configs/SW1.cfg
        f0/0 = GooglISP f0/0
        slot1 = NM-16ESW
        f1/0 = SW2 f1/0
        f1/1 = SW3 f1/1
        f1/2 = SW4 f1/2
        f1/3 = SW7 f1/3
        f1/4 = SW2 f1/4
        f1/7 = SW7 f1/7
        f1/8 = SW7 f1/8
        f1/9 = SW7 f1/9
        f1/10 = SW4 f1/10
        f1/11 = SW3 f1/11
        symbol = EtherSwitch router
        x = -255.5
        y = -238.5
        z = 1.0
    [[ROUTER SW3]]
        model = 3725
        console = 2003
        aux = 2503
        cnfg = configs/SW3.cfg
        slot1 = NM-16ESW
        f1/1 = SW1 f1/1
        f1/2 = SW5 f1/2
        f1/3 = SW6 f1/3
        f1/4 = SW4 f1/4
        f1/11 = SW1 f1/11
        symbol = EtherSwitch router
        x = -400.5
        y = -65.5
        z = 1.0
        hx = 7.0
        hy = -23.0
    [[ROUTER SW2]]
        model = 3725
        console = 2002
        aux = 2502
        cnfg = configs/SW2.cfg
        f0/0 = VerISPon f0/0
        slot1 = NM-16ESW
        f1/0 = SW1 f1/0
        f1/1 = SW7 f1/1
        f1/2 = SW8 f1/2
        f1/3 = SW4 f1/3
        f1/4 = SW1 f1/4
        f1/7 = SW4 f1/7
        f1/8 = SW4 f1/8
        f1/9 = SW4 f1/9
        f1/10 = SW7 f1/10
        f1/11 = SW8 f1/11
        symbol = EtherSwitch router
        x = 47.5
        y = -238.5
        z = 1.0
    [[ROUTER SW4]]
        model = 3725
        console = 2004
        aux = 2504
        cnfg = configs/SW4.cfg
        slot1 = NM-16ESW
        f1/0 = SW6 f1/0
        f1/1 = SW5 f1/1
        f1/2 = SW1 f1/2
        f1/3 = SW2 f1/3
        f1/4 = SW3 f1/4
        f1/7 = SW2 f1/7
        f1/8 = SW2 f1/8
        f1/9 = SW2 f1/9
        f1/10 = SW1 f1/10
        symbol = EtherSwitch router
        x = -255.89129586
        y = -66.5
        z = 1.0
        hx = -16.0
        hy = -22.0
[127.0.0.1:7201]
    workingdir = working
    udp = 11100
    [[3725]]
        image = c3725-adventerprisek9-mz.124-15.T10.image
        ram = 256
        idlepc = 0x6026b804
        sparsemem = True
        ghostios = True
    [[ROUTER SW8]]
        model = 3725
        console = 2015
        aux = 2515
        cnfg = configs/SW8.cfg
        slot1 = NM-16ESW
        f1/1 = SW9 f1/1
        f1/2 = SW2 f1/2
        f1/3 = SW10 f1/3
        f1/4 = SW7 f1/4
        f1/11 = SW2 f1/11
        symbol = EtherSwitch router
        x = 142.282640523
        y = -68.1956479302
        z = 1.0
    [[ROUTER SW5]]
        model = 3725
        console = 2005
        aux = 2505
        cnfg = configs/SW5.cfg
        slot1 = NM-16ESW
        f1/1 = SW4 f1/1
        f1/2 = SW3 f1/2
        f1/3 = NIO_udp:30000:127.0.0.1:20000
        f1/4 = NIO_udp:30001:127.0.0.1:20001
        f1/5 = NIO_udp:30002:127.0.0.1:20002
        f1/6 = NIO_udp:30003:127.0.0.1:20003
        symbol = EtherSwitch router
        x = -400.5
        y = 92.5
        z = 1.0
    [[ROUTER SW7]]
        model = 3725
        console = 2007
        aux = 2507
        cnfg = configs/SW7.cfg
        slot1 = NM-16ESW
        f1/0 = SW9 f1/0
        f1/1 = SW2 f1/1
        f1/2 = SW10 f1/2
        f1/3 = SW1 f1/3
        f1/4 = SW8 f1/4
        f1/7 = SW1 f1/7
        f1/8 = SW1 f1/8
        f1/9 = SW1 f1/9
        f1/10 = SW2 f1/10
        symbol = EtherSwitch router
        x = -13.5869437907
        y = -67.5
        z = 1.0
        hx = -0.826112418602
        hy = -26.3043520698
    [[ROUTER SW6]]
        model = 3725
        console = 2006
        aux = 2506
        cnfg = configs/SW6.cfg
        slot1 = NM-16ESW
        f1/0 = SW4 f1/0
        f1/3 = SW3 f1/3
        f1/4 = NIO_udp:30004:127.0.0.1:20004
        f1/5 = NIO_udp:30005:127.0.0.1:20005
        symbol = EtherSwitch router
        x = -255.5
        y = 93.5
        z = 1.0
[GNS3-DATA]
    configs = configs
    workdir = working
    m11 = 0.766664172334
    m22 = 0.766664172334
    [[NOTE 1]]
        text = "5.201/24 - 5.254"
        x = -371.704581464
        y = -186.66726189
    [[NOTE 2]]
        text = "Host_VLAN#|SW#|host#"
        x = 359.0
        y = 136.0
    [[NOTE 3]]
        text = "VTP mode client"
        x = 219.0
        y = 92.0
    [[NOTE 4]]
        text = "VPCS Config:"
        x = 367.0
        y = 237.0
    [[NOTE 5]]
        text = "All Access ports: portfast"
        x = 359.0
        y = 156.0
    [[NOTE 6]]
        text = "Host mode for all Access ports linked to servers"
        x = -267.0
        y = 167.0
    [[NOTE 7]]
        text = "VPCS[2]"
        x = -472.0
        y = 259.0
    [[NOTE 8]]
        text = "2.254"
        x = 151.0
        y = 297.0
    [[NOTE 9]]
        text = "10.8.0.1/30"
        x = -309.09381497
        y = -371.207896929
    [[NOTE 10]]
        text = "VPCS[7]"
        x = -52.0
        y = 257.0
    [[NOTE 11]]
        text = "SVI 1:"
        x = -417.169047558
        y = -239.185768491
    [[NOTE 12]]
        text = "5.202/24"
        x = 98.6213203435
        y = -203.457106781
    [[NOTE 13]]
        text = "Highly Available Campus Network"
        x = 255.653005674
        y = -447.653591303
        font = "MS Shell Dlg 2,20,-1,5,75,0,1,0,0,0"
    [[NOTE 14]]
        text = "802.1Q"
        x = 58.0
        y = 17.0
    [[NOTE 15]]
        text = "L2 Link"
        x = -103.043813512
        y = -218.087627023
    [[NOTE 16]]
        text = "4.51/24"
        x = -305.0
        y = 285.0
    [[NOTE 17]]
        text = "Track IP Route to L2 on SW2 VLAN 2/4 and \nswitchover to SW1 when no more direct Internet Access\nand back to SW2 when Internet comes back up"
        x = 302.56557386
        y = -300.608801744
    [[NOTE 18]]
        text = "802.1Q"
        x = -328.0
        y = 28.0
    [[NOTE 19]]
        text = "~\GNS3\CCNP\SWITCH\Jean-Christophe\\nPVST+ EtherChannel HSRP\Core-Distribution-Access.cfg"
        x = 251.434718953
        y = 257.60870414
    [[NOTE 20]]
        text = "5.254"
        x = -549.0
        y = 299.0
    [[NOTE 21]]
        text = "On production networks, HSRP should \nbe implemented on the distribution \nswitches with a L2 link/bundle between\nSW4 and SW7, alongside IP route \ntracking and the L3 domain should at least \ninclude the Core-Distribution bundles."
        x = 333.91412986
        y = -80.2610265814
        font = "MS Shell Dlg 2,12,-1,5,75,0,0,0,0,0"
        color = "#00aa00"
    [[NOTE 22]]
        text = "Secondary RB / HSRP Standby For VLAN 2 and 4"
        x = -372.0
        y = -280.0
    [[NOTE 23]]
        text = "2.202/24"
        x = 97.7928932188
        y = -239.042893219
    [[NOTE 24]]
        text = "802.1Q"
        x = -113.0
        y = -170.739071023
    [[NOTE 25]]
        text = "Syslog Server"
        x = -573.825917209
        y = 319.739266233
    [[NOTE 26]]
        text = "HSRP - EtherChannel"
        x = 348.262002627
        y = -411.131733349
        font = "MS Shell Dlg 2,20,-1,5,75,0,1,0,0,0"
    [[NOTE 27]]
        text = "EIGRP 65001"
        x = -341.740242279
        y = -344.609777791
        font = "MS Shell Dlg 2,12,-1,5,75,0,0,0,0,0"
        color = "#0055ff"
    [[NOTE 28]]
        text = "4.254"
        x = 44.0
        y = 299.0
    [[NOTE 29]]
        text = "Secondary RB / HSRP Standby For VLAN 1,3 and 5"
        x = -45.0
        y = -279.0
    [[NOTE 30]]
        text = "SVI 3:"
        x = -417.436814511
        y = -212.512932957
    [[NOTE 31]]
        text = "VPCS[5]"
        x = -223.0
        y = 260.0
    [[NOTE 32]]
        text = "1.202/24"
        x = 97.0428932188
        y = -251.292893219
    [[NOTE 33]]
        text = "Syslogging on SW1/SW2 to 5.51\nSeverity Level 3\nand locally buffered\nSNMP Community String RW only for 4.51"
        x = -659.348165581
        y = -196.740632698
    [[NOTE 34]]
        text = "EIGRP 65001"
        x = 71.7393638371
        y = -345.044496744
        font = "MS Shell Dlg 2,12,-1,5,75,0,0,0,0,0"
        color = "#0055ff"
    [[NOTE 35]]
        text = "2.201/24 - 2.254"
        x = -372.204581464
        y = -226.189339828
    [[NOTE 36]]
        text = "4.91/24"
        x = 35.0
        y = 284.0
    [[NOTE 37]]
        text = "Native VLAN for all Switchs: 99"
        x = -212.0
        y = 32.0
    [[NOTE 38]]
        text = "10.81.0.2/30"
        x = -52.1364572257
        y = -399.033814139
    [[NOTE 39]]
        text = "802.1Q"
        x = -297.0
        y = -136.0
    [[NOTE 40]]
        text = "Distribution"
        x = -583.0
        y = -53.0
        font = "MS Shell Dlg 2,12,-1,5,75,0,0,0,0,0"
    [[NOTE 41]]
        text = "IP - Virtual IP"
        x = -346.264935264
        y = -254.692388155
    [[NOTE 42]]
        text = " Etherchannel"
        x = -323.000780837
        y = -119.564695419
        color = "#ff0000"
    [[NOTE 43]]
        text = "VPCS[4]"
        x = -307.0
        y = 260.0
    [[NOTE 44]]
        text = "Backbone Fast on all \nCore and Distribution switches"
        x = -658.697795232
        y = -117.652517651
    [[NOTE 45]]
        text = "Primary RB / HSRP Active For VLAN 2 and 4"
        x = -27.0
        y = -291.0
    [[NOTE 46]]
        text = "1.201/24 - 1.254"
        x = -372.204581464
        y = -239.189339828
    [[NOTE 47]]
        text = "2.254"
        x = -469.0
        y = 299.0
    [[NOTE 48]]
        text = "L2 10.1.2.2/32"
        x = 109.603199425
        y = -424.251222418
    [[NOTE 49]]
        text = "VPCS[8]"
        x = 39.0
        y = 255.0
    [[NOTE 50]]
        text = "PortFast BPDU Guard\nand UplinkFast\non all access switches"
        x = -571.0
        y = 131.0
    [[NOTE 51]]
        text = "Primary RB / HSRP Active For VLAN 1,3 and 5"
        x = -348.0
        y = -292.0
    [[NOTE 52]]
        text = "2.101/24"
        x = 142.0
        y = 284.0
    [[NOTE 53]]
        text = "2.51/24"
        x = -476.0
        y = 285.0
    [[NOTE 54]]
        text = "3.61/24"
        x = -222.0
        y = 284.0
    [[NOTE 55]]
        text = "EIGRP Hold timer set to be synced with HSRP Hold timer (6s)\nPVST+ forward-delay and max-age timers set so the\nconvergence time is synced with HSRP and EIGRP hold timers"
        x = 306.522736395
        y = -360.262002628
    [[NOTE 56]]
        text = "VPCS[1]"
        x = -554.0
        y = 260.0
    [[NOTE 57]]
        text = "802.1Q"
        x = 55.0
        y = -145.0
    [[NOTE 58]]
        text = "3.51/24"
        x = -390.0
        y = 286.0
    [[NOTE 59]]
        text = "1 HSRP Group / VLAN\n2/6 sec for HSRP timers\nPreemption enabled with 6s min delay on Primary RBs\nHSRP MD5 Authentication enabled\nSW1-SW2 L3 Link for IGP alternate path\nSW1-SW2 L2 Trunk for HSRP synchronization (out of EIGRP AS)"
        x = 195.39129586
        y = -184.0
    [[NOTE 60]]
        text = "10.8.0.2/30"
        x = -229.304547279
        y = -315.609777791
    [[NOTE 61]]
        text = "3.202/24"
        x = 98.25
        y = -227.0
    [[NOTE 62]]
        text = "GWs --->"
        x = -626.0
        y = 298.0
    [[NOTE 63]]
        text = "VPCS[6]"
        x = -141.0
        y = 260.0
    [[NOTE 64]]
        text = "EIGRP 65001"
        x = -134.348263186
        y = -256.783274953
        font = "MS Shell Dlg 2,12,-1,5,75,0,0,0,0,0"
        color = "#0055ff"
    [[NOTE 65]]
        text = "VTP Domain Core-Distribution-Access"
        x = 193.0
        y = -248.0
    [[NOTE 66]]
        text = "To workaround GNS3 HSRP Issue: \n#clear mac-address-table static"
        x = 446.08840786
        y = -224.609387372
        font = "MS Shell Dlg 2,12,-1,5,75,0,0,0,0,0"
        color = "#00aa00"
    [[NOTE 67]]
        text = "192.168.0.0/16"
        x = -168.0
        y = 57.0
    [[NOTE 68]]
        text = "VTP version 2"
        x = 195.0
        y = -220.0
    [[NOTE 69]]
        text = "Core"
        x = -570.0
        y = -224.0
        font = "MS Shell Dlg 2,12,-1,5,75,0,0,0,0,0"
    [[NOTE 70]]
        text = "5.91/24"
        x = -55.0
        y = 285.0
    [[NOTE 71]]
        text = "VTP pruning"
        x = 194.39129586
        y = -205.0
    [[NOTE 72]]
        text = "3.201/24 - 3.254"
        x = -372.704581464
        y = -212.66726189
    [[NOTE 73]]
        text = "VPCS[9]"
        x = 145.30435207
        y = 254.0
    [[NOTE 74]]
        text = "4.254"
        x = -299.0
        y = 298.0
    [[NOTE 75]]
        text = "SVI 5:"
        x = -415.37615434
        y = -186.144660941
    [[NOTE 76]]
        text = "10.1.0.2/30"
        x = -10.1733995582
        y = -314.305425721
    [[NOTE 77]]
        text = "Track the RTT server 2.51 and send an SNMP trap to SNMP Manager\nwhen RTT  is above 500 ms threshold or if one server is not responding"
        x = 198.261514605
        y = 49.304547279
    [[NOTE 78]]
        text = "VTP mode client"
        x = 213.183766184
        y = -61.4038059223
    [[NOTE 79]]
        text = " Etherchannel"
        x = 31.7829821395
        y = -126.086455768
        color = "#ff0000"
    [[NOTE 80]]
        text = "SNMP Manager"
        x = -328.607728093
        y = 318.000195209
    [[NOTE 81]]
        text = "L3 Link"
        x = -103.043813512
        y = -240.696331163
    [[NOTE 82]]
        text = "10.1.0.1/30"
        x = -9.09283892339
        y = -373.381686906
    [[NOTE 83]]
        text = "5.254"
        x = -45.0
        y = 299.0
    [[NOTE 84]]
        text = "4.254"
        x = -132.0
        y = 299.0
    [[NOTE 85]]
        text = "SVI 4:"
        x = -416.936814511
        y = -200.012932957
    [[NOTE 86]]
        text = " Etherchannel"
        x = -140.39149107
        y = -151.738778209
        color = "#ff0000"
    [[NOTE 87]]
        text = "VPCS[3]"
        x = -389.0
        y = 261.0
    [[NOTE 88]]
        text = "3.254"
        x = -215.0
        y = 297.0
    [[NOTE 89]]
        text = "VTP mode server"
        x = 194.0
        y = -233.0
    [[NOTE 90]]
        text = "5.51/24"
        x = -555.0
        y = 285.0
    [[NOTE 91]]
        text = "4.201/24 - 4.254"
        x = -372.204581464
        y = -200.16726189
    [[NOTE 92]]
        text = "SVI 2:"
        x = -416.919047558
        y = -226.435768491
    [[NOTE 93]]
        text = "10.81.0.1/30"
        x = -190.397776621
        y = -423.381784511
    [[NOTE 94]]
        text = "4.61/24"
        x = -139.0
        y = 284.0
    [[NOTE 95]]
        text = "Access"
        x = -569.0
        y = 105.0
        font = "MS Shell Dlg 2,12,-1,5,75,0,0,0,0,0"
    [[NOTE 96]]
        text = "Track IP Route to L1 on SW1 VLAN 1/3/5 and \nswitchover to SW2 when no more direct Internet Accesss\nand back  to SW1 when Internet comes back up"
        x = -739.611729884
        y = -277.565183442
    [[NOTE 97]]
        text = "L1 10.8.1.1/32"
        x = -374.311418458
        y = -432.946967953
    [[NOTE 98]]
        text = "   Load-Balancing\nMethod: src-dst-ip"
        x = -161.522443581
        y = -88.0432278838
        color = "#ff0000"
    [[NOTE 99]]
        text = "3.254"
        x = -384.0
        y = 300.0
    [[NOTE 100]]
        text = "4.202/24"
        x = 98.0
        y = -215.25
    [[Cloud Host_361]]
        symbol = server
        x = -224.5
        y = 232.5
        z = 1.0
        connections = SW6:f1/4:NIO_udp:30004:127.0.0.1:20004
    [[Cloud Host_591]]
        symbol = server
        x = -55.5
        y = 228.5
        z = 1.0
        connections = SW9:f1/2:NIO_udp:30006:127.0.0.1:20006
    [[Cloud Host_451]]
        symbol = server
        x = -308.5
        y = 233.5
        z = 1.0
        connections = SW5:f1/6:NIO_udp:30003:127.0.0.1:20003
    [[Cloud Internet]]
        x = -153.285295487
        y = -437.369556207
        hx = 50.6087041395
        hy = 21.9566745116
        z = 1.0
    [[Cloud Host_251]]
        symbol = server
        x = -475.5
        y = 234.5
        z = 1.0
        connections = SW5:f1/4:NIO_udp:30001:127.0.0.1:20001
    [[Cloud Host_351]]
        symbol = server
        x = -390.5
        y = 236.5
        z = 1.0
        connections = SW5:f1/5:NIO_udp:30002:127.0.0.1:20002
    [[Cloud Host_551]]
        symbol = server
        x = -554.5
        y = 235.5
        z = 1.0
        connections = SW5:f1/3:NIO_udp:30000:127.0.0.1:20000
    [[Cloud Host_491]]
        symbol = server
        x = 33.5
        y = 228.5
        z = 1.0
        connections = SW9:f1/3:NIO_udp:30007:127.0.0.1:20007
    [[Cloud Host_461]]
        symbol = server
        x = -143.5
        y = 232.5
        z = 1.0
        connections = SW6:f1/5:NIO_udp:30005:127.0.0.1:20005
    [[Cloud Host_2101]]
        symbol = server
        x = 145.065232244
        y = 226.19564793
        z = 1.0
        connections = SW10:f1/4:NIO_udp:30008:127.0.0.1:20008
    [[SHAPE 1]]
        type = ellipse
        x = -24.7826893256
        y = -422.610070604
        width = 200.0
        height = 200.0
        fill_color = "#ffff00"
        border_style = 2
        z = -1.0
    [[SHAPE 2]]
        type = ellipse
        x = -328.696721581
        y = -425.218774744
        width = 200.0
        height = 200.0
        fill_color = "#ffff00"
        border_style = 2
        z = -1.0
    [[SHAPE 3]]
        type = ellipse
        x = -207.391979093
        y = -254.348653605
        width = 260.870413953
        height = 65.651736814
        fill_color = "#ffff00"
        border_style = 2
        z = -1.0
