Nov 29 19:08:39.575 HYPERVISOR: Release 0.2.17-amd64/Linux (tag 2017072410)
Nov 29 19:08:39.575 HYPERVISOR: Started on IP = 127.0.0.1, TCP port = 59089.
Nov 29 19:08:39.592 HYPERVISOR: exec_cmd: hypervisor version 
Nov 29 19:08:39.592 HYPERVISOR: exec_cmd: hypervisor working_dir /media/actionmystique/SAMSUNG5-VMs/Labs/GNS3/TT 2-solutions-linux-/project-files/dynamips 
Nov 29 19:08:39.592 GENERAL: working_dir=/media/actionmystique/SAMSUNG5-VMs/Labs/GNS3/TT 2-solutions-linux-/project-files/dynamips
Nov 29 19:08:39.593 HYPERVISOR: exec_cmd: vm create ESW3 3 c3725 
Nov 29 19:08:39.593 VM: VM ESW3 created.
Nov 29 19:08:39.597 HYPERVISOR: exec_cmd: vm set_con_tcp_port ESW3 2006 
Nov 29 19:08:39.612 HYPERVISOR: exec_cmd: c3725 get_mac_addr ESW3 
Nov 29 19:08:39.621 HYPERVISOR: exec_cmd: vm set_disk0 ESW3 1 
Nov 29 19:08:39.622 HYPERVISOR: exec_cmd: vm get_status ESW3 
Nov 29 19:08:39.622 HYPERVISOR: exec_cmd: vm set_idle_pc ESW3 0x6026b804 
Nov 29 19:08:39.623 HYPERVISOR: exec_cmd: c3725 set_mac_addr ESW3 c203.1bfb.0000 
Nov 29 19:08:39.623 HYPERVISOR: exec_cmd: vm set_nvram ESW3 256 
Nov 29 19:08:39.623 HYPERVISOR: exec_cmd: vm get_status ESW3 
Nov 29 19:08:39.624 HYPERVISOR: exec_cmd: vm slot_add_binding ESW3 1 0 NM-16ESW 
Nov 29 19:08:39.624 HYPERVISOR: exec_cmd: vm set_ios ESW3 /media/actionmystique/SAMSUNG5-VMs/Images/GNS3/IOS/c3725-adventerprisek9-mz.124-15.T10.image 
Nov 29 19:08:39.625 HYPERVISOR: exec_cmd: vm slot_add_binding ESW3 0 16 WIC-2T 
Nov 29 19:08:39.625 HYPERVISOR: exec_cmd: vm set_config ESW3 configs/ios_base_startup-config.txt 
Nov 29 19:08:39.633 HYPERVISOR: exec_cmd: vm set_config ESW3 configs/ios_base_startup-config.txt configs/ios_base_private-config.txt 
Nov 29 19:08:39.745 HYPERVISOR: exec_cmd: nio create_tap tap-42e4857f-5af4-40f8-bc81-e408cdedf04e tap2 
Nov 29 19:08:39.746 HYPERVISOR: exec_cmd: vm slot_add_nio_binding ESW3 1 1 tap-42e4857f-5af4-40f8-bc81-e408cdedf04e 
Nov 29 19:08:39.746 HYPERVISOR: exec_cmd: vm get_status ESW3 
Nov 29 19:08:39.936 HYPERVISOR: exec_cmd: nio create_udp udp-60991be0-8372-4618-98ff-979c7fa5b4ae 15011 127.0.0.1 15010 
Nov 29 19:08:39.937 HYPERVISOR: exec_cmd: vm slot_add_nio_binding ESW3 1 0 udp-60991be0-8372-4618-98ff-979c7fa5b4ae 
Nov 29 19:08:39.937 HYPERVISOR: exec_cmd: vm get_status ESW3 
Nov 29 19:08:52.099 HYPERVISOR: exec_cmd: vm get_status ESW3 
Nov 29 19:08:52.101 HYPERVISOR: exec_cmd: vm extract_config ESW3 
Nov 29 19:08:52.105 HYPERVISOR: exec_cmd: vm delete ESW3 
Nov 29 19:08:52.105 VM: VM ESW3 destroyed.
Nov 29 19:08:52.107 HYPERVISOR: exec_cmd: hypervisor stop 
Nov 29 19:08:52.602 HYPERVISOR: Stopped.
Nov 29 19:08:52.602 GENERAL: reset done.
