Nov 29 19:08:39.620 HYPERVISOR: Release 0.2.17-amd64/Linux (tag 2017072410)
Nov 29 19:08:39.620 HYPERVISOR: Started on IP = 127.0.0.1, TCP port = 57685.
Nov 29 19:08:39.643 HYPERVISOR: exec_cmd: hypervisor version 
Nov 29 19:08:39.643 HYPERVISOR: exec_cmd: hypervisor working_dir /media/actionmystique/SAMSUNG5-VMs/Labs/GNS3/TT 2-solutions-linux-/project-files/dynamips 
Nov 29 19:08:39.643 GENERAL: working_dir=/media/actionmystique/SAMSUNG5-VMs/Labs/GNS3/TT 2-solutions-linux-/project-files/dynamips
Nov 29 19:08:39.644 HYPERVISOR: exec_cmd: vm create ESW4 4 c3725 
Nov 29 19:08:39.644 VM: VM ESW4 created.
Nov 29 19:08:39.644 HYPERVISOR: exec_cmd: vm set_con_tcp_port ESW4 2009 
Nov 29 19:08:39.645 HYPERVISOR: exec_cmd: c3725 get_mac_addr ESW4 
Nov 29 19:08:39.646 HYPERVISOR: exec_cmd: vm set_disk0 ESW4 1 
Nov 29 19:08:39.647 HYPERVISOR: exec_cmd: vm get_status ESW4 
Nov 29 19:08:39.648 HYPERVISOR: exec_cmd: vm set_idle_pc ESW4 0x6026b804 
Nov 29 19:08:39.648 HYPERVISOR: exec_cmd: c3725 set_mac_addr ESW4 c204.68ae.0000 
Nov 29 19:08:39.649 HYPERVISOR: exec_cmd: vm set_nvram ESW4 256 
Nov 29 19:08:39.650 HYPERVISOR: exec_cmd: vm get_status ESW4 
Nov 29 19:08:39.652 HYPERVISOR: exec_cmd: vm slot_add_binding ESW4 1 0 NM-16ESW 
Nov 29 19:08:39.653 HYPERVISOR: exec_cmd: vm set_ios ESW4 /media/actionmystique/SAMSUNG5-VMs/Images/GNS3/IOS/c3725-adventerprisek9-mz.124-15.T10.image 
Nov 29 19:08:39.654 HYPERVISOR: exec_cmd: vm slot_add_binding ESW4 0 16 WIC-2T 
Nov 29 19:08:39.656 HYPERVISOR: exec_cmd: vm set_config ESW4 configs/ios_base_startup-config.txt 
Nov 29 19:08:39.657 HYPERVISOR: exec_cmd: vm set_config ESW4 configs/ios_base_startup-config.txt configs/ios_base_private-config.txt 
Nov 29 19:08:39.964 HYPERVISOR: exec_cmd: nio create_udp udp-a5c2f29f-8214-4677-ba0c-bf8d28c99616 15013 127.0.0.1 15012 
Nov 29 19:08:39.965 HYPERVISOR: exec_cmd: vm slot_add_nio_binding ESW4 1 0 udp-a5c2f29f-8214-4677-ba0c-bf8d28c99616 
Nov 29 19:08:39.965 HYPERVISOR: exec_cmd: vm get_status ESW4 
Nov 29 19:08:39.972 HYPERVISOR: exec_cmd: nio create_udp udp-3881dec0-52ee-4256-aa91-88582f92f932 15014 127.0.0.1 15015 
Nov 29 19:08:39.978 HYPERVISOR: exec_cmd: vm slot_add_nio_binding ESW4 1 1 udp-3881dec0-52ee-4256-aa91-88582f92f932 
Nov 29 19:08:39.980 HYPERVISOR: exec_cmd: vm get_status ESW4 
Nov 29 19:08:52.098 HYPERVISOR: exec_cmd: vm get_status ESW4 
Nov 29 19:08:52.100 HYPERVISOR: exec_cmd: vm extract_config ESW4 
Nov 29 19:08:52.105 HYPERVISOR: exec_cmd: vm delete ESW4 
Nov 29 19:08:52.105 VM: VM ESW4 destroyed.
Nov 29 19:08:52.107 HYPERVISOR: exec_cmd: hypervisor stop 
Nov 29 19:08:52.155 HYPERVISOR: Stopped.
Nov 29 19:08:52.155 GENERAL: reset done.
