Nov 28 08:21:40.760 HYPERVISOR: Release 0.2.17-amd64/Linux (tag 2017072410)
Nov 28 08:21:40.760 HYPERVISOR: Started on IP = 127.0.0.1, TCP port = 51259.
Nov 28 08:21:40.780 HYPERVISOR: exec_cmd: hypervisor version 
Nov 28 08:21:40.781 HYPERVISOR: exec_cmd: hypervisor working_dir /media/actionmystique/SAMSUNG5-VMs/Labs/GNS3/TT 1-linux-/project-files/dynamips 
Nov 28 08:21:40.781 GENERAL: working_dir=/media/actionmystique/SAMSUNG5-VMs/Labs/GNS3/TT 1-linux-/project-files/dynamips
Nov 28 08:21:40.781 HYPERVISOR: exec_cmd: vm create ESW1 1 c3725 
Nov 28 08:21:40.781 VM: VM ESW1 created.
Nov 28 08:21:40.782 HYPERVISOR: exec_cmd: vm set_con_tcp_port ESW1 2001 
Nov 28 08:21:40.782 HYPERVISOR: exec_cmd: vm set_aux_tcp_port ESW1 2501 
Nov 28 08:21:40.783 HYPERVISOR: exec_cmd: c3725 get_mac_addr ESW1 
Nov 28 08:21:40.783 HYPERVISOR: exec_cmd: vm set_disk0 ESW1 1 
Nov 28 08:21:40.783 HYPERVISOR: exec_cmd: vm get_status ESW1 
Nov 28 08:21:40.784 HYPERVISOR: exec_cmd: vm slot_add_binding ESW1 1 0 NM-16ESW 
Nov 28 08:21:40.784 HYPERVISOR: exec_cmd: vm set_ios ESW1 /media/actionmystique/SAMSUNG5-VMs/Images/GNS3/IOS/c3725-adventerprisek9-mz.124-15.T10.image 
Nov 28 08:21:40.784 HYPERVISOR: exec_cmd: c3725 set_mac_addr ESW1 c201.3297.0000 
Nov 28 08:21:40.785 HYPERVISOR: exec_cmd: vm slot_add_binding ESW1 0 16 WIC-2T 
Nov 28 08:21:40.785 HYPERVISOR: exec_cmd: vm get_status ESW1 
Nov 28 08:21:40.786 HYPERVISOR: exec_cmd: vm set_idle_pc ESW1 0x60c06d20 
Nov 28 08:21:40.786 HYPERVISOR: exec_cmd: vm set_nvram ESW1 256 
Nov 28 08:21:40.786 HYPERVISOR: exec_cmd: vm set_config ESW1 configs/i1_startup-config.cfg 
Nov 28 08:21:40.787 HYPERVISOR: exec_cmd: vm set_config ESW1 configs/i1_startup-config.cfg configs/i1_private-config.cfg 
Nov 28 08:21:40.891 HYPERVISOR: exec_cmd: nio create_udp udp-4a79be0a-5ec9-4443-94e0-d2781411188d 15002 127.0.0.1 15003 
Nov 28 08:21:40.898 HYPERVISOR: exec_cmd: vm slot_add_nio_binding ESW1 1 2 udp-4a79be0a-5ec9-4443-94e0-d2781411188d 
Nov 28 08:21:40.908 HYPERVISOR: exec_cmd: vm get_status ESW1 
Nov 28 08:21:40.914 HYPERVISOR: exec_cmd: nio create_udp udp-338a0f7c-227b-443f-b8be-1de712e898fe 15000 127.0.0.1 15004 
Nov 28 08:21:40.914 HYPERVISOR: exec_cmd: vm slot_add_nio_binding ESW1 1 1 udp-338a0f7c-227b-443f-b8be-1de712e898fe 
Nov 28 08:21:40.915 HYPERVISOR: exec_cmd: vm get_status ESW1 
Nov 28 08:21:40.943 HYPERVISOR: exec_cmd: nio create_udp udp-de7693e3-0450-4302-a76c-e9fa7c66cdc1 15005 127.0.0.1 15001 
Nov 28 08:21:40.943 HYPERVISOR: exec_cmd: vm slot_add_nio_binding ESW1 1 0 udp-de7693e3-0450-4302-a76c-e9fa7c66cdc1 
Nov 28 08:21:40.944 HYPERVISOR: exec_cmd: vm get_status ESW1 
Nov 28 08:21:56.459 HYPERVISOR: exec_cmd: vm get_status ESW1 
Nov 28 08:21:56.460 HYPERVISOR: exec_cmd: vm extract_config ESW1 
Nov 28 08:21:56.461 HYPERVISOR: exec_cmd: vm delete ESW1 
Nov 28 08:21:56.461 VM: VM ESW1 destroyed.
Nov 28 08:21:56.461 HYPERVISOR: exec_cmd: hypervisor stop 
Nov 28 08:21:56.796 HYPERVISOR: Stopped.
Nov 28 08:21:56.796 GENERAL: reset done.
