Nov 29 15:25:48.471 HYPERVISOR: Release 0.2.17-amd64/Linux (tag 2017072410)
Nov 29 15:25:48.471 HYPERVISOR: Started on IP = 127.0.0.1, TCP port = 60863.
Nov 29 15:25:48.505 HYPERVISOR: exec_cmd: hypervisor version 
Nov 29 15:25:48.507 HYPERVISOR: exec_cmd: hypervisor working_dir /media/actionmystique/SAMSUNG5-VMs/Labs/GNS3/git-Public-Labs-Collection/CCNP/TBSHOOT/L3-Technologies/IPv4/Routing-Protocols/Redistribution/Jean-Christophe_Manciot/1+/TT 2-solutions-linux/project-files/dynamips 
Nov 29 15:25:48.507 GENERAL: working_dir=/media/actionmystique/SAMSUNG5-VMs/Labs/GNS3/git-Public-Labs-Collection/CCNP/TBSHOOT/L3-Technologies/IPv4/Routing-Protocols/Redistribution/Jean-Christophe_Manciot/1+/TT 2-solutions-linux/project-files/dynamips
Nov 29 15:25:48.508 HYPERVISOR: exec_cmd: vm create ESW1 1 c3725 
Nov 29 15:25:48.508 VM: VM ESW1 created.
Nov 29 15:25:48.509 HYPERVISOR: exec_cmd: vm set_con_tcp_port ESW1 2004 
Nov 29 15:25:48.510 HYPERVISOR: exec_cmd: c3725 get_mac_addr ESW1 
Nov 29 15:25:48.511 HYPERVISOR: exec_cmd: vm get_status ESW1 
Nov 29 15:25:48.511 HYPERVISOR: exec_cmd: vm set_idle_pc ESW1 0x6026b804 
Nov 29 15:25:48.512 HYPERVISOR: exec_cmd: vm get_status ESW1 
Nov 29 15:25:48.513 HYPERVISOR: exec_cmd: vm slot_add_binding ESW1 1 0 NM-16ESW 
Nov 29 15:25:48.514 HYPERVISOR: exec_cmd: vm set_disk0 ESW1 1 
Nov 29 15:25:48.514 HYPERVISOR: exec_cmd: vm set_nvram ESW1 256 
Nov 29 15:25:48.515 HYPERVISOR: exec_cmd: vm set_ios ESW1 /media/actionmystique/SAMSUNG5-VMs/Images/GNS3/IOS/c3725-adventerprisek9-mz.124-15.T10.image 
Nov 29 15:25:48.516 HYPERVISOR: exec_cmd: c3725 set_mac_addr ESW1 c201.1b91.0000 
Nov 29 15:25:48.519 HYPERVISOR: exec_cmd: vm slot_add_binding ESW1 0 16 WIC-2T 
Nov 29 15:25:48.521 HYPERVISOR: exec_cmd: vm set_config ESW1 configs/ios_base_startup-config.txt 
Nov 29 15:25:48.523 HYPERVISOR: exec_cmd: vm set_config ESW1 configs/ios_base_startup-config.txt configs/ios_base_private-config.txt 
Nov 29 15:25:48.769 HYPERVISOR: exec_cmd: nio create_udp udp-9d5d255a-5853-4782-9934-a34f0f5bac51 15003 127.0.0.1 15004 
Nov 29 15:25:48.776 HYPERVISOR: exec_cmd: vm slot_add_nio_binding ESW1 1 0 udp-9d5d255a-5853-4782-9934-a34f0f5bac51 
Nov 29 15:25:48.795 HYPERVISOR: exec_cmd: vm get_status ESW1 
Nov 29 15:25:48.838 HYPERVISOR: exec_cmd: nio create_udp udp-6e31f552-0db9-431b-9d59-cbc103cb9081 15010 127.0.0.1 15008 
Nov 29 15:25:48.839 HYPERVISOR: exec_cmd: vm slot_add_nio_binding ESW1 1 1 udp-6e31f552-0db9-431b-9d59-cbc103cb9081 
Nov 29 15:25:48.840 HYPERVISOR: exec_cmd: vm get_status ESW1 
