Nov 28 08:08:44.436 HYPERVISOR: Release 0.2.17-amd64/Linux (tag 2017072410)
Nov 28 08:08:44.436 HYPERVISOR: Started on IP = 127.0.0.1, TCP port = 40757.
Nov 28 08:08:44.454 HYPERVISOR: exec_cmd: hypervisor version 
Nov 28 08:08:44.455 HYPERVISOR: exec_cmd: hypervisor working_dir /media/actionmystique/SAMSUNG5-VMs/Labs/GNS3/TT 1-solutions-linux-/project-files/dynamips 
Nov 28 08:08:44.455 GENERAL: working_dir=/media/actionmystique/SAMSUNG5-VMs/Labs/GNS3/TT 1-solutions-linux-/project-files/dynamips
Nov 28 08:08:44.460 HYPERVISOR: exec_cmd: vm create ESW3 3 c3725 
Nov 28 08:08:44.460 VM: VM ESW3 created.
Nov 28 08:08:44.469 HYPERVISOR: exec_cmd: vm set_con_tcp_port ESW3 2005 
Nov 28 08:08:44.476 HYPERVISOR: exec_cmd: c3725 get_mac_addr ESW3 
Nov 28 08:08:44.478 HYPERVISOR: exec_cmd: vm get_status ESW3 
Nov 28 08:08:44.479 HYPERVISOR: exec_cmd: vm slot_add_binding ESW3 1 0 NM-16ESW 
Nov 28 08:08:44.479 HYPERVISOR: exec_cmd: vm set_disk0 ESW3 1 
Nov 28 08:08:44.479 HYPERVISOR: exec_cmd: vm slot_add_binding ESW3 0 16 WIC-2T 
Nov 28 08:08:44.480 HYPERVISOR: exec_cmd: vm get_status ESW3 
Nov 28 08:08:44.480 HYPERVISOR: exec_cmd: vm set_idle_pc ESW3 0x6026b804 
Nov 28 08:08:44.481 HYPERVISOR: exec_cmd: c3725 set_mac_addr ESW3 c203.4490.0000 
Nov 28 08:08:44.481 HYPERVISOR: exec_cmd: vm set_nvram ESW3 256 
Nov 28 08:08:44.481 HYPERVISOR: exec_cmd: vm set_ios ESW3 /media/actionmystique/SAMSUNG5-VMs/Images/GNS3/IOS/c3725-adventerprisek9-mz.124-15.T10.image 
Nov 28 08:08:44.483 HYPERVISOR: exec_cmd: vm set_config ESW3 configs/ios_base_startup-config.txt 
Nov 28 08:08:44.484 HYPERVISOR: exec_cmd: vm set_config ESW3 configs/ios_base_startup-config.txt configs/ios_base_private-config.txt 
Nov 28 08:08:44.695 HYPERVISOR: exec_cmd: nio create_udp udp-d99779b7-434d-4422-bd22-fba1fe9037e6 15011 127.0.0.1 15009 
Nov 28 08:08:44.701 HYPERVISOR: exec_cmd: vm slot_add_nio_binding ESW3 1 0 udp-d99779b7-434d-4422-bd22-fba1fe9037e6 
Nov 28 08:08:44.701 HYPERVISOR: exec_cmd: vm get_status ESW3 
Nov 28 08:09:03.565 HYPERVISOR: exec_cmd: vm get_status ESW3 
Nov 28 08:09:03.567 HYPERVISOR: exec_cmd: vm extract_config ESW3 
Nov 28 08:09:03.579 HYPERVISOR: exec_cmd: vm delete ESW3 
Nov 28 08:09:03.579 VM: VM ESW3 destroyed.
Nov 28 08:09:03.581 HYPERVISOR: exec_cmd: hypervisor stop 
Nov 28 08:09:03.972 HYPERVISOR: Stopped.
Nov 28 08:09:03.972 GENERAL: reset done.
