tclsh
foreach address {
1.1.1.1
2.2.2.2
3.3.3.3
4.4.4.4
5.5.5.5
6.6.6.6
7.7.7.7
192.168.12.1
192.168.12.2
192.168.13.1
192.168.13.3
192.168.24.2
192.168.24.4
192.168.34.3
192.168.34.4
192.168.35.3
192.168.35.5
192.168.47.4
192.168.47.7
192.168.56.5
192.168.56.6
192.168.67.6
192.168.67.7
} {
ping $address }
exit
