Nov 27 16:20:40.190 HYPERVISOR: Release 0.2.17-amd64/Linux (tag 2017072410)
Nov 27 16:20:40.190 HYPERVISOR: Started on IP = 127.0.0.1, TCP port = 36791.
Nov 27 16:20:40.223 HYPERVISOR: exec_cmd: hypervisor version 
Nov 27 16:20:40.224 HYPERVISOR: exec_cmd: hypervisor working_dir /media/actionmystique/SAMSUNG5-VMs/Labs/GNS3/TT 1-linux-/project-files/dynamips 
Nov 27 16:20:40.224 GENERAL: working_dir=/media/actionmystique/SAMSUNG5-VMs/Labs/GNS3/TT 1-linux-/project-files/dynamips
Nov 27 16:20:40.225 HYPERVISOR: exec_cmd: vm create SW3 3 c3725 
Nov 27 16:20:40.225 VM: VM SW3 created.
Nov 27 16:20:40.226 HYPERVISOR: exec_cmd: vm set_con_tcp_port SW3 2003 
Nov 27 16:20:40.227 HYPERVISOR: exec_cmd: c3725 get_mac_addr SW3 
Nov 27 16:20:40.228 HYPERVISOR: exec_cmd: vm set_nvram SW3 256 
Nov 27 16:20:40.229 HYPERVISOR: exec_cmd: vm get_status SW3 
Nov 27 16:20:40.230 HYPERVISOR: exec_cmd: vm set_idle_pc SW3 0x614ac21c 
Nov 27 16:20:40.231 HYPERVISOR: exec_cmd: c3725 set_mac_addr SW3 cccc.cccc.cccc 
Nov 27 16:20:40.232 HYPERVISOR: exec_cmd: vm set_exec_area SW3 16 
Nov 27 16:20:40.233 HYPERVISOR: exec_cmd: vm get_status SW3 
Nov 27 16:20:40.234 HYPERVISOR: exec_cmd: vm slot_add_binding SW3 1 0 NM-16ESW 
Nov 27 16:20:40.235 HYPERVISOR: exec_cmd: vm set_disk0 SW3 1 
Nov 27 16:20:40.236 HYPERVISOR: exec_cmd: vm set_ios SW3 /media/actionmystique/SAMSUNG5-VMs/Images/GNS3/IOS/c3725-adventerprisek9-mz.124-15.T10.image 
Nov 27 16:20:40.237 HYPERVISOR: exec_cmd: vm slot_add_binding SW3 0 16 WIC-2T 
Nov 27 16:20:40.238 HYPERVISOR: exec_cmd: vm set_config SW3 configs/i3_startup-config.cfg 
Nov 27 16:20:40.239 HYPERVISOR: exec_cmd: vm set_config SW3 configs/i3_startup-config.cfg configs/i3_private-config.cfg 
Nov 27 16:20:40.433 HYPERVISOR: exec_cmd: nio create_udp udp-568b1a53-1005-4f11-8148-19adf280f552 15004 127.0.0.1 15003 
Nov 27 16:20:40.439 HYPERVISOR: exec_cmd: vm slot_add_nio_binding SW3 1 1 udp-568b1a53-1005-4f11-8148-19adf280f552 
Nov 27 16:20:40.440 HYPERVISOR: exec_cmd: vm get_status SW3 
Nov 27 16:20:40.469 HYPERVISOR: exec_cmd: nio create_udp udp-9181090d-459a-4164-a3e3-07c75b4d7bb1 15002 127.0.0.1 15006 
Nov 27 16:20:40.469 HYPERVISOR: exec_cmd: vm slot_add_nio_binding SW3 1 2 udp-9181090d-459a-4164-a3e3-07c75b4d7bb1 
Nov 27 16:20:40.470 HYPERVISOR: exec_cmd: vm get_status SW3 
Nov 27 16:20:40.493 HYPERVISOR: exec_cmd: nio create_udp udp-06144c43-2176-4c07-9ae4-6a57e57c866b 15007 127.0.0.1 15005 
Nov 27 16:20:40.496 HYPERVISOR: exec_cmd: vm slot_add_nio_binding SW3 1 5 udp-06144c43-2176-4c07-9ae4-6a57e57c866b 
Nov 27 16:20:40.497 HYPERVISOR: exec_cmd: vm get_status SW3 
Nov 27 16:20:40.517 HYPERVISOR: exec_cmd: nio create_udp udp-4d22d668-1436-4de2-b6fe-8670ab424be4 15008 127.0.0.1 15009 
Nov 27 16:20:40.518 HYPERVISOR: exec_cmd: vm slot_add_nio_binding SW3 1 6 udp-4d22d668-1436-4de2-b6fe-8670ab424be4 
Nov 27 16:20:40.518 HYPERVISOR: exec_cmd: vm get_status SW3 
Nov 27 16:20:52.865 HYPERVISOR: exec_cmd: vm get_status SW3 
Nov 27 16:20:52.867 HYPERVISOR: exec_cmd: vm extract_config SW3 
Nov 27 16:20:52.869 HYPERVISOR: exec_cmd: vm delete SW3 
Nov 27 16:20:52.869 VM: VM SW3 destroyed.
Nov 27 16:20:52.871 HYPERVISOR: exec_cmd: hypervisor stop 
Nov 27 16:20:53.235 HYPERVISOR: Stopped.
Nov 27 16:20:53.235 GENERAL: reset done.
