Nov 27 16:12:15.407 HYPERVISOR: Release 0.2.17-amd64/Linux (tag 2017072410)
Nov 27 16:12:15.407 HYPERVISOR: Started on IP = 127.0.0.1, TCP port = 36989.
Nov 27 16:12:15.418 HYPERVISOR: exec_cmd: hypervisor version 
Nov 27 16:12:15.418 HYPERVISOR: exec_cmd: hypervisor working_dir /media/actionmystique/SAMSUNG5-VMs/Labs/GNS3/git-Public-Labs-Collection/CCNP/TBSHOOT/L2-Technologies/SPAN-RSPAN/Jean-Christophe_Manciot/1+/TT 1-solutions-linux/project-files/dynamips 
Nov 27 16:12:15.418 GENERAL: working_dir=/media/actionmystique/SAMSUNG5-VMs/Labs/GNS3/git-Public-Labs-Collection/CCNP/TBSHOOT/L2-Technologies/SPAN-RSPAN/Jean-Christophe_Manciot/1+/TT 1-solutions-linux/project-files/dynamips
Nov 27 16:12:15.419 HYPERVISOR: exec_cmd: vm create ESW1 1 c3725 
Nov 27 16:12:15.419 VM: VM ESW1 created.
Nov 27 16:12:15.419 HYPERVISOR: exec_cmd: vm set_con_tcp_port ESW1 2001 
Nov 27 16:12:15.419 HYPERVISOR: exec_cmd: c3725 get_mac_addr ESW1 
Nov 27 16:12:15.420 HYPERVISOR: exec_cmd: vm set_nvram ESW1 256 
Nov 27 16:12:15.420 HYPERVISOR: exec_cmd: vm get_status ESW1 
Nov 27 16:12:15.420 HYPERVISOR: exec_cmd: vm set_idle_pc ESW1 0x60c05928 
Nov 27 16:12:15.421 HYPERVISOR: exec_cmd: c3725 set_mac_addr ESW1 c201.3b55.0000 
Nov 27 16:12:15.421 HYPERVISOR: exec_cmd: vm get_status ESW1 
Nov 27 16:12:15.421 HYPERVISOR: exec_cmd: vm slot_add_binding ESW1 1 0 NM-16ESW 
Nov 27 16:12:15.422 HYPERVISOR: exec_cmd: vm set_ios ESW1 /media/actionmystique/SAMSUNG5-VMs/Images/GNS3/IOS/c3725-adventerprisek9-mz.124-15.T10.image 
Nov 27 16:12:15.422 HYPERVISOR: exec_cmd: vm slot_add_binding ESW1 0 16 WIC-2T 
Nov 27 16:12:15.423 HYPERVISOR: exec_cmd: vm set_disk0 ESW1 1 
Nov 27 16:12:15.423 HYPERVISOR: exec_cmd: vm set_config ESW1 configs/i1_startup-config.cfg 
Nov 27 16:12:15.424 HYPERVISOR: exec_cmd: vm set_config ESW1 configs/i1_startup-config.cfg configs/i1_private-config.cfg 
Nov 27 16:12:15.565 HYPERVISOR: exec_cmd: nio create_udp udp-a18b4e72-6c61-423b-aea1-dc98e754f0a4 15006 127.0.0.1 15005 
Nov 27 16:12:15.570 HYPERVISOR: exec_cmd: vm slot_add_nio_binding ESW1 1 1 udp-a18b4e72-6c61-423b-aea1-dc98e754f0a4 
Nov 27 16:12:15.571 HYPERVISOR: exec_cmd: vm get_status ESW1 
Nov 27 16:12:15.600 HYPERVISOR: exec_cmd: nio create_udp udp-905d2f5f-bb39-4fa6-a187-a7c393fe2b71 15002 127.0.0.1 15007 
Nov 27 16:12:15.601 HYPERVISOR: exec_cmd: vm slot_add_nio_binding ESW1 1 0 udp-905d2f5f-bb39-4fa6-a187-a7c393fe2b71 
Nov 27 16:12:15.601 HYPERVISOR: exec_cmd: vm get_status ESW1 
Nov 27 16:12:15.621 HYPERVISOR: exec_cmd: nio create_udp udp-d2d386f4-39ca-4441-9ccc-a61c62d737bc 15008 127.0.0.1 15009 
Nov 27 16:12:15.621 HYPERVISOR: exec_cmd: vm slot_add_nio_binding ESW1 1 2 udp-d2d386f4-39ca-4441-9ccc-a61c62d737bc 
Nov 27 16:12:15.622 HYPERVISOR: exec_cmd: vm get_status ESW1 
Nov 27 16:12:23.502 HYPERVISOR: exec_cmd: nio create_tap tap-247bbe0c-9890-4710-a867-8badf183dd7e tap1 
Nov 27 16:12:23.503 HYPERVISOR: exec_cmd: vm slot_add_nio_binding ESW1 1 3 tap-247bbe0c-9890-4710-a867-8badf183dd7e 
Nov 27 16:12:23.504 HYPERVISOR: exec_cmd: vm get_status ESW1 
