autostart = False
[127.0.0.1:7200]
    workingdir = C:\Users\ActionMystique\Documents\Missions\GNS3\Temp
    udp = 10000
    [[3640]]
        image = C:\Users\ActionMystique\Documents\Missions\IOS\Binaries\c3640-jk9o3s-mz.124-16a.bin
        idlepc = 0x603e26f0
        ghostios = True
        sparsemem = True
        chassis = 3640
    [[ROUTER Scorpion]]
        model = 3640
        console = 2001
        aux = 2100
        slot0 = NM-1FE-TX
        f0/0 = SubZero f0/0
        x = -91.6898628385
        y = -143.622366364
    [[ROUTER SubZero]]
        model = 3640
        console = 2000
        aux = 2101
        slot0 = NM-1FE-TX
        f0/0 = Scorpion f0/0
        x = -388.0
        y = -145.0
[GNS3-DATA]
    configs = configs
    m11 = 1.41421356237
    m22 = 1.41421356237
    [[NOTE 1]]
        text = .1
        x = -318.905158315
        y = -146.350288425
        color = "#0000ff"
    [[NOTE 2]]
        text = .2
        x = -115.965512115
        y = -144.429978209
        color = "#0000ff"
    [[NOTE 3]]
        text = AS 2
        x = -81.3172798365
        y = -77.2548339959
        color = "#323232"
    [[NOTE 4]]
        text = 192.168.12.0 /24
        x = -272.943217538
        y = -143.521861301
        color = "#0000ff"
    [[NOTE 5]]
        text = AS 1
        x = -364.867099092
        y = -79.1751442127
        color = "#323232"
    [[SHAPE 1]]
        type = ellipse
        x = -132.228968082
        y = -196.57568517
        width = 141.421356237
        height = 147.674098192
        fill_color = "#ffff7f"
        border_style = 2
        z = -2.0
    [[SHAPE 2]]
        type = ellipse
        x = -415.979797465
        y = -196.776695297
        width = 141.421356237
        height = 147.674098192
        fill_color = "#aaffff"
        border_style = 2
        z = -2.0
