autostart = False
version = 0.8.4-RC3
[127.0.0.1:7202]
    workingdir = working
    udp = 10200
    [[7200]]
        image = C:\Users\ActionMystique\Google Drive\Missions\Certifications\Cisco\IOS\Binaries\c7200-adventerprisek9-mz.152-4.S.image
        ram = 512
        idlepc = 0x62a29de4
        sparsemem = True
        ghostios = True
    [[ROUTER R5]]
        console = 2003
        aux = 2103
        cnfg = configs\R5.cfg
        slot0 = C7200-IO-GE-E
        slot1 = PA-8T
        s1/0 = FR1 5
        x = -4.8284271247
        y = 197.414213562
        z = 1.0
    [[ROUTER WAN2]]
        console = 2005
        aux = 2105
        cnfg = configs\WAN2.cfg
        slot0 = C7200-IO-GE-E
        g0/0 = WAN1 g0/0
        slot1 = PA-8T
        s1/0 = FR1 2
        slot2 = PA-2FE-TX
        f2/0 = R14 f1/0
        f2/1 = R13 f2/0
        x = 75.585786438
        y = 47.0
        z = 1.0
[127.0.0.1:7203]
    workingdir = working
    udp = 10100
    [[7200]]
        image = C:\Users\ActionMystique\Google Drive\Missions\Certifications\Cisco\IOS\Binaries\c7200-adventerprisek9-mz.152-4.S.image
        ram = 512
        idlepc = 0x62a29de4
        sparsemem = True
        ghostios = True
    [[ROUTER R11]]
        console = 2051
        aux = 2151
        cnfg = configs\R11.cfg
        slot0 = C7200-IO-GE-E
        g0/0 = I11 g0/0
        slot1 = PA-2FE-TX
        f1/0 = R13 f1/1
        f1/1 = R16 f1/1
        slot2 = PA-8T
        s2/0 = I11 s1/0
        s2/1 = I16 s1/0
        x = 451.757359313
        y = -254.757359313
        z = 1.0
    [[ROUTER I11]]
        console = 2012
        aux = 2112
        cnfg = configs\I11.cfg
        slot0 = C7200-IO-GE-E
        g0/0 = R11 g0/0
        slot1 = PA-8T
        s1/0 = R11 s2/0
        s1/1 = I6 s1/1
        s1/2 = I7 s1/2
        s1/3 = I16 s1/1
        s1/4 = I12 s1/0
        x = 779.91883092
        y = -308.17871555
        z = 1.0
[127.0.0.1:7200]
    workingdir = working
    udp = 10000
    [[7200]]
        image = C:\Users\ActionMystique\Google Drive\Missions\Certifications\Cisco\IOS\Binaries\c7200-adventerprisek9-mz.152-4.S.image
        ram = 512
        idlepc = 0x62a29de4
        sparsemem = True
        ghostios = True
    [[ROUTER R13]]
        console = 2013
        aux = 2113
        cnfg = configs\R13.cfg
        slot0 = C7200-IO-GE-E
        g0/0 = R14 g0/0
        slot1 = PA-2FE-TX
        f1/0 = WAN1 f2/0
        f1/1 = R11 f1/0
        slot2 = PA-2FE-TX
        f2/0 = WAN2 f2/1
        x = 311.749350086
        y = -254.249783362
        z = 1.0
    [[FRSW FR1]]
        1:103 = 3:301
        1:104 = 4:401
        1:105 = 5:501
        2:203 = 3:302
        2:204 = 4:402
        2:205 = 5:502
        3:301 = 1:103
        3:302 = 2:203
        4:401 = 1:104
        4:402 = 2:204
        5:501 = 1:105
        5:502 = 2:205
        1 = WAN1 s1/0
        2 = WAN2 s1/0
        3 = ASBR3 s1/0
        4 = ASBR4 s1/0
        5 = R5 s1/0
        x = -93.3578643763
        y = -110.5
        z = 1.0
    [[ROUTER WAN1]]
        console = 2000
        aux = 2100
        cnfg = configs\WAN1.cfg
        slot0 = C7200-IO-GE-E
        g0/0 = WAN2 g0/0
        slot1 = PA-8T
        s1/0 = FR1 1
        slot2 = PA-2FE-TX
        f2/0 = R13 f1/0
        f2/1 = R14 f2/0
        x = 76.0
        y = -252.0
        z = 1.0
[127.0.0.1:7201]
    workingdir = working
    udp = 10300
    [[7200]]
        image = C:\Users\ActionMystique\Google Drive\Missions\Certifications\Cisco\IOS\Binaries\c7200-adventerprisek9-mz.152-4.S.image
        ram = 512
        idlepc = 0x62a29de4
        sparsemem = True
        ghostios = True
    [[ROUTER ASBR3]]
        console = 2001
        aux = 2101
        cnfg = configs\ASBR3.cfg
        slot0 = C7200-IO-GE-E
        g0/0 = ASBR4 g0/0
        slot1 = PA-8T
        s1/0 = FR1 3
        s1/1 = I3 s1/0
        s1/2 = I5 s1/2
        s1/3 = I3 s1/3
        x = -472.225396745
        y = -168.017243942
        z = 1.0
    [[ROUTER ASBR4]]
        console = 2002
        aux = 2102
        cnfg = configs\ASBR4.cfg
        slot0 = C7200-IO-GE-E
        g0/0 = ASBR3 g0/0
        slot1 = PA-8T
        s1/0 = FR1 4
        s1/1 = I5 s1/0
        s1/2 = I3 s1/2
        s1/3 = C4 s1/1
        x = -471.811183182
        y = 2.9949493662
        z = 1.0
[127.0.0.1:7206]
    workingdir = working
    udp = 10600
    [[7200]]
        image = C:\Users\ActionMystique\Google Drive\Missions\Certifications\Cisco\IOS\Binaries\c7200-adventerprisek9-mz.152-4.S.image
        ram = 512
        idlepc = 0x62a29de4
        sparsemem = True
        ghostios = True
    [[ROUTER I3]]
        console = 2015
        aux = 2115
        cnfg = configs\I3.cfg
        slot0 = C7200-IO-GE-E
        g0/0 = I5 g0/0
        slot1 = PA-8T
        s1/0 = ASBR3 s1/1
        s1/1 = I4 s1/0
        s1/2 = ASBR4 s1/2
        s1/3 = ASBR3 s1/3
        x = -748.910821693
        y = -242.936074863
        z = 1.0
    [[ROUTER I5]]
        console = 2056
        aux = 2156
        cnfg = configs\I5.cfg
        slot0 = C7200-IO-GE-E
        g0/0 = I3 g0/0
        slot1 = PA-8T
        s1/0 = ASBR4 s1/1
        s1/1 = I4 s1/1
        s1/2 = ASBR3 s1/2
        s1/3 = I105 s1/0
        s1/4 = C4 s1/0
        x = -840.910821693
        y = 228.977705423
        z = 1.0
[127.0.0.1:7207]
    workingdir = working
    udp = 10700
    [[7200]]
        image = C:\Users\ActionMystique\Google Drive\Missions\Certifications\Cisco\IOS\Binaries\c7200-adventerprisek9-mz.152-4.S.image
        ram = 512
        idlepc = 0x62a29de4
        sparsemem = True
        ghostios = True
    [[ROUTER R14]]
        console = 2019
        aux = 2119
        cnfg = configs\R14.cfg
        slot0 = C7200-IO-GE-E
        g0/0 = R13 g0/0
        slot1 = PA-2FE-TX
        f1/0 = WAN2 f2/0
        f1/1 = R16 f1/0
        slot2 = PA-2FE-TX
        f2/0 = WAN1 f2/1
        x = 313.163563648
        y = 46.977705423
        z = 1.0
    [[ROUTER I4]]
        console = 2017
        aux = 2117
        cnfg = configs\I4.cfg
        slot0 = C7200-IO-GE-E
        slot1 = PA-8T
        s1/0 = I3 s1/1
        s1/1 = I5 s1/1
        x = -920.03066274
        y = -90.2010101268
        z = 1.0
[127.0.0.1:7204]
    workingdir = working
    udp = 10400
    [[7200]]
        image = C:\Users\ActionMystique\Google Drive\Missions\Certifications\Cisco\IOS\Binaries\c7200-adventerprisek9-mz.152-4.S.image
        ram = 512
        idlepc = 0x62a29de4
        sparsemem = True
        ghostios = True
    [[ROUTER R16]]
        console = 2016
        aux = 2116
        cnfg = configs\R16.cfg
        slot0 = C7200-IO-GE-E
        slot1 = PA-2FE-TX
        f1/0 = R14 f1/1
        f1/1 = R11 f1/1
        slot2 = PA-8T
        s2/0 = I6 s1/0
        s2/1 = I16 s1/3
        s2/2 = C3 s1/1
        x = 457.171572876
        y = 48.242640687
        z = 1.0
    [[ROUTER I6]]
        console = 2014
        aux = 2114
        cnfg = configs\I6.cfg
        slot0 = C7200-IO-GE-E
        g0/0 = I7 g0/0
        slot1 = PA-8T
        s1/0 = R16 s2/0
        s1/1 = I11 s1/1
        x = 740.610173055
        y = 136.663996924
        z = 1.0
[127.0.0.1:7205]
    workingdir = working
    udp = 10500
    [[7200]]
        image = C:\Users\ActionMystique\Google Drive\Missions\Certifications\Cisco\IOS\Binaries\c7200-adventerprisek9-mz.152-4.S.image
        ram = 512
        idlepc = 0x62a29de4
        sparsemem = True
        ghostios = True
    [[ROUTER I7]]
        console = 2041
        aux = 2141
        cnfg = configs\I7.cfg
        slot0 = C7200-IO-GE-E
        g0/0 = I6 g0/0
        slot1 = PA-8T
        s1/0 = C3 s1/0
        s1/1 = I107 s1/1
        s1/2 = I11 s1/2
        s1/3 = I12 s1/2
        x = 871.35533906
        y = 323.345237792
        z = 1.0
    [[ROUTER C3]]
        console = 2044
        aux = 2144
        cnfg = configs\C3.cfg
        slot0 = C7200-IO-GE-E
        slot1 = PA-8T
        s1/0 = I7 s1/0
        s1/1 = R16 s2/2
        x = 466.289321881
        y = 400.019335984
        z = 1.0
[127.0.0.1:7208]
    workingdir = working
    udp = 10800
    [[7200]]
        image = C:\Users\ActionMystique\Google Drive\Missions\Certifications\Cisco\IOS\Binaries\c7200-adventerprisek9-mz.152-4.S.image
        ram = 512
        idlepc = 0x62a29de4
        sparsemem = True
        ghostios = True
    [[ROUTER I107]]
        console = 2031
        aux = 2131
        cnfg = configs\I107.cfg
        slot0 = C7200-IO-GE-E
        g0/0 = I106 g1/0
        slot1 = PA-8T
        s1/0 = I105 s1/1
        s1/1 = I7 s1/1
        x = 122.656854249
        y = 309.431457505
        z = 1.0
    [[ROUTER I105]]
        console = 2018
        aux = 2118
        cnfg = configs\I105.cfg
        slot0 = C7200-IO-GE-E
        g0/0 = I106 g0/0
        slot1 = PA-8T
        s1/0 = I5 s1/3
        s1/1 = I107 s1/0
        x = -149.284271247
        y = 301.53614665
        z = 1.0
[127.0.0.1:7209]
    workingdir = working
    udp = 10900
    [[7200]]
        image = C:\Users\ActionMystique\Google Drive\Missions\Certifications\Cisco\IOS\Binaries\c7200-adventerprisek9-mz.152-4.S.image
        ram = 512
        idlepc = 0x62a29de4
        sparsemem = True
        ghostios = True
    [[ROUTER C4]]
        console = 2026
        aux = 2126
        cnfg = configs\C4.cfg
        slot0 = C7200-IO-GE-E
        slot1 = PA-8T
        s1/0 = I5 s1/4
        s1/1 = ASBR4 s1/3
        x = -485.337228564
        y = 410.565583902
        z = 1.0
    [[ROUTER I106]]
        console = 2027
        aux = 2127
        cnfg = configs\I106.cfg
        slot0 = C7200-IO-GE-E
        g0/0 = I105 g0/0
        slot1 = PA-GE
        g1/0 = I107 g0/0
        x = -27.6619048834
        y = 368.004184082
        z = 1.0
[127.0.0.1:7210]
    workingdir = working
    udp = 10910
    [[7200]]
        image = C:\Users\ActionMystique\Google Drive\Missions\Certifications\Cisco\IOS\Binaries\c7200-adventerprisek9-mz.152-4.S.image
        ram = 512
        idlepc = 0x62a29de4
        sparsemem = True
        ghostios = True
    [[ROUTER I16]]
        console = 2024
        aux = 2124
        cnfg = configs\I16.cfg
        slot0 = C7200-IO-GE-E
        slot1 = PA-8T
        s1/0 = R11 s2/1
        s1/1 = I11 s1/3
        s1/2 = I12 s1/1
        s1/3 = R16 s2/1
        x = 679.444876303
        y = -194.852813742
        z = 1.0
    [[ROUTER I12]]
        console = 2025
        aux = 2125
        cnfg = configs\I12.cfg
        slot0 = C7200-IO-GE-E
        slot1 = PA-8T
        s1/0 = I11 s1/4
        s1/1 = I16 s1/2
        s1/2 = I7 s1/3
        x = 918.446968343
        y = -186.367532368
        z = 1.0
[GNS3-DATA]
    configs = configs
    workdir = working
    m11 = 0.5
    m22 = 0.5
    [[NOTE 1]]
        text = "160.1/24"
        x = 429.602163829
        y = -198.585786438
    [[NOTE 2]]
        text = "---"
        x = -466.479364188
        y = 454.506709399
    [[NOTE 3]]
        text = "10.12.16.2/29"
        x = -13.5269119346
        y = 41.928932188
    [[NOTE 4]]
        text = "AS 7"
        x = 939.351513915
        y = 320.305699271
        font = "MS Shell Dlg 2,14,-1,5,75,0,0,0,0,0"
    [[NOTE 5]]
        text = "1.29/30"
        x = 739.314933989
        y = -174.336003076
    [[NOTE 6]]
        text = "6.5/30"
        x = 803.486506862
        y = 168.636651714
    [[NOTE 7]]
        text = "1.18/30"
        x = 842.599205236
        y = 278.690475583
    [[NOTE 8]]
        text = "1.1/30"
        x = 501.727055509
        y = -276.367532368
    [[NOTE 9]]
        text = "100.16.7.14/30"
        x = 529.821030643
        y = 407.72705551
    [[NOTE 10]]
        text = "AS 65534"
        x = -49.816233816
        y = 252.347329832
        font = "MS Shell Dlg 2,14,-1,5,75,0,0,0,0,0"
    [[NOTE 11]]
        text = "|"
        x = 814.800215362
        y = 140.747258045
    [[NOTE 12]]
        text = "4.2/30"
        x = -703.182899632
        y = -196.159379566
    [[NOTE 13]]
        text = "San Jose Branch Office"
        x = -586.170706324
        y = 299.217387518
        font = "MS Shell Dlg 2,20,-1,5,75,0,0,0,0,0"
        color = "#0055ff"
    [[NOTE 14]]
        text = "VerISPon"
        x = 761.841845923
        y = -387.788888606
        font = "MS Shell Dlg 2,16,-1,5,75,0,0,0,0,0"
    [[NOTE 15]]
        text = "27.7/24"
        x = 257.068109219
        y = -213.338095117
    [[NOTE 16]]
        text = "7.6/30"
        x = -792.354472507
        y = 269.695526217
    [[NOTE 17]]
        text = "eBGP"
        x = 747.983981547
        y = -33.4415587736
        font = "MS Shell Dlg 2,16,-1,5,75,0,0,0,0,0"
    [[NOTE 18]]
        text = "---"
        x = -942.184991673
        y = -80.2010101268
    [[NOTE 19]]
        text = "10.10.34.3/24"
        x = -439.573593129
        y = -130.088311755
    [[NOTE 20]]
        text = "2.6/30"
        x = -764.07020126
        y = 234.340187158
    [[NOTE 21]]
        text = "200.17.16.0/20"
        x = -1012.30988335
        y = -57.1644302006
    [[NOTE 22]]
        text = "BGP Transit AS: iBGP full mesh or not?"
        x = -288.0
        y = -604.0
        font = "MS Shell Dlg 2,28,-1,5,75,0,1,0,0,0"
        color = "#0055ff"
    [[NOTE 23]]
        text = "98.8/24"
        x = 356.063058585
        y = 84.05591591
    [[NOTE 24]]
        text = "98.2/24"
        x = 402.732106143
        y = 44.256926037
    [[NOTE 25]]
        text = "1.21/30"
        x = 766.184991674
        y = -231.916738879
    [[NOTE 26]]
        text = "---"
        x = 488.101730553
        y = 442.063058585
    [[NOTE 27]]
        text = "205"
        x = -3.0
        y = -10.0
    [[NOTE 28]]
        text = "3.10/30"
        x = -680.555482634
        y = -235.95836944
    [[NOTE 29]]
        text = "eBGP"
        x = -689.966737602
        y = 351.171572874
        font = "MS Shell Dlg 2,16,-1,5,75,0,0,0,0,0"
    [[NOTE 30]]
        text = "eBGP"
        x = 834.022653515
        y = -26.789755158
        font = "MS Shell Dlg 2,16,-1,5,75,0,0,0,0,0"
    [[NOTE 31]]
        text = "1.10/30"
        x = 620.520994749
        y = -183.431457505
    [[NOTE 32]]
        text = "12.2/24"
        x = 96.970562748
        y = -1.8284271247
    [[NOTE 33]]
        text = "104"
        x = -26.0
        y = -162.0
    [[NOTE 34]]
        text = "L1 23.23.23.23/32"
        x = -704.597113194
        y = -278.190908859
    [[NOTE 35]]
        text = "200.17.0.0/16"
        x = -931.699710299
        y = -153.330952442
    [[NOTE 36]]
        text = "3.24/28"
        x = -483.449926936
        y = 464.614357137
    [[NOTE 37]]
        text = "6.18/28"
        x = 809.143361113
        y = 129.038671967
    [[NOTE 38]]
        text = "4.6/30"
        x = -771.141269071
        y = 211.913780286
    [[NOTE 39]]
        text = "ClearwISP"
        x = 848.581961294
        y = 452.371716449
        font = "MS Shell Dlg 2,16,-1,5,75,0,0,0,0,0"
    [[NOTE 40]]
        text = "|"
        x = -947.841845922
        y = -81.6152236892
    [[NOTE 41]]
        text = "200.17.3.1/30"
        x = -570.246824768
        y = -160.60303038
    [[NOTE 42]]
        text = "iBGP"
        x = -7.50461735701
        y = 309.383909758
        font = "MS Shell Dlg 2,16,-1,5,75,0,0,0,0,0"
    [[NOTE 43]]
        text = "---"
        x = 800.658079738
        y = 142.161471607
    [[NOTE 44]]
        text = "3..0.0.0/8"
        x = -167.195959493
        y = 374.37171645
    [[NOTE 45]]
        text = "GRE/VPN Tunnel"
        x = -733.344371239
        y = 76.6833329086
        font = "MS Shell Dlg 2,14,-1,5,75,0,0,0,0,0"
        color = "#0055ff"
    [[NOTE 46]]
        text = "12.1/24"
        x = 93.970562748
        y = -182.828427125
    [[NOTE 47]]
        text = "502"
        x = -29.2426406871
        y = 71.585786438
    [[NOTE 48]]
        text = "2.3/24"
        x = -78.100505063
        y = 373.165655689
    [[NOTE 49]]
        text = "16.38/27"
        x = 340.506709399
        y = 2.2325394194
    [[NOTE 50]]
        text = "10.11.4.2/30"
        x = -448.568542495
        y = 377.338095117
    [[NOTE 51]]
        text = "7.18/28"
        x = 472.545381367
        y = 457.200143575
    [[NOTE 52]]
        text = "Private WAN"
        x = -511.716954241
        y = 175.925973596
        font = "MS Shell Dlg 2,14,-1,5,75,0,0,0,0,0"
        color = "#0055ff"
    [[NOTE 53]]
        text = "OSPF"
        x = -659.342279199
        y = 323.460028204
        font = "MS Shell Dlg 2,16,-1,5,75,0,0,0,0,0"
    [[NOTE 54]]
        text = "302"
        x = -272.06244584
        y = -109.765981284
    [[NOTE 55]]
        text = "OSPF"
        x = -205.379725677
        y = -403.244732729
        font = "MS Shell Dlg 2,16,-1,5,75,0,0,0,0,0"
    [[NOTE 56]]
        text = "eBGP"
        x = 563.907863101
        y = -241.549206512
        font = "MS Shell Dlg 2,16,-1,5,75,0,0,0,0,0"
    [[NOTE 57]]
        text = "San Francisco Central Office"
        x = -152.170706324
        y = -498.782612482
        font = "MS Shell Dlg 2,24,-1,5,75,0,0,0,0,0"
        color = "#0055ff"
    [[NOTE 58]]
        text = "|"
        x = -29.8284271247
        y = 208.914213562
    [[NOTE 59]]
        text = "100.16.1.0/24"
        x = 769.013418797
        y = -92.1177490067
    [[NOTE 60]]
        text = "eBGP"
        x = 644.881384443
        y = 336.116882454
        font = "MS Shell Dlg 2,16,-1,5,75,0,0,0,0,0"
    [[NOTE 61]]
        text = "28.8/24"
        x = 251.41125497
        y = 69.102597104
    [[NOTE 62]]
        text = "200.17.0.0/16"
        x = -852.503750806
        y = 157.79603128
    [[NOTE 63]]
        text = "L3 10.9.3.3/28"
        x = 532.457069612
        y = 441.449926936
    [[NOTE 64]]
        text = "5.1/30"
        x = -796.520994749
        y = -215.147186257
    [[NOTE 65]]
        text = "3.1/24"
        x = 115.646752982
        y = 350.136218438
    [[NOTE 66]]
        text = "---"
        x = -25.2426406871
        y = 209.242640687
    [[NOTE 67]]
        text = "1.2/30"
        x = 729.415439052
        y = -311.923881554
    [[NOTE 68]]
        text = "402"
        x = -265.04163056
        y = -24.4817100368
    [[NOTE 69]]
        text = "AS 1"
        x = 872.251008851
        y = -317.178715551
        font = "MS Shell Dlg 2,14,-1,5,75,0,0,0,0,0"
    [[NOTE 70]]
        text = "1.30/30"
        x = 853.866232541
        y = -163.223304703
    [[NOTE 71]]
        text = "Private WAN"
        x = 429.283045759
        y = 198.925973596
        font = "MS Shell Dlg 2,14,-1,5,75,0,0,0,0,0"
        color = "#0055ff"
    [[NOTE 72]]
        text = "105"
        x = -24.0
        y = -143.0
    [[NOTE 73]]
        text = "L13 10.9.13.13/32"
        x = 252.825468532
        y = -296.977705423
    [[NOTE 74]]
        text = "BelISP"
        x = -921.0722933
        y = -192.997907959
        font = "MS Shell Dlg 2,16,-1,5,75,0,0,0,0,0"
    [[NOTE 75]]
        text = "99.7/24"
        x = 358.89148571
        y = -267.48023074
    [[NOTE 76]]
        text = "L14 10.9.14.14/32"
        x = 274.038671968
        y = 105.872149727
    [[NOTE 77]]
        text = "AS 100"
        x = -36.4668119417
        y = 280.669047557
        font = "MS Shell Dlg 2,14,-1,5,75,0,0,0,0,0"
    [[NOTE 78]]
        text = "ISPcast"
        x = 726.805265997
        y = 28.2203461091
        font = "MS Shell Dlg 2,16,-1,5,75,0,0,0,0,0"
    [[NOTE 79]]
        text = "200.17.4.1/30"
        x = -567.418397644
        y = -19.7847045233
    [[NOTE 80]]
        text = "MetroISP"
        x = -856.986940138
        y = 357.582827845
        font = "MS Shell Dlg 2,16,-1,5,75,0,0,0,0,0"
    [[NOTE 81]]
        text = "Tu16 10.9.163.16/27"
        x = 539.528137425
        y = 42.6417023471
    [[NOTE 82]]
        text = "3.3/24"
        x = 42.107647739
        y = 375.793072687
    [[NOTE 83]]
        text = "28.2/24"
        x = 139.0
        y = 70.0
    [[NOTE 84]]
        text = "100.16.7.0/24"
        x = 852.256059484
        y = 420.773736703
    [[NOTE 85]]
        text = "L4 4.4.4.4/32"
        x = -423.551298552
        y = 46.4823227806
    [[NOTE 86]]
        text = "GRE/VPN Tunnel"
        x = 646.165655689
        y = 400.518902708
        font = "MS Shell Dlg 2,14,-1,5,75,0,0,0,0,0"
        color = "#0055ff"
    [[NOTE 87]]
        text = "AS 65534"
        x = -219.521861301
        y = 187.49451609
        font = "MS Shell Dlg 2,14,-1,5,75,0,0,0,0,0"
    [[NOTE 88]]
        text = "1.37/30"
        x = 686.989032181
        y = -142.620274323
    [[NOTE 89]]
        text = "5.5/30"
        x = -872.888527116
        y = -46.4537520815
    [[NOTE 90]]
        text = "401"
        x = -287.254833996
        y = -59.4522727853
    [[NOTE 91]]
        text = "|"
        x = 493.758584802
        y = 435.577777211
    [[NOTE 92]]
        text = "AS 6"
        x = 717.219479559
        y = 69.0315292913
        font = "MS Shell Dlg 2,14,-1,5,75,0,0,0,0,0"
    [[NOTE 93]]
        text = "501"
        x = -60.5664504539
        y = 72.066017178
    [[NOTE 94]]
        text = "AS 65534"
        x = -355.521861301
        y = 428.49451609
        font = "MS Shell Dlg 2,14,-1,5,75,0,0,0,0,0"
    [[NOTE 95]]
        text = "eBGP"
        x = -617.841845921
        y = 141.666955516
        font = "MS Shell Dlg 2,16,-1,5,75,0,0,0,0,0"
    [[NOTE 96]]
        text = "6.1/30"
        x = 715.805265996
        y = 178.737156777
    [[NOTE 97]]
        text = "1.9/30"
        x = 493.241774136
        y = -222.828427125
    [[NOTE 98]]
        text = "1.26/30"
        x = 853.866232541
        y = -199.590837072
    [[NOTE 99]]
        text = "eBGP\nFull Mesh"
        x = -725.526045381
        y = -50.2497833632
        font = "MS Shell Dlg 2,16,-1,5,75,0,0,0,0,0"
    [[NOTE 100]]
        text = "10.11.4.1/30"
        x = -475.568542495
        y = 71.338095117
    [[NOTE 101]]
        text = "eBGP"
        x = -408.53823869
        y = 260.862915009
        font = "MS Shell Dlg 2,16,-1,5,75,0,0,0,0,0"
    [[NOTE 102]]
        text = "301"
        x = -277.133513652
        y = -153.686291501
    [[NOTE 103]]
        text = "1.22/30"
        x = 770.959594929
        y = 92.4701294725
    [[NOTE 104]]
        text = "17.1/24"
        x = 143.0
        y = -259.0
    [[NOTE 105]]
        text = "AS 64512"
        x = 257.068109219
        y = 219.619407771
        font = "MS Shell Dlg 2,14,-1,5,75,0,0,0,0,0"
    [[NOTE 106]]
        text = "Backbone Area"
        x = -349.629509039
        y = -312.132034356
        font = "MS Shell Dlg 2,12,-1,5,75,0,0,0,0,0"
    [[NOTE 107]]
        text = "1.14/30"
        x = 736.486506863
        y = -268.284271247
    [[NOTE 108]]
        text = "200.17.3.5/30"
        x = -560.347329832
        y = -121.20606076
    [[NOTE 109]]
        text = "18.8/24"
        x = 249.997041407
        y = 22.232539419
    [[NOTE 110]]
        text = "BGP with EIGRP and OSPF"
        x = -162.0
        y = -550.0
        font = "MS Shell Dlg 2,26,-1,5,75,0,1,0,0,0"
    [[NOTE 111]]
        text = "103"
        x = -26.0
        y = -179.0
    [[NOTE 112]]
        text = "L16 10.9.16.16/27"
        x = 452.886435077
        y = 85.931024229
    [[NOTE 113]]
        text = "1.2/30"
        x = -87.9999999995
        y = 295.986940139
    [[NOTE 114]]
        text = "7.1/30"
        x = 814.311975395
        y = 325.951226765
    [[NOTE 115]]
        text = "OSPF"
        x = -635.300648638
        y = 111.126983721
        font = "MS Shell Dlg 2,16,-1,5,75,0,0,0,0,0"
    [[NOTE 116]]
        text = "|"
        x = -462.2367235
        y = 447.23463146
    [[NOTE 117]]
        text = "AS 64495"
        x = -852.923015002
        y = 313.388960392
        font = "MS Shell Dlg 2,14,-1,5,75,0,0,0,0,0"
    [[NOTE 118]]
        text = "Tu4 10.11.4.5/30"
        x = -587.291413923
        y = 28.7106781191
    [[NOTE 119]]
        text = "eBGP"
        x = 316.251008852
        y = 325.499566723
        font = "MS Shell Dlg 2,16,-1,5,75,0,0,0,0,0"
    [[NOTE 120]]
        text = "Santa Barbara\nBranch Office"
        x = 395.243507238
        y = 258.317892581
        font = "MS Shell Dlg 2,20,-1,5,75,0,0,0,0,0"
        color = "#0055ff"
    [[NOTE 121]]
        text = "6.3/24"
        x = -745.609306503
        y = -175.750216638
    [[NOTE 122]]
        text = "160.2/24"
        x = 431.016377391
        y = 0.61731573
    [[NOTE 123]]
        text = "GRE/VPN Tunnel"
        x = -669.052957317
        y = 277.683332909
        font = "MS Shell Dlg 2,14,-1,5,75,0,0,0,0,0"
        color = "#0055ff"
    [[NOTE 124]]
        text = "6.6/30"
        x = 826.214428923
        y = 299.702668892
    [[NOTE 125]]
        text = "10.12.15.1/29"
        x = -19.7401153702
        y = -234.526911935
    [[NOTE 126]]
        text = "Area 4"
        x = -338.31580054
        y = 446.898628385
        font = "MS Shell Dlg 2,12,-1,5,75,0,0,0,0,0"
    [[NOTE 127]]
        text = "10.11.13.2/29"
        x = -9.5269119346
        y = 24.242640687
    [[NOTE 128]]
        text = "iBGP"
        x = -438.381817716
        y = -77.0782104879
        font = "MS Shell Dlg 2,16,-1,5,75,0,0,0,0,0"
    [[NOTE 129]]
        text = "AS 64493"
        x = -763.994082814
        y = -149.289321882
        font = "MS Shell Dlg 2,14,-1,5,75,0,0,0,0,0"
    [[NOTE 130]]
        text = "200.17.0.0/16"
        x = -760.579869252
        y = -312.936074863
    [[NOTE 131]]
        text = "L1 3.3.3.3/32"
        x = -444.381817717
        y = -207.681240867
    [[NOTE 132]]
        text = "13.4/29"
        x = -405.568542495
        y = 18.338095117
    [[NOTE 133]]
        text = "eBGP: ASBR3 <--> R14\n    not R16 <--> AS1/6\niBGP: R14 <--> R13\n           R14 <--> R11\n           R14 <--> R16\n           R11 <--> R13\n           R11 <--> R16\n    not R13 <--> R16"
        x = -599.501658763
        y = -501.886435077
        font = "MS Shell Dlg 2,16,-1,5,75,0,0,0,0,0"
    [[NOTE 134]]
        text = "iBGP"
        x = 786.226622234
        y = -125.230447379
        font = "MS Shell Dlg 2,16,-1,5,75,0,0,0,0,0"
    [[NOTE 135]]
        text = "5.5/27"
        x = -50.0710678119
        y = 223.849242405
    [[NOTE 136]]
        text = "203"
        x = -5.0
        y = -46.0
    [[NOTE 137]]
        text = "1.33/30"
        x = 882.150503789
        y = -135.140043583
    [[NOTE 138]]
        text = "1.25/30"
        x = 842.552524042
        y = -285.656854249
    [[NOTE 139]]
        text = "200.17.3.9/30"
        x = -563.175756957
        y = -189.088311754
    [[NOTE 140]]
        text = "L4 44.44.44.44/32"
        x = -605.984848098
        y = 445.491557496
    [[NOTE 141]]
        text = "10.11.0.0/16"
        x = -216.693434176
        y = -364.457936164
    [[NOTE 142]]
        text = "100.16.6.0/24"
        x = 729.947401619
        y = 230.452885529
    [[NOTE 143]]
        text = "10.9.0.0/16"
        x = 458.917964369
        y = 340.028570699
    [[NOTE 144]]
        text = "16.5/29"
        x = 12.0
        y = 150.0
    [[NOTE 145]]
        text = "100.16.6.2/30"
        x = 537.08239457
        y = 56.5828278446
    [[NOTE 146]]
        text = "5.6/30"
        x = -874.378859125
        y = 206.256926037
    [[NOTE 147]]
        text = "5.2/30"
        x = -857.33217793
        y = -101.809091141
    [[NOTE 148]]
        text = "10.10.34.4/24"
        x = -433.431457505
        y = -35.9756133827
    [[NOTE 149]]
        text = "8.1/30"
        x = 449.283404696
        y = 109.997041407
    [[NOTE 150]]
        text = "AS 64512"
        x = 300.068109219
        y = 406.619407771
        font = "MS Shell Dlg 2,14,-1,5,75,0,0,0,0,0"
    [[NOTE 151]]
        text = "204"
        x = -5.0
        y = -28.0
    [[NOTE 152]]
        text = "AS 64494"
        x = -929.457069612
        y = 7.4873734144
        font = "MS Shell Dlg 2,14,-1,5,75,0,0,0,0,0"
    [[NOTE 153]]
        text = "3.6/30"
        x = -792.354472507
        y = 194.742207411
    [[NOTE 154]]
        text = "8.2/30"
        x = 438.162084352
        y = 370.896536344
    [[NOTE 155]]
        text = "2.2/24"
        x = -116.284271247
        y = 343.668181006
    [[NOTE 156]]
        text = "10.11.0.0/16"
        x = -496.663130371
        y = 338.75649276
    [[NOTE 157]]
        text = "eBGP"
        x = 908.975972321
        y = 1.29350596265
        font = "MS Shell Dlg 2,16,-1,5,75,0,0,0,0,0"
    [[NOTE 158]]
        text = "L11 10.9.11.11/32"
        x = 422.531096017
        y = -299.605122421
    [[NOTE 159]]
        text = "7.13/30"
        x = 823.327127298
        y = 356.045814641
    [[NOTE 160]]
        text = "eBGP"
        x = -533.526045381
        y = -218.249783363
        font = "MS Shell Dlg 2,16,-1,5,75,0,0,0,0,0"
    [[NOTE 161]]
        text = "OSPF"
        x = -32.8456710674
        y = -440.014285351
        font = "MS Shell Dlg 2,16,-1,5,75,0,0,0,0,0"
    [[NOTE 162]]
        text = "1.17/30"
        x = 807.197184983
        y = -244.443650814
    [[NOTE 163]]
        text = "27.2/24"
        x = 140.414213562
        y = 28.656854249
    [[NOTE 164]]
        text = "6.4/24"
        x = -820.638743755
        y = 184.239682094
    [[NOTE 165]]
        text = "EIGRP"
        x = 584.070201262
        y = 93.8843430347
        font = "MS Shell Dlg 2,16,-1,5,75,0,0,0,0,0"
    [[NOTE 166]]
        text = "16.37/27"
        x = 343.335136524
        y = -210.710678119
    [[NOTE 167]]
        text = "100.16.7.2/30"
        x = 188.597113195
        y = 319.005050633
    [[NOTE 168]]
        text = "1.38/30"
        x = 484.756492762
        y = 14.156420973
    [[NOTE 169]]
        text = "10.10.0.0/16"
        x = -216.693434176
        y = -346.27416998
    [[NOTE 170]]
        text = "200.17.4.5/30"
        x = -570.732106142
        y = 11.6295090396
    [[NOTE 171]]
        text = "10.12.0.0/16"
        x = -46.9878066912
        y = -383.043722601
    [[NOTE 172]]
        text = "Tu3 10.9.163.3/27"
        x = 531.04285605
        y = 424.680374315
    [[NOTE 173]]
        text = "15.5/29"
        x = -54.0
        y = 178.0
    [[NOTE 174]]
        text = "Tu4 10.11.4.6/30"
        x = -609.918830921
        y = 427.317892582
    [[NOTE 175]]
        text = "1.13/30"
        x = 732.243866176
        y = -210.502525317
    [[NOTE 176]]
        text = "GooglISP"
        x = -764.19509294
        y = -352.87720036
        font = "MS Shell Dlg 2,16,-1,5,75,0,0,0,0,0"
    [[NOTE 177]]
        text = "200.17..2.5/30"
        x = -246.980664016
        y = 286.277128572
    [[NOTE 178]]
        text = "3.2/30"
        x = -680.555482634
        y = -215.95836944
    [[NOTE 179]]
        text = "10.11.13.1/29"
        x = -19.0121933088
        y = -212.029437252
    [[NOTE 180]]
        text = "99.1/24"
        x = 408.388960393
        y = -225.254833996
    [[NOTE 181]]
        text = "iBGP\nMesh"
        x = 384.690475585
        y = -109.806132549
        font = "MS Shell Dlg 2,16,-1,5,75,0,0,0,0,0"
    [[NOTE 182]]
        text = "EIGRP"
        x = 651.952452255
        y = 365.614357137
        font = "MS Shell Dlg 2,16,-1,5,75,0,0,0,0,0"
    [[NOTE 183]]
        text = "10.9.0.0/16"
        x = 254.239682094
        y = -424.256926037
    [[NOTE 184]]
        text = "ISP & T"
        x = -39.961328032
        y = 416.176623508
        font = "MS Shell Dlg 2,16,-1,5,75,0,0,0,0,0"
    [[NOTE 185]]
        text = "1.5/30"
        x = 521.526045382
        y = -249.69848481
    [[NOTE 186]]
        text = "18.1/24"
        x = 141.585786438
        y = -211.828427125
    [[NOTE 187]]
        text = "EIGRP"
        x = 258.482322781
        y = -461.026478659
        font = "MS Shell Dlg 2,16,-1,5,75,0,0,0,0,0"
    [[NOTE 188]]
        text = "1.1/30"
        x = 73.220346111
        y = 307.099638511
    [[NOTE 189]]
        text = "200.17.7.5/30"
        x = -590.604255869
        y = 408.087445204
    [[NOTE 190]]
        text = "17.7/24"
        x = 251.41125497
        y = -262.634559673
    [[NOTE 191]]
        text = "Area 5"
        x = -1.7329726953
        y = -336.374675043
        font = "MS Shell Dlg 2,12,-1,5,75,0,0,0,0,0"
    [[NOTE 192]]
        text = "GRE/VPN Tunnel"
        x = 518.886435075
        y = 133.031529293
        font = "MS Shell Dlg 2,14,-1,5,75,0,0,0,0,0"
        color = "#0055ff"
    [[NOTE 193]]
        text = "1.34/30"
        x = 911.067242669
        y = 287.484414823
    [[NOTE 194]]
        text = "13.3/29"
        x = -412.468037432
        y = -173.402020254
    [[NOTE 195]]
        text = "1.6/30"
        x = 722.344371239
        y = -296.568542494
    [[SHAPE 1]]
        type = ellipse
        x = -554.160605055
        y = 332.156420973
        width = 200.0
        height = 200.0
        fill_color = "#55aaff"
        border_style = 2
    [[PIXMAP 1]]
        path = VPN-Tunnel-4.png
        x = 518.0
        y = 62.0
        z = -1.0
    [[PIXMAP 2]]
        path = VPN-Tunnel-3.png
        x = 593.0
        y = 352.5
        z = -1.0
    [[PIXMAP 3]]
        path = VPN-Tunnel-2.png
        x = -689.0
        y = 67.5
        z = -1.0
    [[PIXMAP 4]]
        path = VPN-Tunnel-1.png
        x = -711.5
        y = 283.5
        z = -1.0
    [[SHAPE 2]]
        type = ellipse
        x = -455.0
        y = -367.0
        width = 565.0
        height = 588.0
        fill_color = "#00aaff"
        border_style = 2
        z = -2.0
    [[SHAPE 3]]
        type = ellipse
        x = -830.462120245
        y = -317.102597104
        width = 236.173664916
        height = 199.404112294
        fill_color = "#ffaaff"
        border_style = 2
        z = -2.0
    [[SHAPE 4]]
        type = ellipse
        x = 399.006276123
        y = 335.068109218
        width = 200.0
        height = 184.931890782
        fill_color = "#00ffff"
        border_style = 2
        z = -2.0
    [[SHAPE 5]]
        type = ellipse
        x = 93.019335984
        y = -425.997041407
        width = 411.53614665
        height = 681.650937064
        fill_color = "#00ffff"
        border_style = 2
        z = -2.0
    [[SHAPE 6]]
        type = ellipse
        x = -978.954544294
        y = -158.710678119
        width = 200.0
        height = 200.0
        fill_color = "#ffd8ff"
        border_style = 2
        z = -2.0
    [[SHAPE 7]]
        type = ellipse
        x = -901.24891681
        y = 154.811183182
        width = 200.0
        height = 200.0
        fill_color = "#ff00ff"
        border_style = 2
        z = -2.0
    [[SHAPE 8]]
        type = ellipse
        x = -215.279220613
        y = 283.938166904
        width = 431.335136523
        height = 131.5218613
        fill_color = "#ff5500"
        border_style = 2
        z = -2.0
    [[SHAPE 9]]
        type = ellipse
        x = 677.621499812
        y = 59.4091629284
        width = 200.0
        height = 200.0
        fill_color = "#ffff7f"
        border_style = 2
        z = -2.0
    [[SHAPE 10]]
        type = ellipse
        x = 785.071067812
        y = 249.759451354
        width = 213.202235616
        height = 209.193867452
        fill_color = "#c9ff15"
        border_style = 2
        z = -2.0
    [[SHAPE 11]]
        type = ellipse
        x = 617.692567624
        y = -348.215295476
        width = 381.83766184
        height = 284.256926037
        fill_color = "#ffff00"
        border_style = 2
        z = -2.0
    [[SHAPE 12]]
        type = ellipse
        x = -102.142135624
        y = -406.198051534
        width = 205.060966544
        height = 719.834703248
        fill_color = "#0055ff"
        border_style = 2
        z = -3.0
