autostart = False
version = 0.8.3
[localhost:7200]
    workingdir = C:\Users\ActionMystique\Documents\Missions\GNS3\Temp
    udp = 10200
    [[3640]]
        image = C:\Users\ActionMystique\Documents\Missions\IOS\Binaries\c3640-jk9o3s-mz.124-16a.bin
        idlepc = 0x603e27d0
        sparsemem = True
        ghostios = True
        chassis = 3640
    [[ROUTER Spiderman]]
        model = 3640
        console = 2000
        aux = 2105
        cnfg = configs\Spiderman.cfg
        slot0 = NM-1FE-TX
        f0/0 = Ironman f0/0
        slot1 = NM-1FE-TX
        f1/0 = Superman f0/0
        slot2 = NM-1FE-TX
        f2/0 = Batman f1/0
        x = -403.414213562
        y = -102.221825407
        z = 1.0
    [[ROUTER Batman]]
        model = 3640
        console = 2001
        aux = 2106
        cnfg = configs\Batman.cfg
        slot0 = NM-1FE-TX
        slot1 = NM-1FE-TX
        f1/0 = Spiderman f2/0
        x = -40.4142135624
        y = -101.97918472
        z = 1.0
    [[ROUTER Ironman]]
        model = 3640
        console = 2002
        aux = 2107
        cnfg = configs\Ironman.cfg
        slot0 = NM-1FE-TX
        f0/0 = Spiderman f0/0
        slot1 = NM-1FE-TX
        f1/0 = Superman f1/0
        x = -404.807611845
        y = 155.292893219
        z = 1.0
        hx = -4.37694325228e-12
        hy = 39.0000000001
    [[ROUTER Superman]]
        model = 3640
        console = 2003
        aux = 2104
        cnfg = configs\Superman.cfg
        slot0 = NM-1FE-TX
        f0/0 = Spiderman f1/0
        slot1 = NM-1FE-TX
        f1/0 = Ironman f1/0
        slot2 = NM-1FE-TX
        x = -44.0208152802
        y = 150.535533906
        z = 1.0
        hx = 0.500000000009
        hy = 42.0000000001
[GNS3-DATA]
    configs = configs
    m11 = 0.999999999998
    m22 = 0.999999999998
    [[NOTE 1]]
        text = ".1"
        x = -342.946788875
        y = -76.0538238692
        color = "#323232"
    [[NOTE 2]]
        text = ".4"
        x = -43.1335136524
        y = 133.956890143
        color = "#323232"
    [[NOTE 3]]
        text = "192.168.14.X /24"
        x = -232.63813101
        y = -17.3639610307
        rotate = 36
        color = "#323232"
    [[NOTE 4]]
        text = "AS 200"
        x = -32.5269119346
        y = -171.513239329
        color = "#323232"
    [[NOTE 5]]
        text = "AS 100"
        x = -392.444263559
        y = -177.170093579
        color = "#323232"
    [[NOTE 6]]
        text = "AS 300"
        x = -212.839141137
        y = 80.2167747731
        color = "#323232"
    [[NOTE 7]]
        text = ".3"
        x = -367.695526217
        y = 134.663996924
        color = "#323232"
    [[NOTE 8]]
        text = ".1"
        x = -339.41125497
        y = -103.630988335
        color = "#323232"
    [[NOTE 9]]
        text = "192.168.34.X /24"
        x = -246.780266634
        y = 173.55486989
        color = "#323232"
    [[NOTE 10]]
        text = "192.168.12.X /24"
        x = -246.073159853
        y = -104.338095117
        color = "#323232"
    [[NOTE 11]]
        text = "192.168.13.X /24"
        x = -488.6107858
        y = 45.5685424949
        color = "#323232"
    [[NOTE 12]]
        text = ".4"
        x = -63.6396103068
        y = 171.433549546
        color = "#323232"
    [[NOTE 13]]
        text = ".2"
        x = -60.811183182
        y = -81.0035713375
        color = "#323232"
    [[NOTE 14]]
        text = ".3"
        x = -338.704148188
        y = 153.755880016
        color = "#323232"
    [[NOTE 15]]
        text = ".1"
        x = -372.645273685
        y = -62.6187950266
        color = "#323232"
    [[SHAPE 1]]
        type = ellipse
        x = -106.773123959
        y = -178.89801564
        width = 200.0
        height = 200.0
        fill_color = "#aaff00"
        border_style = 2
        z = -1.0
    [[SHAPE 2]]
        type = ellipse
        x = -469.828427125
        y = 73.7071067812
        width = 568.11626971
        height = 200.0
        fill_color = "#ffff7f"
        border_style = 2
        z = -1.0
    [[SHAPE 3]]
        type = ellipse
        x = -467.397582364
        y = -181.019335984
        width = 200.0
        height = 200.0
        fill_color = "#aaffff"
        border_style = 2
        z = -1.0
