Nov 29 15:31:06.906 HYPERVISOR: Release 0.2.17-amd64/Linux (tag 2017072410)
Nov 29 15:31:06.906 HYPERVISOR: Started on IP = 127.0.0.1, TCP port = 59109.
Nov 29 15:31:06.940 HYPERVISOR: exec_cmd: hypervisor version 
Nov 29 15:31:06.940 HYPERVISOR: exec_cmd: hypervisor working_dir /media/actionmystique/SAMSUNG5-VMs/Labs/GNS3/TT 1-linux-/project-files/dynamips 
Nov 29 15:31:06.940 GENERAL: working_dir=/media/actionmystique/SAMSUNG5-VMs/Labs/GNS3/TT 1-linux-/project-files/dynamips
Nov 29 15:31:06.940 HYPERVISOR: exec_cmd: vm create ESW1 1 c3725 
Nov 29 15:31:06.941 VM: VM ESW1 created.
Nov 29 15:31:06.941 HYPERVISOR: exec_cmd: vm set_con_tcp_port ESW1 2004 
Nov 29 15:31:06.941 HYPERVISOR: exec_cmd: c3725 get_mac_addr ESW1 
Nov 29 15:31:06.942 HYPERVISOR: exec_cmd: vm set_nvram ESW1 256 
Nov 29 15:31:06.942 HYPERVISOR: exec_cmd: vm slot_add_binding ESW1 0 16 WIC-2T 
Nov 29 15:31:06.942 HYPERVISOR: exec_cmd: c3725 set_mac_addr ESW1 c201.1b91.0000 
Nov 29 15:31:06.943 HYPERVISOR: exec_cmd: vm set_disk0 ESW1 1 
Nov 29 15:31:06.943 HYPERVISOR: exec_cmd: vm set_ios ESW1 /media/actionmystique/SAMSUNG5-VMs/Images/GNS3/IOS/c3725-adventerprisek9-mz.124-15.T10.image 
Nov 29 15:31:06.944 HYPERVISOR: exec_cmd: vm get_status ESW1 
Nov 29 15:31:06.944 HYPERVISOR: exec_cmd: vm set_idle_pc ESW1 0x614ac27c 
Nov 29 15:31:06.944 HYPERVISOR: exec_cmd: vm get_status ESW1 
Nov 29 15:31:06.945 HYPERVISOR: exec_cmd: vm slot_add_binding ESW1 1 0 NM-16ESW 
Nov 29 15:31:06.945 HYPERVISOR: exec_cmd: vm set_config ESW1 configs/ios_base_startup-config.txt 
Nov 29 15:31:06.946 HYPERVISOR: exec_cmd: vm set_config ESW1 configs/ios_base_startup-config.txt configs/ios_base_private-config.txt 
Nov 29 15:31:07.167 HYPERVISOR: exec_cmd: nio create_udp udp-3494f8a9-006b-4b12-a41f-36aa7ae6d31c 15008 127.0.0.1 15007 
Nov 29 15:31:07.168 HYPERVISOR: exec_cmd: vm slot_add_nio_binding ESW1 1 0 udp-3494f8a9-006b-4b12-a41f-36aa7ae6d31c 
Nov 29 15:31:07.168 HYPERVISOR: exec_cmd: vm get_status ESW1 
Nov 29 15:31:07.206 HYPERVISOR: exec_cmd: nio create_udp udp-2af35402-fec2-4d82-bd86-578eb72d4ab9 15009 127.0.0.1 15006 
Nov 29 15:31:07.211 HYPERVISOR: exec_cmd: vm slot_add_nio_binding ESW1 1 1 udp-2af35402-fec2-4d82-bd86-578eb72d4ab9 
Nov 29 15:31:07.212 HYPERVISOR: exec_cmd: vm get_status ESW1 
Nov 29 15:31:22.494 HYPERVISOR: exec_cmd: vm get_status ESW1 
Nov 29 15:31:22.495 HYPERVISOR: exec_cmd: vm extract_config ESW1 
Nov 29 15:31:22.496 HYPERVISOR: exec_cmd: vm delete ESW1 
Nov 29 15:31:22.496 VM: VM ESW1 destroyed.
Nov 29 15:31:22.497 HYPERVISOR: exec_cmd: hypervisor stop 
Nov 29 15:31:22.956 HYPERVISOR: Stopped.
Nov 29 15:31:22.956 GENERAL: reset done.
