Nov 29 15:31:06.938 HYPERVISOR: Release 0.2.17-amd64/Linux (tag 2017072410)
Nov 29 15:31:06.938 HYPERVISOR: Started on IP = 127.0.0.1, TCP port = 60647.
Nov 29 15:31:06.953 HYPERVISOR: exec_cmd: hypervisor version 
Nov 29 15:31:06.953 HYPERVISOR: exec_cmd: hypervisor working_dir /media/actionmystique/SAMSUNG5-VMs/Labs/GNS3/TT 1-linux-/project-files/dynamips 
Nov 29 15:31:06.953 GENERAL: working_dir=/media/actionmystique/SAMSUNG5-VMs/Labs/GNS3/TT 1-linux-/project-files/dynamips
Nov 29 15:31:06.953 HYPERVISOR: exec_cmd: vm create ESW3 3 c3725 
Nov 29 15:31:06.953 VM: VM ESW3 created.
Nov 29 15:31:06.957 HYPERVISOR: exec_cmd: vm set_con_tcp_port ESW3 2006 
Nov 29 15:31:06.957 HYPERVISOR: exec_cmd: c3725 get_mac_addr ESW3 
Nov 29 15:31:06.958 HYPERVISOR: exec_cmd: vm set_nvram ESW3 256 
Nov 29 15:31:06.958 HYPERVISOR: exec_cmd: vm slot_add_binding ESW3 0 16 WIC-2T 
Nov 29 15:31:06.958 HYPERVISOR: exec_cmd: c3725 set_mac_addr ESW3 c203.1bfb.0000 
Nov 29 15:31:06.959 HYPERVISOR: exec_cmd: vm set_disk0 ESW3 1 
Nov 29 15:31:06.959 HYPERVISOR: exec_cmd: vm set_ios ESW3 /media/actionmystique/SAMSUNG5-VMs/Images/GNS3/IOS/c3725-adventerprisek9-mz.124-15.T10.image 
Nov 29 15:31:06.960 HYPERVISOR: exec_cmd: vm get_status ESW3 
Nov 29 15:31:06.960 HYPERVISOR: exec_cmd: vm set_idle_pc ESW3 0x614ac27c 
Nov 29 15:31:06.960 HYPERVISOR: exec_cmd: vm get_status ESW3 
Nov 29 15:31:06.961 HYPERVISOR: exec_cmd: vm slot_add_binding ESW3 1 0 NM-16ESW 
Nov 29 15:31:06.961 HYPERVISOR: exec_cmd: vm set_config ESW3 configs/ios_base_startup-config.txt 
Nov 29 15:31:06.962 HYPERVISOR: exec_cmd: vm set_config ESW3 configs/ios_base_startup-config.txt configs/ios_base_private-config.txt 
Nov 29 15:31:07.107 HYPERVISOR: exec_cmd: nio create_tap tap-6d3871bf-7d7c-43c6-88e0-6d02860b3e17 tap0 
Nov 29 15:31:07.114 HYPERVISOR: exec_cmd: vm slot_add_nio_binding ESW3 1 1 tap-6d3871bf-7d7c-43c6-88e0-6d02860b3e17 
Nov 29 15:31:07.115 HYPERVISOR: exec_cmd: vm get_status ESW3 
Nov 29 15:31:07.217 HYPERVISOR: exec_cmd: nio create_udp udp-3e563945-2aae-4213-9e9e-a74a71838024 15011 127.0.0.1 15010 
Nov 29 15:31:07.217 HYPERVISOR: exec_cmd: vm slot_add_nio_binding ESW3 1 0 udp-3e563945-2aae-4213-9e9e-a74a71838024 
Nov 29 15:31:07.218 HYPERVISOR: exec_cmd: vm get_status ESW3 
Nov 29 15:31:22.494 HYPERVISOR: exec_cmd: vm get_status ESW3 
Nov 29 15:31:22.495 HYPERVISOR: exec_cmd: vm extract_config ESW3 
Nov 29 15:31:22.496 HYPERVISOR: exec_cmd: vm delete ESW3 
Nov 29 15:31:22.496 VM: VM ESW3 destroyed.
Nov 29 15:31:22.497 HYPERVISOR: exec_cmd: hypervisor stop 
Nov 29 15:31:22.969 HYPERVISOR: Stopped.
Nov 29 15:31:22.969 GENERAL: reset done.
