Nov 27 16:19:54.247 HYPERVISOR: Release 0.2.17-amd64/Linux (tag 2017072410)
Nov 27 16:19:54.247 HYPERVISOR: Started on IP = 127.0.0.1, TCP port = 49795.
Nov 27 16:19:54.279 HYPERVISOR: exec_cmd: hypervisor version 
Nov 27 16:19:54.280 HYPERVISOR: exec_cmd: hypervisor working_dir /media/actionmystique/SAMSUNG5-VMs/Labs/GNS3/TT 2-solutions-linux-/project-files/dynamips 
Nov 27 16:19:54.280 GENERAL: working_dir=/media/actionmystique/SAMSUNG5-VMs/Labs/GNS3/TT 2-solutions-linux-/project-files/dynamips
Nov 27 16:19:54.281 HYPERVISOR: exec_cmd: vm create SW3 3 c3725 
Nov 27 16:19:54.281 VM: VM SW3 created.
Nov 27 16:19:54.282 HYPERVISOR: exec_cmd: vm set_con_tcp_port SW3 2003 
Nov 27 16:19:54.283 HYPERVISOR: exec_cmd: c3725 get_mac_addr SW3 
Nov 27 16:19:54.284 HYPERVISOR: exec_cmd: vm set_nvram SW3 256 
Nov 27 16:19:54.285 HYPERVISOR: exec_cmd: vm get_status SW3 
Nov 27 16:19:54.286 HYPERVISOR: exec_cmd: vm set_idle_pc SW3 0x60c056e4 
Nov 27 16:19:54.287 HYPERVISOR: exec_cmd: c3725 set_mac_addr SW3 cccc.cccc.cccc 
Nov 27 16:19:54.288 HYPERVISOR: exec_cmd: vm set_exec_area SW3 16 
Nov 27 16:19:54.289 HYPERVISOR: exec_cmd: vm get_status SW3 
Nov 27 16:19:54.290 HYPERVISOR: exec_cmd: vm slot_add_binding SW3 1 0 NM-16ESW 
Nov 27 16:19:54.291 HYPERVISOR: exec_cmd: vm set_disk0 SW3 1 
Nov 27 16:19:54.292 HYPERVISOR: exec_cmd: vm set_ios SW3 /media/actionmystique/SAMSUNG5-VMs/Images/GNS3/IOS/c3725-adventerprisek9-mz.124-15.T10.image 
Nov 27 16:19:54.293 HYPERVISOR: exec_cmd: vm slot_add_binding SW3 0 16 WIC-2T 
Nov 27 16:19:54.294 HYPERVISOR: exec_cmd: vm set_config SW3 configs/i3_startup-config.cfg 
Nov 27 16:19:54.295 HYPERVISOR: exec_cmd: vm set_config SW3 configs/i3_startup-config.cfg configs/i3_private-config.cfg 
Nov 27 16:19:54.532 HYPERVISOR: exec_cmd: nio create_udp udp-e18c8e6e-1939-4c5b-bf52-0780125c243c 15004 127.0.0.1 15003 
Nov 27 16:19:54.533 HYPERVISOR: exec_cmd: vm slot_add_nio_binding SW3 1 1 udp-e18c8e6e-1939-4c5b-bf52-0780125c243c 
Nov 27 16:19:54.533 HYPERVISOR: exec_cmd: vm get_status SW3 
Nov 27 16:19:54.542 HYPERVISOR: exec_cmd: nio create_udp udp-981b1101-d143-4a2c-b26d-c130c3fd0981 15006 127.0.0.1 15005 
Nov 27 16:19:54.547 HYPERVISOR: exec_cmd: vm slot_add_nio_binding SW3 1 2 udp-981b1101-d143-4a2c-b26d-c130c3fd0981 
Nov 27 16:19:54.547 HYPERVISOR: exec_cmd: vm get_status SW3 
Nov 27 16:19:54.605 HYPERVISOR: exec_cmd: nio create_udp udp-c037a014-8cf5-46aa-bc65-bfdda439b994 15011 127.0.0.1 15012 
Nov 27 16:19:54.608 HYPERVISOR: exec_cmd: vm slot_add_nio_binding SW3 1 5 udp-c037a014-8cf5-46aa-bc65-bfdda439b994 
Nov 27 16:19:54.613 HYPERVISOR: exec_cmd: vm get_status SW3 
Nov 27 16:19:54.645 HYPERVISOR: exec_cmd: nio create_udp udp-763fb897-1e84-4096-9122-c0b2a860e0f3 15014 127.0.0.1 15010 
Nov 27 16:19:54.646 HYPERVISOR: exec_cmd: vm slot_add_nio_binding SW3 1 6 udp-763fb897-1e84-4096-9122-c0b2a860e0f3 
Nov 27 16:19:54.646 HYPERVISOR: exec_cmd: vm get_status SW3 
Nov 27 16:20:08.957 HYPERVISOR: exec_cmd: vm get_status SW3 
Nov 27 16:20:08.958 HYPERVISOR: exec_cmd: vm extract_config SW3 
Nov 27 16:20:08.962 HYPERVISOR: exec_cmd: vm delete SW3 
Nov 27 16:20:08.962 VM: VM SW3 destroyed.
Nov 27 16:20:08.963 HYPERVISOR: exec_cmd: hypervisor stop 
Nov 27 16:20:09.292 HYPERVISOR: Stopped.
Nov 27 16:20:09.292 GENERAL: reset done.
