Nov 27 16:19:45.985 HYPERVISOR: Release 0.2.17-amd64/Linux (tag 2017072410)
Nov 27 16:19:45.985 HYPERVISOR: Started on IP = 127.0.0.1, TCP port = 50753.
Nov 27 16:19:45.989 HYPERVISOR: exec_cmd: hypervisor version 
Nov 27 16:19:45.990 HYPERVISOR: exec_cmd: hypervisor working_dir /media/actionmystique/SAMSUNG5-VMs/Labs/GNS3/git-Public-Labs-Collection/CCNP/TBSHOOT/L3-Technologies/IPv4/High-Availability/GLBP/Jean-Christophe_Manciot/1+/TT 2-solutions-linux/project-files/dynamips 
Nov 27 16:19:45.990 GENERAL: working_dir=/media/actionmystique/SAMSUNG5-VMs/Labs/GNS3/git-Public-Labs-Collection/CCNP/TBSHOOT/L3-Technologies/IPv4/High-Availability/GLBP/Jean-Christophe_Manciot/1+/TT 2-solutions-linux/project-files/dynamips
Nov 27 16:19:45.991 HYPERVISOR: exec_cmd: vm create SW2 2 c3725 
Nov 27 16:19:45.991 VM: VM SW2 created.
Nov 27 16:19:45.992 HYPERVISOR: exec_cmd: vm set_con_tcp_port SW2 2002 
Nov 27 16:19:45.993 HYPERVISOR: exec_cmd: c3725 get_mac_addr SW2 
Nov 27 16:19:45.994 HYPERVISOR: exec_cmd: vm set_nvram SW2 256 
Nov 27 16:19:45.995 HYPERVISOR: exec_cmd: vm get_status SW2 
Nov 27 16:19:45.996 HYPERVISOR: exec_cmd: vm set_idle_pc SW2 0x60c056e4 
Nov 27 16:19:45.997 HYPERVISOR: exec_cmd: c3725 set_mac_addr SW2 eeee.eeee.eeee 
Nov 27 16:19:45.999 HYPERVISOR: exec_cmd: vm set_exec_area SW2 16 
Nov 27 16:19:46.000 HYPERVISOR: exec_cmd: vm get_status SW2 
Nov 27 16:19:46.001 HYPERVISOR: exec_cmd: vm slot_add_binding SW2 1 0 NM-16ESW 
Nov 27 16:19:46.002 HYPERVISOR: exec_cmd: vm set_ios SW2 /media/actionmystique/SAMSUNG5-VMs/Images/GNS3/IOS/c3725-adventerprisek9-mz.124-15.T10.image 
Nov 27 16:19:46.006 HYPERVISOR: exec_cmd: vm slot_add_binding SW2 0 16 WIC-2T 
Nov 27 16:19:46.007 HYPERVISOR: exec_cmd: vm set_disk0 SW2 1 
Nov 27 16:19:46.008 HYPERVISOR: exec_cmd: vm set_config SW2 configs/i2_startup-config.cfg 
Nov 27 16:19:46.009 HYPERVISOR: exec_cmd: vm set_config SW2 configs/i2_startup-config.cfg configs/i2_private-config.cfg 
Nov 27 16:19:46.271 HYPERVISOR: exec_cmd: nio create_udp udp-2b14497e-57b4-484e-9fa2-debdc339b4e7 15006 127.0.0.1 15009 
Nov 27 16:19:46.272 HYPERVISOR: exec_cmd: vm slot_add_nio_binding SW2 1 0 udp-2b14497e-57b4-484e-9fa2-debdc339b4e7 
Nov 27 16:19:46.273 HYPERVISOR: exec_cmd: vm get_status SW2 
Nov 27 16:19:46.325 HYPERVISOR: exec_cmd: nio create_udp udp-c459484a-0fd6-4cb4-9bf4-510fd40d2bcc 15011 127.0.0.1 15012 
Nov 27 16:19:46.326 HYPERVISOR: exec_cmd: vm slot_add_nio_binding SW2 1 1 udp-c459484a-0fd6-4cb4-9bf4-510fd40d2bcc 
Nov 27 16:19:46.326 HYPERVISOR: exec_cmd: vm get_status SW2 
Nov 27 16:19:46.332 HYPERVISOR: exec_cmd: nio create_udp udp-c32397f8-450c-4cfb-a500-94cf5343fa25 15010 127.0.0.1 15013 
Nov 27 16:19:46.338 HYPERVISOR: exec_cmd: vm slot_add_nio_binding SW2 1 3 udp-c32397f8-450c-4cfb-a500-94cf5343fa25 
Nov 27 16:19:46.341 HYPERVISOR: exec_cmd: vm get_status SW2 
Nov 27 16:19:46.353 HYPERVISOR: exec_cmd: nio create_udp udp-9f4f941b-6e5b-42c7-a51f-2f4f86cab014 15015 127.0.0.1 15014 
Nov 27 16:19:46.353 HYPERVISOR: exec_cmd: vm slot_add_nio_binding SW2 1 2 udp-9f4f941b-6e5b-42c7-a51f-2f4f86cab014 
Nov 27 16:19:46.353 HYPERVISOR: exec_cmd: vm get_status SW2 
