Nov 27 16:19:45.966 HYPERVISOR: Release 0.2.17-amd64/Linux (tag 2017072410)
Nov 27 16:19:45.966 HYPERVISOR: Started on IP = 127.0.0.1, TCP port = 53859.
Nov 27 16:19:45.971 HYPERVISOR: exec_cmd: hypervisor version 
Nov 27 16:19:45.971 HYPERVISOR: exec_cmd: hypervisor working_dir /media/actionmystique/SAMSUNG5-VMs/Labs/GNS3/git-Public-Labs-Collection/CCNP/TBSHOOT/L3-Technologies/IPv4/High-Availability/GLBP/Jean-Christophe_Manciot/1+/TT 2-solutions-linux/project-files/dynamips 
Nov 27 16:19:45.971 GENERAL: working_dir=/media/actionmystique/SAMSUNG5-VMs/Labs/GNS3/git-Public-Labs-Collection/CCNP/TBSHOOT/L3-Technologies/IPv4/High-Availability/GLBP/Jean-Christophe_Manciot/1+/TT 2-solutions-linux/project-files/dynamips
Nov 27 16:19:45.972 HYPERVISOR: exec_cmd: vm create SW1 1 c3725 
Nov 27 16:19:45.972 VM: VM SW1 created.
Nov 27 16:19:45.972 HYPERVISOR: exec_cmd: vm set_con_tcp_port SW1 2001 
Nov 27 16:19:45.972 HYPERVISOR: exec_cmd: c3725 get_mac_addr SW1 
Nov 27 16:19:45.973 HYPERVISOR: exec_cmd: vm set_nvram SW1 256 
Nov 27 16:19:45.973 HYPERVISOR: exec_cmd: vm get_status SW1 
Nov 27 16:19:45.973 HYPERVISOR: exec_cmd: vm set_idle_pc SW1 0x60c056e4 
Nov 27 16:19:45.974 HYPERVISOR: exec_cmd: c3725 set_mac_addr SW1 aaaa.aaaa.aaaa 
Nov 27 16:19:45.974 HYPERVISOR: exec_cmd: vm set_exec_area SW1 16 
Nov 27 16:19:45.974 HYPERVISOR: exec_cmd: vm get_status SW1 
Nov 27 16:19:45.975 HYPERVISOR: exec_cmd: vm slot_add_binding SW1 1 0 NM-16ESW 
Nov 27 16:19:45.975 HYPERVISOR: exec_cmd: vm set_ios SW1 /media/actionmystique/SAMSUNG5-VMs/Images/GNS3/IOS/c3725-adventerprisek9-mz.124-15.T10.image 
Nov 27 16:19:45.976 HYPERVISOR: exec_cmd: vm slot_add_binding SW1 0 16 WIC-2T 
Nov 27 16:19:45.977 HYPERVISOR: exec_cmd: vm set_disk0 SW1 1 
Nov 27 16:19:45.978 HYPERVISOR: exec_cmd: vm set_config SW1 configs/i1_startup-config.cfg 
Nov 27 16:19:45.979 HYPERVISOR: exec_cmd: vm set_config SW1 configs/i1_startup-config.cfg configs/i1_private-config.cfg 
Nov 27 16:19:46.199 HYPERVISOR: exec_cmd: nio create_udp udp-432c0448-81f4-4525-b94b-f0a8172112f9 15001 127.0.0.1 15002 
Nov 27 16:19:46.200 HYPERVISOR: exec_cmd: vm slot_add_nio_binding SW1 1 5 udp-432c0448-81f4-4525-b94b-f0a8172112f9 
Nov 27 16:19:46.201 HYPERVISOR: exec_cmd: vm get_status SW1 
Nov 27 16:19:46.209 HYPERVISOR: exec_cmd: nio create_udp udp-7f42a36a-bf68-4dfc-a5ff-8b4dba7a26fc 15004 127.0.0.1 15000 
Nov 27 16:19:46.210 HYPERVISOR: exec_cmd: vm slot_add_nio_binding SW1 1 0 udp-7f42a36a-bf68-4dfc-a5ff-8b4dba7a26fc 
Nov 27 16:19:46.213 HYPERVISOR: exec_cmd: vm get_status SW1 
Nov 27 16:19:46.237 HYPERVISOR: exec_cmd: nio create_udp udp-e5a0fd9c-858f-4f83-8963-62aae3ad68dc 15003 127.0.0.1 15005 
Nov 27 16:19:46.237 HYPERVISOR: exec_cmd: vm slot_add_nio_binding SW1 1 6 udp-e5a0fd9c-858f-4f83-8963-62aae3ad68dc 
Nov 27 16:19:46.238 HYPERVISOR: exec_cmd: vm get_status SW1 
Nov 27 16:19:46.305 HYPERVISOR: exec_cmd: nio create_udp udp-05b9e697-c27b-4563-b33e-f782c50def2a 15012 127.0.0.1 15011 
Nov 27 16:19:46.305 HYPERVISOR: exec_cmd: vm slot_add_nio_binding SW1 1 1 udp-05b9e697-c27b-4563-b33e-f782c50def2a 
Nov 27 16:19:46.306 HYPERVISOR: exec_cmd: vm get_status SW1 
