Nov 29 19:09:22.283 HYPERVISOR: Release 0.2.17-amd64/Linux (tag 2017072410)
Nov 29 19:09:22.283 HYPERVISOR: Started on IP = 127.0.0.1, TCP port = 53225.
Nov 29 19:09:22.303 HYPERVISOR: exec_cmd: hypervisor version 
Nov 29 19:09:22.303 HYPERVISOR: exec_cmd: hypervisor working_dir /media/actionmystique/SAMSUNG5-VMs/Labs/GNS3/TT 1-linux-/project-files/dynamips 
Nov 29 19:09:22.303 GENERAL: working_dir=/media/actionmystique/SAMSUNG5-VMs/Labs/GNS3/TT 1-linux-/project-files/dynamips
Nov 29 19:09:22.304 HYPERVISOR: exec_cmd: vm create ESW1 1 c3725 
Nov 29 19:09:22.304 VM: VM ESW1 created.
Nov 29 19:09:22.304 HYPERVISOR: exec_cmd: vm set_con_tcp_port ESW1 2004 
Nov 29 19:09:22.305 HYPERVISOR: exec_cmd: c3725 get_mac_addr ESW1 
Nov 29 19:09:22.305 HYPERVISOR: exec_cmd: vm set_disk0 ESW1 1 
Nov 29 19:09:22.306 HYPERVISOR: exec_cmd: vm get_status ESW1 
Nov 29 19:09:22.306 HYPERVISOR: exec_cmd: vm set_idle_pc ESW1 0x614ac27c 
Nov 29 19:09:22.306 HYPERVISOR: exec_cmd: c3725 set_mac_addr ESW1 c201.62e1.0000 
Nov 29 19:09:22.307 HYPERVISOR: exec_cmd: vm set_nvram ESW1 256 
Nov 29 19:09:22.307 HYPERVISOR: exec_cmd: vm get_status ESW1 
Nov 29 19:09:22.308 HYPERVISOR: exec_cmd: vm slot_add_binding ESW1 1 0 NM-16ESW 
Nov 29 19:09:22.308 HYPERVISOR: exec_cmd: vm set_ios ESW1 /media/actionmystique/SAMSUNG5-VMs/Images/GNS3/IOS/c3725-adventerprisek9-mz.124-15.T10.image 
Nov 29 19:09:22.309 HYPERVISOR: exec_cmd: vm slot_add_binding ESW1 0 16 WIC-2T 
Nov 29 19:09:22.309 HYPERVISOR: exec_cmd: vm set_config ESW1 configs/i1_startup-config.cfg 
Nov 29 19:09:22.310 HYPERVISOR: exec_cmd: vm set_config ESW1 configs/i1_startup-config.cfg configs/i1_private-config.cfg 
Nov 29 19:09:22.428 HYPERVISOR: exec_cmd: nio create_udp udp-9b5901dc-ad99-4aea-a30f-2f8b93d2c600 15001 127.0.0.1 15002 
Nov 29 19:09:22.434 HYPERVISOR: exec_cmd: vm slot_add_nio_binding ESW1 1 0 udp-9b5901dc-ad99-4aea-a30f-2f8b93d2c600 
Nov 29 19:09:22.435 HYPERVISOR: exec_cmd: vm get_status ESW1 
Nov 29 19:09:33.203 HYPERVISOR: exec_cmd: vm get_status ESW1 
Nov 29 19:09:33.204 HYPERVISOR: exec_cmd: vm extract_config ESW1 
Nov 29 19:09:33.205 HYPERVISOR: exec_cmd: vm delete ESW1 
Nov 29 19:09:33.205 VM: VM ESW1 destroyed.
Nov 29 19:09:33.205 HYPERVISOR: exec_cmd: hypervisor stop 
Nov 29 19:09:33.314 HYPERVISOR: Stopped.
Nov 29 19:09:33.314 GENERAL: reset done.
