Nov 26 20:03:19.321 HYPERVISOR: Release 0.2.17-amd64/Linux (tag 2017072410)
Nov 26 20:03:19.321 HYPERVISOR: Started on IP = 127.0.0.1, TCP port = 38197.
Nov 26 20:03:19.334 HYPERVISOR: exec_cmd: hypervisor version 
Nov 26 20:03:19.335 HYPERVISOR: exec_cmd: hypervisor working_dir /media/actionmystique/SAMSUNG5-VMs/Labs/GNS3/Confederations-linux/project-files/dynamips 
Nov 26 20:03:19.335 GENERAL: working_dir=/media/actionmystique/SAMSUNG5-VMs/Labs/GNS3/Confederations-linux/project-files/dynamips
Nov 26 20:03:19.336 HYPERVISOR: exec_cmd: vm create Geneva 5 c7200 
Nov 26 20:03:19.336 VM: VM Geneva created.
Nov 26 20:03:19.336 HYPERVISOR: exec_cmd: vm set_con_tcp_port Geneva 2106 
Nov 26 20:03:19.343 HYPERVISOR: exec_cmd: vm set_aux_tcp_port Geneva 2506 
Nov 26 20:03:19.374 HYPERVISOR: exec_cmd: c7200 get_mac_addr Geneva 
Nov 26 20:03:19.382 HYPERVISOR: exec_cmd: vm get_status Geneva 
Nov 26 20:03:19.383 HYPERVISOR: exec_cmd: vm slot_add_binding Geneva 0 0 C7200-IO-FE 
Nov 26 20:03:19.384 HYPERVISOR: exec_cmd: vm get_status Geneva 
Nov 26 20:03:19.384 HYPERVISOR: exec_cmd: vm set_idle_pc Geneva 0x6062d534 
Nov 26 20:03:19.384 HYPERVISOR: exec_cmd: vm set_ram Geneva 512 
Nov 26 20:03:19.385 HYPERVISOR: exec_cmd: vm set_ios Geneva /media/actionmystique/SAMSUNG5-VMs/Images/GNS3/IOS/c7200-adventerprisek9-mz.152-4.M2.image 
Nov 26 20:03:19.388 HYPERVISOR: exec_cmd: vm get_status Geneva 
Nov 26 20:03:19.390 HYPERVISOR: exec_cmd: vm slot_add_binding Geneva 1 0 PA-GE 
Nov 26 20:03:19.393 HYPERVISOR: exec_cmd: vm get_status Geneva 
Nov 26 20:03:19.394 HYPERVISOR: exec_cmd: vm slot_remove_binding Geneva 0 0 
Nov 26 20:03:19.397 HYPERVISOR: exec_cmd: vm get_status Geneva 
Nov 26 20:03:19.399 HYPERVISOR: exec_cmd: vm slot_add_binding Geneva 0 0 C7200-IO-GE-E 
Nov 26 20:03:19.400 HYPERVISOR: exec_cmd: vm get_status Geneva 
Nov 26 20:03:19.402 HYPERVISOR: exec_cmd: vm slot_add_binding Geneva 2 0 PA-GE 
Nov 26 20:03:19.404 HYPERVISOR: exec_cmd: c7200 set_mac_addr Geneva ca05.1150.0000 
Nov 26 20:03:19.405 HYPERVISOR: exec_cmd: vm set_config Geneva configs/i5_startup-config.cfg 
Nov 26 20:03:19.701 HYPERVISOR: exec_cmd: nio create_udp udp-c8a9f53d-2dd9-41a4-b725-206eead0275d 15000 127.0.0.1 15001 
Nov 26 20:03:19.704 HYPERVISOR: exec_cmd: vm slot_add_nio_binding Geneva 2 0 udp-c8a9f53d-2dd9-41a4-b725-206eead0275d 
Nov 26 20:03:19.706 HYPERVISOR: exec_cmd: vm get_status Geneva 
Nov 26 20:03:19.815 HYPERVISOR: exec_cmd: nio create_udp udp-b49af0a7-4041-44e3-a65c-a57599a4afa6 15007 127.0.0.1 15005 
Nov 26 20:03:19.816 HYPERVISOR: exec_cmd: vm slot_add_nio_binding Geneva 1 0 udp-b49af0a7-4041-44e3-a65c-a57599a4afa6 
Nov 26 20:03:19.816 HYPERVISOR: exec_cmd: vm get_status Geneva 
Nov 26 20:03:19.888 HYPERVISOR: exec_cmd: nio create_udp udp-9fb88082-17e9-4f83-8205-d49cdc765c18 15014 127.0.0.1 15015 
Nov 26 20:03:19.889 HYPERVISOR: exec_cmd: vm slot_add_nio_binding Geneva 0 0 udp-9fb88082-17e9-4f83-8205-d49cdc765c18 
Nov 26 20:03:19.889 HYPERVISOR: exec_cmd: vm get_status Geneva 
Nov 26 20:03:25.478 HYPERVISOR: exec_cmd: vm get_status Geneva 
Nov 26 20:03:25.480 HYPERVISOR: exec_cmd: vm extract_config Geneva 
Nov 26 20:03:25.485 HYPERVISOR: exec_cmd: vm delete Geneva 
Nov 26 20:03:25.485 VM: VM Geneva destroyed.
Nov 26 20:03:25.488 HYPERVISOR: exec_cmd: hypervisor stop 
Nov 26 20:03:25.839 HYPERVISOR: Stopped.
Nov 26 20:03:25.839 GENERAL: reset done.
