Nov 27 16:19:00.996 HYPERVISOR: Release 0.2.17-amd64/Linux (tag 2017072410)
Nov 27 16:19:00.996 HYPERVISOR: Started on IP = 127.0.0.1, TCP port = 52153.
Nov 27 16:19:01.010 HYPERVISOR: exec_cmd: hypervisor version 
Nov 27 16:19:01.010 HYPERVISOR: exec_cmd: hypervisor working_dir /media/actionmystique/SAMSUNG5-VMs/Labs/GNS3/TT 1-solutions-linux-/project-files/dynamips 
Nov 27 16:19:01.010 GENERAL: working_dir=/media/actionmystique/SAMSUNG5-VMs/Labs/GNS3/TT 1-solutions-linux-/project-files/dynamips
Nov 27 16:19:01.011 HYPERVISOR: exec_cmd: vm create Core 4 c3725 
Nov 27 16:19:01.011 VM: VM Core created.
Nov 27 16:19:01.011 HYPERVISOR: exec_cmd: vm set_con_tcp_port Core 2005 
Nov 27 16:19:01.011 HYPERVISOR: exec_cmd: c3725 get_mac_addr Core 
Nov 27 16:19:01.012 HYPERVISOR: exec_cmd: vm set_ram Core 256 
Nov 27 16:19:01.012 HYPERVISOR: exec_cmd: vm set_nvram Core 256 
Nov 27 16:19:01.012 HYPERVISOR: exec_cmd: vm get_status Core 
Nov 27 16:19:01.013 HYPERVISOR: exec_cmd: vm set_idle_pc Core 0x6026b804 
Nov 27 16:19:01.013 HYPERVISOR: exec_cmd: c3725 set_mac_addr Core c204.0c3e.0000 
Nov 27 16:19:01.013 HYPERVISOR: exec_cmd: vm get_status Core 
Nov 27 16:19:01.014 HYPERVISOR: exec_cmd: vm slot_add_binding Core 1 0 NM-16ESW 
Nov 27 16:19:01.014 HYPERVISOR: exec_cmd: vm set_disk0 Core 1 
Nov 27 16:19:01.015 HYPERVISOR: exec_cmd: vm set_ios Core /media/actionmystique/SAMSUNG5-VMs/Images/GNS3/IOS/c3725-adventerprisek9-mz.124-15.T10.image 
Nov 27 16:19:01.015 HYPERVISOR: exec_cmd: vm slot_add_binding Core 0 16 WIC-2T 
Nov 27 16:19:01.015 HYPERVISOR: exec_cmd: vm set_config Core configs/i4_startup-config.cfg 
Nov 27 16:19:01.016 HYPERVISOR: exec_cmd: vm set_config Core configs/i4_startup-config.cfg configs/i4_private-config.cfg 
Nov 27 16:19:01.321 HYPERVISOR: exec_cmd: nio create_udp udp-57ba5327-964e-4704-b081-0cac3f13c38e 15003 127.0.0.1 15004 
Nov 27 16:19:01.324 HYPERVISOR: exec_cmd: vm slot_add_nio_binding Core 1 1 udp-57ba5327-964e-4704-b081-0cac3f13c38e 
Nov 27 16:19:01.325 HYPERVISOR: exec_cmd: vm get_status Core 
Nov 27 16:19:01.453 HYPERVISOR: exec_cmd: nio create_udp udp-4c1c7eee-ffe8-4c7f-a4e2-1164794a1f5e 15015 127.0.0.1 15013 
Nov 27 16:19:01.453 HYPERVISOR: exec_cmd: vm slot_add_nio_binding Core 1 0 udp-4c1c7eee-ffe8-4c7f-a4e2-1164794a1f5e 
Nov 27 16:19:01.454 HYPERVISOR: exec_cmd: vm get_status Core 
Nov 27 16:19:18.993 HYPERVISOR: exec_cmd: vm get_status Core 
Nov 27 16:19:18.994 HYPERVISOR: exec_cmd: vm extract_config Core 
Nov 27 16:19:18.997 HYPERVISOR: exec_cmd: vm delete Core 
Nov 27 16:19:18.997 VM: VM Core destroyed.
Nov 27 16:19:19.000 HYPERVISOR: exec_cmd: hypervisor stop 
Nov 27 16:19:19.029 HYPERVISOR: Stopped.
Nov 27 16:19:19.029 GENERAL: reset done.
