Nov 27 16:09:24.979 HYPERVISOR: Release 0.2.17-amd64/Linux (tag 2017072410)
Nov 27 16:09:24.979 HYPERVISOR: Started on IP = 127.0.0.1, TCP port = 37223.
Nov 27 16:09:24.998 HYPERVISOR: exec_cmd: hypervisor version 
Nov 27 16:09:24.998 HYPERVISOR: exec_cmd: hypervisor working_dir /media/actionmystique/SAMSUNG5-VMs/Labs/GNS3/git-Public-Labs-Collection/CCNP/TBSHOOT/L2-Technologies/SPAN-RSPAN/Jean-Christophe_Manciot/1+/TT 1-linux/project-files/dynamips 
Nov 27 16:09:24.998 GENERAL: working_dir=/media/actionmystique/SAMSUNG5-VMs/Labs/GNS3/git-Public-Labs-Collection/CCNP/TBSHOOT/L2-Technologies/SPAN-RSPAN/Jean-Christophe_Manciot/1+/TT 1-linux/project-files/dynamips
Nov 27 16:09:24.999 HYPERVISOR: exec_cmd: vm create ESW1 1 c3725 
Nov 27 16:09:24.999 VM: VM ESW1 created.
Nov 27 16:09:24.999 HYPERVISOR: exec_cmd: vm set_con_tcp_port ESW1 2001 
Nov 27 16:09:24.999 HYPERVISOR: exec_cmd: c3725 get_mac_addr ESW1 
Nov 27 16:09:25.000 HYPERVISOR: exec_cmd: c3725 set_mac_addr ESW1 c201.3b55.0000 
Nov 27 16:09:25.000 HYPERVISOR: exec_cmd: vm get_status ESW1 
Nov 27 16:09:25.000 HYPERVISOR: exec_cmd: vm slot_add_binding ESW1 1 0 NM-16ESW 
Nov 27 16:09:25.001 HYPERVISOR: exec_cmd: vm get_status ESW1 
Nov 27 16:09:25.001 HYPERVISOR: exec_cmd: vm set_idle_pc ESW1 0x614ac27c 
Nov 27 16:09:25.001 HYPERVISOR: exec_cmd: vm slot_add_binding ESW1 0 16 WIC-2T 
Nov 27 16:09:25.002 HYPERVISOR: exec_cmd: vm set_ios ESW1 /media/actionmystique/SAMSUNG5-VMs/Images/GNS3/IOS/c3725-adventerprisek9-mz.124-15.T10.image 
Nov 27 16:09:25.002 HYPERVISOR: exec_cmd: vm set_disk0 ESW1 1 
Nov 27 16:09:25.003 HYPERVISOR: exec_cmd: vm set_nvram ESW1 256 
Nov 27 16:09:25.007 HYPERVISOR: exec_cmd: vm set_config ESW1 configs/i1_startup-config.cfg 
Nov 27 16:09:25.007 HYPERVISOR: exec_cmd: vm set_config ESW1 configs/i1_startup-config.cfg configs/i1_private-config.cfg 
Nov 27 16:09:25.141 HYPERVISOR: exec_cmd: nio create_udp udp-4b50498f-cfaa-4f0b-a458-0c2fd778c00c 15002 127.0.0.1 15006 
Nov 27 16:09:25.145 HYPERVISOR: exec_cmd: vm slot_add_nio_binding ESW1 1 0 udp-4b50498f-cfaa-4f0b-a458-0c2fd778c00c 
Nov 27 16:09:25.145 HYPERVISOR: exec_cmd: vm get_status ESW1 
Nov 27 16:09:25.172 HYPERVISOR: exec_cmd: nio create_udp udp-fa75584d-99a8-46ec-98ed-a7e52d472186 15005 127.0.0.1 15007 
Nov 27 16:09:25.173 HYPERVISOR: exec_cmd: vm slot_add_nio_binding ESW1 1 1 udp-fa75584d-99a8-46ec-98ed-a7e52d472186 
Nov 27 16:09:25.173 HYPERVISOR: exec_cmd: vm get_status ESW1 
Nov 27 16:09:25.200 HYPERVISOR: exec_cmd: nio create_udp udp-7500ab3c-a27a-47d6-8285-c89b1fdf9435 15008 127.0.0.1 15009 
Nov 27 16:09:25.201 HYPERVISOR: exec_cmd: vm slot_add_nio_binding ESW1 1 2 udp-7500ab3c-a27a-47d6-8285-c89b1fdf9435 
Nov 27 16:09:25.201 HYPERVISOR: exec_cmd: vm get_status ESW1 
Nov 27 16:11:13.784 HYPERVISOR: exec_cmd: vm get_status ESW1 
Nov 27 16:11:13.785 HYPERVISOR: exec_cmd: vm extract_config ESW1 
Nov 27 16:11:13.787 HYPERVISOR: exec_cmd: vm delete ESW1 
Nov 27 16:11:13.787 VM: VM ESW1 destroyed.
Nov 27 16:11:13.788 HYPERVISOR: exec_cmd: hypervisor stop 
Nov 27 16:11:14.117 HYPERVISOR: Stopped.
Nov 27 16:11:14.117 GENERAL: reset done.
