Nov 27 16:11:36.034 HYPERVISOR: Release 0.2.17-amd64/Linux (tag 2017072410)
Nov 27 16:11:36.034 HYPERVISOR: Started on IP = 127.0.0.1, TCP port = 59327.
Nov 27 16:11:36.050 HYPERVISOR: exec_cmd: hypervisor version 
Nov 27 16:11:36.051 HYPERVISOR: exec_cmd: hypervisor working_dir /media/actionmystique/SAMSUNG5-VMs/Labs/GNS3/git-Public-Labs-Collection/CCNP/TBSHOOT/L2-Technologies/SPAN-RSPAN/Jean-Christophe_Manciot/1+/TT 1-linux/project-files/dynamips 
Nov 27 16:11:36.051 GENERAL: working_dir=/media/actionmystique/SAMSUNG5-VMs/Labs/GNS3/git-Public-Labs-Collection/CCNP/TBSHOOT/L2-Technologies/SPAN-RSPAN/Jean-Christophe_Manciot/1+/TT 1-linux/project-files/dynamips
Nov 27 16:11:36.051 HYPERVISOR: exec_cmd: vm create ESW1 1 c3725 
Nov 27 16:11:36.051 VM: VM ESW1 created.
Nov 27 16:11:36.052 HYPERVISOR: exec_cmd: vm set_con_tcp_port ESW1 2001 
Nov 27 16:11:36.052 HYPERVISOR: exec_cmd: c3725 get_mac_addr ESW1 
Nov 27 16:11:36.053 HYPERVISOR: exec_cmd: vm set_nvram ESW1 256 
Nov 27 16:11:36.053 HYPERVISOR: exec_cmd: vm get_status ESW1 
Nov 27 16:11:36.053 HYPERVISOR: exec_cmd: vm set_idle_pc ESW1 0x614ac27c 
Nov 27 16:11:36.054 HYPERVISOR: exec_cmd: c3725 set_mac_addr ESW1 c201.3b55.0000 
Nov 27 16:11:36.054 HYPERVISOR: exec_cmd: vm get_status ESW1 
Nov 27 16:11:36.054 HYPERVISOR: exec_cmd: vm slot_add_binding ESW1 1 0 NM-16ESW 
Nov 27 16:11:36.055 HYPERVISOR: exec_cmd: vm set_ios ESW1 /media/actionmystique/SAMSUNG5-VMs/Images/GNS3/IOS/c3725-adventerprisek9-mz.124-15.T10.image 
Nov 27 16:11:36.056 HYPERVISOR: exec_cmd: vm slot_add_binding ESW1 0 16 WIC-2T 
Nov 27 16:11:36.056 HYPERVISOR: exec_cmd: vm set_disk0 ESW1 1 
Nov 27 16:11:36.057 HYPERVISOR: exec_cmd: vm set_config ESW1 configs/i1_startup-config.cfg 
Nov 27 16:11:36.057 HYPERVISOR: exec_cmd: vm set_config ESW1 configs/i1_startup-config.cfg configs/i1_private-config.cfg 
Nov 27 16:11:36.191 HYPERVISOR: exec_cmd: nio create_udp udp-8258896c-6beb-4f48-9efc-08defdad88cb 15004 127.0.0.1 15003 
Nov 27 16:11:36.197 HYPERVISOR: exec_cmd: vm slot_add_nio_binding ESW1 1 0 udp-8258896c-6beb-4f48-9efc-08defdad88cb 
Nov 27 16:11:36.198 HYPERVISOR: exec_cmd: vm get_status ESW1 
Nov 27 16:11:36.255 HYPERVISOR: exec_cmd: nio create_udp udp-3281fe11-f638-4485-b87f-46bb955bfde2 15007 127.0.0.1 15006 
Nov 27 16:11:36.256 HYPERVISOR: exec_cmd: vm slot_add_nio_binding ESW1 1 1 udp-3281fe11-f638-4485-b87f-46bb955bfde2 
Nov 27 16:11:36.257 HYPERVISOR: exec_cmd: vm get_status ESW1 
Nov 27 16:11:36.285 HYPERVISOR: exec_cmd: nio create_udp udp-6e6828a5-bcc5-4070-b507-1f890377760b 15008 127.0.0.1 15009 
Nov 27 16:11:36.285 HYPERVISOR: exec_cmd: vm slot_add_nio_binding ESW1 1 2 udp-6e6828a5-bcc5-4070-b507-1f890377760b 
Nov 27 16:11:36.285 HYPERVISOR: exec_cmd: vm get_status ESW1 
Nov 27 16:11:45.818 HYPERVISOR: exec_cmd: nio create_tap tap-6b28d7d7-c156-4e71-bfdb-805fab6a8c8a tap1 
Nov 27 16:11:45.821 HYPERVISOR: exec_cmd: vm slot_add_nio_binding ESW1 1 3 tap-6b28d7d7-c156-4e71-bfdb-805fab6a8c8a 
Nov 27 16:11:45.821 HYPERVISOR: exec_cmd: vm get_status ESW1 
