Nov 29 19:00:35.791 HYPERVISOR: Release 0.2.17-amd64/Linux (tag 2017072410)
Nov 29 19:00:35.792 HYPERVISOR: Started on IP = 127.0.0.1, TCP port = 59639.
Nov 29 19:00:35.794 HYPERVISOR: exec_cmd: hypervisor version 
Nov 29 19:00:35.795 HYPERVISOR: exec_cmd: hypervisor working_dir /media/actionmystique/SAMSUNG5-VMs/Labs/GNS3/git-Public-Labs-Collection/CCNP/TBSHOOT/L3-Technologies/IPv6/IOS-Filtering-Tools/ACL/Jean-Christophe_Manciot/1+/TT 1-solutions-linux/project-files/dynamips 
Nov 29 19:00:35.795 GENERAL: working_dir=/media/actionmystique/SAMSUNG5-VMs/Labs/GNS3/git-Public-Labs-Collection/CCNP/TBSHOOT/L3-Technologies/IPv6/IOS-Filtering-Tools/ACL/Jean-Christophe_Manciot/1+/TT 1-solutions-linux/project-files/dynamips
Nov 29 19:00:35.795 HYPERVISOR: exec_cmd: vm create ESW1 1 c3725 
Nov 29 19:00:35.795 VM: VM ESW1 created.
Nov 29 19:00:35.796 HYPERVISOR: exec_cmd: vm set_con_tcp_port ESW1 2001 
Nov 29 19:00:35.796 HYPERVISOR: exec_cmd: vm set_aux_tcp_port ESW1 2501 
Nov 29 19:00:35.797 HYPERVISOR: exec_cmd: c3725 get_mac_addr ESW1 
Nov 29 19:00:35.797 HYPERVISOR: exec_cmd: vm slot_add_binding ESW1 0 16 WIC-2T 
Nov 29 19:00:35.797 HYPERVISOR: exec_cmd: vm set_ios ESW1 /media/actionmystique/SAMSUNG5-VMs/Images/GNS3/IOS/c3725-adventerprisek9-mz.124-15.T10.image 
Nov 29 19:00:35.798 HYPERVISOR: exec_cmd: vm get_status ESW1 
Nov 29 19:00:35.798 HYPERVISOR: exec_cmd: vm set_idle_pc ESW1 0x60c06d20 
Nov 29 19:00:35.799 HYPERVISOR: exec_cmd: vm get_status ESW1 
Nov 29 19:00:35.799 HYPERVISOR: exec_cmd: vm slot_add_binding ESW1 1 0 NM-16ESW 
Nov 29 19:00:35.799 HYPERVISOR: exec_cmd: c3725 set_mac_addr ESW1 c201.281a.0000 
Nov 29 19:00:35.800 HYPERVISOR: exec_cmd: vm set_disk0 ESW1 1 
Nov 29 19:00:35.800 HYPERVISOR: exec_cmd: vm set_nvram ESW1 256 
Nov 29 19:00:35.800 HYPERVISOR: exec_cmd: vm set_config ESW1 configs/i1_startup-config.cfg 
Nov 29 19:00:35.801 HYPERVISOR: exec_cmd: vm set_config ESW1 configs/i1_startup-config.cfg configs/i1_private-config.cfg 
Nov 29 19:00:35.932 HYPERVISOR: exec_cmd: nio create_udp udp-d82af047-2546-411f-900b-a7edf5469601 15004 127.0.0.1 15003 
Nov 29 19:00:35.933 HYPERVISOR: exec_cmd: vm slot_add_nio_binding ESW1 1 0 udp-d82af047-2546-411f-900b-a7edf5469601 
Nov 29 19:00:35.933 HYPERVISOR: exec_cmd: vm get_status ESW1 
Nov 29 19:00:35.962 HYPERVISOR: exec_cmd: nio create_udp udp-9463d86a-5ca4-4995-94f7-0291656e188b 15006 127.0.0.1 15005 
Nov 29 19:00:35.968 HYPERVISOR: exec_cmd: vm slot_add_nio_binding ESW1 1 2 udp-9463d86a-5ca4-4995-94f7-0291656e188b 
Nov 29 19:00:35.969 HYPERVISOR: exec_cmd: vm get_status ESW1 
Nov 29 19:00:35.980 HYPERVISOR: exec_cmd: nio create_udp udp-38c795dd-8a8c-4682-8839-7995b974a75b 15007 127.0.0.1 15002 
Nov 29 19:00:35.981 HYPERVISOR: exec_cmd: vm slot_add_nio_binding ESW1 1 1 udp-38c795dd-8a8c-4682-8839-7995b974a75b 
Nov 29 19:00:35.981 HYPERVISOR: exec_cmd: vm get_status ESW1 
Nov 29 19:00:36.017 HYPERVISOR: exec_cmd: nio create_udp udp-fb2a7416-24b6-42bf-82bb-2e350b3f95dd 15008 127.0.0.1 15011 
Nov 29 19:00:36.023 HYPERVISOR: exec_cmd: vm slot_add_nio_binding ESW1 1 3 udp-fb2a7416-24b6-42bf-82bb-2e350b3f95dd 
Nov 29 19:00:36.024 HYPERVISOR: exec_cmd: vm get_status ESW1 
