Nov 29 19:00:41.985 HYPERVISOR: Release 0.2.17-amd64/Linux (tag 2017072410)
Nov 29 19:00:41.985 HYPERVISOR: Started on IP = 127.0.0.1, TCP port = 34269.
Nov 29 19:00:41.998 HYPERVISOR: exec_cmd: hypervisor version 
Nov 29 19:00:41.998 HYPERVISOR: exec_cmd: hypervisor working_dir /media/actionmystique/SAMSUNG5-VMs/Labs/GNS3/TT 1-solutions-linux-/project-files/dynamips 
Nov 29 19:00:41.998 GENERAL: working_dir=/media/actionmystique/SAMSUNG5-VMs/Labs/GNS3/TT 1-solutions-linux-/project-files/dynamips
Nov 29 19:00:41.999 HYPERVISOR: exec_cmd: vm create ESW1 1 c3725 
Nov 29 19:00:41.999 VM: VM ESW1 created.
Nov 29 19:00:41.999 HYPERVISOR: exec_cmd: vm set_con_tcp_port ESW1 2001 
Nov 29 19:00:41.999 HYPERVISOR: exec_cmd: vm set_aux_tcp_port ESW1 2501 
Nov 29 19:00:41.999 HYPERVISOR: exec_cmd: c3725 get_mac_addr ESW1 
Nov 29 19:00:42.000 HYPERVISOR: exec_cmd: vm slot_add_binding ESW1 0 16 WIC-2T 
Nov 29 19:00:42.000 HYPERVISOR: exec_cmd: vm set_ios ESW1 /media/actionmystique/SAMSUNG5-VMs/Images/GNS3/IOS/c3725-adventerprisek9-mz.124-15.T10.image 
Nov 29 19:00:42.001 HYPERVISOR: exec_cmd: vm get_status ESW1 
Nov 29 19:00:42.001 HYPERVISOR: exec_cmd: vm set_idle_pc ESW1 0x60c06d20 
Nov 29 19:00:42.001 HYPERVISOR: exec_cmd: vm get_status ESW1 
Nov 29 19:00:42.002 HYPERVISOR: exec_cmd: vm slot_add_binding ESW1 1 0 NM-16ESW 
Nov 29 19:00:42.002 HYPERVISOR: exec_cmd: c3725 set_mac_addr ESW1 c201.281a.0000 
Nov 29 19:00:42.002 HYPERVISOR: exec_cmd: vm set_nvram ESW1 256 
Nov 29 19:00:42.003 HYPERVISOR: exec_cmd: vm set_disk0 ESW1 1 
Nov 29 19:00:42.003 HYPERVISOR: exec_cmd: vm set_config ESW1 configs/i1_startup-config.cfg 
Nov 29 19:00:42.004 HYPERVISOR: exec_cmd: vm set_config ESW1 configs/i1_startup-config.cfg configs/i1_private-config.cfg 
Nov 29 19:00:42.173 HYPERVISOR: exec_cmd: nio create_udp udp-95cf4caf-8801-4fdd-a2d2-bfdff8efa6de 15001 127.0.0.1 15000 
Nov 29 19:00:42.175 HYPERVISOR: exec_cmd: vm slot_add_nio_binding ESW1 1 2 udp-95cf4caf-8801-4fdd-a2d2-bfdff8efa6de 
Nov 29 19:00:42.182 HYPERVISOR: exec_cmd: vm get_status ESW1 
Nov 29 19:00:42.230 HYPERVISOR: exec_cmd: nio create_udp udp-a6863474-8fde-4903-8f8f-a85f5b48a29b 15003 127.0.0.1 15002 
Nov 29 19:00:42.236 HYPERVISOR: exec_cmd: vm slot_add_nio_binding ESW1 1 1 udp-a6863474-8fde-4903-8f8f-a85f5b48a29b 
Nov 29 19:00:42.241 HYPERVISOR: exec_cmd: vm get_status ESW1 
Nov 29 19:00:42.272 HYPERVISOR: exec_cmd: nio create_udp udp-9cf95ade-cd2a-42de-a4f0-a462342ee751 15006 127.0.0.1 15007 
Nov 29 19:00:42.273 HYPERVISOR: exec_cmd: vm slot_add_nio_binding ESW1 1 0 udp-9cf95ade-cd2a-42de-a4f0-a462342ee751 
Nov 29 19:00:42.273 HYPERVISOR: exec_cmd: vm get_status ESW1 
Nov 29 19:00:42.290 HYPERVISOR: exec_cmd: nio create_udp udp-c4692b8c-4df4-425e-8639-772d3a101c80 15008 127.0.0.1 15009 
Nov 29 19:00:42.296 HYPERVISOR: exec_cmd: vm slot_add_nio_binding ESW1 1 3 udp-c4692b8c-4df4-425e-8639-772d3a101c80 
Nov 29 19:00:42.301 HYPERVISOR: exec_cmd: vm get_status ESW1 
Nov 29 19:01:06.585 HYPERVISOR: exec_cmd: vm get_status ESW1 
Nov 29 19:01:06.586 HYPERVISOR: exec_cmd: vm extract_config ESW1 
Nov 29 19:01:06.588 HYPERVISOR: exec_cmd: vm delete ESW1 
Nov 29 19:01:06.588 VM: VM ESW1 destroyed.
Nov 29 19:01:06.589 HYPERVISOR: exec_cmd: hypervisor stop 
Nov 29 19:01:07.024 HYPERVISOR: Stopped.
Nov 29 19:01:07.024 GENERAL: reset done.
