Nov 26 20:49:03.626 HYPERVISOR: Release 0.2.17-amd64/Linux (tag 2017072410)
Nov 26 20:49:03.626 HYPERVISOR: Started on IP = 127.0.0.1, TCP port = 54887.
Nov 26 20:49:03.649 HYPERVISOR: exec_cmd: hypervisor version 
Nov 26 20:49:03.650 HYPERVISOR: exec_cmd: hypervisor working_dir /media/actionmystique/SAMSUNG5-VMs/Labs/GNS3/Virtual Links/project-files/dynamips 
Nov 26 20:49:03.650 GENERAL: working_dir=/media/actionmystique/SAMSUNG5-VMs/Labs/GNS3/Virtual Links/project-files/dynamips
Nov 26 20:49:03.652 HYPERVISOR: exec_cmd: vm create IR5 6 c7200 
Nov 26 20:49:03.652 VM: VM IR5 created.
Nov 26 20:49:03.653 HYPERVISOR: exec_cmd: vm set_con_tcp_port IR5 2004 
Nov 26 20:49:03.655 HYPERVISOR: exec_cmd: vm set_aux_tcp_port IR5 2100 
Nov 26 20:49:03.656 HYPERVISOR: exec_cmd: c7200 get_mac_addr IR5 
Nov 26 20:49:03.657 HYPERVISOR: exec_cmd: vm get_status IR5 
Nov 26 20:49:03.658 HYPERVISOR: exec_cmd: vm slot_add_binding IR5 0 0 C7200-IO-FE 
Nov 26 20:49:03.660 HYPERVISOR: exec_cmd: vm get_status IR5 
Nov 26 20:49:03.661 HYPERVISOR: exec_cmd: vm slot_remove_binding IR5 0 0 
Nov 26 20:49:03.662 HYPERVISOR: exec_cmd: vm get_status IR5 
Nov 26 20:49:03.663 HYPERVISOR: exec_cmd: vm slot_add_binding IR5 0 0 C7200-IO-GE-E 
Nov 26 20:49:03.674 HYPERVISOR: exec_cmd: vm set_ram IR5 512 
Nov 26 20:49:03.685 HYPERVISOR: exec_cmd: vm get_status IR5 
Nov 26 20:49:03.697 HYPERVISOR: exec_cmd: vm set_idle_pc IR5 0x62a29de4 
Nov 26 20:49:03.703 HYPERVISOR: exec_cmd: vm get_status IR5 
Nov 26 20:49:03.713 HYPERVISOR: exec_cmd: vm slot_add_binding IR5 1 0 PA-8T 
Nov 26 20:49:03.717 HYPERVISOR: exec_cmd: vm set_con_tcp_port IR5 2004 
Nov 26 20:49:03.718 HYPERVISOR: exec_cmd: vm set_ios IR5 /media/actionmystique/SAMSUNG5-VMs/Images/GNS3/IOS/c7200-adventerprisek9-mz.152-4.M2.image 
Nov 26 20:49:03.723 HYPERVISOR: exec_cmd: vm set_config IR5 configs/i6_startup-config.cfg 
Nov 26 20:49:04.796 HYPERVISOR: exec_cmd: vm extract_config IR5 
Nov 26 20:49:04.952 HYPERVISOR: exec_cmd: nio create_udp udp-18442690-9fab-44ba-a8b0-73ff8fce2f7b 15013 127.0.0.1 15012 
Nov 26 20:49:04.953 HYPERVISOR: exec_cmd: vm slot_add_nio_binding IR5 1 0 udp-18442690-9fab-44ba-a8b0-73ff8fce2f7b 
Nov 26 20:49:04.953 HYPERVISOR: exec_cmd: vm get_status IR5 
Nov 26 20:49:05.251 HYPERVISOR: exec_cmd: nio create_udp udp-fafa4ae1-a3c4-4fd5-b19d-eb7247c756c9 15037 127.0.0.1 15034 
Nov 26 20:49:05.252 HYPERVISOR: exec_cmd: vm slot_add_nio_binding IR5 0 0 udp-fafa4ae1-a3c4-4fd5-b19d-eb7247c756c9 
Nov 26 20:49:05.252 HYPERVISOR: exec_cmd: vm get_status IR5 
Nov 26 20:50:03.768 HYPERVISOR: exec_cmd: vm get_status IR5 
Nov 26 20:50:03.775 HYPERVISOR: exec_cmd: vm extract_config IR5 
Nov 26 20:50:03.780 HYPERVISOR: exec_cmd: vm delete IR5 
Nov 26 20:50:03.780 VM: VM IR5 destroyed.
Nov 26 20:50:03.786 HYPERVISOR: exec_cmd: hypervisor stop 
Nov 26 20:50:04.206 HYPERVISOR: Stopped.
Nov 26 20:50:04.206 GENERAL: reset done.
