Nov 26 20:49:04.012 HYPERVISOR: Release 0.2.17-amd64/Linux (tag 2017072410)
Nov 26 20:49:04.012 HYPERVISOR: Started on IP = 127.0.0.1, TCP port = 48677.
Nov 26 20:49:04.051 HYPERVISOR: exec_cmd: hypervisor version 
Nov 26 20:49:04.054 HYPERVISOR: exec_cmd: hypervisor working_dir /media/actionmystique/SAMSUNG5-VMs/Labs/GNS3/Virtual Links/project-files/dynamips 
Nov 26 20:49:04.054 GENERAL: working_dir=/media/actionmystique/SAMSUNG5-VMs/Labs/GNS3/Virtual Links/project-files/dynamips
Nov 26 20:49:04.057 HYPERVISOR: exec_cmd: vm create IR20 21 c7200 
Nov 26 20:49:04.057 VM: VM IR20 created.
Nov 26 20:49:04.058 HYPERVISOR: exec_cmd: vm set_con_tcp_port IR20 2023 
Nov 26 20:49:04.060 HYPERVISOR: exec_cmd: vm set_aux_tcp_port IR20 2523 
Nov 26 20:49:04.062 HYPERVISOR: exec_cmd: c7200 get_mac_addr IR20 
Nov 26 20:49:04.063 HYPERVISOR: exec_cmd: vm get_status IR20 
Nov 26 20:49:04.065 HYPERVISOR: exec_cmd: vm slot_add_binding IR20 0 0 C7200-IO-FE 
Nov 26 20:49:04.066 HYPERVISOR: exec_cmd: vm set_ios IR20 /media/actionmystique/SAMSUNG5-VMs/Images/GNS3/IOS/c7200-adventerprisek9-mz.152-4.M2.image 
Nov 26 20:49:04.071 HYPERVISOR: exec_cmd: vm get_status IR20 
Nov 26 20:49:04.074 HYPERVISOR: exec_cmd: vm slot_remove_binding IR20 0 0 
Nov 26 20:49:04.076 HYPERVISOR: exec_cmd: vm get_status IR20 
Nov 26 20:49:04.078 HYPERVISOR: exec_cmd: vm slot_add_binding IR20 0 0 C7200-IO-GE-E 
Nov 26 20:49:04.083 HYPERVISOR: exec_cmd: vm get_status IR20 
Nov 26 20:49:04.084 HYPERVISOR: exec_cmd: vm set_idle_pc IR20 0x62a29de4 
Nov 26 20:49:04.086 HYPERVISOR: exec_cmd: vm set_ram IR20 512 
Nov 26 20:49:04.088 HYPERVISOR: exec_cmd: vm set_config IR20 configs/i21_startup-config.cfg 
Nov 26 20:49:04.796 HYPERVISOR: exec_cmd: vm extract_config IR20 
Nov 26 20:49:05.485 HYPERVISOR: exec_cmd: nio create_udp udp-6a4aaaea-793d-4643-bf1a-6b30b2cf29fd 15060 127.0.0.1 15061 
Nov 26 20:49:05.485 HYPERVISOR: exec_cmd: vm slot_add_nio_binding IR20 0 0 udp-6a4aaaea-793d-4643-bf1a-6b30b2cf29fd 
Nov 26 20:49:05.485 HYPERVISOR: exec_cmd: vm get_status IR20 
Nov 26 20:50:03.765 HYPERVISOR: exec_cmd: vm get_status IR20 
Nov 26 20:50:03.772 HYPERVISOR: exec_cmd: vm extract_config IR20 
Nov 26 20:50:03.778 HYPERVISOR: exec_cmd: vm delete IR20 
Nov 26 20:50:03.778 VM: VM IR20 destroyed.
Nov 26 20:50:03.783 HYPERVISOR: exec_cmd: hypervisor stop 
Nov 26 20:50:04.105 HYPERVISOR: Stopped.
Nov 26 20:50:04.105 GENERAL: reset done.
