Nov 26 20:28:46.901 HYPERVISOR: Release 0.2.17-amd64/Linux (tag 2017072410)
Nov 26 20:28:46.901 HYPERVISOR: Started on IP = 127.0.0.1, TCP port = 39073.
Nov 26 20:28:46.965 HYPERVISOR: exec_cmd: hypervisor version 
Nov 26 20:28:46.966 HYPERVISOR: exec_cmd: hypervisor working_dir /media/actionmystique/SAMSUNG5-VMs/Labs/GNS3/K2 Load Metric Weight with IOSv-linux-/project-files/dynamips 
Nov 26 20:28:46.966 GENERAL: working_dir=/media/actionmystique/SAMSUNG5-VMs/Labs/GNS3/K2 Load Metric Weight with IOSv-linux-/project-files/dynamips
Nov 26 20:28:46.967 HYPERVISOR: exec_cmd: vm create SW0_Management 1 c3725 
Nov 26 20:28:46.967 VM: VM SW0_Management created.
Nov 26 20:28:46.967 HYPERVISOR: exec_cmd: vm set_con_tcp_port SW0_Management 2101 
Nov 26 20:28:46.968 HYPERVISOR: exec_cmd: vm set_aux_tcp_port SW0_Management 2501 
Nov 26 20:28:46.968 HYPERVISOR: exec_cmd: c3725 get_mac_addr SW0_Management 
Nov 26 20:28:46.969 HYPERVISOR: exec_cmd: c3725 set_mac_addr SW0_Management c201.2103.0000 
Nov 26 20:28:46.970 HYPERVISOR: exec_cmd: vm get_status SW0_Management 
Nov 26 20:28:46.971 HYPERVISOR: exec_cmd: vm set_idle_pc SW0_Management 0x60503d74 
Nov 26 20:28:46.971 HYPERVISOR: exec_cmd: vm set_ios SW0_Management /media/actionmystique/SAMSUNG5-VMs/Images/GNS3/IOS/c3725-adventerprisek9-mz.124-15.T10.image 
Nov 26 20:28:46.972 HYPERVISOR: exec_cmd: vm set_ram SW0_Management 256 
Nov 26 20:28:46.972 HYPERVISOR: exec_cmd: vm get_status SW0_Management 
Nov 26 20:28:46.973 HYPERVISOR: exec_cmd: vm slot_add_binding SW0_Management 1 0 NM-16ESW 
Nov 26 20:28:46.974 HYPERVISOR: exec_cmd: vm set_config SW0_Management configs/i1_startup-config.cfg 
Nov 26 20:28:47.255 HYPERVISOR: exec_cmd: nio create_tap tap-0e8df76d-2530-4757-8d43-c1af4549955a tap1 
Nov 26 20:28:47.262 HYPERVISOR: exec_cmd: vm slot_add_nio_binding SW0_Management 1 2 tap-0e8df76d-2530-4757-8d43-c1af4549955a 
Nov 26 20:28:47.263 HYPERVISOR: exec_cmd: vm get_status SW0_Management 
Nov 26 20:28:47.496 HYPERVISOR: exec_cmd: nio create_udp udp-d7dd4999-e798-4922-9d10-2985bd638d27 15014 127.0.0.1 15012 
Nov 26 20:28:47.514 HYPERVISOR: exec_cmd: vm slot_add_nio_binding SW0_Management 1 0 udp-d7dd4999-e798-4922-9d10-2985bd638d27 
Nov 26 20:28:47.527 HYPERVISOR: exec_cmd: vm get_status SW0_Management 
Nov 26 20:28:47.546 HYPERVISOR: exec_cmd: nio create_udp udp-5499a275-4d7c-4b48-8445-9dc060777cc8 15015 127.0.0.1 15013 
Nov 26 20:28:47.547 HYPERVISOR: exec_cmd: vm slot_add_nio_binding SW0_Management 1 1 udp-5499a275-4d7c-4b48-8445-9dc060777cc8 
Nov 26 20:28:47.548 HYPERVISOR: exec_cmd: vm get_status SW0_Management 
Nov 26 20:29:01.934 HYPERVISOR: exec_cmd: vm get_status SW0_Management 
Nov 26 20:29:01.937 HYPERVISOR: exec_cmd: vm extract_config SW0_Management 
Nov 26 20:29:01.941 HYPERVISOR: exec_cmd: vm delete SW0_Management 
Nov 26 20:29:01.941 VM: VM SW0_Management destroyed.
Nov 26 20:29:01.942 HYPERVISOR: exec_cmd: hypervisor stop 
Nov 26 20:29:01.973 HYPERVISOR: Stopped.
Nov 26 20:29:01.973 GENERAL: reset done.
