Nov 26 21:55:43.032 HYPERVISOR: Release 0.2.17-amd64/Linux (tag 2017072410)
Nov 26 21:55:43.032 HYPERVISOR: Started on IP = 127.0.0.1, TCP port = 38921.
Nov 26 21:55:43.078 HYPERVISOR: exec_cmd: hypervisor version 
Nov 26 21:55:43.080 HYPERVISOR: exec_cmd: hypervisor working_dir /media/actionmystique/SAMSUNG5-VMs/Labs/GNS3/v1-linux-/project-files/dynamips 
Nov 26 21:55:43.080 GENERAL: working_dir=/media/actionmystique/SAMSUNG5-VMs/Labs/GNS3/v1-linux-/project-files/dynamips
Nov 26 21:55:43.081 HYPERVISOR: exec_cmd: vm create R2 6 c7200 
Nov 26 21:55:43.081 VM: VM R2 created.
Nov 26 21:55:43.082 HYPERVISOR: exec_cmd: vm set_con_tcp_port R2 2001 
Nov 26 21:55:43.084 HYPERVISOR: exec_cmd: c7200 get_mac_addr R2 
Nov 26 21:55:43.085 HYPERVISOR: exec_cmd: vm get_status R2 
Nov 26 21:55:43.086 HYPERVISOR: exec_cmd: vm slot_add_binding R2 0 0 C7200-IO-FE 
Nov 26 21:55:43.088 HYPERVISOR: exec_cmd: vm get_status R2 
Nov 26 21:55:43.089 HYPERVISOR: exec_cmd: vm set_idle_pc R2 0x6062f0e0 
Nov 26 21:55:43.091 HYPERVISOR: exec_cmd: vm get_status R2 
Nov 26 21:55:43.093 HYPERVISOR: exec_cmd: vm slot_add_binding R2 1 0 PA-GE 
Nov 26 21:55:43.094 HYPERVISOR: exec_cmd: vm set_nvram R2 256 
Nov 26 21:55:43.096 HYPERVISOR: exec_cmd: vm get_status R2 
Nov 26 21:55:43.097 HYPERVISOR: exec_cmd: vm slot_add_binding R2 3 0 PA-GE 
Nov 26 21:55:43.099 HYPERVISOR: exec_cmd: vm get_status R2 
Nov 26 21:55:43.100 HYPERVISOR: exec_cmd: vm slot_remove_binding R2 0 0 
Nov 26 21:55:43.102 HYPERVISOR: exec_cmd: vm get_status R2 
Nov 26 21:55:43.120 HYPERVISOR: exec_cmd: vm slot_add_binding R2 0 0 C7200-IO-GE-E 
Nov 26 21:55:43.133 HYPERVISOR: exec_cmd: vm get_status R2 
Nov 26 21:55:43.139 HYPERVISOR: exec_cmd: vm slot_add_binding R2 4 0 PA-4T+ 
Nov 26 21:55:43.144 HYPERVISOR: exec_cmd: vm get_status R2 
Nov 26 21:55:43.145 HYPERVISOR: exec_cmd: vm slot_add_binding R2 2 0 PA-GE 
Nov 26 21:55:43.147 HYPERVISOR: exec_cmd: vm set_ram R2 512 
Nov 26 21:55:43.149 HYPERVISOR: exec_cmd: vm get_status R2 
Nov 26 21:55:43.150 HYPERVISOR: exec_cmd: vm slot_add_binding R2 6 0 PA-POS-OC3 
Nov 26 21:55:43.152 HYPERVISOR: exec_cmd: c7200 set_mac_addr R2 ca06.2e53.0000 
Nov 26 21:55:43.153 HYPERVISOR: exec_cmd: vm set_disk0 R2 1 
Nov 26 21:55:43.155 HYPERVISOR: exec_cmd: vm set_ios R2 /media/actionmystique/SAMSUNG5-VMs/Images/GNS3/IOS/c7200-adventerprisek9-mz.152-4.M2.image 
Nov 26 21:55:43.157 HYPERVISOR: exec_cmd: vm get_status R2 
Nov 26 21:55:43.159 HYPERVISOR: exec_cmd: vm slot_add_binding R2 5 0 PA-POS-OC3 
Nov 26 21:55:43.162 HYPERVISOR: exec_cmd: vm set_config R2 configs/i6_startup-config.cfg 
Nov 26 21:55:43.163 HYPERVISOR: exec_cmd: vm set_config R2 configs/i6_startup-config.cfg configs/i6_private-config.cfg 
Nov 26 21:55:44.136 HYPERVISOR: exec_cmd: nio create_udp udp-cd11e31f-3b72-41bb-a3c0-626d86d831d7 15020 127.0.0.1 15021 
Nov 26 21:55:44.137 HYPERVISOR: exec_cmd: vm slot_add_nio_binding R2 4 0 udp-cd11e31f-3b72-41bb-a3c0-626d86d831d7 
Nov 26 21:55:44.137 HYPERVISOR: exec_cmd: vm get_status R2 
Nov 26 21:56:01.266 HYPERVISOR: exec_cmd: vm get_status R2 
Nov 26 21:56:01.270 HYPERVISOR: exec_cmd: vm extract_config R2 
Nov 26 21:56:01.277 HYPERVISOR: exec_cmd: vm delete R2 
Nov 26 21:56:01.277 VM: VM R2 destroyed.
Nov 26 21:56:01.281 HYPERVISOR: exec_cmd: hypervisor stop 
Nov 26 21:56:01.592 HYPERVISOR: Stopped.
Nov 26 21:56:01.592 GENERAL: reset done.
