Nov 26 21:54:02.801 HYPERVISOR: Release 0.2.17-amd64/Linux (tag 2017072410)
Nov 26 21:54:02.802 HYPERVISOR: Started on IP = 127.0.0.1, TCP port = 48383.
Nov 26 21:54:02.838 HYPERVISOR: exec_cmd: hypervisor version 
Nov 26 21:54:02.839 HYPERVISOR: exec_cmd: hypervisor working_dir /media/actionmystique/SAMSUNG5-VMs/Labs/GNS3/git-Public-Labs-Collection/CCNP/TBSHOOT/Exam-Topology/Jean-Christophe_Manciot/1+/v1-linux/project-files/dynamips 
Nov 26 21:54:02.839 GENERAL: working_dir=/media/actionmystique/SAMSUNG5-VMs/Labs/GNS3/git-Public-Labs-Collection/CCNP/TBSHOOT/Exam-Topology/Jean-Christophe_Manciot/1+/v1-linux/project-files/dynamips
Nov 26 21:54:02.843 HYPERVISOR: exec_cmd: vm create R2 6 c7200 
Nov 26 21:54:02.843 VM: VM R2 created.
Nov 26 21:54:02.859 HYPERVISOR: exec_cmd: vm set_con_tcp_port R2 2001 
Nov 26 21:54:02.863 HYPERVISOR: exec_cmd: c7200 get_mac_addr R2 
Nov 26 21:54:02.866 HYPERVISOR: exec_cmd: vm get_status R2 
Nov 26 21:54:02.868 HYPERVISOR: exec_cmd: vm slot_add_binding R2 0 0 C7200-IO-FE 
Nov 26 21:54:02.870 HYPERVISOR: exec_cmd: vm get_status R2 
Nov 26 21:54:02.872 HYPERVISOR: exec_cmd: vm slot_add_binding R2 2 0 PA-GE 
Nov 26 21:54:02.874 HYPERVISOR: exec_cmd: vm get_status R2 
Nov 26 21:54:02.876 HYPERVISOR: exec_cmd: vm set_idle_pc R2 0x6062f0e0 
Nov 26 21:54:02.877 HYPERVISOR: exec_cmd: vm get_status R2 
Nov 26 21:54:02.879 HYPERVISOR: exec_cmd: vm slot_add_binding R2 1 0 PA-GE 
Nov 26 21:54:02.881 HYPERVISOR: exec_cmd: vm set_nvram R2 256 
Nov 26 21:54:02.882 HYPERVISOR: exec_cmd: vm get_status R2 
Nov 26 21:54:02.884 HYPERVISOR: exec_cmd: vm slot_add_binding R2 3 0 PA-GE 
Nov 26 21:54:02.886 HYPERVISOR: exec_cmd: vm get_status R2 
Nov 26 21:54:02.887 HYPERVISOR: exec_cmd: vm slot_remove_binding R2 0 0 
Nov 26 21:54:02.889 HYPERVISOR: exec_cmd: vm get_status R2 
Nov 26 21:54:02.890 HYPERVISOR: exec_cmd: vm slot_add_binding R2 0 0 C7200-IO-GE-E 
Nov 26 21:54:02.892 HYPERVISOR: exec_cmd: vm set_disk0 R2 1 
Nov 26 21:54:02.894 HYPERVISOR: exec_cmd: vm get_status R2 
Nov 26 21:54:02.895 HYPERVISOR: exec_cmd: vm slot_add_binding R2 4 0 PA-4T+ 
Nov 26 21:54:02.901 HYPERVISOR: exec_cmd: vm set_ram R2 512 
Nov 26 21:54:02.910 HYPERVISOR: exec_cmd: vm get_status R2 
Nov 26 21:54:02.913 HYPERVISOR: exec_cmd: vm slot_add_binding R2 6 0 PA-POS-OC3 
Nov 26 21:54:02.915 HYPERVISOR: exec_cmd: vm get_status R2 
Nov 26 21:54:02.917 HYPERVISOR: exec_cmd: vm slot_add_binding R2 5 0 PA-POS-OC3 
Nov 26 21:54:02.919 HYPERVISOR: exec_cmd: c7200 set_mac_addr R2 ca06.2e53.0000 
Nov 26 21:54:02.922 HYPERVISOR: exec_cmd: vm set_ios R2 /media/actionmystique/SAMSUNG5-VMs/Images/GNS3/IOS/c7200-adventerprisek9-mz.152-4.M2.image 
Nov 26 21:54:02.924 HYPERVISOR: exec_cmd: vm set_config R2 configs/i6_startup-config.cfg 
Nov 26 21:54:02.927 HYPERVISOR: exec_cmd: vm set_config R2 configs/i6_startup-config.cfg configs/i6_private-config.cfg 
Nov 26 21:54:03.961 HYPERVISOR: exec_cmd: nio create_udp udp-bfcc6e14-e6e2-46bb-bfae-1830810a2fbc 15028 127.0.0.1 15029 
Nov 26 21:54:03.961 HYPERVISOR: exec_cmd: vm slot_add_nio_binding R2 4 0 udp-bfcc6e14-e6e2-46bb-bfae-1830810a2fbc 
Nov 26 21:54:03.961 HYPERVISOR: exec_cmd: vm get_status R2 
Nov 26 21:55:05.514 HYPERVISOR: exec_cmd: vm extract_config R2 
