Nov 26 21:55:42.991 HYPERVISOR: Release 0.2.17-amd64/Linux (tag 2017072410)
Nov 26 21:55:42.991 HYPERVISOR: Started on IP = 127.0.0.1, TCP port = 57543.
Nov 26 21:55:43.013 HYPERVISOR: exec_cmd: hypervisor version 
Nov 26 21:55:43.013 HYPERVISOR: exec_cmd: hypervisor working_dir /media/actionmystique/SAMSUNG5-VMs/Labs/GNS3/v1-linux-/project-files/dynamips 
Nov 26 21:55:43.013 GENERAL: working_dir=/media/actionmystique/SAMSUNG5-VMs/Labs/GNS3/v1-linux-/project-files/dynamips
Nov 26 21:55:43.013 HYPERVISOR: exec_cmd: vm create ASW1 3 c3725 
Nov 26 21:55:43.013 VM: VM ASW1 created.
Nov 26 21:55:43.014 HYPERVISOR: exec_cmd: vm set_con_tcp_port ASW1 2007 
Nov 26 21:55:43.014 HYPERVISOR: exec_cmd: c3725 get_mac_addr ASW1 
Nov 26 21:55:43.014 HYPERVISOR: exec_cmd: vm slot_add_binding ASW1 0 16 WIC-2T 
Nov 26 21:55:43.015 HYPERVISOR: exec_cmd: vm get_status ASW1 
Nov 26 21:55:43.015 HYPERVISOR: exec_cmd: vm set_idle_pc ASW1 0x6026b804 
Nov 26 21:55:43.015 HYPERVISOR: exec_cmd: vm set_nvram ASW1 256 
Nov 26 21:55:43.016 HYPERVISOR: exec_cmd: vm get_status ASW1 
Nov 26 21:55:43.016 HYPERVISOR: exec_cmd: vm slot_add_binding ASW1 1 0 NM-16ESW 
Nov 26 21:55:43.016 HYPERVISOR: exec_cmd: vm set_ios ASW1 /media/actionmystique/SAMSUNG5-VMs/Images/GNS3/IOS/c3725-adventerprisek9-mz.124-15.T10.image 
Nov 26 21:55:43.017 HYPERVISOR: exec_cmd: vm set_disk0 ASW1 1 
Nov 26 21:55:43.017 HYPERVISOR: exec_cmd: c3725 set_mac_addr ASW1 c203.2c73.0000 
Nov 26 21:55:43.018 HYPERVISOR: exec_cmd: vm set_config ASW1 configs/i3_startup-config.cfg 
Nov 26 21:55:43.018 HYPERVISOR: exec_cmd: vm set_config ASW1 configs/i3_startup-config.cfg configs/i3_private-config.cfg 
Nov 26 21:55:43.797 HYPERVISOR: exec_cmd: nio create_udp udp-1d881afa-d31b-49ec-88cf-50c4e83a2fd6 15001 127.0.0.1 15000 
Nov 26 21:55:43.805 HYPERVISOR: exec_cmd: vm slot_add_nio_binding ASW1 1 1 udp-1d881afa-d31b-49ec-88cf-50c4e83a2fd6 
Nov 26 21:55:43.807 HYPERVISOR: exec_cmd: vm get_status ASW1 
Nov 26 21:55:43.950 HYPERVISOR: exec_cmd: nio create_udp udp-5f0d77b3-837d-44a5-9ee7-89f277aa2760 15002 127.0.0.1 15003 
Nov 26 21:55:43.952 HYPERVISOR: exec_cmd: vm slot_add_nio_binding ASW1 1 2 udp-5f0d77b3-837d-44a5-9ee7-89f277aa2760 
Nov 26 21:55:43.953 HYPERVISOR: exec_cmd: vm get_status ASW1 
Nov 26 21:55:43.984 HYPERVISOR: exec_cmd: nio create_udp udp-4c89f165-9bb3-41d0-b083-f79fc78bcc2a 15004 127.0.0.1 15005 
Nov 26 21:55:43.988 HYPERVISOR: exec_cmd: vm slot_add_nio_binding ASW1 1 11 udp-4c89f165-9bb3-41d0-b083-f79fc78bcc2a 
Nov 26 21:55:43.988 HYPERVISOR: exec_cmd: vm get_status ASW1 
Nov 26 21:55:43.998 HYPERVISOR: exec_cmd: nio create_udp udp-f4d66a13-0f02-4130-9daa-ae997b87cc6d 15007 127.0.0.1 15006 
Nov 26 21:55:44.002 HYPERVISOR: exec_cmd: vm slot_add_nio_binding ASW1 1 12 udp-f4d66a13-0f02-4130-9daa-ae997b87cc6d 
Nov 26 21:55:44.003 HYPERVISOR: exec_cmd: vm get_status ASW1 
Nov 26 21:55:44.032 HYPERVISOR: exec_cmd: nio create_udp udp-19eedaae-a7d1-4a67-a341-e78f16384464 15009 127.0.0.1 15008 
Nov 26 21:55:44.033 HYPERVISOR: exec_cmd: vm slot_add_nio_binding ASW1 1 9 udp-19eedaae-a7d1-4a67-a341-e78f16384464 
Nov 26 21:55:44.033 HYPERVISOR: exec_cmd: vm get_status ASW1 
Nov 26 21:55:44.055 HYPERVISOR: exec_cmd: nio create_udp udp-0284588d-1827-4177-8207-b1cc34e7b51e 15011 127.0.0.1 15010 
Nov 26 21:55:44.059 HYPERVISOR: exec_cmd: vm slot_add_nio_binding ASW1 1 10 udp-0284588d-1827-4177-8207-b1cc34e7b51e 
Nov 26 21:55:44.060 HYPERVISOR: exec_cmd: vm get_status ASW1 
Nov 26 21:55:44.413 HYPERVISOR: exec_cmd: nio create_udp udp-6cc1f3e3-2de9-461d-b6e4-c518a8816c04 15044 127.0.0.1 15045 
Nov 26 21:55:44.413 HYPERVISOR: exec_cmd: vm slot_add_nio_binding ASW1 1 3 udp-6cc1f3e3-2de9-461d-b6e4-c518a8816c04 
Nov 26 21:55:44.413 HYPERVISOR: exec_cmd: vm get_status ASW1 
Nov 26 21:56:01.265 HYPERVISOR: exec_cmd: vm get_status ASW1 
Nov 26 21:56:01.269 HYPERVISOR: exec_cmd: vm extract_config ASW1 
Nov 26 21:56:01.276 HYPERVISOR: exec_cmd: vm delete ASW1 
Nov 26 21:56:01.276 VM: VM ASW1 destroyed.
Nov 26 21:56:01.281 HYPERVISOR: exec_cmd: hypervisor stop 
Nov 26 21:56:01.532 HYPERVISOR: Stopped.
Nov 26 21:56:01.532 GENERAL: reset done.
