Nov 26 21:54:02.747 HYPERVISOR: Release 0.2.17-amd64/Linux (tag 2017072410)
Nov 26 21:54:02.747 HYPERVISOR: Started on IP = 127.0.0.1, TCP port = 34177.
Nov 26 21:54:02.749 HYPERVISOR: exec_cmd: hypervisor version 
Nov 26 21:54:02.750 HYPERVISOR: exec_cmd: hypervisor working_dir /media/actionmystique/SAMSUNG5-VMs/Labs/GNS3/git-Public-Labs-Collection/CCNP/TBSHOOT/Exam-Topology/Jean-Christophe_Manciot/1+/v1-linux/project-files/dynamips 
Nov 26 21:54:02.750 GENERAL: working_dir=/media/actionmystique/SAMSUNG5-VMs/Labs/GNS3/git-Public-Labs-Collection/CCNP/TBSHOOT/Exam-Topology/Jean-Christophe_Manciot/1+/v1-linux/project-files/dynamips
Nov 26 21:54:02.750 HYPERVISOR: exec_cmd: vm create ASW1 3 c3725 
Nov 26 21:54:02.750 VM: VM ASW1 created.
Nov 26 21:54:02.751 HYPERVISOR: exec_cmd: vm set_con_tcp_port ASW1 2007 
Nov 26 21:54:02.751 HYPERVISOR: exec_cmd: c3725 get_mac_addr ASW1 
Nov 26 21:54:02.751 HYPERVISOR: exec_cmd: vm slot_add_binding ASW1 0 16 WIC-2T 
Nov 26 21:54:02.752 HYPERVISOR: exec_cmd: vm get_status ASW1 
Nov 26 21:54:02.752 HYPERVISOR: exec_cmd: vm set_idle_pc ASW1 0x6026b804 
Nov 26 21:54:02.752 HYPERVISOR: exec_cmd: vm get_status ASW1 
Nov 26 21:54:02.753 HYPERVISOR: exec_cmd: vm slot_add_binding ASW1 1 0 NM-16ESW 
Nov 26 21:54:02.754 HYPERVISOR: exec_cmd: vm set_nvram ASW1 256 
Nov 26 21:54:02.755 HYPERVISOR: exec_cmd: vm set_ios ASW1 /media/actionmystique/SAMSUNG5-VMs/Images/GNS3/IOS/c3725-adventerprisek9-mz.124-15.T10.image 
Nov 26 21:54:02.756 HYPERVISOR: exec_cmd: vm set_disk0 ASW1 1 
Nov 26 21:54:02.757 HYPERVISOR: exec_cmd: c3725 set_mac_addr ASW1 c203.2c73.0000 
Nov 26 21:54:02.759 HYPERVISOR: exec_cmd: vm set_config ASW1 configs/i3_startup-config.cfg 
Nov 26 21:54:02.762 HYPERVISOR: exec_cmd: vm set_config ASW1 configs/i3_startup-config.cfg configs/i3_private-config.cfg 
Nov 26 21:54:03.693 HYPERVISOR: exec_cmd: nio create_udp udp-7511f1d5-193d-4bc4-8f02-639eb6518785 15001 127.0.0.1 15000 
Nov 26 21:54:03.693 HYPERVISOR: exec_cmd: vm slot_add_nio_binding ASW1 1 1 udp-7511f1d5-193d-4bc4-8f02-639eb6518785 
Nov 26 21:54:03.693 HYPERVISOR: exec_cmd: vm get_status ASW1 
Nov 26 21:54:03.700 HYPERVISOR: exec_cmd: nio create_udp udp-5957f7ac-30f4-48d9-8e07-7da64455b00b 15002 127.0.0.1 15003 
Nov 26 21:54:03.701 HYPERVISOR: exec_cmd: vm slot_add_nio_binding ASW1 1 2 udp-5957f7ac-30f4-48d9-8e07-7da64455b00b 
Nov 26 21:54:03.701 HYPERVISOR: exec_cmd: vm get_status ASW1 
Nov 26 21:54:03.726 HYPERVISOR: exec_cmd: nio create_udp udp-cc112cbf-632f-4dab-9666-f53ed627fc61 15005 127.0.0.1 15004 
Nov 26 21:54:03.727 HYPERVISOR: exec_cmd: vm slot_add_nio_binding ASW1 1 9 udp-cc112cbf-632f-4dab-9666-f53ed627fc61 
Nov 26 21:54:03.728 HYPERVISOR: exec_cmd: vm get_status ASW1 
Nov 26 21:54:03.750 HYPERVISOR: exec_cmd: nio create_udp udp-82383693-7c4d-487e-a54d-8c2e189244d7 15007 127.0.0.1 15006 
Nov 26 21:54:03.751 HYPERVISOR: exec_cmd: vm slot_add_nio_binding ASW1 1 10 udp-82383693-7c4d-487e-a54d-8c2e189244d7 
Nov 26 21:54:03.751 HYPERVISOR: exec_cmd: vm get_status ASW1 
Nov 26 21:54:03.817 HYPERVISOR: exec_cmd: nio create_udp udp-337ed6ac-12d7-4b49-8058-e2317b901e6e 15013 127.0.0.1 15011 
Nov 26 21:54:03.817 HYPERVISOR: exec_cmd: vm slot_add_nio_binding ASW1 1 11 udp-337ed6ac-12d7-4b49-8058-e2317b901e6e 
Nov 26 21:54:03.818 HYPERVISOR: exec_cmd: vm get_status ASW1 
Nov 26 21:54:03.828 HYPERVISOR: exec_cmd: nio create_udp udp-43fb97dc-89df-4c89-b287-026456b6f58b 15015 127.0.0.1 15014 
Nov 26 21:54:03.831 HYPERVISOR: exec_cmd: vm slot_add_nio_binding ASW1 1 12 udp-43fb97dc-89df-4c89-b287-026456b6f58b 
Nov 26 21:54:03.833 HYPERVISOR: exec_cmd: vm get_status ASW1 
Nov 26 21:54:04.152 HYPERVISOR: exec_cmd: nio create_udp udp-8e606220-2057-4ca5-93de-0b995f8ddda9 15046 127.0.0.1 15044 
Nov 26 21:54:04.153 HYPERVISOR: exec_cmd: vm slot_add_nio_binding ASW1 1 3 udp-8e606220-2057-4ca5-93de-0b995f8ddda9 
Nov 26 21:54:04.153 HYPERVISOR: exec_cmd: vm get_status ASW1 
Nov 26 21:55:05.538 HYPERVISOR: exec_cmd: vm extract_config ASW1 
