Nov 27 15:43:06.537 HYPERVISOR: Release 0.2.17-amd64/Linux (tag 2017072410)
Nov 27 15:43:06.537 HYPERVISOR: Started on IP = 127.0.0.1, TCP port = 43045.
Nov 27 15:43:06.564 HYPERVISOR: exec_cmd: hypervisor version 
Nov 27 15:43:06.565 HYPERVISOR: exec_cmd: hypervisor working_dir /media/actionmystique/SAMSUNG5-VMs/Labs/GNS3/TT 1-linux-/project-files/dynamips 
Nov 27 15:43:06.565 GENERAL: working_dir=/media/actionmystique/SAMSUNG5-VMs/Labs/GNS3/TT 1-linux-/project-files/dynamips
Nov 27 15:43:06.565 HYPERVISOR: exec_cmd: vm create ESW1 1 c3725 
Nov 27 15:43:06.565 VM: VM ESW1 created.
Nov 27 15:43:06.565 HYPERVISOR: exec_cmd: vm set_con_tcp_port ESW1 2004 
Nov 27 15:43:06.566 HYPERVISOR: exec_cmd: c3725 get_mac_addr ESW1 
Nov 27 15:43:06.566 HYPERVISOR: exec_cmd: c3725 set_mac_addr ESW1 c201.7005.0000 
Nov 27 15:43:06.566 HYPERVISOR: exec_cmd: vm get_status ESW1 
Nov 27 15:43:06.567 HYPERVISOR: exec_cmd: vm slot_add_binding ESW1 1 0 NM-16ESW 
Nov 27 15:43:06.567 HYPERVISOR: exec_cmd: vm get_status ESW1 
Nov 27 15:43:06.567 HYPERVISOR: exec_cmd: vm set_idle_pc ESW1 0x614ac27c 
Nov 27 15:43:06.569 HYPERVISOR: exec_cmd: vm slot_add_binding ESW1 0 16 WIC-2T 
Nov 27 15:43:06.570 HYPERVISOR: exec_cmd: vm set_ios ESW1 /media/actionmystique/SAMSUNG5-VMs/Images/GNS3/IOS/c3725-adventerprisek9-mz.124-15.T10.image 
Nov 27 15:43:06.571 HYPERVISOR: exec_cmd: vm set_disk0 ESW1 1 
Nov 27 15:43:06.572 HYPERVISOR: exec_cmd: vm set_nvram ESW1 256 
Nov 27 15:43:06.574 HYPERVISOR: exec_cmd: vm set_config ESW1 configs/i1_startup-config.cfg 
Nov 27 15:43:06.574 HYPERVISOR: exec_cmd: vm set_config ESW1 configs/i1_startup-config.cfg configs/i1_private-config.cfg 
Nov 27 15:43:06.705 HYPERVISOR: exec_cmd: nio create_udp udp-ad85d2b2-b780-4d52-a92d-6026d611efa5 15001 127.0.0.1 15005 
Nov 27 15:43:06.705 HYPERVISOR: exec_cmd: vm slot_add_nio_binding ESW1 1 0 udp-ad85d2b2-b780-4d52-a92d-6026d611efa5 
Nov 27 15:43:06.706 HYPERVISOR: exec_cmd: vm get_status ESW1 
Nov 27 15:43:18.032 HYPERVISOR: exec_cmd: vm get_status ESW1 
Nov 27 15:43:18.033 HYPERVISOR: exec_cmd: vm extract_config ESW1 
Nov 27 15:43:18.033 HYPERVISOR: exec_cmd: vm delete ESW1 
Nov 27 15:43:18.033 VM: VM ESW1 destroyed.
Nov 27 15:43:18.034 HYPERVISOR: exec_cmd: hypervisor stop 
Nov 27 15:43:18.076 HYPERVISOR: Stopped.
Nov 27 15:43:18.076 GENERAL: reset done.
