Nov 29 19:03:53.114 HYPERVISOR: Release 0.2.17-amd64/Linux (tag 2017072410)
Nov 29 19:03:53.114 HYPERVISOR: Started on IP = 127.0.0.1, TCP port = 41949.
Nov 29 19:03:53.129 HYPERVISOR: exec_cmd: hypervisor version 
Nov 29 19:03:53.130 HYPERVISOR: exec_cmd: hypervisor working_dir /media/actionmystique/SAMSUNG5-VMs/Labs/GNS3/git-Public-Labs-Collection/CCNP/TBSHOOT/L3-Technologies/IPv6/Routing-Protocols/EIGRPv6/Jean-Christophe_Manciot/1+/TT 1-solutions-linux/project-files/dynamips 
Nov 29 19:03:53.130 GENERAL: working_dir=/media/actionmystique/SAMSUNG5-VMs/Labs/GNS3/git-Public-Labs-Collection/CCNP/TBSHOOT/L3-Technologies/IPv6/Routing-Protocols/EIGRPv6/Jean-Christophe_Manciot/1+/TT 1-solutions-linux/project-files/dynamips
Nov 29 19:03:53.130 HYPERVISOR: exec_cmd: vm create ESW1 1 c3725 
Nov 29 19:03:53.130 VM: VM ESW1 created.
Nov 29 19:03:53.131 HYPERVISOR: exec_cmd: vm set_con_tcp_port ESW1 2004 
Nov 29 19:03:53.131 HYPERVISOR: exec_cmd: c3725 get_mac_addr ESW1 
Nov 29 19:03:53.132 HYPERVISOR: exec_cmd: vm slot_add_binding ESW1 0 16 WIC-2T 
Nov 29 19:03:53.133 HYPERVISOR: exec_cmd: vm set_ios ESW1 /media/actionmystique/SAMSUNG5-VMs/Images/GNS3/IOS/c3725-adventerprisek9-mz.124-15.T10.image 
Nov 29 19:03:53.133 HYPERVISOR: exec_cmd: vm get_status ESW1 
Nov 29 19:03:53.135 HYPERVISOR: exec_cmd: vm set_idle_pc ESW1 0x60c06d20 
Nov 29 19:03:53.136 HYPERVISOR: exec_cmd: vm get_status ESW1 
Nov 29 19:03:53.138 HYPERVISOR: exec_cmd: vm slot_add_binding ESW1 1 0 NM-16ESW 
Nov 29 19:03:53.140 HYPERVISOR: exec_cmd: c3725 set_mac_addr ESW1 c201.1b91.0000 
Nov 29 19:03:53.142 HYPERVISOR: exec_cmd: vm set_disk0 ESW1 1 
Nov 29 19:03:53.144 HYPERVISOR: exec_cmd: vm set_nvram ESW1 256 
Nov 29 19:03:53.145 HYPERVISOR: exec_cmd: vm set_config ESW1 configs/ios_base_startup-config.txt 
Nov 29 19:04:01.340 HYPERVISOR: exec_cmd: vm get_status ESW1 
Nov 29 19:04:01.342 HYPERVISOR: exec_cmd: vm extract_config ESW1 
Nov 29 19:04:01.356 HYPERVISOR: exec_cmd: vm delete ESW1 
Nov 29 19:04:01.356 VM: VM ESW1 destroyed.
Nov 29 19:04:01.358 HYPERVISOR: exec_cmd: hypervisor stop 
Nov 29 19:04:01.631 HYPERVISOR: Stopped.
Nov 29 19:04:01.631 GENERAL: reset done.
