Nov 26 20:44:10.207 HYPERVISOR: Release 0.2.17-amd64/Linux (tag 2017072410)
Nov 26 20:44:10.207 HYPERVISOR: Started on IP = 127.0.0.1, TCP port = 36859.
Nov 26 20:44:10.227 HYPERVISOR: exec_cmd: hypervisor version 
Nov 26 20:44:10.236 HYPERVISOR: exec_cmd: hypervisor working_dir /media/actionmystique/SAMSUNG5-VMs/Labs/GNS3/Redistribution/project-files/dynamips 
Nov 26 20:44:10.236 GENERAL: working_dir=/media/actionmystique/SAMSUNG5-VMs/Labs/GNS3/Redistribution/project-files/dynamips
Nov 26 20:44:10.238 HYPERVISOR: exec_cmd: vm create R7 4 c7200 
Nov 26 20:44:10.238 VM: VM R7 created.
Nov 26 20:44:10.240 HYPERVISOR: exec_cmd: vm set_con_tcp_port R7 2004 
Nov 26 20:44:10.241 HYPERVISOR: exec_cmd: vm set_aux_tcp_port R7 2101 
Nov 26 20:44:10.242 HYPERVISOR: exec_cmd: c7200 get_mac_addr R7 
Nov 26 20:44:10.244 HYPERVISOR: exec_cmd: vm get_status R7 
Nov 26 20:44:10.245 HYPERVISOR: exec_cmd: vm slot_add_binding R7 0 0 C7200-IO-FE 
Nov 26 20:44:10.246 HYPERVISOR: exec_cmd: vm get_status R7 
Nov 26 20:44:10.248 HYPERVISOR: exec_cmd: vm slot_remove_binding R7 0 0 
Nov 26 20:44:10.250 HYPERVISOR: exec_cmd: vm get_status R7 
Nov 26 20:44:10.256 HYPERVISOR: exec_cmd: vm slot_add_binding R7 0 0 C7200-IO-GE-E 
Nov 26 20:44:10.266 HYPERVISOR: exec_cmd: vm get_status R7 
Nov 26 20:44:10.268 HYPERVISOR: exec_cmd: vm slot_add_binding R7 2 0 PA-GE 
Nov 26 20:44:10.270 HYPERVISOR: exec_cmd: vm set_ram R7 512 
Nov 26 20:44:10.271 HYPERVISOR: exec_cmd: vm get_status R7 
Nov 26 20:44:10.272 HYPERVISOR: exec_cmd: vm set_idle_pc R7 0x60188e14 
Nov 26 20:44:10.279 HYPERVISOR: exec_cmd: vm get_status R7 
Nov 26 20:44:10.291 HYPERVISOR: exec_cmd: vm slot_add_binding R7 1 0 PA-8T 
Nov 26 20:44:10.293 HYPERVISOR: exec_cmd: vm set_con_tcp_port R7 2004 
Nov 26 20:44:10.300 HYPERVISOR: exec_cmd: vm set_ios R7 /media/actionmystique/SAMSUNG5-VMs/Images/GNS3/IOS/c7200-adventerprisek9-mz.152-4.M2.image 
Nov 26 20:44:10.312 HYPERVISOR: exec_cmd: vm set_config R7 configs/i4_startup-config.cfg 
Nov 26 20:44:11.187 HYPERVISOR: exec_cmd: vm extract_config R7 
Nov 26 20:44:11.333 HYPERVISOR: exec_cmd: nio create_udp udp-a10c6597-4e0c-414a-b1e4-4e649be520b1 15016 127.0.0.1 15017 
Nov 26 20:44:11.333 HYPERVISOR: exec_cmd: vm slot_add_nio_binding R7 0 0 udp-a10c6597-4e0c-414a-b1e4-4e649be520b1 
Nov 26 20:44:11.333 HYPERVISOR: exec_cmd: vm get_status R7 
Nov 26 20:44:11.341 HYPERVISOR: exec_cmd: nio create_udp udp-86d7f205-32c3-4a02-b4ca-529cbad83ece 15018 127.0.0.1 15020 
Nov 26 20:44:11.342 HYPERVISOR: exec_cmd: vm slot_add_nio_binding R7 1 0 udp-86d7f205-32c3-4a02-b4ca-529cbad83ece 
Nov 26 20:44:11.342 HYPERVISOR: exec_cmd: vm get_status R7 
Nov 26 20:44:11.380 HYPERVISOR: exec_cmd: nio create_udp udp-6527c6e6-8636-44bb-9cdf-d1a5bc7198d5 15021 127.0.0.1 15023 
Nov 26 20:44:11.381 HYPERVISOR: exec_cmd: vm slot_add_nio_binding R7 2 0 udp-6527c6e6-8636-44bb-9cdf-d1a5bc7198d5 
Nov 26 20:44:11.381 HYPERVISOR: exec_cmd: vm get_status R7 
Nov 26 20:44:11.662 HYPERVISOR: exec_cmd: nio create_udp udp-d162df18-506e-436b-a773-033c3e2c4692 15049 127.0.0.1 15048 
Nov 26 20:44:11.662 HYPERVISOR: exec_cmd: vm slot_add_nio_binding R7 1 1 udp-d162df18-506e-436b-a773-033c3e2c4692 
Nov 26 20:44:11.663 HYPERVISOR: exec_cmd: vm get_status R7 
Nov 26 20:44:11.707 HYPERVISOR: exec_cmd: nio create_udp udp-3af6eab1-572f-4b5c-a13c-425e7b5263f6 15052 127.0.0.1 15054 
Nov 26 20:44:11.708 HYPERVISOR: exec_cmd: vm slot_add_nio_binding R7 1 2 udp-3af6eab1-572f-4b5c-a13c-425e7b5263f6 
Nov 26 20:44:11.709 HYPERVISOR: exec_cmd: vm get_status R7 
Nov 26 20:44:47.082 HYPERVISOR: exec_cmd: vm extract_config R7 
Nov 26 20:45:10.992 HYPERVISOR: exec_cmd: vm get_status R7 
Nov 26 20:45:10.996 HYPERVISOR: exec_cmd: vm extract_config R7 
Nov 26 20:45:11.000 HYPERVISOR: exec_cmd: vm delete R7 
Nov 26 20:45:11.000 VM: VM R7 destroyed.
Nov 26 20:45:11.004 HYPERVISOR: exec_cmd: hypervisor stop 
Nov 26 20:45:11.282 HYPERVISOR: Stopped.
Nov 26 20:45:11.282 GENERAL: reset done.
