Nov 26 21:04:08.196 HYPERVISOR: Release 0.2.17-amd64/Linux (tag 2017072410)
Nov 26 21:04:08.197 HYPERVISOR: Started on IP = 127.0.0.1, TCP port = 40379.
Nov 26 21:04:08.247 HYPERVISOR: exec_cmd: hypervisor version 
Nov 26 21:04:08.260 HYPERVISOR: exec_cmd: hypervisor working_dir /media/actionmystique/SAMSUNG5-VMs/Labs/GNS3/PVST+ GLBP/project-files/dynamips 
Nov 26 21:04:08.260 GENERAL: working_dir=/media/actionmystique/SAMSUNG5-VMs/Labs/GNS3/PVST+ GLBP/project-files/dynamips
Nov 26 21:04:08.263 HYPERVISOR: exec_cmd: vm create Server_3151 11 c2691 
Nov 26 21:04:08.263 VM: VM Server_3151 created.
Nov 26 21:04:08.265 HYPERVISOR: exec_cmd: vm set_con_tcp_port Server_3151 2057 
Nov 26 21:04:08.266 HYPERVISOR: exec_cmd: vm set_aux_tcp_port Server_3151 2557 
Nov 26 21:04:08.268 HYPERVISOR: exec_cmd: c2691 get_mac_addr Server_3151 
Nov 26 21:04:08.269 HYPERVISOR: exec_cmd: vm set_ios Server_3151 /media/actionmystique/SAMSUNG5-VMs/Images/GNS3/IOS/c2691-adventerprisek9-mz.124-15.T7.bin 
Nov 26 21:04:08.270 HYPERVISOR: exec_cmd: vm set_ram Server_3151 192 
Nov 26 21:04:08.278 HYPERVISOR: exec_cmd: vm get_status Server_3151 
Nov 26 21:04:08.291 HYPERVISOR: exec_cmd: vm set_idle_pc Server_3151 0x60264748 
Nov 26 21:04:08.293 HYPERVISOR: exec_cmd: vm get_status Server_3151 
Nov 26 21:04:08.296 HYPERVISOR: exec_cmd: vm slot_add_binding Server_3151 1 0 NM-1FE-TX 
Nov 26 21:04:08.297 HYPERVISOR: exec_cmd: vm set_config Server_3151 configs/i11_startup-config.cfg 
Nov 26 21:04:09.609 HYPERVISOR: exec_cmd: vm extract_config Server_3151 
Nov 26 21:04:10.138 HYPERVISOR: exec_cmd: nio create_udp udp-00afd922-8147-429b-9792-71bdbfd2fbe6 15054 127.0.0.1 15052 
Nov 26 21:04:10.139 HYPERVISOR: exec_cmd: vm slot_add_nio_binding Server_3151 1 0 udp-00afd922-8147-429b-9792-71bdbfd2fbe6 
Nov 26 21:04:10.140 HYPERVISOR: exec_cmd: vm get_status Server_3151 
Nov 26 21:04:36.147 HYPERVISOR: exec_cmd: vm get_status Server_3151 
Nov 26 21:04:36.152 HYPERVISOR: exec_cmd: vm extract_config Server_3151 
Nov 26 21:04:36.159 HYPERVISOR: exec_cmd: vm delete Server_3151 
Nov 26 21:04:36.159 VM: VM Server_3151 destroyed.
Nov 26 21:04:36.162 HYPERVISOR: exec_cmd: hypervisor stop 
Nov 26 21:04:36.263 HYPERVISOR: Stopped.
Nov 26 21:04:36.263 GENERAL: reset done.
