Jun 07 15:14:08.239 HYPERVISOR: Release 0.2.16-amd64/Linux (tag 2015060118)
Jun 07 15:14:08.239 HYPERVISOR: Started on IP = 127.0.0.1, TCP port = 34079.
Jun 07 15:14:08.241 HYPERVISOR: exec_cmd: hypervisor version 
Jun 07 15:14:08.243 HYPERVISOR: exec_cmd: hypervisor working_dir /media/actionmystique/SAMSUNG-850-Ext4/Labs/GNS3/git-Public-Labs-Collection/CCNP/TBSHOOT/L3-Technologies/IPv4/VRF/Jean-Christophe_Manciot/1+/Leaf & Spine DC-2-solutions-linux/project-files/dynamips 
Jun 07 15:14:08.243 GENERAL: working_dir=/media/actionmystique/SAMSUNG-850-Ext4/Labs/GNS3/git-Public-Labs-Collection/CCNP/TBSHOOT/L3-Technologies/IPv4/VRF/Jean-Christophe_Manciot/1+/Leaf & Spine DC-2-solutions-linux/project-files/dynamips
Jun 07 15:14:08.244 HYPERVISOR: exec_cmd: vm create Mgt 1 c3725 
Jun 07 15:14:08.244 VM: VM Mgt created.
Jun 07 15:14:08.245 HYPERVISOR: exec_cmd: vm set_con_tcp_port Mgt 2017 
Jun 07 15:14:08.245 HYPERVISOR: exec_cmd: c3725 get_mac_addr Mgt 
Jun 07 15:14:08.246 HYPERVISOR: exec_cmd: vm set_ios Mgt /media/actionmystique/SAMSUNG-850-Ext4/Images/GNS3/IOS/c3725-adventerprisek9-mz.124-15.T10.image 
Jun 07 15:14:08.246 HYPERVISOR: exec_cmd: vm get_status Mgt 
Jun 07 15:14:08.246 HYPERVISOR: exec_cmd: vm slot_add_binding Mgt 1 0 NM-16ESW 
Jun 07 15:14:08.247 HYPERVISOR: exec_cmd: vm set_nvram Mgt 256 
Jun 07 15:14:08.247 HYPERVISOR: exec_cmd: vm get_status Mgt 
Jun 07 15:14:08.247 HYPERVISOR: exec_cmd: vm set_idle_pc Mgt 0x6026b804 
Jun 07 15:14:08.248 HYPERVISOR: exec_cmd: c3725 set_mac_addr Mgt c201.1066.0000 
Jun 07 15:14:08.248 HYPERVISOR: exec_cmd: vm slot_add_binding Mgt 0 16 WIC-2T 
Jun 07 15:14:08.249 HYPERVISOR: exec_cmd: vm set_disk0 Mgt 1 
Jun 07 15:14:08.249 HYPERVISOR: exec_cmd: vm set_config Mgt configs/i1_startup-config.cfg 
Jun 07 15:14:08.251 HYPERVISOR: exec_cmd: vm set_config Mgt configs/i1_startup-config.cfg configs/i1_private-config.cfg 
Jun 07 15:14:08.942 HYPERVISOR: exec_cmd: nio create_tap tap-9e0bb27c-5e1b-4e6f-9efd-eac4b022a971 tap1 
Jun 07 15:14:08.943 HYPERVISOR: exec_cmd: vm slot_add_nio_binding Mgt 1 0 tap-9e0bb27c-5e1b-4e6f-9efd-eac4b022a971 
Jun 07 15:14:08.944 HYPERVISOR: exec_cmd: vm get_status Mgt 
Jun 07 15:14:09.249 HYPERVISOR: exec_cmd: nio create_udp udp-ee3e5aee-f040-457d-b7ef-d16f41e549d3 15058 127.0.0.1 15059 
Jun 07 15:14:09.251 HYPERVISOR: exec_cmd: vm slot_add_nio_binding Mgt 1 5 udp-ee3e5aee-f040-457d-b7ef-d16f41e549d3 
Jun 07 15:14:09.257 HYPERVISOR: exec_cmd: vm get_status Mgt 
Jun 07 15:14:09.263 HYPERVISOR: exec_cmd: nio create_udp udp-35a10e7b-8f49-40cb-8df6-999d12482e76 15060 127.0.0.1 15061 
Jun 07 15:14:09.264 HYPERVISOR: exec_cmd: vm slot_add_nio_binding Mgt 1 6 udp-35a10e7b-8f49-40cb-8df6-999d12482e76 
Jun 07 15:14:09.265 HYPERVISOR: exec_cmd: vm get_status Mgt 
Jun 07 15:14:09.289 HYPERVISOR: exec_cmd: nio create_udp udp-a6f99f88-f698-4837-beac-2167853ef121 15062 127.0.0.1 15063 
Jun 07 15:14:09.289 HYPERVISOR: exec_cmd: vm slot_add_nio_binding Mgt 1 1 udp-a6f99f88-f698-4837-beac-2167853ef121 
Jun 07 15:14:09.290 HYPERVISOR: exec_cmd: vm get_status Mgt 
Jun 07 15:14:09.311 HYPERVISOR: exec_cmd: nio create_udp udp-cea01794-81d0-44c4-92a5-848eec3d3495 15064 127.0.0.1 15065 
Jun 07 15:14:09.320 HYPERVISOR: exec_cmd: vm slot_add_nio_binding Mgt 1 2 udp-cea01794-81d0-44c4-92a5-848eec3d3495 
Jun 07 15:14:09.321 HYPERVISOR: exec_cmd: vm get_status Mgt 
Jun 07 15:14:09.327 HYPERVISOR: exec_cmd: nio create_udp udp-cdf0a794-c12e-41b4-8276-52f0ef30be1d 15066 127.0.0.1 15067 
Jun 07 15:14:09.328 HYPERVISOR: exec_cmd: vm slot_add_nio_binding Mgt 1 3 udp-cdf0a794-c12e-41b4-8276-52f0ef30be1d 
Jun 07 15:14:09.328 HYPERVISOR: exec_cmd: vm get_status Mgt 
Jun 07 15:14:09.353 HYPERVISOR: exec_cmd: nio create_udp udp-6be76e17-ea99-4e70-aa3f-331c1c09571e 15068 127.0.0.1 15069 
Jun 07 15:14:09.354 HYPERVISOR: exec_cmd: vm slot_add_nio_binding Mgt 1 4 udp-6be76e17-ea99-4e70-aa3f-331c1c09571e 
Jun 07 15:14:09.354 HYPERVISOR: exec_cmd: vm get_status Mgt 
Jun 07 15:14:09.374 HYPERVISOR: exec_cmd: nio create_udp udp-4d663f56-29ae-46b1-983a-8953f48da0dd 15070 127.0.0.1 15071 
Jun 07 15:14:09.375 HYPERVISOR: exec_cmd: vm slot_add_nio_binding Mgt 1 11 udp-4d663f56-29ae-46b1-983a-8953f48da0dd 
Jun 07 15:14:09.375 HYPERVISOR: exec_cmd: vm get_status Mgt 
Jun 07 15:14:09.388 HYPERVISOR: exec_cmd: nio create_udp udp-0a094556-2067-4a6d-8f76-959ea0c9fd84 15072 127.0.0.1 15073 
Jun 07 15:14:09.388 HYPERVISOR: exec_cmd: vm slot_add_nio_binding Mgt 1 12 udp-0a094556-2067-4a6d-8f76-959ea0c9fd84 
Jun 07 15:14:09.389 HYPERVISOR: exec_cmd: vm get_status Mgt 
Jun 07 15:14:23.648 HYPERVISOR: exec_cmd: vm create Ghost 0 c3725 
Jun 07 15:14:23.648 VM: VM Ghost created.
Jun 07 15:14:23.668 HYPERVISOR: exec_cmd: vm set_ios Ghost /media/actionmystique/SAMSUNG-850-Ext4/Images/GNS3/IOS/c3725-adventerprisek9-mz.124-15.T10.image 
Jun 07 15:14:23.674 HYPERVISOR: exec_cmd: vm set_ghost_status Ghost 1 
Jun 07 15:14:23.691 HYPERVISOR: exec_cmd: vm set_ghost_file Ghost c3725-adventerprisek9-mz.124-15.T10.image-128.ghost 
Jun 07 15:14:23.692 HYPERVISOR: exec_cmd: vm get_status Ghost 
Jun 07 15:14:23.698 HYPERVISOR: exec_cmd: vm start Ghost 
Jun 07 15:14:24.210 HYPERVISOR: exec_cmd: vm get_status Ghost 
Jun 07 15:14:24.222 HYPERVISOR: exec_cmd: vm stop Ghost 
Jun 07 15:14:24.326 VM: VM Ghost shutdown.
Jun 07 15:14:24.330 HYPERVISOR: exec_cmd: vm clean_delete Ghost 
Jun 07 15:14:24.330 VM: VM Ghost destroyed.
Jun 07 15:14:24.331 HYPERVISOR: exec_cmd: vm set_ghost_status Mgt 2 
Jun 07 15:14:24.331 HYPERVISOR: exec_cmd: vm set_ghost_file Mgt c3725-adventerprisek9-mz.124-15.T10.image-128.ghost 
Jun 07 15:14:24.332 HYPERVISOR: exec_cmd: vm get_status Mgt 
Jun 07 15:14:24.333 HYPERVISOR: exec_cmd: vm start Mgt 
Jun 07 15:25:57.122 HYPERVISOR: exec_cmd: vm get_status Mgt 
Jun 07 15:25:57.124 HYPERVISOR: exec_cmd: vm stop Mgt 
Jun 07 15:25:57.364 VM: VM Mgt shutdown.
Jun 07 15:25:57.364 HYPERVISOR: exec_cmd: vm extract_config Mgt 
Jun 07 15:26:01.475 HYPERVISOR: exec_cmd: vm get_status Mgt 
Jun 07 15:26:01.477 HYPERVISOR: exec_cmd: vm extract_config Mgt 
Jun 07 15:26:01.478 HYPERVISOR: exec_cmd: vm delete Mgt 
Jun 07 15:26:01.478 VM: VM Mgt destroyed.
Jun 07 15:26:01.478 HYPERVISOR: exec_cmd: hypervisor stop 
Jun 07 15:26:01.901 HYPERVISOR: Stopped.
Jun 07 15:26:01.901 GENERAL: reset done.
