Nov 27 16:15:21.990 HYPERVISOR: Release 0.2.17-amd64/Linux (tag 2017072410)
Nov 27 16:15:21.990 HYPERVISOR: Started on IP = 127.0.0.1, TCP port = 42709.
Nov 27 16:15:21.998 HYPERVISOR: exec_cmd: hypervisor version 
Nov 27 16:15:21.999 HYPERVISOR: exec_cmd: hypervisor working_dir /media/actionmystique/SAMSUNG5-VMs/Labs/GNS3/git-Public-Labs-Collection/CCNP/TBSHOOT/L2-Technologies/STP/Jean-Christophe_Manciot/1+/TT 3-linux/project-files/dynamips 
Nov 27 16:15:21.999 GENERAL: working_dir=/media/actionmystique/SAMSUNG5-VMs/Labs/GNS3/git-Public-Labs-Collection/CCNP/TBSHOOT/L2-Technologies/STP/Jean-Christophe_Manciot/1+/TT 3-linux/project-files/dynamips
Nov 27 16:15:21.999 HYPERVISOR: exec_cmd: vm create PC1 4 c3725 
Nov 27 16:15:21.999 VM: VM PC1 created.
Nov 27 16:15:21.999 HYPERVISOR: exec_cmd: vm set_con_tcp_port PC1 2004 
Nov 27 16:15:22.000 HYPERVISOR: exec_cmd: c3725 get_mac_addr PC1 
Nov 27 16:15:22.000 HYPERVISOR: exec_cmd: vm get_status PC1 
Nov 27 16:15:22.000 HYPERVISOR: exec_cmd: vm slot_add_binding PC1 1 0 NM-16ESW 
Nov 27 16:15:22.001 HYPERVISOR: exec_cmd: vm set_nvram PC1 256 
Nov 27 16:15:22.001 HYPERVISOR: exec_cmd: vm get_status PC1 
Nov 27 16:15:22.002 HYPERVISOR: exec_cmd: vm set_idle_pc PC1 0x614ac2c4 
Nov 27 16:15:22.002 HYPERVISOR: exec_cmd: c3725 set_mac_addr PC1 c204.12d0.0000 
Nov 27 16:15:22.002 HYPERVISOR: exec_cmd: vm set_ios PC1 /media/actionmystique/SAMSUNG5-VMs/Images/GNS3/IOS/c3725-adventerprisek9-mz.124-15.T10.image 
Nov 27 16:15:22.003 HYPERVISOR: exec_cmd: vm set_exec_area PC1 16 
Nov 27 16:15:22.003 HYPERVISOR: exec_cmd: vm slot_add_binding PC1 0 16 WIC-2T 
Nov 27 16:15:22.003 HYPERVISOR: exec_cmd: vm set_disk0 PC1 1 
Nov 27 16:15:22.004 HYPERVISOR: exec_cmd: vm set_config PC1 configs/i4_startup-config.cfg 
Nov 27 16:15:22.004 HYPERVISOR: exec_cmd: vm set_config PC1 configs/i4_startup-config.cfg configs/i4_private-config.cfg 
Nov 27 16:15:22.177 HYPERVISOR: exec_cmd: nio create_udp udp-c93788b2-0c1f-4318-b025-eb5fbce1d47d 15002 127.0.0.1 15003 
Nov 27 16:15:22.177 HYPERVISOR: exec_cmd: vm slot_add_nio_binding PC1 1 0 udp-c93788b2-0c1f-4318-b025-eb5fbce1d47d 
Nov 27 16:15:22.178 HYPERVISOR: exec_cmd: vm get_status PC1 
