autostart = False
version = 0.8.2
[127.0.0.1:7200]
    workingdir = C:\Users\ActionMystique\Documents\Missions\GNS3\Temp
    udp = 10000
    [[3725]]
        image = C:\Users\ActionMystique\Documents\Missions\IOS\Binaries\c3725-adventerprisek9-mz.124-15.T5.image
        ram = 128
        idlepc = 0x60bf1f5c
        sparsemem = True
        ghostios = True
    [[ROUTER R4]]
        model = 3725
        console = 2003
        aux = 2100
        cnfg = configs\R4.cfg
        wic0/0 = WIC-2T
        wic0/1 = WIC-2T
        s0/0 = R3_FR s0/2
        slot1 = NM-1FE-TX
        slot2 = NM-1FE-TX
        x = 237.0
        y = 64.0
        z = 1.0
    [[ROUTER R3_FR]]
        model = 3725
        console = 2001
        aux = 2101
        cnfg = configs\R3_FR.cfg
        wic0/0 = WIC-2T
        wic0/1 = WIC-2T
        s0/0 = R1 s0/1
        s0/1 = R2 s0/1
        s0/2 = R4 s0/0
        slot1 = NM-1FE-TX
        slot2 = NM-1FE-TX
        x = -50.0
        y = -87.0
        z = 1.0
    [[ROUTER R2]]
        model = 3725
        console = 2002
        aux = 2103
        cnfg = configs\R2.cfg
        wic0/0 = WIC-2T
        wic0/1 = WIC-2T
        s0/1 = R3_FR s0/1
        slot1 = NM-1FE-TX
        slot2 = NM-1FE-TX
        x = 231.0
        y = -235.0
        z = 1.0
    [[ROUTER R1]]
        model = 3725
        console = 2000
        aux = 2102
        cnfg = configs\R1.cfg
        wic0/0 = WIC-2T
        wic0/1 = WIC-2T
        s0/1 = R3_FR s0/0
        slot1 = NM-1FE-TX
        slot2 = NM-1FE-TX
        x = -344.0
        y = -90.0
        z = 1.0
[GNS3-DATA]
    configs = configs
    width = 5000
    height = 2500
    [[NOTE 1]]
        text = s0/2\nDCE\n301
        x = 11.0
        y = -34.5
    [[NOTE 2]]
        text = s0/1.201\nDCE\n.2
        x = 157.0
        y = -230.5
    [[NOTE 3]]
        text = s0/0.301\n.6
        x = 157.0
        y = 65.5
    [[NOTE 4]]
        text = s0/1\n201
        x = 11.0
        y = -142.5
    [[NOTE 5]]
        text = West
        x = 303.0
        y = 49.5
        font = "Sans Serif,16,-1,5,75,0,0,0,0,0"
    [[NOTE 6]]
        text = s0/1.102\n.1
        x = -271.0
        y = -119.5
    [[NOTE 7]]
        text = s0/0\nDCE
        x = -102.0
        y = -82.5
    [[NOTE 8]]
        text = HQ
        x = -328.0
        y = -44.5
        font = "Sans Serif,16,-1,5,75,0,0,0,0,0"
    [[NOTE 9]]
        text = Lo1: 10.1.1.9/30\nArea 0
        x = -463.0
        y = -75.5
        font = "Sans Serif,10,-1,5,50,1,0,0,0,0"
    [[NOTE 10]]
        text = East
        x = 244.0
        y = -188.5
        font = "Sans Serif,16,-1,5,75,0,0,0,0,0"
    [[NOTE 11]]
        text = Area 200\n\nLo101: 10.1.1.101/30\nLo105: 10.1.1.105/30\nLo109: 10.1.1.109/30\nLo113: 10.1.1.113/30
        x = 306.0
        y = -346.5
        font = "Sans Serif,10,-1,5,50,1,0,0,0,0"
    [[NOTE 12]]
        text = Area 300\nNSSA\n10.1.1.4/30
        x = -97.0
        y = 25.5
    [[NOTE 13]]
        text = Area 100\n10.1.1.0/30
        x = -81.0
        y = -183.5
    [[NOTE 14]]
        text = Lo3: 10.1.1.13/30
        x = 311.0
        y = 120.5
        font = "Sans Serif,10,-1,5,50,1,0,0,0,0"
    [[NOTE 15]]
        text = s0/1.103\n.5
        x = -269.0
        y = -64.5
    [[SHAPE 1]]
        type = ellipse
        x = -521.0
        y = -164.0
        width = 200.0
        height = 200.0
        border_style = 2
    [[SHAPE 2]]
        type = ellipse
        x = 245.0
        y = -384.0
        width = 200.0
        height = 200.0
        border_style = 2
    [[SHAPE 3]]
        type = ellipse
        x = 277.0
        y = -130.0
        width = 574.093089346
        height = 200.0
        rotate = 165
        border_style = 2
    [[SHAPE 4]]
        type = ellipse
        x = -289.0
        y = -141.0
        width = 599.0
        height = 200.0
        rotate = 15
        border_style = 2
    [[SHAPE 5]]
        type = ellipse
        x = 280.0
        y = -245.0
        width = 23.0
        height = 17.0
        border_style = 2
        z = -2.0
    [[SHAPE 6]]
        type = ellipse
        x = 289.0
        y = 99.0
        width = 24.0
        height = 17.0
        border_style = 2
        z = -2.0
    [[SHAPE 7]]
        type = ellipse
        x = -363.0
        y = -93.0
        width = 23.0
        height = 17.0
        border_style = 2
        z = -2.0
