Dec 04 11:16:57.226 HYPERVISOR: Release 0.2.17-amd64/Linux (tag 2017072410)
Dec 04 11:16:57.226 HYPERVISOR: Started on IP = 127.0.0.1, TCP port = 42131.
Dec 04 11:16:57.257 HYPERVISOR: exec_cmd: hypervisor version 
Dec 04 11:16:57.259 HYPERVISOR: exec_cmd: hypervisor working_dir /media/actionmystique/SAMSUNG5-VMs/Labs/GNS3/git-Public-Labs-Collection/CCNP-Security/FIREWALL/Jean-Christophe_Manciot/1+/Data Center ASA - ASDM - AAA - VMs/project-files/dynamips 
Dec 04 11:16:57.259 GENERAL: working_dir=/media/actionmystique/SAMSUNG5-VMs/Labs/GNS3/git-Public-Labs-Collection/CCNP-Security/FIREWALL/Jean-Christophe_Manciot/1+/Data Center ASA - ASDM - AAA - VMs/project-files/dynamips
Dec 04 11:16:57.264 HYPERVISOR: exec_cmd: vm create SW0_Management 12 c3725 
Dec 04 11:16:57.264 VM: VM SW0_Management created.
Dec 04 11:16:57.271 HYPERVISOR: exec_cmd: vm set_con_tcp_port SW0_Management 2112 
Dec 04 11:16:57.275 HYPERVISOR: exec_cmd: vm set_aux_tcp_port SW0_Management 2512 
Dec 04 11:16:57.277 HYPERVISOR: exec_cmd: c3725 get_mac_addr SW0_Management 
Dec 04 11:16:57.279 HYPERVISOR: exec_cmd: vm get_status SW0_Management 
Dec 04 11:16:57.284 HYPERVISOR: exec_cmd: vm slot_add_binding SW0_Management 1 0 NM-16ESW 
Dec 04 11:16:57.287 HYPERVISOR: exec_cmd: vm set_exec_area SW0_Management 16 
Dec 04 11:16:57.289 HYPERVISOR: exec_cmd: vm get_status SW0_Management 
Dec 04 11:16:57.294 HYPERVISOR: exec_cmd: vm set_idle_pc SW0_Management 0x602649b4 
Dec 04 11:16:57.296 HYPERVISOR: exec_cmd: vm set_ios SW0_Management /media/actionmystique/SAMSUNG5-VMs/Images/GNS3/IOS/c3725-adventerprisek9-mz.124-15.T10.image 
Dec 04 11:16:57.296 HYPERVISOR: exec_cmd: c3725 set_mac_addr SW0_Management c20c.0f9c.0000 
Dec 04 11:16:57.297 HYPERVISOR: exec_cmd: vm set_config SW0_Management configs/i12_startup-config.cfg 
Dec 04 11:16:59.235 HYPERVISOR: exec_cmd: nio create_gen_eth generic_ethernet-bd14ad94-57f2-4ea0-8e20-e04673ac2d6d enp3s0 
Dec 04 11:16:59.289 HYPERVISOR: exec_cmd: vm slot_add_nio_binding SW0_Management 1 0 generic_ethernet-bd14ad94-57f2-4ea0-8e20-e04673ac2d6d 
Dec 04 11:16:59.290 HYPERVISOR: exec_cmd: vm get_status SW0_Management 
Dec 04 11:17:15.844 HYPERVISOR: exec_cmd: vm get_status SW0_Management 
Dec 04 11:17:15.848 HYPERVISOR: exec_cmd: vm extract_config SW0_Management 
Dec 04 11:17:15.859 HYPERVISOR: exec_cmd: vm delete SW0_Management 
Dec 04 11:17:15.859 VM: VM SW0_Management destroyed.
Dec 04 11:17:15.865 HYPERVISOR: exec_cmd: hypervisor stop 
Dec 04 11:17:16.273 HYPERVISOR: Stopped.
Dec 04 11:17:16.332 GENERAL: reset done.
