Jan 11 11:10:14.668 HYPERVISOR: Release 0.2.14-x86/Windows (tag 2014092320)
Jan 11 11:10:14.668 HYPERVISOR: Started on IP = 127.0.0.1, TCP port = 7206.
Jan 11 11:10:15.256 HYPERVISOR: exec_cmd: hypervisor version 
Jan 11 11:10:15.256 HYPERVISOR: exec_cmd: hypervisor uuid 
Jan 11 11:10:15.256 HYPERVISOR: exec_cmd: hypervisor working_dir C:/Users/ActionMystique/GNS3/projects/CCNP-Security/FIREWALL/Jean-Christophe/1+/Data Center ASA - ASDM - AAA - VMs/Data Center ASA - ASDM - AAA - VMs-files\dynamips 
Jan 11 11:10:15.256 GENERAL: working_dir=C:/Users/ActionMystique/GNS3/projects/CCNP-Security/FIREWALL/Jean-Christophe/1+/Data Center ASA - ASDM - AAA - VMs/Data Center ASA - ASDM - AAA - VMs-files\dynamips
Jan 11 11:10:15.256 HYPERVISOR: exec_cmd: vm create SW7 7 c3725 
Jan 11 11:10:15.256 VM: VM SW7 created.
Jan 11 11:10:15.256 HYPERVISOR: exec_cmd: vm set_con_tcp_port SW7 2007 
Jan 11 11:10:15.256 HYPERVISOR: exec_cmd: vm set_aux_tcp_port SW7 2507 
Jan 11 11:10:15.256 HYPERVISOR: exec_cmd: c3725 get_mac_addr SW7 
Jan 11 11:10:15.256 HYPERVISOR: exec_cmd: vm set_ios SW7 C:\Users\ActionMystique\GNS3\images\IOS\c3725-adventerprisek9-mz.124-15.T10.image 
Jan 11 11:10:15.256 HYPERVISOR: exec_cmd: vm set_sparse_mem SW7 1 
Jan 11 11:10:15.256 HYPERVISOR: exec_cmd: vm set_ram_mmap SW7 1 
Jan 11 11:10:15.256 HYPERVISOR: exec_cmd: c3725 set_mac_addr SW7 c207.1340.0000 
Jan 11 11:10:15.256 HYPERVISOR: exec_cmd: vm set_ghost_status SW7 2 
Jan 11 11:10:15.256 HYPERVISOR: exec_cmd: vm set_ghost_file SW7 c3725-adventerprisek9-mz.124-15.T10.image-128.ghost 
Jan 11 11:10:28.520 HYPERVISOR: exec_cmd: vm set_config SW7 configs\i7_startup-config.cfg 
Jan 11 11:10:28.520 HYPERVISOR: exec_cmd: vm get_status SW7 
Jan 11 11:10:28.520 HYPERVISOR: exec_cmd: vm set_idle_pc SW7 0x6148b5dc 
Jan 11 11:10:28.520 HYPERVISOR: exec_cmd: vm get_status SW7 
Jan 11 11:10:28.520 HYPERVISOR: exec_cmd: vm slot_add_binding SW7 1 0 NM-16ESW 
Jan 11 11:10:28.520 HYPERVISOR: exec_cmd: vm get_status SW7 
Jan 11 11:10:28.872 HYPERVISOR: exec_cmd: nio create_udp_auto nio_udp_auto39 127.0.0.1 10001 20000 
Jan 11 11:10:28.872 HYPERVISOR: exec_cmd: nio create_udp_auto nio_udp_auto41 127.0.0.1 10001 20000 
Jan 11 11:10:28.892 HYPERVISOR: exec_cmd: nio create_udp_auto nio_udp_auto43 127.0.0.1 10001 20000 
Jan 11 11:10:28.911 HYPERVISOR: exec_cmd: nio create_udp_auto nio_udp_auto45 127.0.0.1 10001 20000 
Jan 11 11:10:28.911 HYPERVISOR: exec_cmd: nio create_udp_auto nio_udp_auto47 127.0.0.1 10001 20000 
Jan 11 11:10:28.931 HYPERVISOR: exec_cmd: nio create_udp_auto nio_udp_auto49 127.0.0.1 10001 20000 
Jan 11 11:10:28.970 HYPERVISOR: exec_cmd: nio create_udp_auto nio_udp_auto54 127.0.0.1 10001 20000 
Jan 11 11:10:28.990 HYPERVISOR: exec_cmd: nio create_udp_auto nio_udp_auto57 127.0.0.1 10001 20000 
Jan 11 11:10:29.029 HYPERVISOR: exec_cmd: nio create_udp_auto nio_udp_auto60 127.0.0.1 10001 20000 
Jan 11 11:10:31.026 HYPERVISOR: exec_cmd: nio connect_udp_auto nio_udp_auto39 127.0.0.1 10039 
Jan 11 11:10:31.026 HYPERVISOR: exec_cmd: vm slot_add_nio_binding SW7 1 3 nio_udp_auto39 
Jan 11 11:10:31.026 HYPERVISOR: exec_cmd: vm get_status SW7 
Jan 11 11:10:31.065 HYPERVISOR: exec_cmd: nio connect_udp_auto nio_udp_auto41 127.0.0.1 10041 
Jan 11 11:10:31.065 HYPERVISOR: exec_cmd: vm slot_add_nio_binding SW7 1 7 nio_udp_auto41 
Jan 11 11:10:31.065 HYPERVISOR: exec_cmd: vm get_status SW7 
Jan 11 11:10:31.085 HYPERVISOR: exec_cmd: nio connect_udp_auto nio_udp_auto43 127.0.0.1 10043 
Jan 11 11:10:31.085 HYPERVISOR: exec_cmd: vm slot_add_nio_binding SW7 1 8 nio_udp_auto43 
Jan 11 11:10:31.085 HYPERVISOR: exec_cmd: vm get_status SW7 
Jan 11 11:10:31.104 HYPERVISOR: exec_cmd: nio connect_udp_auto nio_udp_auto45 127.0.0.1 10045 
Jan 11 11:10:31.104 HYPERVISOR: exec_cmd: vm slot_add_nio_binding SW7 1 9 nio_udp_auto45 
Jan 11 11:10:31.104 HYPERVISOR: exec_cmd: vm get_status SW7 
Jan 11 11:10:31.144 HYPERVISOR: exec_cmd: nio connect_udp_auto nio_udp_auto47 127.0.0.1 10047 
Jan 11 11:10:31.144 HYPERVISOR: exec_cmd: vm slot_add_nio_binding SW7 1 1 nio_udp_auto47 
Jan 11 11:10:31.144 HYPERVISOR: exec_cmd: vm get_status SW7 
Jan 11 11:10:31.163 HYPERVISOR: exec_cmd: nio connect_udp_auto nio_udp_auto49 127.0.0.1 10049 
Jan 11 11:10:31.163 HYPERVISOR: exec_cmd: vm slot_add_nio_binding SW7 1 10 nio_udp_auto49 
Jan 11 11:10:31.163 HYPERVISOR: exec_cmd: vm get_status SW7 
Jan 11 11:10:31.222 HYPERVISOR: exec_cmd: nio connect_udp_auto nio_udp_auto54 127.0.0.1 10056 
Jan 11 11:10:31.222 HYPERVISOR: exec_cmd: vm slot_add_nio_binding SW7 1 4 nio_udp_auto54 
Jan 11 11:10:31.222 HYPERVISOR: exec_cmd: vm get_status SW7 
Jan 11 11:10:31.261 HYPERVISOR: exec_cmd: nio connect_udp_auto nio_udp_auto57 127.0.0.1 10057 
Jan 11 11:10:31.261 HYPERVISOR: exec_cmd: vm slot_add_nio_binding SW7 1 2 nio_udp_auto57 
Jan 11 11:10:31.261 HYPERVISOR: exec_cmd: vm get_status SW7 
Jan 11 11:10:31.300 HYPERVISOR: exec_cmd: nio connect_udp_auto nio_udp_auto60 127.0.0.1 10062 
Jan 11 11:10:31.300 HYPERVISOR: exec_cmd: vm slot_add_nio_binding SW7 1 0 nio_udp_auto60 
Jan 11 11:10:31.300 HYPERVISOR: exec_cmd: vm get_status SW7 
Jan 11 11:11:54.236 HYPERVISOR: exec_cmd: vm extract_config SW7 
Jan 11 11:22:55.890 HYPERVISOR: exec_cmd: vm extract_config SW7 
Jan 11 11:22:58.405 HYPERVISOR: Stopped.
Jan 11 11:22:58.405 VM: VM SW7 destroyed.
Jan 11 11:22:58.421 GENERAL: reset done.
