Dec 04 11:16:57.075 HYPERVISOR: Release 0.2.17-amd64/Linux (tag 2017072410)
Dec 04 11:16:57.075 HYPERVISOR: Started on IP = 127.0.0.1, TCP port = 58305.
Dec 04 11:16:57.106 HYPERVISOR: exec_cmd: hypervisor version 
Dec 04 11:16:57.117 HYPERVISOR: exec_cmd: hypervisor working_dir /media/actionmystique/SAMSUNG5-VMs/Labs/GNS3/git-Public-Labs-Collection/CCNP-Security/FIREWALL/Jean-Christophe_Manciot/1+/Data Center ASA - ASDM - AAA - VMs/project-files/dynamips 
Dec 04 11:16:57.117 GENERAL: working_dir=/media/actionmystique/SAMSUNG5-VMs/Labs/GNS3/git-Public-Labs-Collection/CCNP-Security/FIREWALL/Jean-Christophe_Manciot/1+/Data Center ASA - ASDM - AAA - VMs/project-files/dynamips
Dec 04 11:16:57.119 HYPERVISOR: exec_cmd: vm create SW6 6 c3725 
Dec 04 11:16:57.119 VM: VM SW6 created.
Dec 04 11:16:57.120 HYPERVISOR: exec_cmd: vm set_con_tcp_port SW6 2006 
Dec 04 11:16:57.121 HYPERVISOR: exec_cmd: vm set_aux_tcp_port SW6 2506 
Dec 04 11:16:57.122 HYPERVISOR: exec_cmd: c3725 get_mac_addr SW6 
Dec 04 11:16:57.123 HYPERVISOR: exec_cmd: vm get_status SW6 
Dec 04 11:16:57.124 HYPERVISOR: exec_cmd: vm slot_add_binding SW6 1 0 NM-16ESW 
Dec 04 11:16:57.125 HYPERVISOR: exec_cmd: vm set_exec_area SW6 16 
Dec 04 11:16:57.126 HYPERVISOR: exec_cmd: vm get_status SW6 
Dec 04 11:16:57.127 HYPERVISOR: exec_cmd: vm set_idle_pc SW6 0x6148b5dc 
Dec 04 11:16:57.128 HYPERVISOR: exec_cmd: vm set_ios SW6 /media/actionmystique/SAMSUNG5-VMs/Images/GNS3/IOS/c3725-adventerprisek9-mz.124-15.T10.image 
Dec 04 11:16:57.130 HYPERVISOR: exec_cmd: c3725 set_mac_addr SW6 c206.0170.0000 
Dec 04 11:16:57.132 HYPERVISOR: exec_cmd: vm set_config SW6 configs/i6_startup-config.cfg 
Dec 04 11:16:57.360 HYPERVISOR: exec_cmd: nio create_udp udp-93b57d79-bb25-4513-a626-1be89512da37 30004 127.0.0.1 20004 
Dec 04 11:16:57.360 HYPERVISOR: exec_cmd: vm slot_add_nio_binding SW6 1 4 udp-93b57d79-bb25-4513-a626-1be89512da37 
Dec 04 11:16:57.361 HYPERVISOR: exec_cmd: vm get_status SW6 
Dec 04 11:16:57.374 HYPERVISOR: exec_cmd: nio create_udp udp-4375d8ad-d8eb-43be-b752-492b47314f70 30005 127.0.0.1 20005 
Dec 04 11:16:57.376 HYPERVISOR: exec_cmd: vm slot_add_nio_binding SW6 1 5 udp-4375d8ad-d8eb-43be-b752-492b47314f70 
Dec 04 11:16:57.377 HYPERVISOR: exec_cmd: vm get_status SW6 
Dec 04 11:16:58.039 HYPERVISOR: exec_cmd: nio create_udp udp-4d4b5817-4aea-4863-b15c-33ad37dc8493 15003 127.0.0.1 15005 
Dec 04 11:16:58.040 HYPERVISOR: exec_cmd: vm slot_add_nio_binding SW6 1 0 udp-4d4b5817-4aea-4863-b15c-33ad37dc8493 
Dec 04 11:16:58.040 HYPERVISOR: exec_cmd: vm get_status SW6 
Dec 04 11:16:58.264 HYPERVISOR: exec_cmd: nio create_udp udp-a59f4f55-94c0-4aae-9f3a-40e953fee2bf 15026 127.0.0.1 15027 
Dec 04 11:16:58.268 HYPERVISOR: exec_cmd: vm slot_add_nio_binding SW6 1 3 udp-a59f4f55-94c0-4aae-9f3a-40e953fee2bf 
Dec 04 11:16:58.268 HYPERVISOR: exec_cmd: vm get_status SW6 
Dec 04 11:17:15.842 HYPERVISOR: exec_cmd: vm get_status SW6 
Dec 04 11:17:15.848 HYPERVISOR: exec_cmd: vm extract_config SW6 
Dec 04 11:17:15.858 HYPERVISOR: exec_cmd: vm delete SW6 
Dec 04 11:17:15.858 VM: VM SW6 destroyed.
Dec 04 11:17:15.864 HYPERVISOR: exec_cmd: hypervisor stop 
Dec 04 11:17:16.113 HYPERVISOR: Stopped.
Dec 04 11:17:16.113 GENERAL: reset done.
