Sep 05 17:03:14.590 HYPERVISOR: Release 0.2.16-amd64/Linux (tag 2015060118)
Sep 05 17:03:14.590 HYPERVISOR: Started on IP = 127.0.0.1, TCP port = 53795.
Sep 05 17:03:14.595 HYPERVISOR: exec_cmd: hypervisor version 
Sep 05 17:03:14.595 HYPERVISOR: exec_cmd: hypervisor working_dir /media/actionmystique/SAMSUNG-850-Ext4/Labs/GNS3/CCNP/TBSHOOT/Infrastructure-Services/Device-Management/Telnet-SSH/Jean-Christophe_Manciot/1+/TT 3-solutions-linux/project-files/dynamips 
Sep 05 17:03:14.595 GENERAL: working_dir=/media/actionmystique/SAMSUNG-850-Ext4/Labs/GNS3/CCNP/TBSHOOT/Infrastructure-Services/Device-Management/Telnet-SSH/Jean-Christophe_Manciot/1+/TT 3-solutions-linux/project-files/dynamips
Sep 05 17:03:14.595 HYPERVISOR: exec_cmd: vm create ESW1 1 c3725 
Sep 05 17:03:14.595 VM: VM ESW1 created.
Sep 05 17:03:14.596 HYPERVISOR: exec_cmd: vm set_con_tcp_port ESW1 2004 
Sep 05 17:03:14.596 HYPERVISOR: exec_cmd: c3725 get_mac_addr ESW1 
Sep 05 17:03:14.596 HYPERVISOR: exec_cmd: vm set_disk0 ESW1 1 
Sep 05 17:03:14.597 HYPERVISOR: exec_cmd: vm get_status ESW1 
Sep 05 17:03:14.597 HYPERVISOR: exec_cmd: vm slot_add_binding ESW1 1 0 NM-16ESW 
Sep 05 17:03:14.598 HYPERVISOR: exec_cmd: vm set_ios ESW1 /media/actionmystique/SAMSUNG-850-Ext4/Images/GNS3/IOS/c3725-adventerprisek9-mz.124-15.T10.image 
Sep 05 17:03:14.598 HYPERVISOR: exec_cmd: vm set_nvram ESW1 256 
Sep 05 17:03:14.598 HYPERVISOR: exec_cmd: vm get_status ESW1 
Sep 05 17:03:14.599 HYPERVISOR: exec_cmd: vm set_idle_pc ESW1 0x60c06d20 
Sep 05 17:03:14.599 HYPERVISOR: exec_cmd: c3725 set_mac_addr ESW1 c201.1a63.0000 
Sep 05 17:03:14.599 HYPERVISOR: exec_cmd: vm slot_add_binding ESW1 0 16 WIC-2T 
Sep 05 17:03:14.600 HYPERVISOR: exec_cmd: vm set_config ESW1 configs/i1_startup-config.cfg 
Sep 05 17:03:14.600 HYPERVISOR: exec_cmd: vm set_config ESW1 configs/i1_startup-config.cfg configs/i1_private-config.cfg 
Sep 05 17:03:14.661 HYPERVISOR: exec_cmd: nio create_tap tap-240419e8-9b2e-4ca3-b81f-7cc513e03d67 tap0 
Sep 05 17:03:14.664 HYPERVISOR: exec_cmd: vm slot_add_nio_binding ESW1 1 1 tap-240419e8-9b2e-4ca3-b81f-7cc513e03d67 
Sep 05 17:03:14.664 HYPERVISOR: exec_cmd: vm get_status ESW1 
Sep 05 17:03:14.707 HYPERVISOR: exec_cmd: nio create_udp udp-db3fe18b-07e0-466c-b456-031c6537df00 15004 127.0.0.1 15005 
Sep 05 17:03:14.713 HYPERVISOR: exec_cmd: vm slot_add_nio_binding ESW1 1 0 udp-db3fe18b-07e0-466c-b456-031c6537df00 
Sep 05 17:03:14.713 HYPERVISOR: exec_cmd: vm get_status ESW1 
Sep 05 17:03:15.392 HYPERVISOR: exec_cmd: vm create Ghost 0 c3725 
Sep 05 17:03:15.392 VM: VM Ghost created.
Sep 05 17:03:15.393 HYPERVISOR: exec_cmd: vm set_ios Ghost /media/actionmystique/SAMSUNG-850-Ext4/Images/GNS3/IOS/c3725-adventerprisek9-mz.124-15.T10.image 
Sep 05 17:03:15.405 HYPERVISOR: exec_cmd: vm set_ghost_status Ghost 1 
Sep 05 17:03:15.413 HYPERVISOR: exec_cmd: vm set_ghost_file Ghost c3725-adventerprisek9-mz.124-15.T10.image-128.ghost 
Sep 05 17:03:15.415 HYPERVISOR: exec_cmd: vm get_status Ghost 
Sep 05 17:03:15.417 HYPERVISOR: exec_cmd: vm start Ghost 
Sep 05 17:03:15.691 HYPERVISOR: exec_cmd: vm get_status Ghost 
Sep 05 17:03:15.692 HYPERVISOR: exec_cmd: vm stop Ghost 
Sep 05 17:03:15.848 VM: VM Ghost shutdown.
Sep 05 17:03:15.849 HYPERVISOR: exec_cmd: vm clean_delete Ghost 
Sep 05 17:03:15.849 VM: VM Ghost destroyed.
Sep 05 17:03:15.851 HYPERVISOR: exec_cmd: vm set_ghost_status ESW1 2 
Sep 05 17:03:15.852 HYPERVISOR: exec_cmd: vm set_ghost_file ESW1 c3725-adventerprisek9-mz.124-15.T10.image-128.ghost 
Sep 05 17:03:15.853 HYPERVISOR: exec_cmd: vm get_status ESW1 
Sep 05 17:03:15.853 HYPERVISOR: exec_cmd: vm start ESW1 
Sep 05 17:15:32.529 HYPERVISOR: exec_cmd: vm extract_config ESW1 
Sep 05 17:15:33.341 HYPERVISOR: exec_cmd: vm get_status ESW1 
Sep 05 17:15:33.341 HYPERVISOR: exec_cmd: vm stop ESW1 
Sep 05 17:15:33.438 VM: VM ESW1 shutdown.
Sep 05 17:15:33.439 HYPERVISOR: exec_cmd: vm extract_config ESW1 
Sep 05 17:15:35.293 HYPERVISOR: exec_cmd: vm get_status ESW1 
Sep 05 17:15:35.294 HYPERVISOR: exec_cmd: vm extract_config ESW1 
Sep 05 17:15:35.294 HYPERVISOR: exec_cmd: vm delete ESW1 
Sep 05 17:15:35.294 VM: VM ESW1 destroyed.
Sep 05 17:15:35.295 HYPERVISOR: exec_cmd: hypervisor stop 
Sep 05 17:15:35.705 HYPERVISOR: Stopped.
Sep 05 17:15:35.705 GENERAL: reset done.
