Nov 27 15:46:26.451 HYPERVISOR: Release 0.2.17-amd64/Linux (tag 2017072410)
Nov 27 15:46:26.451 HYPERVISOR: Started on IP = 127.0.0.1, TCP port = 52547.
Nov 27 15:46:26.484 HYPERVISOR: exec_cmd: hypervisor version 
Nov 27 15:46:26.485 HYPERVISOR: exec_cmd: hypervisor working_dir /media/actionmystique/SAMSUNG5-VMs/Labs/GNS3/TT 2-solutions-linux-/project-files/dynamips 
Nov 27 15:46:26.485 GENERAL: working_dir=/media/actionmystique/SAMSUNG5-VMs/Labs/GNS3/TT 2-solutions-linux-/project-files/dynamips
Nov 27 15:46:26.485 HYPERVISOR: exec_cmd: vm create SW3 3 c3725 
Nov 27 15:46:26.486 VM: VM SW3 created.
Nov 27 15:46:26.486 HYPERVISOR: exec_cmd: vm set_con_tcp_port SW3 2003 
Nov 27 15:46:26.487 HYPERVISOR: exec_cmd: c3725 get_mac_addr SW3 
Nov 27 15:46:26.488 HYPERVISOR: exec_cmd: c3725 set_mac_addr SW3 cccc.cccc.cccc 
Nov 27 15:46:26.489 HYPERVISOR: exec_cmd: vm get_status SW3 
Nov 27 15:46:26.490 HYPERVISOR: exec_cmd: vm slot_add_binding SW3 1 0 NM-16ESW 
Nov 27 15:46:26.491 HYPERVISOR: exec_cmd: vm get_status SW3 
Nov 27 15:46:26.492 HYPERVISOR: exec_cmd: vm set_idle_pc SW3 0x6026b804 
Nov 27 15:46:26.493 HYPERVISOR: exec_cmd: vm slot_add_binding SW3 0 16 WIC-2T 
Nov 27 15:46:26.494 HYPERVISOR: exec_cmd: vm set_ios SW3 /media/actionmystique/SAMSUNG5-VMs/Images/GNS3/IOS/c3725-adventerprisek9-mz.124-15.T10.image 
Nov 27 15:46:26.496 HYPERVISOR: exec_cmd: vm set_exec_area SW3 16 
Nov 27 15:46:26.496 HYPERVISOR: exec_cmd: vm set_disk0 SW3 1 
Nov 27 15:46:26.498 HYPERVISOR: exec_cmd: vm set_nvram SW3 256 
Nov 27 15:46:26.499 HYPERVISOR: exec_cmd: vm set_config SW3 configs/i3_startup-config.cfg 
Nov 27 15:46:26.500 HYPERVISOR: exec_cmd: vm set_config SW3 configs/i3_startup-config.cfg configs/i3_private-config.cfg 
Nov 27 15:46:26.597 HYPERVISOR: exec_cmd: nio create_null null-1bf21fd1-64ce-46c9-90db-c76cef00b06a 
Nov 27 15:46:26.598 HYPERVISOR: exec_cmd: vm slot_add_nio_binding SW3 1 0 null-1bf21fd1-64ce-46c9-90db-c76cef00b06a 
Nov 27 15:46:26.602 HYPERVISOR: exec_cmd: vm get_status SW3 
Nov 27 15:46:26.657 HYPERVISOR: exec_cmd: nio create_udp udp-7999f7ac-86c5-4ff5-b4bb-497f5bd0a34a 15001 127.0.0.1 15002 
Nov 27 15:46:26.657 HYPERVISOR: exec_cmd: vm slot_add_nio_binding SW3 1 2 udp-7999f7ac-86c5-4ff5-b4bb-497f5bd0a34a 
Nov 27 15:46:26.658 HYPERVISOR: exec_cmd: vm get_status SW3 
Nov 27 15:46:26.749 HYPERVISOR: exec_cmd: nio create_udp udp-ed4cac0e-01af-4ebd-be1e-a47d1efa7a01 15008 127.0.0.1 15006 
Nov 27 15:46:26.749 HYPERVISOR: exec_cmd: vm slot_add_nio_binding SW3 1 5 udp-ed4cac0e-01af-4ebd-be1e-a47d1efa7a01 
Nov 27 15:46:26.750 HYPERVISOR: exec_cmd: vm get_status SW3 
Nov 27 15:46:26.763 HYPERVISOR: exec_cmd: nio create_udp udp-cdb2feac-b7cc-42f9-98e8-0ee910313b0f 15009 127.0.0.1 15007 
Nov 27 15:46:26.764 HYPERVISOR: exec_cmd: vm slot_add_nio_binding SW3 1 6 udp-cdb2feac-b7cc-42f9-98e8-0ee910313b0f 
Nov 27 15:46:26.764 HYPERVISOR: exec_cmd: vm get_status SW3 
Nov 27 15:46:43.512 HYPERVISOR: exec_cmd: vm get_status SW3 
Nov 27 15:46:43.513 HYPERVISOR: exec_cmd: vm extract_config SW3 
Nov 27 15:46:43.515 HYPERVISOR: exec_cmd: vm delete SW3 
Nov 27 15:46:43.515 VM: VM SW3 destroyed.
Nov 27 15:46:43.518 HYPERVISOR: exec_cmd: hypervisor stop 
Nov 27 15:46:44.000 HYPERVISOR: Stopped.
Nov 27 15:46:44.000 GENERAL: reset done.
