Nov 26 21:04:39.991 HYPERVISOR: Release 0.2.17-amd64/Linux (tag 2017072410)
Nov 26 21:04:39.991 HYPERVISOR: Started on IP = 127.0.0.1, TCP port = 40939.
Nov 26 21:04:40.047 HYPERVISOR: exec_cmd: hypervisor version 
Nov 26 21:04:40.051 HYPERVISOR: exec_cmd: hypervisor working_dir /media/actionmystique/SAMSUNG5-VMs/Labs/GNS3/PVST+ EtherChannel VRRP/project-files/dynamips 
Nov 26 21:04:40.051 GENERAL: working_dir=/media/actionmystique/SAMSUNG5-VMs/Labs/GNS3/PVST+ EtherChannel VRRP/project-files/dynamips
Nov 26 21:04:40.054 HYPERVISOR: exec_cmd: vm create GooglISP 11 c7200 
Nov 26 21:04:40.054 VM: VM GooglISP created.
Nov 26 21:04:40.060 HYPERVISOR: exec_cmd: vm set_con_tcp_port GooglISP 2012 
Nov 26 21:04:40.064 HYPERVISOR: exec_cmd: vm set_aux_tcp_port GooglISP 2512 
Nov 26 21:04:40.065 HYPERVISOR: exec_cmd: c7200 get_mac_addr GooglISP 
Nov 26 21:04:40.066 HYPERVISOR: exec_cmd: vm get_status GooglISP 
Nov 26 21:04:40.067 HYPERVISOR: exec_cmd: vm slot_add_binding GooglISP 0 0 C7200-IO-FE 
Nov 26 21:04:40.073 HYPERVISOR: exec_cmd: vm set_ram GooglISP 512 
Nov 26 21:04:40.075 HYPERVISOR: exec_cmd: vm get_status GooglISP 
Nov 26 21:04:40.078 HYPERVISOR: exec_cmd: vm set_idle_pc GooglISP 0x60188e14 
Nov 26 21:04:40.080 HYPERVISOR: exec_cmd: vm get_status GooglISP 
Nov 26 21:04:40.082 HYPERVISOR: exec_cmd: vm slot_add_binding GooglISP 1 0 PA-POS-OC3 
Nov 26 21:04:40.084 HYPERVISOR: exec_cmd: vm set_ios GooglISP /media/actionmystique/SAMSUNG5-VMs/Images/GNS3/IOS/c7200-adventerprisek9-mz.152-4.M2.image 
Nov 26 21:04:40.086 HYPERVISOR: exec_cmd: vm set_config GooglISP configs/i11_startup-config.cfg 
Nov 26 21:04:40.913 HYPERVISOR: exec_cmd: vm extract_config GooglISP 
Nov 26 21:04:41.461 HYPERVISOR: exec_cmd: nio create_udp udp-1cfb5d18-1bf3-48ee-9970-ba9e63f94c83 15054 127.0.0.1 15055 
Nov 26 21:04:41.462 HYPERVISOR: exec_cmd: vm slot_add_nio_binding GooglISP 0 0 udp-1cfb5d18-1bf3-48ee-9970-ba9e63f94c83 
Nov 26 21:04:41.463 HYPERVISOR: exec_cmd: vm get_status GooglISP 
Nov 26 21:04:41.493 HYPERVISOR: exec_cmd: nio create_udp udp-d863e584-2da0-4715-842c-1ba633eca5e0 15056 127.0.0.1 15057 
Nov 26 21:04:41.493 HYPERVISOR: exec_cmd: vm slot_add_nio_binding GooglISP 1 0 udp-d863e584-2da0-4715-842c-1ba633eca5e0 
Nov 26 21:04:41.494 HYPERVISOR: exec_cmd: vm get_status GooglISP 
Nov 26 21:54:01.424 HYPERVISOR: exec_cmd: vm get_status GooglISP 
Nov 26 21:54:01.427 HYPERVISOR: exec_cmd: vm extract_config GooglISP 
Nov 26 21:54:01.431 HYPERVISOR: exec_cmd: vm delete GooglISP 
Nov 26 21:54:01.431 VM: VM GooglISP destroyed.
Nov 26 21:54:01.432 HYPERVISOR: exec_cmd: hypervisor stop 
Nov 26 21:54:01.665 HYPERVISOR: Stopped.
Nov 26 21:54:01.665 GENERAL: reset done.
