Nov 26 21:04:39.803 HYPERVISOR: Release 0.2.17-amd64/Linux (tag 2017072410)
Nov 26 21:04:39.803 HYPERVISOR: Started on IP = 127.0.0.1, TCP port = 38171.
Nov 26 21:04:39.812 HYPERVISOR: exec_cmd: hypervisor version 
Nov 26 21:04:39.813 HYPERVISOR: exec_cmd: hypervisor working_dir /media/actionmystique/SAMSUNG5-VMs/Labs/GNS3/PVST+ EtherChannel VRRP/project-files/dynamips 
Nov 26 21:04:39.813 GENERAL: working_dir=/media/actionmystique/SAMSUNG5-VMs/Labs/GNS3/PVST+ EtherChannel VRRP/project-files/dynamips
Nov 26 21:04:39.814 HYPERVISOR: exec_cmd: vm create SW5 5 c3725 
Nov 26 21:04:39.814 VM: VM SW5 created.
Nov 26 21:04:39.815 HYPERVISOR: exec_cmd: vm set_con_tcp_port SW5 2005 
Nov 26 21:04:39.816 HYPERVISOR: exec_cmd: vm set_aux_tcp_port SW5 2505 
Nov 26 21:04:39.816 HYPERVISOR: exec_cmd: c3725 get_mac_addr SW5 
Nov 26 21:04:39.818 HYPERVISOR: exec_cmd: vm set_ios SW5 /media/actionmystique/SAMSUNG5-VMs/Images/GNS3/IOS/c3725-adventerprisek9-mz.124-15.T10.image 
Nov 26 21:04:39.819 HYPERVISOR: exec_cmd: vm set_ram SW5 256 
Nov 26 21:04:39.820 HYPERVISOR: exec_cmd: vm get_status SW5 
Nov 26 21:04:39.821 HYPERVISOR: exec_cmd: vm set_idle_pc SW5 0x6026b804 
Nov 26 21:04:39.822 HYPERVISOR: exec_cmd: vm get_status SW5 
Nov 26 21:04:39.823 HYPERVISOR: exec_cmd: vm slot_add_binding SW5 1 0 NM-16ESW 
Nov 26 21:04:39.825 HYPERVISOR: exec_cmd: vm set_config SW5 configs/i5_startup-config.cfg 
Nov 26 21:04:40.043 HYPERVISOR: exec_cmd: nio create_udp udp-4bc29fa2-ffe3-44fc-bee3-9eddea7a72e3 30000 127.0.0.1 20000 
Nov 26 21:04:40.049 HYPERVISOR: exec_cmd: vm slot_add_nio_binding SW5 1 3 udp-4bc29fa2-ffe3-44fc-bee3-9eddea7a72e3 
Nov 26 21:04:40.052 HYPERVISOR: exec_cmd: vm get_status SW5 
Nov 26 21:04:40.106 HYPERVISOR: exec_cmd: nio create_udp udp-87e88dfd-fbba-4b61-b16f-9d721c7948a7 30001 127.0.0.1 20001 
Nov 26 21:04:40.108 HYPERVISOR: exec_cmd: vm slot_add_nio_binding SW5 1 4 udp-87e88dfd-fbba-4b61-b16f-9d721c7948a7 
Nov 26 21:04:40.108 HYPERVISOR: exec_cmd: vm get_status SW5 
Nov 26 21:04:40.120 HYPERVISOR: exec_cmd: nio create_udp udp-0f757397-3a86-4e07-9299-ca2dedb66bce 30002 127.0.0.1 20002 
Nov 26 21:04:40.122 HYPERVISOR: exec_cmd: vm slot_add_nio_binding SW5 1 5 udp-0f757397-3a86-4e07-9299-ca2dedb66bce 
Nov 26 21:04:40.125 HYPERVISOR: exec_cmd: vm get_status SW5 
Nov 26 21:04:40.133 HYPERVISOR: exec_cmd: nio create_udp udp-fab7d455-1ac9-4a7d-8ef3-072bcbf93f4f 30003 127.0.0.1 20003 
Nov 26 21:04:40.134 HYPERVISOR: exec_cmd: vm slot_add_nio_binding SW5 1 6 udp-fab7d455-1ac9-4a7d-8ef3-072bcbf93f4f 
Nov 26 21:04:40.141 HYPERVISOR: exec_cmd: vm get_status SW5 
Nov 26 21:04:40.918 HYPERVISOR: exec_cmd: vm extract_config SW5 
Nov 26 21:04:41.057 HYPERVISOR: exec_cmd: nio create_udp udp-49e75c1c-148d-4709-894f-545ee1ee1118 15013 127.0.0.1 15010 
Nov 26 21:04:41.057 HYPERVISOR: exec_cmd: vm slot_add_nio_binding SW5 1 1 udp-49e75c1c-148d-4709-894f-545ee1ee1118 
Nov 26 21:04:41.057 HYPERVISOR: exec_cmd: vm get_status SW5 
Nov 26 21:04:41.128 HYPERVISOR: exec_cmd: nio create_udp udp-163e44b7-4866-48c2-bb82-cc2ea669cb97 15021 127.0.0.1 15022 
Nov 26 21:04:41.129 HYPERVISOR: exec_cmd: vm slot_add_nio_binding SW5 1 2 udp-163e44b7-4866-48c2-bb82-cc2ea669cb97 
Nov 26 21:04:41.129 HYPERVISOR: exec_cmd: vm get_status SW5 
Nov 26 21:54:01.423 HYPERVISOR: exec_cmd: vm get_status SW5 
Nov 26 21:54:01.427 HYPERVISOR: exec_cmd: vm extract_config SW5 
Nov 26 21:54:01.476 HYPERVISOR: exec_cmd: vm delete SW5 
Nov 26 21:54:01.476 VM: VM SW5 destroyed.
Nov 26 21:54:01.478 HYPERVISOR: exec_cmd: hypervisor stop 
Nov 26 21:54:01.946 HYPERVISOR: Stopped.
Nov 26 21:54:01.946 GENERAL: reset done.
