Dec 04 11:08:09.854 HYPERVISOR: Release 0.2.17-amd64/Linux (tag 2017072410)
Dec 04 11:08:09.854 HYPERVISOR: Started on IP = 127.0.0.1, TCP port = 44843.
Dec 04 11:08:09.899 HYPERVISOR: exec_cmd: hypervisor version 
Dec 04 11:08:09.900 HYPERVISOR: exec_cmd: hypervisor working_dir /media/actionmystique/SAMSUNG5-VMs/Labs/GNS3/TT 2-solutions-linux-/project-files/dynamips 
Dec 04 11:08:09.900 GENERAL: working_dir=/media/actionmystique/SAMSUNG5-VMs/Labs/GNS3/TT 2-solutions-linux-/project-files/dynamips
Dec 04 11:08:09.900 HYPERVISOR: exec_cmd: vm create ESW3 3 c3725 
Dec 04 11:08:09.900 VM: VM ESW3 created.
Dec 04 11:08:09.900 HYPERVISOR: exec_cmd: vm set_con_tcp_port ESW3 2006 
Dec 04 11:08:09.901 HYPERVISOR: exec_cmd: c3725 get_mac_addr ESW3 
Dec 04 11:08:09.901 HYPERVISOR: exec_cmd: vm set_nvram ESW3 256 
Dec 04 11:08:09.902 HYPERVISOR: exec_cmd: vm set_ios ESW3 /media/actionmystique/SAMSUNG5-VMs/Images/GNS3/IOS/c3725-adventerprisek9-mz.124-15.T10.image 
Dec 04 11:08:09.902 HYPERVISOR: exec_cmd: c3725 set_mac_addr ESW3 c203.1bfb.0000 
Dec 04 11:08:09.903 HYPERVISOR: exec_cmd: vm get_status ESW3 
Dec 04 11:08:09.903 HYPERVISOR: exec_cmd: vm slot_add_binding ESW3 1 0 NM-16ESW 
Dec 04 11:08:09.904 HYPERVISOR: exec_cmd: vm get_status ESW3 
Dec 04 11:08:09.904 HYPERVISOR: exec_cmd: vm set_idle_pc ESW3 0x60c05928 
Dec 04 11:08:09.904 HYPERVISOR: exec_cmd: vm set_disk0 ESW3 1 
Dec 04 11:08:09.905 HYPERVISOR: exec_cmd: vm slot_add_binding ESW3 0 16 WIC-2T 
Dec 04 11:08:09.906 HYPERVISOR: exec_cmd: vm set_config ESW3 configs/ios_base_startup-config.txt 
Dec 04 11:08:09.906 HYPERVISOR: exec_cmd: vm set_config ESW3 configs/ios_base_startup-config.txt configs/ios_base_private-config.txt 
Dec 04 11:08:10.035 HYPERVISOR: exec_cmd: nio create_tap tap-17acbc98-3076-46f3-b381-965dc2e72520 tap0 
Dec 04 11:08:10.038 HYPERVISOR: exec_cmd: vm slot_add_nio_binding ESW3 1 1 tap-17acbc98-3076-46f3-b381-965dc2e72520 
Dec 04 11:08:10.040 HYPERVISOR: exec_cmd: vm get_status ESW3 
Dec 04 11:08:10.232 HYPERVISOR: exec_cmd: nio create_udp udp-d2d3982d-36e1-4055-8d76-13a90bb3191e 15011 127.0.0.1 15010 
Dec 04 11:08:10.233 HYPERVISOR: exec_cmd: vm slot_add_nio_binding ESW3 1 0 udp-d2d3982d-36e1-4055-8d76-13a90bb3191e 
Dec 04 11:08:10.233 HYPERVISOR: exec_cmd: vm get_status ESW3 
Dec 04 11:08:23.946 HYPERVISOR: exec_cmd: vm get_status ESW3 
Dec 04 11:08:23.949 HYPERVISOR: exec_cmd: vm extract_config ESW3 
Dec 04 11:08:23.954 HYPERVISOR: exec_cmd: vm delete ESW3 
Dec 04 11:08:23.954 VM: VM ESW3 destroyed.
Dec 04 11:08:23.956 HYPERVISOR: exec_cmd: hypervisor stop 
Dec 04 11:08:24.412 HYPERVISOR: Stopped.
Dec 04 11:08:24.412 GENERAL: reset done.
