Dec 04 11:07:56.990 HYPERVISOR: Release 0.2.17-amd64/Linux (tag 2017072410)
Dec 04 11:07:56.990 HYPERVISOR: Started on IP = 127.0.0.1, TCP port = 59975.
Dec 04 11:07:57.003 HYPERVISOR: exec_cmd: hypervisor version 
Dec 04 11:07:57.003 HYPERVISOR: exec_cmd: hypervisor working_dir /media/actionmystique/SAMSUNG5-VMs/Labs/GNS3/git-Public-Labs-Collection/CCNP/TBSHOOT/L3-Technologies/IPv6/Routing-Protocols/OSPFv3/Jean-Christophe_Manciot/1+/TT 2-solutions-linux/project-files/dynamips 
Dec 04 11:07:57.003 GENERAL: working_dir=/media/actionmystique/SAMSUNG5-VMs/Labs/GNS3/git-Public-Labs-Collection/CCNP/TBSHOOT/L3-Technologies/IPv6/Routing-Protocols/OSPFv3/Jean-Christophe_Manciot/1+/TT 2-solutions-linux/project-files/dynamips
Dec 04 11:07:57.003 HYPERVISOR: exec_cmd: vm create ESW3 3 c3725 
Dec 04 11:07:57.003 VM: VM ESW3 created.
Dec 04 11:07:57.004 HYPERVISOR: exec_cmd: vm set_con_tcp_port ESW3 2006 
Dec 04 11:07:57.004 HYPERVISOR: exec_cmd: c3725 get_mac_addr ESW3 
Dec 04 11:07:57.004 HYPERVISOR: exec_cmd: vm set_nvram ESW3 256 
Dec 04 11:07:57.005 HYPERVISOR: exec_cmd: vm set_ios ESW3 /media/actionmystique/SAMSUNG5-VMs/Images/GNS3/IOS/c3725-adventerprisek9-mz.124-15.T10.image 
Dec 04 11:07:57.005 HYPERVISOR: exec_cmd: c3725 set_mac_addr ESW3 c203.1bfb.0000 
Dec 04 11:07:57.006 HYPERVISOR: exec_cmd: vm get_status ESW3 
Dec 04 11:07:57.006 HYPERVISOR: exec_cmd: vm slot_add_binding ESW3 1 0 NM-16ESW 
Dec 04 11:07:57.006 HYPERVISOR: exec_cmd: vm get_status ESW3 
Dec 04 11:07:57.007 HYPERVISOR: exec_cmd: vm set_idle_pc ESW3 0x60c05928 
Dec 04 11:07:57.007 HYPERVISOR: exec_cmd: vm set_disk0 ESW3 1 
Dec 04 11:07:57.008 HYPERVISOR: exec_cmd: vm slot_add_binding ESW3 0 16 WIC-2T 
Dec 04 11:07:57.008 HYPERVISOR: exec_cmd: vm set_config ESW3 configs/ios_base_startup-config.txt 
Dec 04 11:07:57.008 HYPERVISOR: exec_cmd: vm set_config ESW3 configs/ios_base_startup-config.txt configs/ios_base_private-config.txt 
Dec 04 11:07:57.178 HYPERVISOR: exec_cmd: nio create_tap tap-c5201053-1b5f-438a-a671-48759804c619 tap0 
Dec 04 11:07:57.179 HYPERVISOR: exec_cmd: vm slot_add_nio_binding ESW3 1 1 tap-c5201053-1b5f-438a-a671-48759804c619 
Dec 04 11:07:57.180 HYPERVISOR: exec_cmd: vm get_status ESW3 
Dec 04 11:07:57.343 HYPERVISOR: exec_cmd: nio create_udp udp-1891e6b0-0521-46d4-a6ef-f87d359b565e 15018 127.0.0.1 15019 
Dec 04 11:07:57.344 HYPERVISOR: exec_cmd: vm slot_add_nio_binding ESW3 1 0 udp-1891e6b0-0521-46d4-a6ef-f87d359b565e 
Dec 04 11:07:57.344 HYPERVISOR: exec_cmd: vm get_status ESW3 
