Dec 04 11:11:30.116 HYPERVISOR: Release 0.2.17-amd64/Linux (tag 2017072410)
Dec 04 11:11:30.116 HYPERVISOR: Started on IP = 127.0.0.1, TCP port = 47233.
Dec 04 11:11:30.119 HYPERVISOR: exec_cmd: hypervisor version 
Dec 04 11:11:30.119 HYPERVISOR: exec_cmd: hypervisor working_dir /media/actionmystique/SAMSUNG5-VMs/Labs/GNS3/git-Public-Labs-Collection/CCNP/TBSHOOT/L3-Technologies/IPv6/Routing-Protocols/RIPng/Jean-Christophe_Manciot/1+/TT 2-solutions-linux/project-files/dynamips 
Dec 04 11:11:30.119 GENERAL: working_dir=/media/actionmystique/SAMSUNG5-VMs/Labs/GNS3/git-Public-Labs-Collection/CCNP/TBSHOOT/L3-Technologies/IPv6/Routing-Protocols/RIPng/Jean-Christophe_Manciot/1+/TT 2-solutions-linux/project-files/dynamips
Dec 04 11:11:30.120 HYPERVISOR: exec_cmd: vm create ESW2 2 c3725 
Dec 04 11:11:30.120 VM: VM ESW2 created.
Dec 04 11:11:30.120 HYPERVISOR: exec_cmd: vm set_con_tcp_port ESW2 2005 
Dec 04 11:11:30.121 HYPERVISOR: exec_cmd: c3725 get_mac_addr ESW2 
Dec 04 11:11:30.122 HYPERVISOR: exec_cmd: vm set_nvram ESW2 256 
Dec 04 11:11:30.122 HYPERVISOR: exec_cmd: vm set_ios ESW2 /media/actionmystique/SAMSUNG5-VMs/Images/GNS3/IOS/c3725-adventerprisek9-mz.124-15.T10.image 
Dec 04 11:11:30.123 HYPERVISOR: exec_cmd: c3725 set_mac_addr ESW2 c202.1bd4.0000 
Dec 04 11:11:30.124 HYPERVISOR: exec_cmd: vm get_status ESW2 
Dec 04 11:11:30.125 HYPERVISOR: exec_cmd: vm slot_add_binding ESW2 1 0 NM-16ESW 
Dec 04 11:11:30.125 HYPERVISOR: exec_cmd: vm get_status ESW2 
Dec 04 11:11:30.126 HYPERVISOR: exec_cmd: vm set_idle_pc ESW2 0x6026b804 
Dec 04 11:11:30.128 HYPERVISOR: exec_cmd: vm set_disk0 ESW2 1 
Dec 04 11:11:30.129 HYPERVISOR: exec_cmd: vm slot_add_binding ESW2 0 16 WIC-2T 
Dec 04 11:11:30.130 HYPERVISOR: exec_cmd: vm set_config ESW2 configs/ios_base_startup-config.txt 
Dec 04 11:11:30.130 HYPERVISOR: exec_cmd: vm set_config ESW2 configs/ios_base_startup-config.txt configs/ios_base_private-config.txt 
Dec 04 11:11:30.220 HYPERVISOR: exec_cmd: nio create_udp udp-86e5277e-24e6-47f6-900e-753dfc2c0e60 15006 127.0.0.1 15005 
Dec 04 11:11:30.226 HYPERVISOR: exec_cmd: vm slot_add_nio_binding ESW2 1 0 udp-86e5277e-24e6-47f6-900e-753dfc2c0e60 
Dec 04 11:11:30.226 HYPERVISOR: exec_cmd: vm get_status ESW2 
