Dec 04 11:11:30.094 HYPERVISOR: Release 0.2.17-amd64/Linux (tag 2017072410)
Dec 04 11:11:30.094 HYPERVISOR: Started on IP = 127.0.0.1, TCP port = 50535.
Dec 04 11:11:30.100 HYPERVISOR: exec_cmd: hypervisor version 
Dec 04 11:11:30.101 HYPERVISOR: exec_cmd: hypervisor working_dir /media/actionmystique/SAMSUNG5-VMs/Labs/GNS3/git-Public-Labs-Collection/CCNP/TBSHOOT/L3-Technologies/IPv6/Routing-Protocols/RIPng/Jean-Christophe_Manciot/1+/TT 2-solutions-linux/project-files/dynamips 
Dec 04 11:11:30.101 GENERAL: working_dir=/media/actionmystique/SAMSUNG5-VMs/Labs/GNS3/git-Public-Labs-Collection/CCNP/TBSHOOT/L3-Technologies/IPv6/Routing-Protocols/RIPng/Jean-Christophe_Manciot/1+/TT 2-solutions-linux/project-files/dynamips
Dec 04 11:11:30.101 HYPERVISOR: exec_cmd: vm create ESW3 3 c3725 
Dec 04 11:11:30.101 VM: VM ESW3 created.
Dec 04 11:11:30.101 HYPERVISOR: exec_cmd: vm set_con_tcp_port ESW3 2006 
Dec 04 11:11:30.102 HYPERVISOR: exec_cmd: c3725 get_mac_addr ESW3 
Dec 04 11:11:30.102 HYPERVISOR: exec_cmd: vm set_nvram ESW3 256 
Dec 04 11:11:30.103 HYPERVISOR: exec_cmd: vm set_ios ESW3 /media/actionmystique/SAMSUNG5-VMs/Images/GNS3/IOS/c3725-adventerprisek9-mz.124-15.T10.image 
Dec 04 11:11:30.103 HYPERVISOR: exec_cmd: c3725 set_mac_addr ESW3 c203.1bfb.0000 
Dec 04 11:11:30.103 HYPERVISOR: exec_cmd: vm get_status ESW3 
Dec 04 11:11:30.104 HYPERVISOR: exec_cmd: vm slot_add_binding ESW3 1 0 NM-16ESW 
Dec 04 11:11:30.104 HYPERVISOR: exec_cmd: vm get_status ESW3 
Dec 04 11:11:30.104 HYPERVISOR: exec_cmd: vm set_idle_pc ESW3 0x6026b804 
Dec 04 11:11:30.105 HYPERVISOR: exec_cmd: vm set_disk0 ESW3 1 
Dec 04 11:11:30.105 HYPERVISOR: exec_cmd: vm slot_add_binding ESW3 0 16 WIC-2T 
Dec 04 11:11:30.106 HYPERVISOR: exec_cmd: vm set_config ESW3 configs/ios_base_startup-config.txt 
Dec 04 11:11:30.106 HYPERVISOR: exec_cmd: vm set_config ESW3 configs/ios_base_startup-config.txt configs/ios_base_private-config.txt 
Dec 04 11:11:30.269 HYPERVISOR: exec_cmd: nio create_udp udp-16ff6312-93b5-4b94-8b6c-bd8f0d0dce4d 15007 127.0.0.1 15008 
Dec 04 11:11:30.277 HYPERVISOR: exec_cmd: vm slot_add_nio_binding ESW3 1 0 udp-16ff6312-93b5-4b94-8b6c-bd8f0d0dce4d 
Dec 04 11:11:30.278 HYPERVISOR: exec_cmd: vm get_status ESW3 
Dec 04 11:11:33.191 HYPERVISOR: exec_cmd: nio create_tap tap-ece225ae-571a-4bbf-af67-9fc1d01ae0dd tap0 
Dec 04 11:11:33.192 HYPERVISOR: exec_cmd: vm slot_add_nio_binding ESW3 1 1 tap-ece225ae-571a-4bbf-af67-9fc1d01ae0dd 
Dec 04 11:11:33.192 HYPERVISOR: exec_cmd: vm get_status ESW3 
