autostart = False
version = 0.8.2
[127.0.0.1:7200]
    workingdir = C:\Users\ActionMystique\Documents\Missions\GNS3\Temp
    udp = 10000
    [[3725]]
        image = C:\Users\ActionMystique\Documents\Missions\IOS\Binaries\c3725-adventerprisek9-mz.124-15.T5.image
        ram = 128
        idlepc = 0x62af9f1c
        sparsemem = True
        ghostios = True
    [[ROUTER R1]]
        model = 3725
        console = 2000
        aux = 2100
        cnfg = configs\R1.cfg
        wic0/0 = WIC-2T
        s0/0 = R2 s0/0
        slot1 = NM-1FE-TX
        slot2 = NM-1FE-TX
        x = -399.0
        y = 82.0
        z = 1.0
    [[ROUTER R2]]
        model = 3725
        console = 2001
        aux = 2101
        cnfg = configs\R2.cfg
        wic0/0 = WIC-2T
        s0/0 = R1 s0/0
        s0/1 = R3 s0/1
        slot1 = NM-1FE-TX
        slot2 = NM-1FE-TX
        x = -178.0
        y = -313.0
        z = 1.0
    [[ROUTER R3]]
        model = 3725
        console = 2002
        aux = 2102
        cnfg = configs\R3.cfg
        wic0/0 = WIC-2T
        s0/1 = R2 s0/1
        slot1 = NM-1FE-TX
        slot2 = NM-1FE-TX
        x = 60.0
        y = 85.0
        z = 1.0
[GNS3-DATA]
    configs = configs
    width = 5000
    height = 2500
    [[NOTE 1]]
        text = s0/1\nDCE\n.2
        x = -101.0
        y = -281.5
    [[NOTE 2]]
        text = 172.16.0.0/30
        x = 4.0
        y = -120.5
    [[NOTE 3]]
        text = s0/0\n.2
        x = -217.0
        y = -277.5
    [[NOTE 4]]
        text = s0/0\nDCE\n.1
        x = -383.0
        y = 3.5
    [[NOTE 5]]
        text = ITA
        x = -271.0
        y = -306.5
        font = "Sans Serif,12,-1,5,75,0,0,0,0,0"
    [[NOTE 6]]
        text = ISP2
        x = 167.0
        y = 88.5
        font = "Sans Serif,12,-1,5,75,0,0,0,0,0"
    [[NOTE 7]]
        text = ISP1
        x = -486.0
        y = 87.5
        font = "Sans Serif,12,-1,5,75,0,0,0,0,0"
    [[NOTE 8]]
        text = s0/1\n.1
        x = 75.0
        y = 18.5
    [[NOTE 9]]
        text = Lo0: 10.1.1.1/24
        x = -437.0
        y = 147.5
    [[NOTE 10]]
        text = Lo0: 172.16.1.1/24
        x = 25.0
        y = 148.5
    [[NOTE 11]]
        text = Lo0: 192.168.0.1/24\nLo1: 192.168.1.1/24
        x = -228.0
        y = -373.5
    [[NOTE 12]]
        text = AS 300
        x = 49.0
        y = 179.5
        font = "Sans Serif,16,-1,5,75,0,0,0,0,0"
    [[NOTE 13]]
        text = AS 100
        x = -189.0
        y = -408.5
        font = "Sans Serif,16,-1,5,75,0,0,0,0,0"
    [[NOTE 14]]
        text = AS 200
        x = -414.0
        y = 180.5
        font = "Sans Serif,16,-1,5,75,0,0,0,0,0"
    [[NOTE 15]]
        text = 10.0.0.0/30
        x = -361.0
        y = -128.5
    [[SHAPE 1]]
        type = ellipse
        x = 115.0
        y = 117.0
        width = 27.0
        height = 22.0
        border_style = 2
        z = -2.0
    [[SHAPE 2]]
        type = ellipse
        x = -196.0
        y = -324.0
        width = 27.0
        height = 22.0
        border_style = 2
        z = -2.0
    [[SHAPE 3]]
        type = ellipse
        x = -302.0
        y = -428.0
        width = 316.0
        height = 226.0
        border_style = 2
        z = -2.0
    [[SHAPE 4]]
        type = ellipse
        x = -63.0
        y = 1.0
        width = 316.0
        height = 226.0
        border_style = 2
        z = -2.0
    [[SHAPE 5]]
        type = ellipse
        x = -407.0
        y = 119.0
        width = 27.0
        height = 22.0
        border_style = 2
        z = -2.0
    [[SHAPE 6]]
        type = ellipse
        x = -529.0
        y = 3.0
        width = 316.0
        height = 226.0
        border_style = 2
        z = -2.0
