Nov 27 15:43:18.588 HYPERVISOR: Release 0.2.17-amd64/Linux (tag 2017072410)
Nov 27 15:43:18.588 HYPERVISOR: Started on IP = 127.0.0.1, TCP port = 53019.
Nov 27 15:43:18.601 HYPERVISOR: exec_cmd: hypervisor version 
Nov 27 15:43:18.601 HYPERVISOR: exec_cmd: hypervisor working_dir /media/actionmystique/SAMSUNG5-VMs/Labs/GNS3/git-Public-Labs-Collection/CCNP/TBSHOOT/Infrastructure-Services/NTP/Jean-Christophe_Manciot/1+/TT 1-solutions-linux/project-files/dynamips 
Nov 27 15:43:18.601 GENERAL: working_dir=/media/actionmystique/SAMSUNG5-VMs/Labs/GNS3/git-Public-Labs-Collection/CCNP/TBSHOOT/Infrastructure-Services/NTP/Jean-Christophe_Manciot/1+/TT 1-solutions-linux/project-files/dynamips
Nov 27 15:43:18.601 HYPERVISOR: exec_cmd: vm create ESW1 1 c3725 
Nov 27 15:43:18.601 VM: VM ESW1 created.
Nov 27 15:43:18.602 HYPERVISOR: exec_cmd: vm set_con_tcp_port ESW1 2004 
Nov 27 15:43:18.602 HYPERVISOR: exec_cmd: c3725 get_mac_addr ESW1 
Nov 27 15:43:18.602 HYPERVISOR: exec_cmd: c3725 set_mac_addr ESW1 c201.7005.0000 
Nov 27 15:43:18.603 HYPERVISOR: exec_cmd: vm get_status ESW1 
Nov 27 15:43:18.603 HYPERVISOR: exec_cmd: vm slot_add_binding ESW1 1 0 NM-16ESW 
Nov 27 15:43:18.603 HYPERVISOR: exec_cmd: vm get_status ESW1 
Nov 27 15:43:18.604 HYPERVISOR: exec_cmd: vm set_idle_pc ESW1 0x60c06d20 
Nov 27 15:43:18.604 HYPERVISOR: exec_cmd: vm slot_add_binding ESW1 0 16 WIC-2T 
Nov 27 15:43:18.604 HYPERVISOR: exec_cmd: vm set_ios ESW1 /media/actionmystique/SAMSUNG5-VMs/Images/GNS3/IOS/c3725-adventerprisek9-mz.124-15.T10.image 
Nov 27 15:43:18.605 HYPERVISOR: exec_cmd: vm set_disk0 ESW1 1 
Nov 27 15:43:18.605 HYPERVISOR: exec_cmd: vm set_nvram ESW1 256 
Nov 27 15:43:18.606 HYPERVISOR: exec_cmd: vm set_config ESW1 configs/i1_startup-config.cfg 
Nov 27 15:43:18.608 HYPERVISOR: exec_cmd: vm set_config ESW1 configs/i1_startup-config.cfg configs/i1_private-config.cfg 
Nov 27 15:43:18.714 HYPERVISOR: exec_cmd: nio create_udp udp-52fa632b-0fda-4196-9ba9-261039e5b724 15005 127.0.0.1 15004 
Nov 27 15:43:18.721 HYPERVISOR: exec_cmd: vm slot_add_nio_binding ESW1 1 0 udp-52fa632b-0fda-4196-9ba9-261039e5b724 
Nov 27 15:43:18.722 HYPERVISOR: exec_cmd: vm get_status ESW1 
Nov 27 15:43:30.743 HYPERVISOR: exec_cmd: nio create_gen_eth generic_ethernet-ca191fd0-dfef-4003-a24a-b403b2d63515 enp3s0 
Nov 27 15:43:30.782 HYPERVISOR: exec_cmd: vm slot_add_nio_binding ESW1 1 1 generic_ethernet-ca191fd0-dfef-4003-a24a-b403b2d63515 
Nov 27 15:43:30.783 HYPERVISOR: exec_cmd: vm get_status ESW1 
