Nov 26 20:45:13.580 HYPERVISOR: Release 0.2.17-amd64/Linux (tag 2017072410)
Nov 26 20:45:13.580 HYPERVISOR: Started on IP = 127.0.0.1, TCP port = 47631.
Nov 26 20:45:13.617 HYPERVISOR: exec_cmd: hypervisor version 
Nov 26 20:45:13.619 HYPERVISOR: exec_cmd: hypervisor working_dir /media/actionmystique/SAMSUNG5-VMs/Labs/GNS3/MCT and GRE Tunnels/project-files/dynamips 
Nov 26 20:45:13.619 GENERAL: working_dir=/media/actionmystique/SAMSUNG5-VMs/Labs/GNS3/MCT and GRE Tunnels/project-files/dynamips
Nov 26 20:45:13.620 HYPERVISOR: exec_cmd: vm create RD1 6 c7200 
Nov 26 20:45:13.620 VM: VM RD1 created.
Nov 26 20:45:13.621 HYPERVISOR: exec_cmd: vm set_con_tcp_port RD1 2005 
Nov 26 20:45:13.622 HYPERVISOR: exec_cmd: vm set_aux_tcp_port RD1 2104 
Nov 26 20:45:13.623 HYPERVISOR: exec_cmd: c7200 get_mac_addr RD1 
Nov 26 20:45:13.624 HYPERVISOR: exec_cmd: vm get_status RD1 
Nov 26 20:45:13.626 HYPERVISOR: exec_cmd: vm slot_add_binding RD1 0 0 C7200-IO-FE 
Nov 26 20:45:13.627 HYPERVISOR: exec_cmd: vm get_status RD1 
Nov 26 20:45:13.630 HYPERVISOR: exec_cmd: vm slot_remove_binding RD1 0 0 
Nov 26 20:45:13.631 HYPERVISOR: exec_cmd: vm get_status RD1 
Nov 26 20:45:13.633 HYPERVISOR: exec_cmd: vm slot_add_binding RD1 0 0 C7200-IO-GE-E 
Nov 26 20:45:13.635 HYPERVISOR: exec_cmd: vm set_ram RD1 512 
Nov 26 20:45:13.640 HYPERVISOR: exec_cmd: vm get_status RD1 
Nov 26 20:45:13.652 HYPERVISOR: exec_cmd: vm set_idle_pc RD1 0x606dd06c 
Nov 26 20:45:13.653 HYPERVISOR: exec_cmd: vm get_status RD1 
Nov 26 20:45:13.655 HYPERVISOR: exec_cmd: vm slot_add_binding RD1 1 0 PA-8T 
Nov 26 20:45:13.657 HYPERVISOR: exec_cmd: vm set_con_tcp_port RD1 2005 
Nov 26 20:45:13.659 HYPERVISOR: exec_cmd: vm set_ios RD1 /media/actionmystique/SAMSUNG5-VMs/Images/GNS3/IOS/c7200-adventerprisek9-mz.152-4.M2.image 
Nov 26 20:45:13.665 HYPERVISOR: exec_cmd: vm set_config RD1 configs/i6_startup-config.cfg 
Nov 26 20:45:14.367 HYPERVISOR: exec_cmd: vm extract_config RD1 
Nov 26 20:45:14.384 HYPERVISOR: exec_cmd: nio create_udp udp-deea9ef5-1681-4a5d-9756-ac994a2bc894 15006 127.0.0.1 15001 
Nov 26 20:45:14.387 HYPERVISOR: exec_cmd: vm slot_add_nio_binding RD1 1 1 udp-deea9ef5-1681-4a5d-9756-ac994a2bc894 
Nov 26 20:45:14.388 HYPERVISOR: exec_cmd: vm get_status RD1 
Nov 26 20:45:14.395 HYPERVISOR: exec_cmd: nio create_udp udp-42809d87-1422-41dc-97cb-e84b2a6f32b8 15007 127.0.0.1 15002 
Nov 26 20:45:14.399 HYPERVISOR: exec_cmd: vm slot_add_nio_binding RD1 0 0 udp-42809d87-1422-41dc-97cb-e84b2a6f32b8 
Nov 26 20:45:14.399 HYPERVISOR: exec_cmd: vm get_status RD1 
Nov 26 20:45:14.429 HYPERVISOR: exec_cmd: nio create_udp udp-044ae144-928e-4ffe-8cf2-69467cb3b0ae 15008 127.0.0.1 15004 
Nov 26 20:45:14.429 HYPERVISOR: exec_cmd: vm slot_add_nio_binding RD1 1 3 udp-044ae144-928e-4ffe-8cf2-69467cb3b0ae 
Nov 26 20:45:14.430 HYPERVISOR: exec_cmd: vm get_status RD1 
Nov 26 20:45:14.444 HYPERVISOR: exec_cmd: nio create_udp udp-5e1b792c-caf4-430b-a82f-66f4b745223c 15009 127.0.0.1 15005 
Nov 26 20:45:14.445 HYPERVISOR: exec_cmd: vm slot_add_nio_binding RD1 1 2 udp-5e1b792c-caf4-430b-a82f-66f4b745223c 
Nov 26 20:45:14.445 HYPERVISOR: exec_cmd: vm get_status RD1 
Nov 26 20:45:14.484 HYPERVISOR: exec_cmd: nio create_udp udp-19a04735-23d2-46b3-9c8b-5a67b4107332 15013 127.0.0.1 15012 
Nov 26 20:45:14.484 HYPERVISOR: exec_cmd: vm slot_add_nio_binding RD1 1 0 udp-19a04735-23d2-46b3-9c8b-5a67b4107332 
Nov 26 20:45:14.485 HYPERVISOR: exec_cmd: vm get_status RD1 
Nov 26 20:45:21.943 HYPERVISOR: exec_cmd: vm extract_config RD1 
Nov 26 20:45:42.061 HYPERVISOR: exec_cmd: vm get_status RD1 
Nov 26 20:45:42.065 HYPERVISOR: exec_cmd: vm extract_config RD1 
Nov 26 20:45:42.069 HYPERVISOR: exec_cmd: vm delete RD1 
Nov 26 20:45:42.069 VM: VM RD1 destroyed.
Nov 26 20:45:42.074 HYPERVISOR: exec_cmd: hypervisor stop 
Nov 26 20:45:42.125 HYPERVISOR: Stopped.
Nov 26 20:45:42.125 GENERAL: reset done.
