Nov 26 20:45:13.713 HYPERVISOR: Release 0.2.17-amd64/Linux (tag 2017072410)
Nov 26 20:45:13.713 HYPERVISOR: Started on IP = 127.0.0.1, TCP port = 56251.
Nov 26 20:45:13.750 HYPERVISOR: exec_cmd: hypervisor version 
Nov 26 20:45:13.751 HYPERVISOR: exec_cmd: hypervisor working_dir /media/actionmystique/SAMSUNG5-VMs/Labs/GNS3/MCT and GRE Tunnels/project-files/dynamips 
Nov 26 20:45:13.751 GENERAL: working_dir=/media/actionmystique/SAMSUNG5-VMs/Labs/GNS3/MCT and GRE Tunnels/project-files/dynamips
Nov 26 20:45:13.753 HYPERVISOR: exec_cmd: vm create R10 11 c7200 
Nov 26 20:45:13.753 VM: VM R10 created.
Nov 26 20:45:13.754 HYPERVISOR: exec_cmd: vm set_con_tcp_port R10 2011 
Nov 26 20:45:13.755 HYPERVISOR: exec_cmd: vm set_aux_tcp_port R10 2111 
Nov 26 20:45:13.757 HYPERVISOR: exec_cmd: c7200 get_mac_addr R10 
Nov 26 20:45:13.758 HYPERVISOR: exec_cmd: vm get_status R10 
Nov 26 20:45:13.761 HYPERVISOR: exec_cmd: vm slot_add_binding R10 0 0 C7200-IO-FE 
Nov 26 20:45:13.767 HYPERVISOR: exec_cmd: vm get_status R10 
Nov 26 20:45:13.782 HYPERVISOR: exec_cmd: vm slot_remove_binding R10 0 0 
Nov 26 20:45:13.784 HYPERVISOR: exec_cmd: vm get_status R10 
Nov 26 20:45:13.786 HYPERVISOR: exec_cmd: vm slot_add_binding R10 0 0 C7200-IO-GE-E 
Nov 26 20:45:13.797 HYPERVISOR: exec_cmd: vm set_ram R10 512 
Nov 26 20:45:13.803 HYPERVISOR: exec_cmd: vm get_status R10 
Nov 26 20:45:13.814 HYPERVISOR: exec_cmd: vm set_idle_pc R10 0x606dd06c 
Nov 26 20:45:13.817 HYPERVISOR: exec_cmd: vm get_status R10 
Nov 26 20:45:13.818 HYPERVISOR: exec_cmd: vm slot_add_binding R10 1 0 PA-8T 
Nov 26 20:45:13.820 HYPERVISOR: exec_cmd: vm set_ios R10 /media/actionmystique/SAMSUNG5-VMs/Images/GNS3/IOS/c7200-adventerprisek9-mz.152-4.M2.image 
Nov 26 20:45:13.822 HYPERVISOR: exec_cmd: vm set_config R10 configs/i11_startup-config.cfg 
Nov 26 20:45:14.366 HYPERVISOR: exec_cmd: vm extract_config R10 
Nov 26 20:45:14.592 HYPERVISOR: exec_cmd: nio create_udp udp-6560bd2a-5d1c-4b77-ba14-641a8fabb65f 15024 127.0.0.1 15025 
Nov 26 20:45:14.593 HYPERVISOR: exec_cmd: vm slot_add_nio_binding R10 0 0 udp-6560bd2a-5d1c-4b77-ba14-641a8fabb65f 
Nov 26 20:45:14.593 HYPERVISOR: exec_cmd: vm get_status R10 
Nov 26 20:45:14.612 HYPERVISOR: exec_cmd: nio create_udp udp-9305e823-af94-4063-a36b-d7eb8ecce3a6 15026 127.0.0.1 15028 
Nov 26 20:45:14.613 HYPERVISOR: exec_cmd: vm slot_add_nio_binding R10 1 0 udp-9305e823-af94-4063-a36b-d7eb8ecce3a6 
Nov 26 20:45:14.613 HYPERVISOR: exec_cmd: vm get_status R10 
Nov 26 20:45:14.637 HYPERVISOR: exec_cmd: nio create_udp udp-b0628aed-7e0e-43c3-9b42-a1146f08346d 15027 127.0.0.1 15029 
Nov 26 20:45:14.637 HYPERVISOR: exec_cmd: vm slot_add_nio_binding R10 1 1 udp-b0628aed-7e0e-43c3-9b42-a1146f08346d 
Nov 26 20:45:14.637 HYPERVISOR: exec_cmd: vm get_status R10 
Nov 26 20:45:21.942 HYPERVISOR: exec_cmd: vm extract_config R10 
Nov 26 20:45:42.059 HYPERVISOR: exec_cmd: vm get_status R10 
Nov 26 20:45:42.064 HYPERVISOR: exec_cmd: vm extract_config R10 
Nov 26 20:45:42.068 HYPERVISOR: exec_cmd: vm delete R10 
Nov 26 20:45:42.068 VM: VM R10 destroyed.
Nov 26 20:45:42.072 HYPERVISOR: exec_cmd: hypervisor stop 
Nov 26 20:45:42.262 HYPERVISOR: Stopped.
Nov 26 20:45:42.263 GENERAL: reset done.
