Nov 26 20:45:13.532 HYPERVISOR: Release 0.2.17-amd64/Linux (tag 2017072410)
Nov 26 20:45:13.532 HYPERVISOR: Started on IP = 127.0.0.1, TCP port = 37561.
Nov 26 20:45:13.553 HYPERVISOR: exec_cmd: hypervisor version 
Nov 26 20:45:13.564 HYPERVISOR: exec_cmd: hypervisor working_dir /media/actionmystique/SAMSUNG5-VMs/Labs/GNS3/MCT and GRE Tunnels/project-files/dynamips 
Nov 26 20:45:13.564 GENERAL: working_dir=/media/actionmystique/SAMSUNG5-VMs/Labs/GNS3/MCT and GRE Tunnels/project-files/dynamips
Nov 26 20:45:13.579 HYPERVISOR: exec_cmd: vm create R2 3 c7200 
Nov 26 20:45:13.579 VM: VM R2 created.
Nov 26 20:45:13.582 HYPERVISOR: exec_cmd: vm set_con_tcp_port R2 2002 
Nov 26 20:45:13.583 HYPERVISOR: exec_cmd: vm set_aux_tcp_port R2 2102 
Nov 26 20:45:13.583 HYPERVISOR: exec_cmd: c7200 get_mac_addr R2 
Nov 26 20:45:13.584 HYPERVISOR: exec_cmd: vm get_status R2 
Nov 26 20:45:13.585 HYPERVISOR: exec_cmd: vm slot_add_binding R2 0 0 C7200-IO-FE 
Nov 26 20:45:13.585 HYPERVISOR: exec_cmd: vm get_status R2 
Nov 26 20:45:13.586 HYPERVISOR: exec_cmd: vm slot_remove_binding R2 0 0 
Nov 26 20:45:13.587 HYPERVISOR: exec_cmd: vm get_status R2 
Nov 26 20:45:13.587 HYPERVISOR: exec_cmd: vm slot_add_binding R2 0 0 C7200-IO-GE-E 
Nov 26 20:45:13.588 HYPERVISOR: exec_cmd: vm set_ram R2 512 
Nov 26 20:45:13.588 HYPERVISOR: exec_cmd: vm get_status R2 
Nov 26 20:45:13.589 HYPERVISOR: exec_cmd: vm set_idle_pc R2 0x606dd06c 
Nov 26 20:45:13.590 HYPERVISOR: exec_cmd: vm get_status R2 
Nov 26 20:45:13.590 HYPERVISOR: exec_cmd: vm slot_add_binding R2 1 0 PA-8T 
Nov 26 20:45:13.592 HYPERVISOR: exec_cmd: vm set_ios R2 /media/actionmystique/SAMSUNG5-VMs/Images/GNS3/IOS/c7200-adventerprisek9-mz.152-4.M2.image 
Nov 26 20:45:13.595 HYPERVISOR: exec_cmd: vm set_config R2 configs/i3_startup-config.cfg 
Nov 26 20:45:14.364 HYPERVISOR: exec_cmd: vm extract_config R2 
Nov 26 20:45:14.377 HYPERVISOR: exec_cmd: nio create_udp udp-2f9056ce-c9d4-4d6b-a5f4-4b11c701cbbe 15001 127.0.0.1 15006 
Nov 26 20:45:14.377 HYPERVISOR: exec_cmd: vm slot_add_nio_binding R2 1 0 udp-2f9056ce-c9d4-4d6b-a5f4-4b11c701cbbe 
Nov 26 20:45:14.377 HYPERVISOR: exec_cmd: vm get_status R2 
Nov 26 20:45:14.451 HYPERVISOR: exec_cmd: nio create_udp udp-dbf2e530-ff6c-4be9-94b7-c6e79b4c56e5 15010 127.0.0.1 15011 
Nov 26 20:45:14.452 HYPERVISOR: exec_cmd: vm slot_add_nio_binding R2 0 0 udp-dbf2e530-ff6c-4be9-94b7-c6e79b4c56e5 
Nov 26 20:45:14.453 HYPERVISOR: exec_cmd: vm get_status R2 
Nov 26 20:45:14.552 HYPERVISOR: exec_cmd: nio create_udp udp-7a87f41d-2ffd-4f51-95c5-edb59648ab48 15021 127.0.0.1 15020 
Nov 26 20:45:14.552 HYPERVISOR: exec_cmd: vm slot_add_nio_binding R2 1 1 udp-7a87f41d-2ffd-4f51-95c5-edb59648ab48 
Nov 26 20:45:14.553 HYPERVISOR: exec_cmd: vm get_status R2 
Nov 26 20:45:14.651 HYPERVISOR: exec_cmd: nio create_udp udp-45e4419d-a570-4ab2-af4c-854ee25ee203 15030 127.0.0.1 15031 
Nov 26 20:45:14.652 HYPERVISOR: exec_cmd: vm slot_add_nio_binding R2 1 2 udp-45e4419d-a570-4ab2-af4c-854ee25ee203 
Nov 26 20:45:14.652 HYPERVISOR: exec_cmd: vm get_status R2 
Nov 26 20:45:21.940 HYPERVISOR: exec_cmd: vm extract_config R2 
Nov 26 20:45:42.061 HYPERVISOR: exec_cmd: vm get_status R2 
Nov 26 20:45:42.065 HYPERVISOR: exec_cmd: vm extract_config R2 
Nov 26 20:45:42.069 HYPERVISOR: exec_cmd: vm delete R2 
Nov 26 20:45:42.069 VM: VM R2 destroyed.
Nov 26 20:45:42.074 HYPERVISOR: exec_cmd: hypervisor stop 
Nov 26 20:45:42.078 HYPERVISOR: Stopped.
Nov 26 20:45:42.078 GENERAL: reset done.
