Nov 26 20:45:13.747 HYPERVISOR: Release 0.2.17-amd64/Linux (tag 2017072410)
Nov 26 20:45:13.747 HYPERVISOR: Started on IP = 127.0.0.1, TCP port = 51409.
Nov 26 20:45:13.786 HYPERVISOR: exec_cmd: hypervisor version 
Nov 26 20:45:13.797 HYPERVISOR: exec_cmd: hypervisor working_dir /media/actionmystique/SAMSUNG5-VMs/Labs/GNS3/MCT and GRE Tunnels/project-files/dynamips 
Nov 26 20:45:13.797 GENERAL: working_dir=/media/actionmystique/SAMSUNG5-VMs/Labs/GNS3/MCT and GRE Tunnels/project-files/dynamips
Nov 26 20:45:13.803 HYPERVISOR: exec_cmd: vm create RD11 12 c7200 
Nov 26 20:45:13.803 VM: VM RD11 created.
Nov 26 20:45:13.814 HYPERVISOR: exec_cmd: vm set_con_tcp_port RD11 2012 
Nov 26 20:45:13.817 HYPERVISOR: exec_cmd: vm set_aux_tcp_port RD11 2112 
Nov 26 20:45:13.818 HYPERVISOR: exec_cmd: c7200 get_mac_addr RD11 
Nov 26 20:45:13.820 HYPERVISOR: exec_cmd: vm get_status RD11 
Nov 26 20:45:13.821 HYPERVISOR: exec_cmd: vm slot_add_binding RD11 0 0 C7200-IO-FE 
Nov 26 20:45:13.823 HYPERVISOR: exec_cmd: vm get_status RD11 
Nov 26 20:45:13.829 HYPERVISOR: exec_cmd: vm slot_remove_binding RD11 0 0 
Nov 26 20:45:13.833 HYPERVISOR: exec_cmd: vm get_status RD11 
Nov 26 20:45:13.835 HYPERVISOR: exec_cmd: vm slot_add_binding RD11 0 0 C7200-IO-2FE 
Nov 26 20:45:13.837 HYPERVISOR: exec_cmd: vm set_ram RD11 512 
Nov 26 20:45:13.838 HYPERVISOR: exec_cmd: vm get_status RD11 
Nov 26 20:45:13.839 HYPERVISOR: exec_cmd: vm set_idle_pc RD11 0x606dd06c 
Nov 26 20:45:13.840 HYPERVISOR: exec_cmd: vm get_status RD11 
Nov 26 20:45:13.842 HYPERVISOR: exec_cmd: vm slot_add_binding RD11 1 0 PA-8T 
Nov 26 20:45:13.844 HYPERVISOR: exec_cmd: vm set_ios RD11 /media/actionmystique/SAMSUNG5-VMs/Images/GNS3/IOS/c7200-adventerprisek9-mz.152-4.M2.image 
Nov 26 20:45:13.846 HYPERVISOR: exec_cmd: vm set_config RD11 configs/i12_startup-config.cfg 
Nov 26 20:45:14.365 HYPERVISOR: exec_cmd: vm extract_config RD11 
Nov 26 20:45:14.665 HYPERVISOR: exec_cmd: nio create_udp udp-54676dc1-7094-457e-a382-1f666d2fe126 15031 127.0.0.1 15030 
Nov 26 20:45:14.665 HYPERVISOR: exec_cmd: vm slot_add_nio_binding RD11 1 0 udp-54676dc1-7094-457e-a382-1f666d2fe126 
Nov 26 20:45:14.665 HYPERVISOR: exec_cmd: vm get_status RD11 
Nov 26 20:45:14.693 HYPERVISOR: exec_cmd: nio create_udp udp-64f34c32-51df-4e11-a6ce-080ffbd3485b 15032 127.0.0.1 15033 
Nov 26 20:45:14.696 HYPERVISOR: exec_cmd: vm slot_add_nio_binding RD11 1 1 udp-64f34c32-51df-4e11-a6ce-080ffbd3485b 
Nov 26 20:45:14.697 HYPERVISOR: exec_cmd: vm get_status RD11 
Nov 26 20:45:14.706 HYPERVISOR: exec_cmd: nio create_udp udp-b8a622f2-1807-4988-8970-321bd2a6bd9d 15036 127.0.0.1 15034 
Nov 26 20:45:14.707 HYPERVISOR: exec_cmd: vm slot_add_nio_binding RD11 0 0 udp-b8a622f2-1807-4988-8970-321bd2a6bd9d 
Nov 26 20:45:14.708 HYPERVISOR: exec_cmd: vm get_status RD11 
Nov 26 20:45:21.941 HYPERVISOR: exec_cmd: vm extract_config RD11 
Nov 26 20:45:42.062 HYPERVISOR: exec_cmd: vm get_status RD11 
Nov 26 20:45:42.066 HYPERVISOR: exec_cmd: vm extract_config RD11 
Nov 26 20:45:42.070 HYPERVISOR: exec_cmd: vm delete RD11 
Nov 26 20:45:42.070 VM: VM RD11 destroyed.
Nov 26 20:45:42.075 HYPERVISOR: exec_cmd: hypervisor stop 
Nov 26 20:45:42.297 HYPERVISOR: Stopped.
Nov 26 20:45:42.297 GENERAL: reset done.
