Nov 26 20:45:13.815 HYPERVISOR: Release 0.2.17-amd64/Linux (tag 2017072410)
Nov 26 20:45:13.815 HYPERVISOR: Started on IP = 127.0.0.1, TCP port = 55965.
Nov 26 20:45:13.838 HYPERVISOR: exec_cmd: hypervisor version 
Nov 26 20:45:13.840 HYPERVISOR: exec_cmd: hypervisor working_dir /media/actionmystique/SAMSUNG5-VMs/Labs/GNS3/MCT and GRE Tunnels/project-files/dynamips 
Nov 26 20:45:13.840 GENERAL: working_dir=/media/actionmystique/SAMSUNG5-VMs/Labs/GNS3/MCT and GRE Tunnels/project-files/dynamips
Nov 26 20:45:13.841 HYPERVISOR: exec_cmd: vm create R13 15 c7200 
Nov 26 20:45:13.841 VM: VM R13 created.
Nov 26 20:45:13.843 HYPERVISOR: exec_cmd: vm set_con_tcp_port R13 2015 
Nov 26 20:45:13.845 HYPERVISOR: exec_cmd: vm set_aux_tcp_port R13 2115 
Nov 26 20:45:13.846 HYPERVISOR: exec_cmd: c7200 get_mac_addr R13 
Nov 26 20:45:13.851 HYPERVISOR: exec_cmd: vm get_status R13 
Nov 26 20:45:13.854 HYPERVISOR: exec_cmd: vm slot_add_binding R13 0 0 C7200-IO-FE 
Nov 26 20:45:13.856 HYPERVISOR: exec_cmd: vm get_status R13 
Nov 26 20:45:13.857 HYPERVISOR: exec_cmd: vm slot_remove_binding R13 0 0 
Nov 26 20:45:13.863 HYPERVISOR: exec_cmd: vm get_status R13 
Nov 26 20:45:13.864 HYPERVISOR: exec_cmd: vm slot_add_binding R13 0 0 C7200-IO-GE-E 
Nov 26 20:45:13.865 HYPERVISOR: exec_cmd: vm set_ram R13 512 
Nov 26 20:45:13.867 HYPERVISOR: exec_cmd: vm get_status R13 
Nov 26 20:45:13.871 HYPERVISOR: exec_cmd: vm set_idle_pc R13 0x606dd06c 
Nov 26 20:45:13.872 HYPERVISOR: exec_cmd: vm get_status R13 
Nov 26 20:45:13.873 HYPERVISOR: exec_cmd: vm slot_add_binding R13 1 0 PA-GE 
Nov 26 20:45:13.873 HYPERVISOR: exec_cmd: vm set_ios R13 /media/actionmystique/SAMSUNG5-VMs/Images/GNS3/IOS/c7200-adventerprisek9-mz.152-4.M2.image 
Nov 26 20:45:13.874 HYPERVISOR: exec_cmd: vm set_config R13 configs/i15_startup-config.cfg 
Nov 26 20:45:14.363 HYPERVISOR: exec_cmd: vm extract_config R13 
Nov 26 20:45:14.758 HYPERVISOR: exec_cmd: nio create_udp udp-88303a8d-a843-475d-ae37-8cfb29f9062a 15041 127.0.0.1 15040 
Nov 26 20:45:14.759 HYPERVISOR: exec_cmd: vm slot_add_nio_binding R13 0 0 udp-88303a8d-a843-475d-ae37-8cfb29f9062a 
Nov 26 20:45:14.759 HYPERVISOR: exec_cmd: vm get_status R13 
Nov 26 20:45:21.939 HYPERVISOR: exec_cmd: vm extract_config R13 
Nov 26 20:45:42.059 HYPERVISOR: exec_cmd: vm get_status R13 
Nov 26 20:45:42.064 HYPERVISOR: exec_cmd: vm extract_config R13 
Nov 26 20:45:42.068 HYPERVISOR: exec_cmd: vm delete R13 
Nov 26 20:45:42.068 VM: VM R13 destroyed.
Nov 26 20:45:42.072 HYPERVISOR: exec_cmd: hypervisor stop 
Nov 26 20:45:42.363 HYPERVISOR: Stopped.
Nov 26 20:45:42.363 GENERAL: reset done.
