Nov 26 20:45:13.566 HYPERVISOR: Release 0.2.17-amd64/Linux (tag 2017072410)
Nov 26 20:45:13.566 HYPERVISOR: Started on IP = 127.0.0.1, TCP port = 50657.
Nov 26 20:45:13.616 HYPERVISOR: exec_cmd: hypervisor version 
Nov 26 20:45:13.618 HYPERVISOR: exec_cmd: hypervisor working_dir /media/actionmystique/SAMSUNG5-VMs/Labs/GNS3/MCT and GRE Tunnels/project-files/dynamips 
Nov 26 20:45:13.618 GENERAL: working_dir=/media/actionmystique/SAMSUNG5-VMs/Labs/GNS3/MCT and GRE Tunnels/project-files/dynamips
Nov 26 20:45:13.619 HYPERVISOR: exec_cmd: vm create R3 1 c7200 
Nov 26 20:45:13.619 VM: VM R3 created.
Nov 26 20:45:13.620 HYPERVISOR: exec_cmd: vm set_con_tcp_port R3 2003 
Nov 26 20:45:13.621 HYPERVISOR: exec_cmd: vm set_aux_tcp_port R3 2103 
Nov 26 20:45:13.622 HYPERVISOR: exec_cmd: c7200 get_mac_addr R3 
Nov 26 20:45:13.623 HYPERVISOR: exec_cmd: vm get_status R3 
Nov 26 20:45:13.625 HYPERVISOR: exec_cmd: vm slot_add_binding R3 0 0 C7200-IO-FE 
Nov 26 20:45:13.626 HYPERVISOR: exec_cmd: vm get_status R3 
Nov 26 20:45:13.628 HYPERVISOR: exec_cmd: vm slot_remove_binding R3 0 0 
Nov 26 20:45:13.630 HYPERVISOR: exec_cmd: vm get_status R3 
Nov 26 20:45:13.632 HYPERVISOR: exec_cmd: vm slot_add_binding R3 0 0 C7200-IO-GE-E 
Nov 26 20:45:13.633 HYPERVISOR: exec_cmd: vm set_ram R3 512 
Nov 26 20:45:13.635 HYPERVISOR: exec_cmd: vm get_status R3 
Nov 26 20:45:13.641 HYPERVISOR: exec_cmd: vm set_idle_pc R3 0x606dd06c 
Nov 26 20:45:13.652 HYPERVISOR: exec_cmd: vm get_status R3 
Nov 26 20:45:13.654 HYPERVISOR: exec_cmd: vm slot_add_binding R3 1 0 PA-8T 
Nov 26 20:45:13.655 HYPERVISOR: exec_cmd: vm set_ios R3 /media/actionmystique/SAMSUNG5-VMs/Images/GNS3/IOS/c7200-adventerprisek9-mz.152-4.M2.image 
Nov 26 20:45:13.657 HYPERVISOR: exec_cmd: vm set_config R3 configs/i1_startup-config.cfg 
Nov 26 20:45:14.363 HYPERVISOR: exec_cmd: vm extract_config R3 
Nov 26 20:45:14.387 HYPERVISOR: exec_cmd: nio create_udp udp-d7802087-96a5-47ef-b126-4d26d6cb849c 15002 127.0.0.1 15007 
Nov 26 20:45:14.388 HYPERVISOR: exec_cmd: vm slot_add_nio_binding R3 0 0 udp-d7802087-96a5-47ef-b126-4d26d6cb849c 
Nov 26 20:45:14.388 HYPERVISOR: exec_cmd: vm get_status R3 
Nov 26 20:45:14.497 HYPERVISOR: exec_cmd: nio create_udp udp-029baca5-9bb2-4e9f-b94a-7d0d06fb0792 15014 127.0.0.1 15016 
Nov 26 20:45:14.497 HYPERVISOR: exec_cmd: vm slot_add_nio_binding R3 1 0 udp-029baca5-9bb2-4e9f-b94a-7d0d06fb0792 
Nov 26 20:45:14.498 HYPERVISOR: exec_cmd: vm get_status R3 
Nov 26 20:45:21.939 HYPERVISOR: exec_cmd: vm extract_config R3 
Nov 26 20:45:42.062 HYPERVISOR: exec_cmd: vm get_status R3 
Nov 26 20:45:42.066 HYPERVISOR: exec_cmd: vm extract_config R3 
Nov 26 20:45:42.069 HYPERVISOR: exec_cmd: vm delete R3 
Nov 26 20:45:42.069 VM: VM R3 destroyed.
Nov 26 20:45:42.074 HYPERVISOR: exec_cmd: hypervisor stop 
Nov 26 20:45:42.124 HYPERVISOR: Stopped.
Nov 26 20:45:42.124 GENERAL: reset done.
