Nov 26 20:45:13.797 HYPERVISOR: Release 0.2.17-amd64/Linux (tag 2017072410)
Nov 26 20:45:13.797 HYPERVISOR: Started on IP = 127.0.0.1, TCP port = 34973.
Nov 26 20:45:13.823 HYPERVISOR: exec_cmd: hypervisor version 
Nov 26 20:45:13.829 HYPERVISOR: exec_cmd: hypervisor working_dir /media/actionmystique/SAMSUNG5-VMs/Labs/GNS3/MCT and GRE Tunnels/project-files/dynamips 
Nov 26 20:45:13.829 GENERAL: working_dir=/media/actionmystique/SAMSUNG5-VMs/Labs/GNS3/MCT and GRE Tunnels/project-files/dynamips
Nov 26 20:45:13.833 HYPERVISOR: exec_cmd: vm create RD33 14 c7200 
Nov 26 20:45:13.833 VM: VM RD33 created.
Nov 26 20:45:13.835 HYPERVISOR: exec_cmd: vm set_con_tcp_port RD33 2014 
Nov 26 20:45:13.836 HYPERVISOR: exec_cmd: vm set_aux_tcp_port RD33 2114 
Nov 26 20:45:13.837 HYPERVISOR: exec_cmd: c7200 get_mac_addr RD33 
Nov 26 20:45:13.839 HYPERVISOR: exec_cmd: vm get_status RD33 
Nov 26 20:45:13.840 HYPERVISOR: exec_cmd: vm slot_add_binding RD33 0 0 C7200-IO-FE 
Nov 26 20:45:13.842 HYPERVISOR: exec_cmd: vm get_status RD33 
Nov 26 20:45:13.844 HYPERVISOR: exec_cmd: vm slot_remove_binding RD33 0 0 
Nov 26 20:45:13.846 HYPERVISOR: exec_cmd: vm get_status RD33 
Nov 26 20:45:13.847 HYPERVISOR: exec_cmd: vm slot_add_binding RD33 0 0 C7200-IO-GE-E 
Nov 26 20:45:13.852 HYPERVISOR: exec_cmd: vm set_ram RD33 512 
Nov 26 20:45:13.855 HYPERVISOR: exec_cmd: vm get_status RD33 
Nov 26 20:45:13.856 HYPERVISOR: exec_cmd: vm set_idle_pc RD33 0x606dd06c 
Nov 26 20:45:13.862 HYPERVISOR: exec_cmd: vm get_status RD33 
Nov 26 20:45:13.863 HYPERVISOR: exec_cmd: vm slot_add_binding RD33 1 0 PA-8T 
Nov 26 20:45:13.864 HYPERVISOR: exec_cmd: vm set_ios RD33 /media/actionmystique/SAMSUNG5-VMs/Images/GNS3/IOS/c7200-adventerprisek9-mz.152-4.M2.image 
Nov 26 20:45:13.866 HYPERVISOR: exec_cmd: vm set_config RD33 configs/i14_startup-config.cfg 
Nov 26 20:45:14.366 HYPERVISOR: exec_cmd: vm extract_config RD33 
Nov 26 20:45:14.725 HYPERVISOR: exec_cmd: nio create_udp udp-c65dddb0-13d7-40d4-a921-9c2606242b9c 15038 127.0.0.1 15035 
Nov 26 20:45:14.725 HYPERVISOR: exec_cmd: vm slot_add_nio_binding RD33 1 0 udp-c65dddb0-13d7-40d4-a921-9c2606242b9c 
Nov 26 20:45:14.726 HYPERVISOR: exec_cmd: vm get_status RD33 
Nov 26 20:45:14.748 HYPERVISOR: exec_cmd: nio create_udp udp-ece8f07d-4028-47f7-b1a1-eeb6267a280d 15039 127.0.0.1 15037 
Nov 26 20:45:14.752 HYPERVISOR: exec_cmd: vm slot_add_nio_binding RD33 1 1 udp-ece8f07d-4028-47f7-b1a1-eeb6267a280d 
Nov 26 20:45:14.752 HYPERVISOR: exec_cmd: vm get_status RD33 
Nov 26 20:45:14.765 HYPERVISOR: exec_cmd: nio create_udp udp-5bb26f0b-ddc7-4afe-8889-b768769a56f3 15040 127.0.0.1 15041 
Nov 26 20:45:14.765 HYPERVISOR: exec_cmd: vm slot_add_nio_binding RD33 0 0 udp-5bb26f0b-ddc7-4afe-8889-b768769a56f3 
Nov 26 20:45:14.765 HYPERVISOR: exec_cmd: vm get_status RD33 
Nov 26 20:45:21.941 HYPERVISOR: exec_cmd: vm extract_config RD33 
Nov 26 20:45:42.060 HYPERVISOR: exec_cmd: vm get_status RD33 
Nov 26 20:45:42.065 HYPERVISOR: exec_cmd: vm extract_config RD33 
Nov 26 20:45:42.069 HYPERVISOR: exec_cmd: vm delete RD33 
Nov 26 20:45:42.069 VM: VM RD33 destroyed.
Nov 26 20:45:42.073 HYPERVISOR: exec_cmd: hypervisor stop 
Nov 26 20:45:42.346 HYPERVISOR: Stopped.
Nov 26 20:45:42.346 GENERAL: reset done.
