Nov 27 16:23:32.722 HYPERVISOR: Release 0.2.17-amd64/Linux (tag 2017072410)
Nov 27 16:23:32.722 HYPERVISOR: Started on IP = 127.0.0.1, TCP port = 40345.
Nov 27 16:23:32.741 HYPERVISOR: exec_cmd: hypervisor version 
Nov 27 16:23:32.742 HYPERVISOR: exec_cmd: hypervisor working_dir /media/actionmystique/SAMSUNG5-VMs/Labs/GNS3/git-Public-Labs-Collection/CCNP/TBSHOOT/L3-Technologies/IPv4/High-Availability/VRRP/Jean-Christophe_Manciot/1+/TT 1-solutions-linux/project-files/dynamips 
Nov 27 16:23:32.742 GENERAL: working_dir=/media/actionmystique/SAMSUNG5-VMs/Labs/GNS3/git-Public-Labs-Collection/CCNP/TBSHOOT/L3-Technologies/IPv4/High-Availability/VRRP/Jean-Christophe_Manciot/1+/TT 1-solutions-linux/project-files/dynamips
Nov 27 16:23:32.743 HYPERVISOR: exec_cmd: vm create SW3 3 c3725 
Nov 27 16:23:32.743 VM: VM SW3 created.
Nov 27 16:23:32.743 HYPERVISOR: exec_cmd: vm set_con_tcp_port SW3 2003 
Nov 27 16:23:32.745 HYPERVISOR: exec_cmd: c3725 get_mac_addr SW3 
Nov 27 16:23:32.746 HYPERVISOR: exec_cmd: vm set_nvram SW3 256 
Nov 27 16:23:32.747 HYPERVISOR: exec_cmd: vm get_status SW3 
Nov 27 16:23:32.747 HYPERVISOR: exec_cmd: vm set_idle_pc SW3 0x60c056e4 
Nov 27 16:23:32.748 HYPERVISOR: exec_cmd: c3725 set_mac_addr SW3 cccc.cccc.cccc 
Nov 27 16:23:32.748 HYPERVISOR: exec_cmd: vm set_exec_area SW3 16 
Nov 27 16:23:32.749 HYPERVISOR: exec_cmd: vm get_status SW3 
Nov 27 16:23:32.750 HYPERVISOR: exec_cmd: vm slot_add_binding SW3 1 0 NM-16ESW 
Nov 27 16:23:32.750 HYPERVISOR: exec_cmd: vm set_ios SW3 /media/actionmystique/SAMSUNG5-VMs/Images/GNS3/IOS/c3725-adventerprisek9-mz.124-15.T10.image 
Nov 27 16:23:32.751 HYPERVISOR: exec_cmd: vm slot_add_binding SW3 0 16 WIC-2T 
Nov 27 16:23:32.752 HYPERVISOR: exec_cmd: vm set_disk0 SW3 1 
Nov 27 16:23:32.752 HYPERVISOR: exec_cmd: vm set_config SW3 configs/i3_startup-config.cfg 
Nov 27 16:23:32.754 HYPERVISOR: exec_cmd: vm set_config SW3 configs/i3_startup-config.cfg configs/i3_private-config.cfg 
Nov 27 16:23:32.961 HYPERVISOR: exec_cmd: nio create_udp udp-feb4337c-c6e2-43a3-b583-e68ae8e3e3b3 15001 127.0.0.1 15002 
Nov 27 16:23:32.962 HYPERVISOR: exec_cmd: vm slot_add_nio_binding SW3 1 2 udp-feb4337c-c6e2-43a3-b583-e68ae8e3e3b3 
Nov 27 16:23:32.965 HYPERVISOR: exec_cmd: vm get_status SW3 
Nov 27 16:23:33.027 HYPERVISOR: exec_cmd: nio create_udp udp-9cabe4d0-dff9-4d46-aacb-a6c6ce2d76ab 15007 127.0.0.1 15008 
Nov 27 16:23:33.028 HYPERVISOR: exec_cmd: vm slot_add_nio_binding SW3 1 6 udp-9cabe4d0-dff9-4d46-aacb-a6c6ce2d76ab 
Nov 27 16:23:33.028 HYPERVISOR: exec_cmd: vm get_status SW3 
Nov 27 16:23:33.039 HYPERVISOR: exec_cmd: nio create_udp udp-4e3c583f-8531-4d20-a5c0-5aaa041e43c4 15009 127.0.0.1 15006 
Nov 27 16:23:33.040 HYPERVISOR: exec_cmd: vm slot_add_nio_binding SW3 0 0 udp-4e3c583f-8531-4d20-a5c0-5aaa041e43c4 
Nov 27 16:23:33.041 HYPERVISOR: exec_cmd: vm get_status SW3 
Nov 27 16:23:33.076 HYPERVISOR: exec_cmd: nio create_udp udp-df5c0dd0-3b7a-4934-a49b-4d0884c804dd 15010 127.0.0.1 15013 
Nov 27 16:23:33.077 HYPERVISOR: exec_cmd: vm slot_add_nio_binding SW3 1 1 udp-df5c0dd0-3b7a-4934-a49b-4d0884c804dd 
Nov 27 16:23:33.077 HYPERVISOR: exec_cmd: vm get_status SW3 
