Dec 04 11:16:43.350 HYPERVISOR: Release 0.2.17-amd64/Linux (tag 2017072410)
Dec 04 11:16:43.350 HYPERVISOR: Started on IP = 127.0.0.1, TCP port = 46541.
Dec 04 11:16:43.364 HYPERVISOR: exec_cmd: hypervisor version 
Dec 04 11:16:43.365 HYPERVISOR: exec_cmd: hypervisor working_dir /media/actionmystique/SAMSUNG5-VMs/Labs/GNS3/TT 3-solutions-linux-/project-files/dynamips 
Dec 04 11:16:43.365 GENERAL: working_dir=/media/actionmystique/SAMSUNG5-VMs/Labs/GNS3/TT 3-solutions-linux-/project-files/dynamips
Dec 04 11:16:43.365 HYPERVISOR: exec_cmd: vm create ESW2 2 c3725 
Dec 04 11:16:43.365 VM: VM ESW2 created.
Dec 04 11:16:43.366 HYPERVISOR: exec_cmd: vm set_con_tcp_port ESW2 2005 
Dec 04 11:16:43.366 HYPERVISOR: exec_cmd: c3725 get_mac_addr ESW2 
Dec 04 11:16:43.367 HYPERVISOR: exec_cmd: vm get_status ESW2 
Dec 04 11:16:43.368 HYPERVISOR: exec_cmd: vm slot_add_binding ESW2 1 0 NM-16ESW 
Dec 04 11:16:43.368 HYPERVISOR: exec_cmd: vm slot_add_binding ESW2 0 16 WIC-2T 
Dec 04 11:16:43.369 HYPERVISOR: exec_cmd: vm get_status ESW2 
Dec 04 11:16:43.369 HYPERVISOR: exec_cmd: vm set_idle_pc ESW2 0x6026b804 
Dec 04 11:16:43.370 HYPERVISOR: exec_cmd: vm set_disk0 ESW2 1 
Dec 04 11:16:43.370 HYPERVISOR: exec_cmd: vm set_nvram ESW2 256 
Dec 04 11:16:43.371 HYPERVISOR: exec_cmd: vm set_ios ESW2 /media/actionmystique/SAMSUNG5-VMs/Images/GNS3/IOS/c3725-adventerprisek9-mz.124-15.T10.image 
Dec 04 11:16:43.372 HYPERVISOR: exec_cmd: c3725 set_mac_addr ESW2 c202.1bd4.0000 
Dec 04 11:16:43.372 HYPERVISOR: exec_cmd: vm set_config ESW2 configs/ios_base_startup-config.txt 
Dec 04 11:16:43.373 HYPERVISOR: exec_cmd: vm set_config ESW2 configs/ios_base_startup-config.txt configs/ios_base_private-config.txt 
Dec 04 11:16:43.639 HYPERVISOR: exec_cmd: nio create_udp udp-6df9ae74-fae3-43a8-80f7-936d01c80c84 15003 127.0.0.1 15004 
Dec 04 11:16:43.646 HYPERVISOR: exec_cmd: vm slot_add_nio_binding ESW2 1 0 udp-6df9ae74-fae3-43a8-80f7-936d01c80c84 
Dec 04 11:16:43.653 HYPERVISOR: exec_cmd: vm get_status ESW2 
Dec 04 11:16:55.820 HYPERVISOR: exec_cmd: vm get_status ESW2 
Dec 04 11:16:55.824 HYPERVISOR: exec_cmd: vm extract_config ESW2 
Dec 04 11:16:55.827 HYPERVISOR: exec_cmd: vm delete ESW2 
Dec 04 11:16:55.827 VM: VM ESW2 destroyed.
Dec 04 11:16:55.829 HYPERVISOR: exec_cmd: hypervisor stop 
Dec 04 11:16:55.877 HYPERVISOR: Stopped.
Dec 04 11:16:55.877 GENERAL: reset done.
