Dec 04 11:16:43.388 HYPERVISOR: Release 0.2.17-amd64/Linux (tag 2017072410)
Dec 04 11:16:43.388 HYPERVISOR: Started on IP = 127.0.0.1, TCP port = 60017.
Dec 04 11:16:43.439 HYPERVISOR: exec_cmd: hypervisor version 
Dec 04 11:16:43.440 HYPERVISOR: exec_cmd: hypervisor working_dir /media/actionmystique/SAMSUNG5-VMs/Labs/GNS3/TT 3-solutions-linux-/project-files/dynamips 
Dec 04 11:16:43.440 GENERAL: working_dir=/media/actionmystique/SAMSUNG5-VMs/Labs/GNS3/TT 3-solutions-linux-/project-files/dynamips
Dec 04 11:16:43.441 HYPERVISOR: exec_cmd: vm create ESW3 3 c3725 
Dec 04 11:16:43.441 VM: VM ESW3 created.
Dec 04 11:16:43.441 HYPERVISOR: exec_cmd: vm set_con_tcp_port ESW3 2006 
Dec 04 11:16:43.442 HYPERVISOR: exec_cmd: c3725 get_mac_addr ESW3 
Dec 04 11:16:43.442 HYPERVISOR: exec_cmd: vm get_status ESW3 
Dec 04 11:16:43.443 HYPERVISOR: exec_cmd: vm slot_add_binding ESW3 1 0 NM-16ESW 
Dec 04 11:16:43.444 HYPERVISOR: exec_cmd: vm slot_add_binding ESW3 0 16 WIC-2T 
Dec 04 11:16:43.444 HYPERVISOR: exec_cmd: vm get_status ESW3 
Dec 04 11:16:43.445 HYPERVISOR: exec_cmd: vm set_idle_pc ESW3 0x6026b804 
Dec 04 11:16:43.446 HYPERVISOR: exec_cmd: vm set_disk0 ESW3 1 
Dec 04 11:16:43.447 HYPERVISOR: exec_cmd: vm set_nvram ESW3 256 
Dec 04 11:16:43.448 HYPERVISOR: exec_cmd: vm set_ios ESW3 /media/actionmystique/SAMSUNG5-VMs/Images/GNS3/IOS/c3725-adventerprisek9-mz.124-15.T10.image 
Dec 04 11:16:43.449 HYPERVISOR: exec_cmd: c3725 set_mac_addr ESW3 c203.1bfb.0000 
Dec 04 11:16:43.450 HYPERVISOR: exec_cmd: vm set_config ESW3 configs/ios_base_startup-config.txt 
Dec 04 11:16:43.451 HYPERVISOR: exec_cmd: vm set_config ESW3 configs/ios_base_startup-config.txt configs/ios_base_private-config.txt 
Dec 04 11:16:43.566 HYPERVISOR: exec_cmd: nio create_tap tap-1b088f44-a017-4faa-94c8-aedb1890e330 tap0 
Dec 04 11:16:43.568 HYPERVISOR: exec_cmd: vm slot_add_nio_binding ESW3 1 1 tap-1b088f44-a017-4faa-94c8-aedb1890e330 
Dec 04 11:16:43.569 HYPERVISOR: exec_cmd: vm get_status ESW3 
Dec 04 11:16:43.691 HYPERVISOR: exec_cmd: nio create_udp udp-a1367c42-6575-4869-b5c1-1fe799892e61 15007 127.0.0.1 15005 
Dec 04 11:16:43.692 HYPERVISOR: exec_cmd: vm slot_add_nio_binding ESW3 1 0 udp-a1367c42-6575-4869-b5c1-1fe799892e61 
Dec 04 11:16:43.692 HYPERVISOR: exec_cmd: vm get_status ESW3 
Dec 04 11:16:55.821 HYPERVISOR: exec_cmd: vm get_status ESW3 
Dec 04 11:16:55.825 HYPERVISOR: exec_cmd: vm extract_config ESW3 
Dec 04 11:16:55.828 HYPERVISOR: exec_cmd: vm delete ESW3 
Dec 04 11:16:55.828 VM: VM ESW3 destroyed.
Dec 04 11:16:55.829 HYPERVISOR: exec_cmd: hypervisor stop 
Dec 04 11:16:55.952 HYPERVISOR: Stopped.
Dec 04 11:16:55.952 GENERAL: reset done.
