Nov 28 08:27:07.380 HYPERVISOR: Release 0.2.17-amd64/Linux (tag 2017072410)
Nov 28 08:27:07.380 HYPERVISOR: Started on IP = 127.0.0.1, TCP port = 44187.
Nov 28 08:27:07.398 HYPERVISOR: exec_cmd: hypervisor version 
Nov 28 08:27:07.399 HYPERVISOR: exec_cmd: hypervisor working_dir /media/actionmystique/SAMSUNG5-VMs/Labs/GNS3/TT 1-linux-/project-files/dynamips 
Nov 28 08:27:07.399 GENERAL: working_dir=/media/actionmystique/SAMSUNG5-VMs/Labs/GNS3/TT 1-linux-/project-files/dynamips
Nov 28 08:27:07.399 HYPERVISOR: exec_cmd: vm create ESW1 1 c3725 
Nov 28 08:27:07.399 VM: VM ESW1 created.
Nov 28 08:27:07.399 HYPERVISOR: exec_cmd: vm set_con_tcp_port ESW1 2001 
Nov 28 08:27:07.400 HYPERVISOR: exec_cmd: vm set_aux_tcp_port ESW1 2501 
Nov 28 08:27:07.400 HYPERVISOR: exec_cmd: c3725 get_mac_addr ESW1 
Nov 28 08:27:07.400 HYPERVISOR: exec_cmd: vm set_disk0 ESW1 1 
Nov 28 08:27:07.401 HYPERVISOR: exec_cmd: vm get_status ESW1 
Nov 28 08:27:07.401 HYPERVISOR: exec_cmd: vm slot_add_binding ESW1 1 0 NM-16ESW 
Nov 28 08:27:07.402 HYPERVISOR: exec_cmd: vm set_ios ESW1 /media/actionmystique/SAMSUNG5-VMs/Images/GNS3/IOS/c3725-adventerprisek9-mz.124-15.T10.image 
Nov 28 08:27:07.402 HYPERVISOR: exec_cmd: c3725 set_mac_addr ESW1 c201.3297.0000 
Nov 28 08:27:07.402 HYPERVISOR: exec_cmd: vm slot_add_binding ESW1 0 16 WIC-2T 
Nov 28 08:27:07.403 HYPERVISOR: exec_cmd: vm get_status ESW1 
Nov 28 08:27:07.403 HYPERVISOR: exec_cmd: vm set_idle_pc ESW1 0x614ac2c4 
Nov 28 08:27:07.403 HYPERVISOR: exec_cmd: vm set_nvram ESW1 256 
Nov 28 08:27:07.404 HYPERVISOR: exec_cmd: vm set_config ESW1 configs/i1_startup-config.cfg 
Nov 28 08:27:07.404 HYPERVISOR: exec_cmd: vm set_config ESW1 configs/i1_startup-config.cfg configs/i1_private-config.cfg 
Nov 28 08:27:07.522 HYPERVISOR: exec_cmd: nio create_udp udp-7563468e-a201-47bd-9e22-467aab969858 15001 127.0.0.1 15000 
Nov 28 08:27:07.527 HYPERVISOR: exec_cmd: vm slot_add_nio_binding ESW1 1 1 udp-7563468e-a201-47bd-9e22-467aab969858 
Nov 28 08:27:07.528 HYPERVISOR: exec_cmd: vm get_status ESW1 
Nov 28 08:27:07.533 HYPERVISOR: exec_cmd: nio create_udp udp-c4547120-4641-4c28-9de4-5176711c2bd7 15002 127.0.0.1 15003 
Nov 28 08:27:07.534 HYPERVISOR: exec_cmd: vm slot_add_nio_binding ESW1 1 2 udp-c4547120-4641-4c28-9de4-5176711c2bd7 
Nov 28 08:27:07.534 HYPERVISOR: exec_cmd: vm get_status ESW1 
Nov 28 08:27:30.754 HYPERVISOR: exec_cmd: vm get_status ESW1 
Nov 28 08:27:30.754 HYPERVISOR: exec_cmd: vm extract_config ESW1 
Nov 28 08:27:30.755 HYPERVISOR: exec_cmd: vm delete ESW1 
Nov 28 08:27:30.755 VM: VM ESW1 destroyed.
Nov 28 08:27:30.756 HYPERVISOR: exec_cmd: hypervisor stop 
Nov 28 08:27:30.924 HYPERVISOR: Stopped.
Nov 28 08:27:30.924 GENERAL: reset done.
