Nov 27 16:14:56.620 HYPERVISOR: Release 0.2.17-amd64/Linux (tag 2017072410)
Nov 27 16:14:56.620 HYPERVISOR: Started on IP = 127.0.0.1, TCP port = 46865.
Nov 27 16:14:56.631 HYPERVISOR: exec_cmd: hypervisor version 
Nov 27 16:14:56.631 HYPERVISOR: exec_cmd: hypervisor working_dir /media/actionmystique/SAMSUNG5-VMs/Labs/GNS3/git-Public-Labs-Collection/CCNP/TBSHOOT/L2-Technologies/STP/Jean-Christophe_Manciot/1+/TT 2-solutions-linux/project-files/dynamips 
Nov 27 16:14:56.631 GENERAL: working_dir=/media/actionmystique/SAMSUNG5-VMs/Labs/GNS3/git-Public-Labs-Collection/CCNP/TBSHOOT/L2-Technologies/STP/Jean-Christophe_Manciot/1+/TT 2-solutions-linux/project-files/dynamips
Nov 27 16:14:56.632 HYPERVISOR: exec_cmd: vm create SW1 1 c3725 
Nov 27 16:14:56.632 VM: VM SW1 created.
Nov 27 16:14:56.633 HYPERVISOR: exec_cmd: vm set_con_tcp_port SW1 2001 
Nov 27 16:14:56.633 HYPERVISOR: exec_cmd: c3725 get_mac_addr SW1 
Nov 27 16:14:56.634 HYPERVISOR: exec_cmd: vm set_nvram SW1 256 
Nov 27 16:14:56.635 HYPERVISOR: exec_cmd: vm get_status SW1 
Nov 27 16:14:56.635 HYPERVISOR: exec_cmd: vm set_idle_pc SW1 0x60c06d20 
Nov 27 16:14:56.636 HYPERVISOR: exec_cmd: c3725 set_mac_addr SW1 aaaa.aaaa.aaaa 
Nov 27 16:14:56.637 HYPERVISOR: exec_cmd: vm set_exec_area SW1 16 
Nov 27 16:14:56.637 HYPERVISOR: exec_cmd: vm get_status SW1 
Nov 27 16:14:56.638 HYPERVISOR: exec_cmd: vm slot_add_binding SW1 1 0 NM-16ESW 
Nov 27 16:14:56.639 HYPERVISOR: exec_cmd: vm set_ios SW1 /media/actionmystique/SAMSUNG5-VMs/Images/GNS3/IOS/c3725-adventerprisek9-mz.124-15.T10.image 
Nov 27 16:14:56.639 HYPERVISOR: exec_cmd: vm slot_add_binding SW1 0 16 WIC-2T 
Nov 27 16:14:56.641 HYPERVISOR: exec_cmd: vm set_disk0 SW1 1 
Nov 27 16:14:56.645 HYPERVISOR: exec_cmd: vm set_config SW1 configs/i1_startup-config.cfg 
Nov 27 16:14:56.647 HYPERVISOR: exec_cmd: vm set_config SW1 configs/i1_startup-config.cfg configs/i1_private-config.cfg 
Nov 27 16:14:56.738 HYPERVISOR: exec_cmd: nio create_null null-26d6f883-0c0b-4a3d-933d-71088adb1429 
Nov 27 16:14:56.740 HYPERVISOR: exec_cmd: vm slot_add_nio_binding SW1 1 0 null-26d6f883-0c0b-4a3d-933d-71088adb1429 
Nov 27 16:14:56.741 HYPERVISOR: exec_cmd: vm get_status SW1 
Nov 27 16:14:56.830 HYPERVISOR: exec_cmd: nio create_udp udp-2a6a6313-3a66-47cd-a19b-8219c505833a 15002 127.0.0.1 15006 
Nov 27 16:14:56.831 HYPERVISOR: exec_cmd: vm slot_add_nio_binding SW1 1 1 udp-2a6a6313-3a66-47cd-a19b-8219c505833a 
Nov 27 16:14:56.832 HYPERVISOR: exec_cmd: vm get_status SW1 
Nov 27 16:14:56.844 HYPERVISOR: exec_cmd: nio create_udp udp-467f187c-7126-42bf-8464-445614f95c2b 15005 127.0.0.1 15008 
Nov 27 16:14:56.847 HYPERVISOR: exec_cmd: vm slot_add_nio_binding SW1 1 5 udp-467f187c-7126-42bf-8464-445614f95c2b 
Nov 27 16:14:56.848 HYPERVISOR: exec_cmd: vm get_status SW1 
Nov 27 16:14:56.876 HYPERVISOR: exec_cmd: nio create_udp udp-528c692b-0a92-4675-87f8-1644021b26f8 15007 127.0.0.1 15009 
Nov 27 16:14:56.877 HYPERVISOR: exec_cmd: vm slot_add_nio_binding SW1 1 6 udp-528c692b-0a92-4675-87f8-1644021b26f8 
Nov 27 16:14:56.877 HYPERVISOR: exec_cmd: vm get_status SW1 
