autostart = False
version = 0.8.3
[localhost:7200]
    workingdir = C:\Users\ActionMystique\Documents\Missions\GNS3\Temp
    udp = 10200
    [[3640]]
        image = C:\Users\ActionMystique\Documents\Missions\IOS\Binaries\c3640-jk9o3s-mz.124-16a.bin
        idlepc = 0x6050a078
        sparsemem = True
        ghostios = True
        chassis = 3640
    [[ROUTER Rutledge]]
        model = 3640
        console = 2005
        aux = 2108
        cnfg = configs\Rutledge.cfg
        slot0 = NM-1FE-TX
        f0/0 = Stevens f1/0
        slot1 = NM-1FE-TX
        f1/0 = Goodwin f1/0
        x = -415.544768623
        y = -106.852813743
        z = 1.0
        hx = -2.58578643762
        hy = -23.5857864376
    [[ROUTER Warren]]
        model = 3640
        console = 2004
        aux = 2111
        cnfg = configs\Warren.cfg
        slot0 = NM-1FE-TX
        f0/0 = Stevens f0/0
        slot1 = NM-1FE-TX
        f1/0 = Goodwin f0/0
        x = -690.609306505
        y = 33.1543289327
        z = 1.0
        hx = -0.121320343564
        hy = 37.9325035257
    [[ROUTER Goodwin]]
        model = 3640
        console = 2006
        aux = 2109
        cnfg = configs\Goodwin.cfg
        slot0 = NM-1FE-TX
        f0/0 = Warren f1/0
        slot1 = NM-1FE-TX
        f1/0 = Rutledge f1/0
        x = -419.080302529
        y = 34.568542495
        z = 1.0
        hx = 3.1568542495
        hy = 40.0538238693
    [[ROUTER Stevens]]
        model = 3640
        console = 2003
        aux = 2110
        cnfg = configs\Stevens.cfg
        slot0 = NM-1FE-TX
        f0/0 = Warren f0/0
        slot1 = NM-1FE-TX
        f1/0 = Rutledge f0/0
        x = -689.195092943
        y = -106.145706961
        z = 1.0
        hx = 0.707106781188
        hy = -20.0502525317
[GNS3-DATA]
    configs = configs
    m11 = 0.999999999998
    m22 = 0.999999999998
    [[NOTE 1]]
        text = "192.168.24.0 /24"
        x = -584.777308043
        y = 62.7523086792
        color = "#0000ff"
    [[NOTE 2]]
        text = "192.168.34.0 /24"
        x = -420.021428026
        y = -23.7157287525
        color = "#0000ff"
    [[NOTE 3]]
        text = "192.168.13.0 /24"
        x = -583.36309448
        y = -109.580735804
        color = "#0000ff"
    [[NOTE 4]]
        text = "BGP AS 34"
        x = -403.050865277
        y = -159.279220614
        color = "#1a1a1a"
    [[NOTE 5]]
        text = "192.168.12.0 /24"
        x = -759.432682996
        y = -24.6238456604
        color = "#0000ff"
    [[NOTE 6]]
        text = "BGP AS 12"
        x = -713.470742219
        y = -158.371103706
        color = "#1a1a1a"
    [[SHAPE 1]]
        type = ellipse
        x = -465.276262022
        y = -171.119841048
        width = 210.606601718
        height = 326.683332909
        fill_color = "#aaff7f"
        border_style = 2
        z = -2.0
    [[SHAPE 2]]
        type = ellipse
        x = -771.654508403
        y = -174.149278299
        width = 200.0
        height = 326.683332909
        fill_color = "#ffff7f"
        border_style = 2
        z = -2.0
