autostart = False
version = 0.8.2
[127.0.0.1:7202]
    workingdir = C:\Users\ActionMystique\Documents\Missions\GNS3\Temp
    udp = 10200
    [[7200]]
        image = C:\Users\ActionMystique\Documents\Missions\IOS\Binaries\c7200-adventerprisek9-mz.124-24.T.image
        idlepc = 0x61601da8
        sparsemem = True
        ghostios = True
    [[ROUTER ISP2_DNS_Server]]
        console = 2009
        aux = 2509
        cnfg = configs\ISP2_DNS_Server.cfg
        slot0 = C7200-IO-FE
        f0/0 = ISP2_R3 f0/0
        symbol = server
        x = 366.0
        y = -223.0
        z = 1.0
[127.0.0.1:7203]
    workingdir = C:\Users\ActionMystique\Documents\Missions\GNS3\Temp
    udp = 10300
    [[7200]]
        image = C:\Users\ActionMystique\Documents\Missions\IOS\Binaries\c7200-adventerprisek9-mz.124-24.T.image
        idlepc = 0x61601da8
        sparsemem = True
        ghostios = True
    [[ROUTER Branch_R1]]
        console = 2001
        aux = 2509
        cnfg = configs\Branch_R1.cfg
        slot0 = C7200-IO-2FE
        slot1 = PA-4T+
        s1/0 = ISP1_R2 s0/0
        s1/1 = ISP2_R3 s0/0
        x = -6.0
        y = 26.0
        z = 1.0
[127.0.0.1:7200]
    workingdir = C:\Users\ActionMystique\Documents\Missions\GNS3\Temp
    udp = 10000
    [[3725]]
        image = C:\Users\ActionMystique\Documents\Missions\IOS\Binaries\c3725-adventerprisek9-mz.124-15.T5.image
        ram = 128
        idlepc = 0x6148b534
        sparsemem = True
        ghostios = True
    [[ROUTER ISP2_R3]]
        model = 3725
        console = 2020
        aux = 2119
        cnfg = configs\ISP2_R3.cfg
        wic0/0 = WIC-2T
        wic0/1 = WIC-2T
        s0/0 = Branch_R1 s1/1
        s0/1 = ISP1_R2 s0/1
        f0/0 = ISP2_DNS_Server f0/0
        f0/1 = Web_Server f0/1
        slot1 = NM-1FE-TX
        slot2 = NM-1FE-TX
        x = 190.0
        y = -213.0
        z = 1.0
        hx = 20.0
        hy = -22.0
    [[ROUTER ISP1_R2]]
        model = 3725
        console = 2019
        aux = 2120
        cnfg = configs\ISP1_R2.cfg
        wic0/0 = WIC-2T
        wic0/1 = WIC-2T
        s0/0 = Branch_R1 s1/0
        s0/1 = ISP2_R3 s0/1
        f0/0 = ISP1_DNS_Server f0/0
        f0/1 = Web_Server f0/0
        x = -203.0
        y = -216.0
        z = 1.0
        hx = -23.0
        hy = -23.0
[127.0.0.1:7201]
    workingdir = C:\Users\ActionMystique\Documents\Missions\GNS3\Temp
    udp = 10100
    [[7200]]
        image = C:\Users\ActionMystique\Documents\Missions\IOS\Binaries\c7200-adventerprisek9-mz.124-24.T.image
        idlepc = 0x61601da8
        sparsemem = True
        ghostios = True
    [[ROUTER Web_Server]]
        console = 2005
        aux = 2505
        cnfg = configs\Web_Server.cfg
        slot0 = C7200-IO-2FE
        f0/0 = ISP1_R2 f0/1
        f0/1 = ISP2_R3 f0/1
        symbol = server
        x = -2.0
        y = -434.0
        z = 1.0
    [[ROUTER ISP1_DNS_Server]]
        console = 2007
        aux = 2507
        cnfg = configs\ISP1_DNS_Server.cfg
        slot0 = C7200-IO-FE
        f0/0 = ISP1_R2 f0/0
        symbol = server
        x = -374.0
        y = -226.0
        z = 1.0
[GNS3-DATA]
    configs = configs
    width = 5000
    height = 2500
    [[NOTE 1]]
        text = s0/0\n.1
        x = -183.0
        y = -164.5
    [[NOTE 2]]
        text = s0/1\n.226
        x = 130.0
        y = -209.5
    [[NOTE 3]]
        text = F0/1\n.249
        x = 180.0
        y = -267.0
    [[NOTE 4]]
        text = 209.165.202.158/30
        x = 320.0
        y = -152.5
    [[NOTE 5]]
        text = 209.165.202.128/30\n(Secondary ISP Link)\n        4 Mbits/s
        x = 143.0
        y = -73.5
    [[NOTE 6]]
        text = 209.165.200.224/30\n        8 Mbits/s
        x = -40.0
        y = -177.5
    [[NOTE 7]]
        text = F0/0\n.29
        x = -252.0
        y = -192.0
    [[NOTE 8]]
        text = 209.165.201.0/30\n(Primary ISP Link)\n      8 Mbits/s
        x = -239.0
        y = -73.5
    [[NOTE 9]]
        text = s0/1\nDCE\n.225
        x = -123.0
        y = -218.5
    [[NOTE 10]]
        text = 209.165.201.30/30
        x = -416.0
        y = -152.5
    [[NOTE 11]]
        text = s1/0\nDCE\n.2
        x = -66.0
        y = -10.5
    [[NOTE 12]]
        text = s1/1\n.130
        x = 74.0
        y = -8.5
    [[NOTE 13]]
        text = 209.165.200.250/30
        x = 58.0
        y = -379.5
    [[NOTE 14]]
        text = F0/1\n.253
        x = -161.0
        y = -274.0
    [[NOTE 15]]
        text = 209.165.200.254/30
        x = -153.0
        y = -373.5
    [[NOTE 16]]
        text = F0/0\n.157
        x = 266.0
        y = -186.0
    [[NOTE 17]]
        text = s0/0\nDCE\n.129
        x = 202.0
        y = -164.5
    [[NOTE 18]]
        text = Internet
        x = -17.0
        y = -295.0
        font = "MS Shell Dlg 2,16,-1,5,75,0,0,0,0,0"
    [[NOTE 19]]
        text = Lo0: 192.168.1.1/24\n(Simulates R1 LAN)
        x = -55.0
        y = 100.5
    [[SHAPE 1]]
        type = ellipse
        x = -173.0
        y = -463.0
        width = 397.0
        height = 356.0
        fill_color = "#aaaa7f"
        border_style = 2
        z = -1.0
    [[SHAPE 2]]
        type = ellipse
        x = 12.0
        y = 67.0
        width = 30.0
        height = 26.0
        border_style = 2
        z = -2.0
