Nov 28 08:16:18.476 HYPERVISOR: Release 0.2.17-amd64/Linux (tag 2017072410)
Nov 28 08:16:18.476 HYPERVISOR: Started on IP = 127.0.0.1, TCP port = 58623.
Nov 28 08:16:18.496 HYPERVISOR: exec_cmd: hypervisor version 
Nov 28 08:16:18.497 HYPERVISOR: exec_cmd: hypervisor working_dir /media/actionmystique/SAMSUNG5-VMs/Labs/GNS3/TT 3-solutions-linux-/project-files/dynamips 
Nov 28 08:16:18.497 GENERAL: working_dir=/media/actionmystique/SAMSUNG5-VMs/Labs/GNS3/TT 3-solutions-linux-/project-files/dynamips
Nov 28 08:16:18.505 HYPERVISOR: exec_cmd: vm create ESW3 3 c3725 
Nov 28 08:16:18.505 VM: VM ESW3 created.
Nov 28 08:16:18.520 HYPERVISOR: exec_cmd: vm set_con_tcp_port ESW3 2006 
Nov 28 08:16:18.522 HYPERVISOR: exec_cmd: c3725 get_mac_addr ESW3 
Nov 28 08:16:18.522 HYPERVISOR: exec_cmd: vm set_disk0 ESW3 1 
Nov 28 08:16:18.522 HYPERVISOR: exec_cmd: vm get_status ESW3 
Nov 28 08:16:18.524 HYPERVISOR: exec_cmd: vm slot_add_binding ESW3 1 0 NM-16ESW 
Nov 28 08:16:18.527 HYPERVISOR: exec_cmd: vm set_ios ESW3 /media/actionmystique/SAMSUNG5-VMs/Images/GNS3/IOS/c3725-adventerprisek9-mz.124-15.T10.image 
Nov 28 08:16:18.527 HYPERVISOR: exec_cmd: c3725 set_mac_addr ESW3 c203.1bfb.0000 
Nov 28 08:16:18.528 HYPERVISOR: exec_cmd: vm slot_add_binding ESW3 0 16 WIC-2T 
Nov 28 08:16:18.528 HYPERVISOR: exec_cmd: vm get_status ESW3 
Nov 28 08:16:18.529 HYPERVISOR: exec_cmd: vm set_idle_pc ESW3 0x6026b804 
Nov 28 08:16:18.529 HYPERVISOR: exec_cmd: vm set_nvram ESW3 256 
Nov 28 08:16:18.530 HYPERVISOR: exec_cmd: vm set_config ESW3 configs/ios_base_startup-config.txt 
Nov 28 08:16:18.530 HYPERVISOR: exec_cmd: vm set_config ESW3 configs/ios_base_startup-config.txt configs/ios_base_private-config.txt 
Nov 28 08:16:18.681 HYPERVISOR: exec_cmd: nio create_tap tap-2e4f54a7-8fe6-4b18-9675-1ab6b52ab6aa tap0 
Nov 28 08:16:18.686 HYPERVISOR: exec_cmd: vm slot_add_nio_binding ESW3 1 1 tap-2e4f54a7-8fe6-4b18-9675-1ab6b52ab6aa 
Nov 28 08:16:18.687 HYPERVISOR: exec_cmd: vm get_status ESW3 
Nov 28 08:16:18.873 HYPERVISOR: exec_cmd: nio create_udp udp-ea3619aa-682f-47de-9551-d600ce061839 15015 127.0.0.1 15014 
Nov 28 08:16:18.874 HYPERVISOR: exec_cmd: vm slot_add_nio_binding ESW3 1 0 udp-ea3619aa-682f-47de-9551-d600ce061839 
Nov 28 08:16:18.874 HYPERVISOR: exec_cmd: vm get_status ESW3 
Nov 28 08:16:49.364 HYPERVISOR: exec_cmd: vm get_status ESW3 
Nov 28 08:16:49.366 HYPERVISOR: exec_cmd: vm extract_config ESW3 
Nov 28 08:16:49.368 HYPERVISOR: exec_cmd: vm delete ESW3 
Nov 28 08:16:49.368 VM: VM ESW3 destroyed.
Nov 28 08:16:49.370 HYPERVISOR: exec_cmd: hypervisor stop 
Nov 28 08:16:49.527 HYPERVISOR: Stopped.
Nov 28 08:16:49.527 GENERAL: reset done.
