Nov 28 08:15:58.127 HYPERVISOR: Release 0.2.17-amd64/Linux (tag 2017072410)
Nov 28 08:15:58.127 HYPERVISOR: Started on IP = 127.0.0.1, TCP port = 52047.
Nov 28 08:15:58.143 HYPERVISOR: exec_cmd: hypervisor version 
Nov 28 08:15:58.143 HYPERVISOR: exec_cmd: hypervisor working_dir /media/actionmystique/SAMSUNG5-VMs/Labs/GNS3/git-Public-Labs-Collection/CCNP/TBSHOOT/L3-Technologies/IPv4/PBR/Jean-Christophe_Manciot/1+/TT 3-solutions-linux/project-files/dynamips 
Nov 28 08:15:58.143 GENERAL: working_dir=/media/actionmystique/SAMSUNG5-VMs/Labs/GNS3/git-Public-Labs-Collection/CCNP/TBSHOOT/L3-Technologies/IPv4/PBR/Jean-Christophe_Manciot/1+/TT 3-solutions-linux/project-files/dynamips
Nov 28 08:15:58.144 HYPERVISOR: exec_cmd: vm create ESW1 1 c3725 
Nov 28 08:15:58.144 VM: VM ESW1 created.
Nov 28 08:15:58.146 HYPERVISOR: exec_cmd: vm set_con_tcp_port ESW1 2004 
Nov 28 08:15:58.147 HYPERVISOR: exec_cmd: c3725 get_mac_addr ESW1 
Nov 28 08:15:58.148 HYPERVISOR: exec_cmd: vm set_disk0 ESW1 1 
Nov 28 08:15:58.150 HYPERVISOR: exec_cmd: vm get_status ESW1 
Nov 28 08:15:58.150 HYPERVISOR: exec_cmd: vm slot_add_binding ESW1 1 0 NM-16ESW 
Nov 28 08:15:58.151 HYPERVISOR: exec_cmd: vm set_ios ESW1 /media/actionmystique/SAMSUNG5-VMs/Images/GNS3/IOS/c3725-adventerprisek9-mz.124-15.T10.image 
Nov 28 08:15:58.152 HYPERVISOR: exec_cmd: c3725 set_mac_addr ESW1 c201.1b91.0000 
Nov 28 08:15:58.154 HYPERVISOR: exec_cmd: vm slot_add_binding ESW1 0 16 WIC-2T 
Nov 28 08:15:58.155 HYPERVISOR: exec_cmd: vm get_status ESW1 
Nov 28 08:15:58.156 HYPERVISOR: exec_cmd: vm set_idle_pc ESW1 0x6026b804 
Nov 28 08:15:58.157 HYPERVISOR: exec_cmd: vm set_nvram ESW1 256 
Nov 28 08:15:58.159 HYPERVISOR: exec_cmd: vm set_config ESW1 configs/ios_base_startup-config.txt 
Nov 28 08:15:58.160 HYPERVISOR: exec_cmd: vm set_config ESW1 configs/ios_base_startup-config.txt configs/ios_base_private-config.txt 
Nov 28 08:15:58.367 HYPERVISOR: exec_cmd: nio create_udp udp-f41e5a35-7fee-4bc2-9dfd-f33042df1caa 15009 127.0.0.1 15010 
Nov 28 08:15:58.369 HYPERVISOR: exec_cmd: vm slot_add_nio_binding ESW1 1 0 udp-f41e5a35-7fee-4bc2-9dfd-f33042df1caa 
Nov 28 08:15:58.370 HYPERVISOR: exec_cmd: vm get_status ESW1 
Nov 28 08:15:58.403 HYPERVISOR: exec_cmd: nio create_udp udp-4d51032d-d4b1-4d61-938b-756efe66985b 15008 127.0.0.1 15011 
Nov 28 08:15:58.409 HYPERVISOR: exec_cmd: vm slot_add_nio_binding ESW1 1 1 udp-4d51032d-d4b1-4d61-938b-756efe66985b 
Nov 28 08:15:58.410 HYPERVISOR: exec_cmd: vm get_status ESW1 
