Nov 28 08:16:18.436 HYPERVISOR: Release 0.2.17-amd64/Linux (tag 2017072410)
Nov 28 08:16:18.436 HYPERVISOR: Started on IP = 127.0.0.1, TCP port = 43445.
Nov 28 08:16:18.480 HYPERVISOR: exec_cmd: hypervisor version 
Nov 28 08:16:18.481 HYPERVISOR: exec_cmd: hypervisor working_dir /media/actionmystique/SAMSUNG5-VMs/Labs/GNS3/TT 3-solutions-linux-/project-files/dynamips 
Nov 28 08:16:18.481 GENERAL: working_dir=/media/actionmystique/SAMSUNG5-VMs/Labs/GNS3/TT 3-solutions-linux-/project-files/dynamips
Nov 28 08:16:18.481 HYPERVISOR: exec_cmd: vm create ESW1 1 c3725 
Nov 28 08:16:18.481 VM: VM ESW1 created.
Nov 28 08:16:18.482 HYPERVISOR: exec_cmd: vm set_con_tcp_port ESW1 2004 
Nov 28 08:16:18.482 HYPERVISOR: exec_cmd: c3725 get_mac_addr ESW1 
Nov 28 08:16:18.483 HYPERVISOR: exec_cmd: vm set_disk0 ESW1 1 
Nov 28 08:16:18.483 HYPERVISOR: exec_cmd: vm get_status ESW1 
Nov 28 08:16:18.484 HYPERVISOR: exec_cmd: vm slot_add_binding ESW1 1 0 NM-16ESW 
Nov 28 08:16:18.485 HYPERVISOR: exec_cmd: vm set_ios ESW1 /media/actionmystique/SAMSUNG5-VMs/Images/GNS3/IOS/c3725-adventerprisek9-mz.124-15.T10.image 
Nov 28 08:16:18.490 HYPERVISOR: exec_cmd: c3725 set_mac_addr ESW1 c201.1b91.0000 
Nov 28 08:16:18.492 HYPERVISOR: exec_cmd: vm slot_add_binding ESW1 0 16 WIC-2T 
Nov 28 08:16:18.493 HYPERVISOR: exec_cmd: vm get_status ESW1 
Nov 28 08:16:18.495 HYPERVISOR: exec_cmd: vm set_idle_pc ESW1 0x6026b804 
Nov 28 08:16:18.495 HYPERVISOR: exec_cmd: vm set_nvram ESW1 256 
Nov 28 08:16:18.496 HYPERVISOR: exec_cmd: vm set_config ESW1 configs/ios_base_startup-config.txt 
Nov 28 08:16:18.504 HYPERVISOR: exec_cmd: vm set_config ESW1 configs/ios_base_startup-config.txt configs/ios_base_private-config.txt 
Nov 28 08:16:18.823 HYPERVISOR: exec_cmd: nio create_udp udp-749f16e1-d8ed-4440-85ca-2f9067905aa3 15010 127.0.0.1 15012 
Nov 28 08:16:18.823 HYPERVISOR: exec_cmd: vm slot_add_nio_binding ESW1 1 0 udp-749f16e1-d8ed-4440-85ca-2f9067905aa3 
Nov 28 08:16:18.824 HYPERVISOR: exec_cmd: vm get_status ESW1 
Nov 28 08:16:18.855 HYPERVISOR: exec_cmd: nio create_udp udp-b86b4740-b0ab-4665-935f-fc8469bae941 15013 127.0.0.1 15011 
Nov 28 08:16:18.855 HYPERVISOR: exec_cmd: vm slot_add_nio_binding ESW1 1 1 udp-b86b4740-b0ab-4665-935f-fc8469bae941 
Nov 28 08:16:18.855 HYPERVISOR: exec_cmd: vm get_status ESW1 
Nov 28 08:16:49.363 HYPERVISOR: exec_cmd: vm get_status ESW1 
Nov 28 08:16:49.366 HYPERVISOR: exec_cmd: vm extract_config ESW1 
Nov 28 08:16:49.367 HYPERVISOR: exec_cmd: vm delete ESW1 
Nov 28 08:16:49.367 VM: VM ESW1 destroyed.
Nov 28 08:16:49.369 HYPERVISOR: exec_cmd: hypervisor stop 
Nov 28 08:16:49.514 HYPERVISOR: Stopped.
Nov 28 08:16:49.514 GENERAL: reset done.
