Nov 29 19:03:28.394 HYPERVISOR: Release 0.2.17-amd64/Linux (tag 2017072410)
Nov 29 19:03:28.394 HYPERVISOR: Started on IP = 127.0.0.1, TCP port = 55863.
Nov 29 19:03:28.432 HYPERVISOR: exec_cmd: hypervisor version 
Nov 29 19:03:28.432 HYPERVISOR: exec_cmd: hypervisor working_dir /media/actionmystique/SAMSUNG5-VMs/Labs/GNS3/TT 1-linux-/project-files/dynamips 
Nov 29 19:03:28.432 GENERAL: working_dir=/media/actionmystique/SAMSUNG5-VMs/Labs/GNS3/TT 1-linux-/project-files/dynamips
Nov 29 19:03:28.432 HYPERVISOR: exec_cmd: vm create ESW1 1 c3725 
Nov 29 19:03:28.432 VM: VM ESW1 created.
Nov 29 19:03:28.433 HYPERVISOR: exec_cmd: vm set_con_tcp_port ESW1 2004 
Nov 29 19:03:28.433 HYPERVISOR: exec_cmd: c3725 get_mac_addr ESW1 
Nov 29 19:03:28.433 HYPERVISOR: exec_cmd: vm slot_add_binding ESW1 0 16 WIC-2T 
Nov 29 19:03:28.434 HYPERVISOR: exec_cmd: vm set_ios ESW1 /media/actionmystique/SAMSUNG5-VMs/Images/GNS3/IOS/c3725-adventerprisek9-mz.124-15.T10.image 
Nov 29 19:03:28.434 HYPERVISOR: exec_cmd: vm get_status ESW1 
Nov 29 19:03:28.435 HYPERVISOR: exec_cmd: vm set_idle_pc ESW1 0x614ac27c 
Nov 29 19:03:28.435 HYPERVISOR: exec_cmd: vm get_status ESW1 
Nov 29 19:03:28.435 HYPERVISOR: exec_cmd: vm slot_add_binding ESW1 1 0 NM-16ESW 
Nov 29 19:03:28.436 HYPERVISOR: exec_cmd: c3725 set_mac_addr ESW1 c201.1b91.0000 
Nov 29 19:03:28.436 HYPERVISOR: exec_cmd: vm set_nvram ESW1 256 
Nov 29 19:03:28.436 HYPERVISOR: exec_cmd: vm set_disk0 ESW1 1 
Nov 29 19:03:28.437 HYPERVISOR: exec_cmd: vm set_config ESW1 configs/ios_base_startup-config.txt 
Nov 29 19:03:28.438 HYPERVISOR: exec_cmd: vm set_config ESW1 configs/ios_base_startup-config.txt configs/ios_base_private-config.txt 
Nov 29 19:03:28.761 HYPERVISOR: exec_cmd: nio create_udp udp-aace81d9-46ad-4ee9-a750-6e221ab50ffc 15003 127.0.0.1 15007 
Nov 29 19:03:28.766 HYPERVISOR: exec_cmd: vm slot_add_nio_binding ESW1 1 0 udp-aace81d9-46ad-4ee9-a750-6e221ab50ffc 
Nov 29 19:03:28.767 HYPERVISOR: exec_cmd: vm get_status ESW1 
Nov 29 19:03:28.780 HYPERVISOR: exec_cmd: nio create_udp udp-1060d2bb-f380-49d0-a034-c0fd120f774b 15009 127.0.0.1 15008 
Nov 29 19:03:28.780 HYPERVISOR: exec_cmd: vm slot_add_nio_binding ESW1 1 1 udp-1060d2bb-f380-49d0-a034-c0fd120f774b 
Nov 29 19:03:28.780 HYPERVISOR: exec_cmd: vm get_status ESW1 
Nov 29 19:03:51.972 HYPERVISOR: exec_cmd: vm get_status ESW1 
Nov 29 19:03:51.974 HYPERVISOR: exec_cmd: vm extract_config ESW1 
Nov 29 19:03:51.975 HYPERVISOR: exec_cmd: vm delete ESW1 
Nov 29 19:03:51.975 VM: VM ESW1 destroyed.
Nov 29 19:03:51.977 HYPERVISOR: exec_cmd: hypervisor stop 
Nov 29 19:03:52.456 HYPERVISOR: Stopped.
Nov 29 19:03:52.456 GENERAL: reset done.
