Nov 29 19:02:59.081 HYPERVISOR: Release 0.2.17-amd64/Linux (tag 2017072410)
Nov 29 19:02:59.081 HYPERVISOR: Started on IP = 127.0.0.1, TCP port = 56415.
Nov 29 19:02:59.111 HYPERVISOR: exec_cmd: hypervisor version 
Nov 29 19:02:59.112 HYPERVISOR: exec_cmd: hypervisor working_dir /media/actionmystique/SAMSUNG5-VMs/Labs/GNS3/git-Public-Labs-Collection/CCNP/TBSHOOT/L3-Technologies/IPv6/Routing-Protocols/EIGRPv6/Jean-Christophe_Manciot/1+/TT 1-linux/project-files/dynamips 
Nov 29 19:02:59.112 GENERAL: working_dir=/media/actionmystique/SAMSUNG5-VMs/Labs/GNS3/git-Public-Labs-Collection/CCNP/TBSHOOT/L3-Technologies/IPv6/Routing-Protocols/EIGRPv6/Jean-Christophe_Manciot/1+/TT 1-linux/project-files/dynamips
Nov 29 19:02:59.114 HYPERVISOR: exec_cmd: vm create ESW5 5 c3725 
Nov 29 19:02:59.114 VM: VM ESW5 created.
Nov 29 19:02:59.115 HYPERVISOR: exec_cmd: vm set_con_tcp_port ESW5 2010 
Nov 29 19:02:59.120 HYPERVISOR: exec_cmd: c3725 get_mac_addr ESW5 
Nov 29 19:02:59.123 HYPERVISOR: exec_cmd: vm slot_add_binding ESW5 0 16 WIC-2T 
Nov 29 19:02:59.125 HYPERVISOR: exec_cmd: vm set_ios ESW5 /media/actionmystique/SAMSUNG5-VMs/Images/GNS3/IOS/c3725-adventerprisek9-mz.124-15.T10.image 
Nov 29 19:02:59.126 HYPERVISOR: exec_cmd: vm get_status ESW5 
Nov 29 19:02:59.127 HYPERVISOR: exec_cmd: vm set_idle_pc ESW5 0x614ac27c 
Nov 29 19:02:59.128 HYPERVISOR: exec_cmd: vm get_status ESW5 
Nov 29 19:02:59.129 HYPERVISOR: exec_cmd: vm slot_add_binding ESW5 1 0 NM-16ESW 
Nov 29 19:02:59.130 HYPERVISOR: exec_cmd: c3725 set_mac_addr ESW5 c205.6a03.0000 
Nov 29 19:02:59.131 HYPERVISOR: exec_cmd: vm set_disk0 ESW5 1 
Nov 29 19:02:59.132 HYPERVISOR: exec_cmd: vm set_nvram ESW5 256 
Nov 29 19:02:59.134 HYPERVISOR: exec_cmd: vm set_config ESW5 configs/ios_base_startup-config.txt 
Nov 29 19:02:59.135 HYPERVISOR: exec_cmd: vm set_config ESW5 configs/ios_base_startup-config.txt configs/ios_base_private-config.txt 
Nov 29 19:02:59.446 HYPERVISOR: exec_cmd: nio create_udp udp-28bd2d85-0f27-467c-9005-08260c65acde 15012 127.0.0.1 15013 
Nov 29 19:02:59.446 HYPERVISOR: exec_cmd: vm slot_add_nio_binding ESW5 1 0 udp-28bd2d85-0f27-467c-9005-08260c65acde 
Nov 29 19:02:59.447 HYPERVISOR: exec_cmd: vm get_status ESW5 
Nov 29 19:02:59.456 HYPERVISOR: exec_cmd: nio create_udp udp-2cbca8c5-6bd1-418e-a694-999ffb82cde1 15015 127.0.0.1 15014 
Nov 29 19:02:59.457 HYPERVISOR: exec_cmd: vm slot_add_nio_binding ESW5 1 1 udp-2cbca8c5-6bd1-418e-a694-999ffb82cde1 
Nov 29 19:02:59.457 HYPERVISOR: exec_cmd: vm get_status ESW5 
