autostart = False
version = 0.8.4-RC3
[127.0.0.1:7200]
    workingdir = working
    udp = 11000
    [[3725]]
        image = C:\Users\ActionMystique\Google Drive\Missions\Certifications\Cisco\IOS\Binaries\c3725-adventerprisek9-mz.124-15.T5.image
        ram = 128
        idlepc = 0x602649b4
        idlemax = 500
        sparsemem = True
        ghostios = True
    [[ROUTER ALS1]]
        model = 3725
        console = 2004
        aux = 2504
        cnfg = configs\ALS1.cfg
        slot1 = NM-16ESW
        f1/6 = NIO_udp:30000:127.0.0.1:20000
        f1/7 = DLS1 f1/7
        f1/8 = DLS1 f1/8
        f1/9 = DLS2 f1/9
        f1/10 = DLS2 f1/10
        f1/11 = ALS2 f1/11
        f1/12 = ALS2 f1/12
        symbol = EtherSwitch router
        x = -255.89129586
        y = -66.5
        z = 1.0
        hx = 6.13558864609
        hy = 47.173714519
    [[ROUTER DLS1]]
        model = 3725
        console = 2001
        aux = 2501
        cnfg = configs\DLS1.cfg
        slot1 = NM-16ESW
        f1/6 = NIO_udp:30002:127.0.0.1:20002
        f1/7 = ALS1 f1/7
        f1/8 = ALS1 f1/8
        f1/9 = ALS2 f1/9
        f1/10 = ALS2 f1/10
        f1/11 = DLS2 f1/11
        f1/12 = DLS2 f1/12
        symbol = EtherSwitch router
        x = -255.5
        y = -238.5
        z = 1.0
    [[ROUTER DLS2]]
        model = 3725
        console = 2002
        aux = 2502
        cnfg = configs\DLS2.cfg
        slot1 = NM-16ESW
        f1/6 = NIO_udp:30003:127.0.0.1:20003
        f1/7 = ALS2 f1/7
        f1/8 = ALS2 f1/8
        f1/9 = ALS1 f1/9
        f1/10 = ALS1 f1/10
        f1/11 = DLS1 f1/11
        f1/12 = DLS1 f1/12
        symbol = EtherSwitch router
        x = 47.9611580968
        y = -238.5
        z = 1.0
[127.0.0.1:7201]
    workingdir = working
    udp = 11100
    [[3725]]
        image = C:\Users\ActionMystique\Google Drive\Missions\Certifications\Cisco\IOS\Binaries\c3725-adventerprisek9-mz.124-15.T5.image
        ram = 128
        idlepc = 0x602649b4
        idlemax = 500
        sparsemem = True
        ghostios = True
    [[ROUTER ALS2]]
        model = 3725
        console = 2007
        aux = 2507
        cnfg = configs\ALS2.cfg
        slot1 = NM-16ESW
        f1/6 = NIO_udp:30001:127.0.0.1:20001
        f1/7 = DLS2 f1/7
        f1/8 = DLS2 f1/8
        f1/9 = DLS1 f1/9
        f1/10 = DLS1 f1/10
        f1/11 = ALS1 f1/11
        f1/12 = ALS1 f1/12
        symbol = EtherSwitch router
        x = 47.7176034883
        y = -66.8014752414
        z = 1.0
        hx = 5.0
        hy = 45.0960307126
[GNS3-DATA]
    configs = configs
    workdir = working
    m11 = 0.766664172334
    m22 = 0.766664172334
    [[NOTE 1]]
        text = "VLAN 1:10.1.1.104/24"
        x = 1.70530256582e-13
        y = -5.47804444189
        color = "#0055ff"
    [[NOTE 2]]
        text = "VLAN 1:10.1.1.102/24"
        x = -3.9130562093
        y = -277.65290807
        color = "#0055ff"
    [[NOTE 3]]
        text = "VLAN 1:10.1.1.103/24"
        x = -306.522736395
        y = -1.99970718608
        color = "#0055ff"
    [[NOTE 4]]
        text = "802.1Q"
        x = 75.6524200465
        y = -137.652127233
        color = "#0055ff"
    [[NOTE 5]]
        text = "802.1Q"
        x = -288.261807418
        y = -142.434816558
        color = "#0055ff"
    [[NOTE 6]]
        text = "VLAN 1:10.1.1.101/24"
        x = -301.305328116
        y = -278.522541186
        color = "#0055ff"
    [[NOTE 7]]
        text = "802.1Q"
        x = -106.956869721
        y = -37.651736814
        color = "#0055ff"
    [[NOTE 8]]
        text = "802.1Q"
        x = -108.261221791
        y = -115.913056209
        color = "#0055ff"
    [[NOTE 9]]
        text = "VLAN 120"
        x = 199.565866674
        y = -15.4781420465
        color = "#0055ff"
    [[NOTE 10]]
        text = "VLAN 120"
        x = -417.392662325
        y = -12.4347189535
        color = "#0055ff"
    [[NOTE 11]]
        text = "ISL"
        x = -91.3046448837
        y = -244.609192163
        color = "#0055ff"
    [[NOTE 12]]
        text = "VLAN 110"
        x = 194.348458395
        y = -186.782982139
        color = "#0055ff"
    [[NOTE 13]]
        text = "2-1 VLANS - Trunks - VTP"
        x = -258.384286473
        y = -498.530709063
        font = "MS Shell Dlg 2,20,-1,5,75,0,1,0,0,0"
        color = "#0055ff"
    [[NOTE 14]]
        text = "VLAN 100"
        x = -417.392662325
        y = -182.870121139
        color = "#0055ff"
    [[NOTE 15]]
        text = "1: Configure IP addresses.\n2: Display the switch default VLAN information.\n3: Examine VTP information.\n4: Configure VTP on the switches:\n    Domain - Version 2 - Server mode on DLSWs and client mode on ALSWs - Password\n5: Configure trunking.\n6: Verify trunk configuration.\n7: Configure access ports.\n8: Verify VTP configuration.\n9: Configure VLANs by assigning port membership.\n10: Or Configure VLANs in configuration mode.\n11: Change the VLAN names.\n12: Change the VLAN status to deactivate ports."
        x = -851.741901558
        y = -460.697112
    [[Cloud Host_D]]
        symbol = Host
        x = 197.6178903
        y = -244.399673106
        z = 1.0
        connections = DLS2:f1/6:nio_udp:30003:127.0.0.1:20003
    [[Cloud Host_A]]
        symbol = Host
        x = -414.800062242
        y = -71.926544905
        z = 1.0
        connections = ALS1:f1/6:nio_udp:30000:127.0.0.1:20000
    [[Cloud Host_C]]
        symbol = Host
        x = -414.800062242
        y = -244.399673106
        z = 1.0
        connections = DLS1:f1/6:nio_udp:30002:127.0.0.1:20002
    [[Cloud Host_B]]
        symbol = Host
        x = 201.307155074
        y = -73.3100191954
        z = 1.0
        connections = ALS2:f1/6:nio_udp:30001:127.0.0.1:20001
