Nov 27 16:24:19.560 HYPERVISOR: Release 0.2.17-amd64/Linux (tag 2017072410)
Nov 27 16:24:19.560 HYPERVISOR: Started on IP = 127.0.0.1, TCP port = 57799.
Nov 27 16:24:19.566 HYPERVISOR: exec_cmd: hypervisor version 
Nov 27 16:24:19.567 HYPERVISOR: exec_cmd: hypervisor working_dir /media/actionmystique/SAMSUNG5-VMs/Labs/GNS3/git-Public-Labs-Collection/CCNP/TBSHOOT/L3-Technologies/IPv4/High-Availability/VRRP/Jean-Christophe_Manciot/1+/TT 2-solutions-linux/project-files/dynamips 
Nov 27 16:24:19.567 GENERAL: working_dir=/media/actionmystique/SAMSUNG5-VMs/Labs/GNS3/git-Public-Labs-Collection/CCNP/TBSHOOT/L3-Technologies/IPv4/High-Availability/VRRP/Jean-Christophe_Manciot/1+/TT 2-solutions-linux/project-files/dynamips
Nov 27 16:24:19.569 HYPERVISOR: exec_cmd: vm create SW2 2 c3725 
Nov 27 16:24:19.569 VM: VM SW2 created.
Nov 27 16:24:19.570 HYPERVISOR: exec_cmd: vm set_con_tcp_port SW2 2002 
Nov 27 16:24:19.571 HYPERVISOR: exec_cmd: c3725 get_mac_addr SW2 
Nov 27 16:24:19.572 HYPERVISOR: exec_cmd: vm set_nvram SW2 256 
Nov 27 16:24:19.573 HYPERVISOR: exec_cmd: vm get_status SW2 
Nov 27 16:24:19.578 HYPERVISOR: exec_cmd: vm set_idle_pc SW2 0x60c056e4 
Nov 27 16:24:19.578 HYPERVISOR: exec_cmd: c3725 set_mac_addr SW2 eeee.eeee.eeee 
Nov 27 16:24:19.583 HYPERVISOR: exec_cmd: vm set_exec_area SW2 16 
Nov 27 16:24:19.583 HYPERVISOR: exec_cmd: vm get_status SW2 
Nov 27 16:24:19.584 HYPERVISOR: exec_cmd: vm slot_add_binding SW2 1 0 NM-16ESW 
Nov 27 16:24:19.584 HYPERVISOR: exec_cmd: vm set_ios SW2 /media/actionmystique/SAMSUNG5-VMs/Images/GNS3/IOS/c3725-adventerprisek9-mz.124-15.T10.image 
Nov 27 16:24:19.584 HYPERVISOR: exec_cmd: vm slot_add_binding SW2 0 16 WIC-2T 
Nov 27 16:24:19.585 HYPERVISOR: exec_cmd: vm set_disk0 SW2 1 
Nov 27 16:24:19.585 HYPERVISOR: exec_cmd: vm set_config SW2 configs/i2_startup-config.cfg 
Nov 27 16:24:19.586 HYPERVISOR: exec_cmd: vm set_config SW2 configs/i2_startup-config.cfg configs/i2_private-config.cfg 
Nov 27 16:24:19.857 HYPERVISOR: exec_cmd: nio create_udp udp-7edcf72f-9e00-41fc-8360-a2839ca884d6 15009 127.0.0.1 15008 
Nov 27 16:24:19.858 HYPERVISOR: exec_cmd: vm slot_add_nio_binding SW2 1 0 udp-7edcf72f-9e00-41fc-8360-a2839ca884d6 
Nov 27 16:24:19.863 HYPERVISOR: exec_cmd: vm get_status SW2 
Nov 27 16:24:19.893 HYPERVISOR: exec_cmd: nio create_udp udp-c23e1f3e-5600-4845-8ee1-0cd406202f21 15011 127.0.0.1 15012 
Nov 27 16:24:19.893 HYPERVISOR: exec_cmd: vm slot_add_nio_binding SW2 1 2 udp-c23e1f3e-5600-4845-8ee1-0cd406202f21 
Nov 27 16:24:19.893 HYPERVISOR: exec_cmd: vm get_status SW2 
Nov 27 16:24:19.913 HYPERVISOR: exec_cmd: nio create_udp udp-9e73643f-eaee-4da5-b9cf-f28cd3825254 15013 127.0.0.1 15010 
Nov 27 16:24:19.914 HYPERVISOR: exec_cmd: vm slot_add_nio_binding SW2 1 1 udp-9e73643f-eaee-4da5-b9cf-f28cd3825254 
Nov 27 16:24:19.914 HYPERVISOR: exec_cmd: vm get_status SW2 
