Dec 04 11:20:04.123 HYPERVISOR: Release 0.2.17-amd64/Linux (tag 2017072410)
Dec 04 11:20:04.123 HYPERVISOR: Started on IP = 127.0.0.1, TCP port = 54241.
Dec 04 11:20:04.172 HYPERVISOR: exec_cmd: hypervisor version 
Dec 04 11:20:04.181 HYPERVISOR: exec_cmd: hypervisor working_dir /media/actionmystique/SAMSUNG5-VMs/Labs/GNS3/Data Center ASA - ASDM - AAA - VMs-linux-/project-files/dynamips 
Dec 04 11:20:04.181 GENERAL: working_dir=/media/actionmystique/SAMSUNG5-VMs/Labs/GNS3/Data Center ASA - ASDM - AAA - VMs-linux-/project-files/dynamips
Dec 04 11:20:04.183 HYPERVISOR: exec_cmd: vm create SW7 7 c3725 
Dec 04 11:20:04.183 VM: VM SW7 created.
Dec 04 11:20:04.185 HYPERVISOR: exec_cmd: vm set_con_tcp_port SW7 2007 
Dec 04 11:20:04.187 HYPERVISOR: exec_cmd: vm set_aux_tcp_port SW7 2507 
Dec 04 11:20:04.189 HYPERVISOR: exec_cmd: c3725 get_mac_addr SW7 
Dec 04 11:20:04.191 HYPERVISOR: exec_cmd: vm get_status SW7 
Dec 04 11:20:04.192 HYPERVISOR: exec_cmd: vm slot_add_binding SW7 1 0 NM-16ESW 
Dec 04 11:20:04.198 HYPERVISOR: exec_cmd: vm set_ios SW7 /media/actionmystique/SAMSUNG5-VMs/Images/GNS3/IOS/c3725-adventerprisek9-mz.124-15.T10.image 
Dec 04 11:20:04.209 HYPERVISOR: exec_cmd: vm set_exec_area SW7 16 
Dec 04 11:20:04.211 HYPERVISOR: exec_cmd: c3725 set_mac_addr SW7 c207.1340.0000 
Dec 04 11:20:04.212 HYPERVISOR: exec_cmd: vm get_status SW7 
Dec 04 11:20:04.214 HYPERVISOR: exec_cmd: vm set_idle_pc SW7 0x6148b5dc 
Dec 04 11:20:04.215 HYPERVISOR: exec_cmd: vm set_config SW7 configs/i7_startup-config.cfg 
Dec 04 11:20:05.545 HYPERVISOR: exec_cmd: nio create_udp udp-8c4142d8-f474-414a-b9f3-48b05ab3f4a8 15035 127.0.0.1 15034 
Dec 04 11:20:05.546 HYPERVISOR: exec_cmd: vm slot_add_nio_binding SW7 1 3 udp-8c4142d8-f474-414a-b9f3-48b05ab3f4a8 
Dec 04 11:20:05.546 HYPERVISOR: exec_cmd: vm get_status SW7 
Dec 04 11:20:05.575 HYPERVISOR: exec_cmd: nio create_udp udp-6e37af47-6b5d-4820-8700-b7f92559dfa8 15037 127.0.0.1 15036 
Dec 04 11:20:05.576 HYPERVISOR: exec_cmd: vm slot_add_nio_binding SW7 1 7 udp-6e37af47-6b5d-4820-8700-b7f92559dfa8 
Dec 04 11:20:05.576 HYPERVISOR: exec_cmd: vm get_status SW7 
Dec 04 11:20:05.595 HYPERVISOR: exec_cmd: nio create_udp udp-ba12e54d-7243-49fa-8fa8-e624f36737e0 15039 127.0.0.1 15038 
Dec 04 11:20:05.595 HYPERVISOR: exec_cmd: vm slot_add_nio_binding SW7 1 8 udp-ba12e54d-7243-49fa-8fa8-e624f36737e0 
Dec 04 11:20:05.596 HYPERVISOR: exec_cmd: vm get_status SW7 
Dec 04 11:20:05.608 HYPERVISOR: exec_cmd: nio create_udp udp-3765e8b6-9ebc-41a7-a4fc-05eaa3233ea1 15041 127.0.0.1 15040 
Dec 04 11:20:05.609 HYPERVISOR: exec_cmd: vm slot_add_nio_binding SW7 1 9 udp-3765e8b6-9ebc-41a7-a4fc-05eaa3233ea1 
Dec 04 11:20:05.612 HYPERVISOR: exec_cmd: vm get_status SW7 
Dec 04 11:20:05.635 HYPERVISOR: exec_cmd: nio create_udp udp-56d742a4-8cdf-4127-8358-15cd6211cf8c 15043 127.0.0.1 15042 
Dec 04 11:20:05.636 HYPERVISOR: exec_cmd: vm slot_add_nio_binding SW7 1 1 udp-56d742a4-8cdf-4127-8358-15cd6211cf8c 
Dec 04 11:20:05.636 HYPERVISOR: exec_cmd: vm get_status SW7 
Dec 04 11:20:05.659 HYPERVISOR: exec_cmd: nio create_udp udp-1ca92d6e-de33-40fa-b231-fb3fa61966e7 15045 127.0.0.1 15044 
Dec 04 11:20:05.659 HYPERVISOR: exec_cmd: vm slot_add_nio_binding SW7 1 10 udp-1ca92d6e-de33-40fa-b231-fb3fa61966e7 
Dec 04 11:20:05.660 HYPERVISOR: exec_cmd: vm get_status SW7 
Dec 04 11:20:05.712 HYPERVISOR: exec_cmd: nio create_udp udp-80e93dec-da03-4cc8-9cc0-66237656445a 15050 127.0.0.1 15051 
Dec 04 11:20:05.716 HYPERVISOR: exec_cmd: vm slot_add_nio_binding SW7 1 4 udp-80e93dec-da03-4cc8-9cc0-66237656445a 
Dec 04 11:20:05.717 HYPERVISOR: exec_cmd: vm get_status SW7 
Dec 04 11:20:05.731 HYPERVISOR: exec_cmd: nio create_udp udp-8f92a20f-2619-4b64-b3dd-ef12525c2bd7 15053 127.0.0.1 15052 
Dec 04 11:20:05.732 HYPERVISOR: exec_cmd: vm slot_add_nio_binding SW7 1 2 udp-8f92a20f-2619-4b64-b3dd-ef12525c2bd7 
Dec 04 11:20:05.735 HYPERVISOR: exec_cmd: vm get_status SW7 
Dec 04 11:20:05.819 HYPERVISOR: exec_cmd: nio create_udp udp-614ebcf4-0af9-4422-9cf8-034e6d6032b8 15060 127.0.0.1 15061 
Dec 04 11:20:05.820 HYPERVISOR: exec_cmd: vm slot_add_nio_binding SW7 1 0 udp-614ebcf4-0af9-4422-9cf8-034e6d6032b8 
Dec 04 11:20:05.824 HYPERVISOR: exec_cmd: vm get_status SW7 
Dec 04 11:20:55.989 HYPERVISOR: exec_cmd: vm get_status SW7 
Dec 04 11:20:55.993 HYPERVISOR: exec_cmd: vm extract_config SW7 
Dec 04 11:20:56.001 HYPERVISOR: exec_cmd: vm delete SW7 
Dec 04 11:20:56.001 VM: VM SW7 destroyed.
Dec 04 11:20:56.008 HYPERVISOR: exec_cmd: hypervisor stop 
Dec 04 11:20:56.197 HYPERVISOR: Stopped.
Dec 04 11:20:56.197 GENERAL: reset done.
