Dec 04 11:20:04.054 HYPERVISOR: Release 0.2.17-amd64/Linux (tag 2017072410)
Dec 04 11:20:04.054 HYPERVISOR: Started on IP = 127.0.0.1, TCP port = 42199.
Dec 04 11:20:04.091 HYPERVISOR: exec_cmd: hypervisor version 
Dec 04 11:20:04.093 HYPERVISOR: exec_cmd: hypervisor working_dir /media/actionmystique/SAMSUNG5-VMs/Labs/GNS3/Data Center ASA - ASDM - AAA - VMs-linux-/project-files/dynamips 
Dec 04 11:20:04.093 GENERAL: working_dir=/media/actionmystique/SAMSUNG5-VMs/Labs/GNS3/Data Center ASA - ASDM - AAA - VMs-linux-/project-files/dynamips
Dec 04 11:20:04.094 HYPERVISOR: exec_cmd: vm create SW3 3 c3725 
Dec 04 11:20:04.094 VM: VM SW3 created.
Dec 04 11:20:04.103 HYPERVISOR: exec_cmd: vm set_con_tcp_port SW3 2003 
Dec 04 11:20:04.114 HYPERVISOR: exec_cmd: vm set_aux_tcp_port SW3 2503 
Dec 04 11:20:04.124 HYPERVISOR: exec_cmd: c3725 get_mac_addr SW3 
Dec 04 11:20:04.125 HYPERVISOR: exec_cmd: vm get_status SW3 
Dec 04 11:20:04.127 HYPERVISOR: exec_cmd: vm slot_add_binding SW3 1 0 NM-16ESW 
Dec 04 11:20:04.128 HYPERVISOR: exec_cmd: vm set_ios SW3 /media/actionmystique/SAMSUNG5-VMs/Images/GNS3/IOS/c3725-adventerprisek9-mz.124-15.T10.image 
Dec 04 11:20:04.130 HYPERVISOR: exec_cmd: vm set_exec_area SW3 16 
Dec 04 11:20:04.131 HYPERVISOR: exec_cmd: c3725 set_mac_addr SW3 c203.1040.0000 
Dec 04 11:20:04.133 HYPERVISOR: exec_cmd: vm get_status SW3 
Dec 04 11:20:04.134 HYPERVISOR: exec_cmd: vm set_idle_pc SW3 0x6148b5dc 
Dec 04 11:20:04.136 HYPERVISOR: exec_cmd: vm set_config SW3 configs/i3_startup-config.cfg 
Dec 04 11:20:05.243 HYPERVISOR: exec_cmd: nio create_udp udp-b98503ad-1d5b-4c30-882a-be47878594df 15009 127.0.0.1 15008 
Dec 04 11:20:05.244 HYPERVISOR: exec_cmd: vm slot_add_nio_binding SW3 1 1 udp-b98503ad-1d5b-4c30-882a-be47878594df 
Dec 04 11:20:05.253 HYPERVISOR: exec_cmd: vm get_status SW3 
Dec 04 11:20:05.295 HYPERVISOR: exec_cmd: nio create_udp udp-5cf2eef3-cb95-4601-ac1c-c5c0f990cd00 15011 127.0.0.1 15010 
Dec 04 11:20:05.296 HYPERVISOR: exec_cmd: vm slot_add_nio_binding SW3 1 11 udp-5cf2eef3-cb95-4601-ac1c-c5c0f990cd00 
Dec 04 11:20:05.299 HYPERVISOR: exec_cmd: vm get_status SW3 
Dec 04 11:20:05.423 HYPERVISOR: exec_cmd: nio create_udp udp-212be33d-7110-41c8-ad0c-c498a268850f 15024 127.0.0.1 15025 
Dec 04 11:20:05.424 HYPERVISOR: exec_cmd: vm slot_add_nio_binding SW3 1 4 udp-212be33d-7110-41c8-ad0c-c498a268850f 
Dec 04 11:20:05.425 HYPERVISOR: exec_cmd: vm get_status SW3 
Dec 04 11:20:05.451 HYPERVISOR: exec_cmd: nio create_udp udp-46de5db7-b0a0-4ba0-9d43-745321510682 15026 127.0.0.1 15027 
Dec 04 11:20:05.452 HYPERVISOR: exec_cmd: vm slot_add_nio_binding SW3 1 2 udp-46de5db7-b0a0-4ba0-9d43-745321510682 
Dec 04 11:20:05.452 HYPERVISOR: exec_cmd: vm get_status SW3 
Dec 04 11:20:05.523 HYPERVISOR: exec_cmd: nio create_udp udp-aa9d88f5-a6cd-4a7a-9ca3-a33a36d4bc9d 15032 127.0.0.1 15033 
Dec 04 11:20:05.524 HYPERVISOR: exec_cmd: vm slot_add_nio_binding SW3 1 3 udp-aa9d88f5-a6cd-4a7a-9ca3-a33a36d4bc9d 
Dec 04 11:20:05.524 HYPERVISOR: exec_cmd: vm get_status SW3 
Dec 04 11:20:55.990 HYPERVISOR: exec_cmd: vm get_status SW3 
Dec 04 11:20:55.994 HYPERVISOR: exec_cmd: vm extract_config SW3 
Dec 04 11:20:56.003 HYPERVISOR: exec_cmd: vm delete SW3 
Dec 04 11:20:56.003 VM: VM SW3 destroyed.
Dec 04 11:20:56.009 HYPERVISOR: exec_cmd: hypervisor stop 
Dec 04 11:20:56.140 HYPERVISOR: Stopped.
Dec 04 11:20:56.140 GENERAL: reset done.
