Dec 04 11:18:52.942 HYPERVISOR: Release 0.2.17-amd64/Linux (tag 2017072410)
Dec 04 11:18:52.942 HYPERVISOR: Started on IP = 127.0.0.1, TCP port = 52383.
Dec 04 11:18:52.994 HYPERVISOR: exec_cmd: hypervisor version 
Dec 04 11:18:52.999 HYPERVISOR: exec_cmd: hypervisor working_dir /media/actionmystique/SAMSUNG5-VMs/Labs/GNS3/git-Public-Labs-Collection/CCNP-Security/FIREWALL/Jean-Christophe_Manciot/1+/Data Center ASA - ASDM - AAA - VMs-linux/project-files/dynamips 
Dec 04 11:18:52.999 GENERAL: working_dir=/media/actionmystique/SAMSUNG5-VMs/Labs/GNS3/git-Public-Labs-Collection/CCNP-Security/FIREWALL/Jean-Christophe_Manciot/1+/Data Center ASA - ASDM - AAA - VMs-linux/project-files/dynamips
Dec 04 11:18:53.000 HYPERVISOR: exec_cmd: vm create SW10 9 c3725 
Dec 04 11:18:53.000 VM: VM SW10 created.
Dec 04 11:18:53.002 HYPERVISOR: exec_cmd: vm set_con_tcp_port SW10 2019 
Dec 04 11:18:53.011 HYPERVISOR: exec_cmd: vm set_aux_tcp_port SW10 2519 
Dec 04 11:18:53.013 HYPERVISOR: exec_cmd: c3725 get_mac_addr SW10 
Dec 04 11:18:53.015 HYPERVISOR: exec_cmd: vm get_status SW10 
Dec 04 11:18:53.021 HYPERVISOR: exec_cmd: vm slot_add_binding SW10 1 0 NM-16ESW 
Dec 04 11:18:53.023 HYPERVISOR: exec_cmd: vm set_ios SW10 /media/actionmystique/SAMSUNG5-VMs/Images/GNS3/IOS/c3725-adventerprisek9-mz.124-15.T10.image 
Dec 04 11:18:53.025 HYPERVISOR: exec_cmd: vm set_exec_area SW10 16 
Dec 04 11:18:53.036 HYPERVISOR: exec_cmd: c3725 set_mac_addr SW10 c209.13f4.0000 
Dec 04 11:18:53.038 HYPERVISOR: exec_cmd: vm get_status SW10 
Dec 04 11:18:53.039 HYPERVISOR: exec_cmd: vm set_idle_pc SW10 0x6148b5dc 
Dec 04 11:18:53.041 HYPERVISOR: exec_cmd: vm set_config SW10 configs/i9_startup-config.cfg 
Dec 04 11:18:53.693 HYPERVISOR: exec_cmd: nio create_udp udp-4834d582-8321-449a-9bba-6bed5d488d64 20508 127.0.0.1 20008 
Dec 04 11:18:53.693 HYPERVISOR: exec_cmd: vm slot_add_nio_binding SW10 1 4 udp-4834d582-8321-449a-9bba-6bed5d488d64 
Dec 04 11:18:53.694 HYPERVISOR: exec_cmd: vm get_status SW10 
Dec 04 11:18:54.530 HYPERVISOR: exec_cmd: nio create_udp udp-cd423512-befd-40fc-8d05-5ef6eea60a26 15052 127.0.0.1 15053 
Dec 04 11:18:54.531 HYPERVISOR: exec_cmd: vm slot_add_nio_binding SW10 1 2 udp-cd423512-befd-40fc-8d05-5ef6eea60a26 
Dec 04 11:18:54.532 HYPERVISOR: exec_cmd: vm get_status SW10 
Dec 04 11:18:54.539 HYPERVISOR: exec_cmd: nio create_udp udp-cff4037e-914c-4ab2-a942-fab00177d663 15054 127.0.0.1 15055 
Dec 04 11:18:54.542 HYPERVISOR: exec_cmd: vm slot_add_nio_binding SW10 1 3 udp-cff4037e-914c-4ab2-a942-fab00177d663 
Dec 04 11:18:54.543 HYPERVISOR: exec_cmd: vm get_status SW10 
