Dec 04 11:18:52.890 HYPERVISOR: Release 0.2.17-amd64/Linux (tag 2017072410)
Dec 04 11:18:52.890 HYPERVISOR: Started on IP = 127.0.0.1, TCP port = 56443.
Dec 04 11:18:52.914 HYPERVISOR: exec_cmd: hypervisor version 
Dec 04 11:18:52.917 HYPERVISOR: exec_cmd: hypervisor working_dir /media/actionmystique/SAMSUNG5-VMs/Labs/GNS3/git-Public-Labs-Collection/CCNP-Security/FIREWALL/Jean-Christophe_Manciot/1+/Data Center ASA - ASDM - AAA - VMs-linux/project-files/dynamips 
Dec 04 11:18:52.917 GENERAL: working_dir=/media/actionmystique/SAMSUNG5-VMs/Labs/GNS3/git-Public-Labs-Collection/CCNP-Security/FIREWALL/Jean-Christophe_Manciot/1+/Data Center ASA - ASDM - AAA - VMs-linux/project-files/dynamips
Dec 04 11:18:52.919 HYPERVISOR: exec_cmd: vm create SW3 3 c3725 
Dec 04 11:18:52.919 VM: VM SW3 created.
Dec 04 11:18:52.920 HYPERVISOR: exec_cmd: vm set_con_tcp_port SW3 2003 
Dec 04 11:18:52.922 HYPERVISOR: exec_cmd: vm set_aux_tcp_port SW3 2503 
Dec 04 11:18:52.923 HYPERVISOR: exec_cmd: c3725 get_mac_addr SW3 
Dec 04 11:18:52.924 HYPERVISOR: exec_cmd: vm get_status SW3 
Dec 04 11:18:52.930 HYPERVISOR: exec_cmd: vm slot_add_binding SW3 1 0 NM-16ESW 
Dec 04 11:18:52.945 HYPERVISOR: exec_cmd: vm set_ios SW3 /media/actionmystique/SAMSUNG5-VMs/Images/GNS3/IOS/c3725-adventerprisek9-mz.124-15.T10.image 
Dec 04 11:18:52.946 HYPERVISOR: exec_cmd: vm set_exec_area SW3 16 
Dec 04 11:18:52.948 HYPERVISOR: exec_cmd: c3725 set_mac_addr SW3 c203.1040.0000 
Dec 04 11:18:52.950 HYPERVISOR: exec_cmd: vm get_status SW3 
Dec 04 11:18:52.951 HYPERVISOR: exec_cmd: vm set_idle_pc SW3 0x6148b5dc 
Dec 04 11:18:52.953 HYPERVISOR: exec_cmd: vm set_config SW3 configs/i3_startup-config.cfg 
Dec 04 11:18:54.215 HYPERVISOR: exec_cmd: nio create_udp udp-6c49a363-33a1-4802-b51f-f170474dd642 15023 127.0.0.1 15022 
Dec 04 11:18:54.215 HYPERVISOR: exec_cmd: vm slot_add_nio_binding SW3 1 1 udp-6c49a363-33a1-4802-b51f-f170474dd642 
Dec 04 11:18:54.216 HYPERVISOR: exec_cmd: vm get_status SW3 
Dec 04 11:18:54.244 HYPERVISOR: exec_cmd: nio create_udp udp-32cc196d-ebe7-4cbb-a48d-e468f250c38e 15025 127.0.0.1 15024 
Dec 04 11:18:54.245 HYPERVISOR: exec_cmd: vm slot_add_nio_binding SW3 1 11 udp-32cc196d-ebe7-4cbb-a48d-e468f250c38e 
Dec 04 11:18:54.246 HYPERVISOR: exec_cmd: vm get_status SW3 
Dec 04 11:18:54.254 HYPERVISOR: exec_cmd: nio create_udp udp-537f9bd3-9781-4094-8103-6784b8ccf09a 15026 127.0.0.1 15027 
Dec 04 11:18:54.258 HYPERVISOR: exec_cmd: vm slot_add_nio_binding SW3 1 4 udp-537f9bd3-9781-4094-8103-6784b8ccf09a 
Dec 04 11:18:54.259 HYPERVISOR: exec_cmd: vm get_status SW3 
Dec 04 11:18:54.268 HYPERVISOR: exec_cmd: nio create_udp udp-8b120ba7-2805-4333-adcc-1318a4d8910d 15028 127.0.0.1 15029 
Dec 04 11:18:54.269 HYPERVISOR: exec_cmd: vm slot_add_nio_binding SW3 1 3 udp-8b120ba7-2805-4333-adcc-1318a4d8910d 
Dec 04 11:18:54.270 HYPERVISOR: exec_cmd: vm get_status SW3 
Dec 04 11:18:54.416 HYPERVISOR: exec_cmd: nio create_udp udp-a5e626fd-f382-4c5e-bacc-6ac9cd282122 15042 127.0.0.1 15043 
Dec 04 11:18:54.417 HYPERVISOR: exec_cmd: vm slot_add_nio_binding SW3 1 2 udp-a5e626fd-f382-4c5e-bacc-6ac9cd282122 
Dec 04 11:18:54.418 HYPERVISOR: exec_cmd: vm get_status SW3 
