Nov 28 08:40:15.732 HYPERVISOR: Release 0.2.17-amd64/Linux (tag 2017072410)
Nov 28 08:40:15.732 HYPERVISOR: Started on IP = 127.0.0.1, TCP port = 46259.
Nov 28 08:40:15.750 HYPERVISOR: exec_cmd: hypervisor version 
Nov 28 08:40:15.750 HYPERVISOR: exec_cmd: hypervisor working_dir /media/actionmystique/SAMSUNG5-VMs/Labs/GNS3/TT 1-solutions-linux-/project-files/dynamips 
Nov 28 08:40:15.750 GENERAL: working_dir=/media/actionmystique/SAMSUNG5-VMs/Labs/GNS3/TT 1-solutions-linux-/project-files/dynamips
Nov 28 08:40:15.751 HYPERVISOR: exec_cmd: vm create ESW4 4 c3725 
Nov 28 08:40:15.751 VM: VM ESW4 created.
Nov 28 08:40:15.751 HYPERVISOR: exec_cmd: vm set_con_tcp_port ESW4 2009 
Nov 28 08:40:15.751 HYPERVISOR: exec_cmd: c3725 get_mac_addr ESW4 
Nov 28 08:40:15.751 HYPERVISOR: exec_cmd: vm set_disk0 ESW4 1 
Nov 28 08:40:15.752 HYPERVISOR: exec_cmd: vm get_status ESW4 
Nov 28 08:40:15.755 HYPERVISOR: exec_cmd: vm slot_add_binding ESW4 1 0 NM-16ESW 
Nov 28 08:40:15.756 HYPERVISOR: exec_cmd: vm set_ios ESW4 /media/actionmystique/SAMSUNG5-VMs/Images/GNS3/IOS/c3725-adventerprisek9-mz.124-15.T10.image 
Nov 28 08:40:15.757 HYPERVISOR: exec_cmd: c3725 set_mac_addr ESW4 c204.11f4.0000 
Nov 28 08:40:15.757 HYPERVISOR: exec_cmd: vm slot_add_binding ESW4 0 16 WIC-2T 
Nov 28 08:40:15.758 HYPERVISOR: exec_cmd: vm get_status ESW4 
Nov 28 08:40:15.758 HYPERVISOR: exec_cmd: vm set_idle_pc ESW4 0x6026b804 
Nov 28 08:40:15.759 HYPERVISOR: exec_cmd: vm set_nvram ESW4 256 
Nov 28 08:40:15.759 HYPERVISOR: exec_cmd: vm set_config ESW4 configs/ios_base_startup-config.txt 
Nov 28 08:40:15.760 HYPERVISOR: exec_cmd: vm set_config ESW4 configs/ios_base_startup-config.txt configs/ios_base_private-config.txt 
Nov 28 08:40:16.071 HYPERVISOR: exec_cmd: nio create_udp udp-8ba22f9e-c57f-47ee-bf30-9f014dae1442 15015 127.0.0.1 15014 
Nov 28 08:40:16.072 HYPERVISOR: exec_cmd: vm slot_add_nio_binding ESW4 1 0 udp-8ba22f9e-c57f-47ee-bf30-9f014dae1442 
Nov 28 08:40:16.072 HYPERVISOR: exec_cmd: vm get_status ESW4 
Nov 28 08:40:16.087 HYPERVISOR: exec_cmd: nio create_udp udp-5a06bf07-a18d-481e-b911-5c4c6f4358bc 15016 127.0.0.1 15017 
Nov 28 08:40:16.088 HYPERVISOR: exec_cmd: vm slot_add_nio_binding ESW4 1 1 udp-5a06bf07-a18d-481e-b911-5c4c6f4358bc 
Nov 28 08:40:16.088 HYPERVISOR: exec_cmd: vm get_status ESW4 
Nov 28 08:53:21.888 HYPERVISOR: exec_cmd: vm get_status ESW4 
Nov 28 08:53:21.891 HYPERVISOR: exec_cmd: vm extract_config ESW4 
Nov 28 08:53:21.894 HYPERVISOR: exec_cmd: vm delete ESW4 
Nov 28 08:53:21.894 VM: VM ESW4 destroyed.
Nov 28 08:53:21.895 HYPERVISOR: exec_cmd: hypervisor stop 
Nov 28 08:53:22.106 HYPERVISOR: Stopped.
Nov 28 08:53:22.106 GENERAL: reset done.
