Nov 28 08:39:50.872 HYPERVISOR: Release 0.2.17-amd64/Linux (tag 2017072410)
Nov 28 08:39:50.872 HYPERVISOR: Started on IP = 127.0.0.1, TCP port = 36239.
Nov 28 08:39:50.880 HYPERVISOR: exec_cmd: hypervisor version 
Nov 28 08:39:50.881 HYPERVISOR: exec_cmd: hypervisor working_dir /media/actionmystique/SAMSUNG5-VMs/Labs/GNS3/git-Public-Labs-Collection/CCNP/TBSHOOT/L3-Technologies/IPv4/Routing-Protocols/OSPFv2/Jean-Christophe_Manciot/1+/TT 1-solutions-linux/project-files/dynamips 
Nov 28 08:39:50.881 GENERAL: working_dir=/media/actionmystique/SAMSUNG5-VMs/Labs/GNS3/git-Public-Labs-Collection/CCNP/TBSHOOT/L3-Technologies/IPv4/Routing-Protocols/OSPFv2/Jean-Christophe_Manciot/1+/TT 1-solutions-linux/project-files/dynamips
Nov 28 08:39:50.881 HYPERVISOR: exec_cmd: vm create ESW4 4 c3725 
Nov 28 08:39:50.881 VM: VM ESW4 created.
Nov 28 08:39:50.881 HYPERVISOR: exec_cmd: vm set_con_tcp_port ESW4 2009 
Nov 28 08:39:50.882 HYPERVISOR: exec_cmd: c3725 get_mac_addr ESW4 
Nov 28 08:39:50.882 HYPERVISOR: exec_cmd: vm set_disk0 ESW4 1 
Nov 28 08:39:50.882 HYPERVISOR: exec_cmd: vm get_status ESW4 
Nov 28 08:39:50.883 HYPERVISOR: exec_cmd: vm slot_add_binding ESW4 1 0 NM-16ESW 
Nov 28 08:39:50.883 HYPERVISOR: exec_cmd: vm set_ios ESW4 /media/actionmystique/SAMSUNG5-VMs/Images/GNS3/IOS/c3725-adventerprisek9-mz.124-15.T10.image 
Nov 28 08:39:50.884 HYPERVISOR: exec_cmd: c3725 set_mac_addr ESW4 c204.11f4.0000 
Nov 28 08:39:50.884 HYPERVISOR: exec_cmd: vm slot_add_binding ESW4 0 16 WIC-2T 
Nov 28 08:39:50.891 HYPERVISOR: exec_cmd: vm get_status ESW4 
Nov 28 08:39:50.898 HYPERVISOR: exec_cmd: vm set_idle_pc ESW4 0x6026b804 
Nov 28 08:39:50.899 HYPERVISOR: exec_cmd: vm set_nvram ESW4 256 
Nov 28 08:39:50.900 HYPERVISOR: exec_cmd: vm set_config ESW4 configs/ios_base_startup-config.txt 
Nov 28 08:39:50.900 HYPERVISOR: exec_cmd: vm set_config ESW4 configs/ios_base_startup-config.txt configs/ios_base_private-config.txt 
Nov 28 08:39:51.111 HYPERVISOR: exec_cmd: nio create_udp udp-9c574788-af3f-4126-8568-95f5672ee200 15015 127.0.0.1 15014 
Nov 28 08:39:51.111 HYPERVISOR: exec_cmd: vm slot_add_nio_binding ESW4 1 0 udp-9c574788-af3f-4126-8568-95f5672ee200 
Nov 28 08:39:51.112 HYPERVISOR: exec_cmd: vm get_status ESW4 
Nov 28 08:39:51.135 HYPERVISOR: exec_cmd: nio create_udp udp-2eedd459-8fdd-4b05-81ed-3c11920c7526 15017 127.0.0.1 15016 
Nov 28 08:39:51.136 HYPERVISOR: exec_cmd: vm slot_add_nio_binding ESW4 1 1 udp-2eedd459-8fdd-4b05-81ed-3c11920c7526 
Nov 28 08:39:51.136 HYPERVISOR: exec_cmd: vm get_status ESW4 
