Nov 27 15:44:58.879 HYPERVISOR: Release 0.2.17-amd64/Linux (tag 2017072410)
Nov 27 15:44:58.879 HYPERVISOR: Started on IP = 127.0.0.1, TCP port = 56811.
Nov 27 15:44:58.904 HYPERVISOR: exec_cmd: hypervisor version 
Nov 27 15:44:58.905 HYPERVISOR: exec_cmd: hypervisor working_dir /media/actionmystique/SAMSUNG5-VMs/Labs/GNS3/TT 1-linux-/project-files/dynamips 
Nov 27 15:44:58.905 GENERAL: working_dir=/media/actionmystique/SAMSUNG5-VMs/Labs/GNS3/TT 1-linux-/project-files/dynamips
Nov 27 15:44:58.906 HYPERVISOR: exec_cmd: vm create SW2 2 c3725 
Nov 27 15:44:58.906 VM: VM SW2 created.
Nov 27 15:44:58.907 HYPERVISOR: exec_cmd: vm set_con_tcp_port SW2 2002 
Nov 27 15:44:58.907 HYPERVISOR: exec_cmd: c3725 get_mac_addr SW2 
Nov 27 15:44:58.908 HYPERVISOR: exec_cmd: c3725 set_mac_addr SW2 eeee.eeee.eeee 
Nov 27 15:44:58.909 HYPERVISOR: exec_cmd: vm get_status SW2 
Nov 27 15:44:58.910 HYPERVISOR: exec_cmd: vm slot_add_binding SW2 1 0 NM-16ESW 
Nov 27 15:44:58.911 HYPERVISOR: exec_cmd: vm get_status SW2 
Nov 27 15:44:58.912 HYPERVISOR: exec_cmd: vm set_idle_pc SW2 0x614ac2c4 
Nov 27 15:44:58.913 HYPERVISOR: exec_cmd: vm slot_add_binding SW2 0 16 WIC-2T 
Nov 27 15:44:58.914 HYPERVISOR: exec_cmd: vm set_ios SW2 /media/actionmystique/SAMSUNG5-VMs/Images/GNS3/IOS/c3725-adventerprisek9-mz.124-15.T10.image 
Nov 27 15:44:58.915 HYPERVISOR: exec_cmd: vm set_exec_area SW2 16 
Nov 27 15:44:58.916 HYPERVISOR: exec_cmd: vm set_disk0 SW2 1 
Nov 27 15:44:58.917 HYPERVISOR: exec_cmd: vm set_nvram SW2 256 
Nov 27 15:44:58.918 HYPERVISOR: exec_cmd: vm set_config SW2 configs/i2_startup-config.cfg 
Nov 27 15:44:58.920 HYPERVISOR: exec_cmd: vm set_config SW2 configs/i2_startup-config.cfg configs/i2_private-config.cfg 
Nov 27 15:44:59.097 HYPERVISOR: exec_cmd: nio create_udp udp-3e12ea81-25f7-43cd-ae19-4e183a6d33db 15002 127.0.0.1 15001 
Nov 27 15:44:59.097 HYPERVISOR: exec_cmd: vm slot_add_nio_binding SW2 1 2 udp-3e12ea81-25f7-43cd-ae19-4e183a6d33db 
Nov 27 15:44:59.097 HYPERVISOR: exec_cmd: vm get_status SW2 
Nov 27 15:44:59.118 HYPERVISOR: exec_cmd: nio create_udp udp-8239e747-a957-4ad4-9457-fb61815ca4bb 15003 127.0.0.1 15000 
Nov 27 15:44:59.122 HYPERVISOR: exec_cmd: vm slot_add_nio_binding SW2 1 0 udp-8239e747-a957-4ad4-9457-fb61815ca4bb 
Nov 27 15:44:59.123 HYPERVISOR: exec_cmd: vm get_status SW2 
Nov 27 15:44:59.161 HYPERVISOR: exec_cmd: nio create_udp udp-bbd7fd24-b4bb-40ef-9048-9b952a3819bc 15007 127.0.0.1 15008 
Nov 27 15:44:59.161 HYPERVISOR: exec_cmd: vm slot_add_nio_binding SW2 1 1 udp-bbd7fd24-b4bb-40ef-9048-9b952a3819bc 
Nov 27 15:44:59.162 HYPERVISOR: exec_cmd: vm get_status SW2 
Nov 27 15:45:19.445 HYPERVISOR: exec_cmd: vm get_status SW2 
Nov 27 15:45:19.446 HYPERVISOR: exec_cmd: vm extract_config SW2 
Nov 27 15:45:19.448 HYPERVISOR: exec_cmd: vm delete SW2 
Nov 27 15:45:19.448 VM: VM SW2 destroyed.
Nov 27 15:45:19.449 HYPERVISOR: exec_cmd: hypervisor stop 
Nov 27 15:45:19.923 HYPERVISOR: Stopped.
Nov 27 15:45:19.923 GENERAL: reset done.
