Nov 29 15:26:37.423 HYPERVISOR: Release 0.2.17-amd64/Linux (tag 2017072410)
Nov 29 15:26:37.423 HYPERVISOR: Started on IP = 127.0.0.1, TCP port = 43255.
Nov 29 15:26:37.440 HYPERVISOR: exec_cmd: hypervisor version 
Nov 29 15:26:37.441 HYPERVISOR: exec_cmd: hypervisor working_dir /media/actionmystique/SAMSUNG5-VMs/Labs/GNS3/git-Public-Labs-Collection/CCNP/TBSHOOT/L3-Technologies/IPv4/Routing-Protocols/Redistribution/Jean-Christophe_Manciot/1+/TT 3-solutions-linux/project-files/dynamips 
Nov 29 15:26:37.441 GENERAL: working_dir=/media/actionmystique/SAMSUNG5-VMs/Labs/GNS3/git-Public-Labs-Collection/CCNP/TBSHOOT/L3-Technologies/IPv4/Routing-Protocols/Redistribution/Jean-Christophe_Manciot/1+/TT 3-solutions-linux/project-files/dynamips
Nov 29 15:26:37.444 HYPERVISOR: exec_cmd: vm create ESW5 5 c3725 
Nov 29 15:26:37.444 VM: VM ESW5 created.
Nov 29 15:26:37.445 HYPERVISOR: exec_cmd: vm set_con_tcp_port ESW5 2010 
Nov 29 15:26:37.447 HYPERVISOR: exec_cmd: c3725 get_mac_addr ESW5 
Nov 29 15:26:37.449 HYPERVISOR: exec_cmd: vm get_status ESW5 
Nov 29 15:26:37.450 HYPERVISOR: exec_cmd: vm set_idle_pc ESW5 0x60c05928 
Nov 29 15:26:37.451 HYPERVISOR: exec_cmd: vm get_status ESW5 
Nov 29 15:26:37.452 HYPERVISOR: exec_cmd: vm slot_add_binding ESW5 1 0 NM-16ESW 
Nov 29 15:26:37.455 HYPERVISOR: exec_cmd: vm set_disk0 ESW5 1 
Nov 29 15:26:37.456 HYPERVISOR: exec_cmd: vm set_nvram ESW5 256 
Nov 29 15:26:37.458 HYPERVISOR: exec_cmd: vm set_ios ESW5 /media/actionmystique/SAMSUNG5-VMs/Images/GNS3/IOS/c3725-adventerprisek9-mz.124-15.T10.image 
Nov 29 15:26:37.459 HYPERVISOR: exec_cmd: c3725 set_mac_addr ESW5 c205.6a03.0000 
Nov 29 15:26:37.460 HYPERVISOR: exec_cmd: vm slot_add_binding ESW5 0 16 WIC-2T 
Nov 29 15:26:37.462 HYPERVISOR: exec_cmd: vm set_config ESW5 configs/ios_base_startup-config.txt 
Nov 29 15:26:37.463 HYPERVISOR: exec_cmd: vm set_config ESW5 configs/ios_base_startup-config.txt configs/ios_base_private-config.txt 
Nov 29 15:26:37.796 HYPERVISOR: exec_cmd: nio create_udp udp-a5b2c0e5-40a9-45a0-8242-071d29af5e79 15013 127.0.0.1 15012 
Nov 29 15:26:37.797 HYPERVISOR: exec_cmd: vm slot_add_nio_binding ESW5 1 0 udp-a5b2c0e5-40a9-45a0-8242-071d29af5e79 
Nov 29 15:26:37.797 HYPERVISOR: exec_cmd: vm get_status ESW5 
Nov 29 15:26:37.804 HYPERVISOR: exec_cmd: nio create_udp udp-3f1078a5-94f0-4ffd-99df-d8e8fd1c1ad4 15015 127.0.0.1 15014 
Nov 29 15:26:37.804 HYPERVISOR: exec_cmd: vm slot_add_nio_binding ESW5 1 1 udp-3f1078a5-94f0-4ffd-99df-d8e8fd1c1ad4 
Nov 29 15:26:37.805 HYPERVISOR: exec_cmd: vm get_status ESW5 
