Nov 29 15:26:44.685 HYPERVISOR: Release 0.2.17-amd64/Linux (tag 2017072410)
Nov 29 15:26:44.685 HYPERVISOR: Started on IP = 127.0.0.1, TCP port = 53031.
Nov 29 15:26:44.704 HYPERVISOR: exec_cmd: hypervisor version 
Nov 29 15:26:44.704 HYPERVISOR: exec_cmd: hypervisor working_dir /media/actionmystique/SAMSUNG5-VMs/Labs/GNS3/TT 3-solutions-linux-/project-files/dynamips 
Nov 29 15:26:44.704 GENERAL: working_dir=/media/actionmystique/SAMSUNG5-VMs/Labs/GNS3/TT 3-solutions-linux-/project-files/dynamips
Nov 29 15:26:44.704 HYPERVISOR: exec_cmd: vm create ESW3 3 c3725 
Nov 29 15:26:44.704 VM: VM ESW3 created.
Nov 29 15:26:44.705 HYPERVISOR: exec_cmd: vm set_con_tcp_port ESW3 2006 
Nov 29 15:26:44.705 HYPERVISOR: exec_cmd: c3725 get_mac_addr ESW3 
Nov 29 15:26:44.712 HYPERVISOR: exec_cmd: vm get_status ESW3 
Nov 29 15:26:44.712 HYPERVISOR: exec_cmd: vm slot_add_binding ESW3 1 0 NM-16ESW 
Nov 29 15:26:44.713 HYPERVISOR: exec_cmd: c3725 set_mac_addr ESW3 c203.1bfb.0000 
Nov 29 15:26:44.713 HYPERVISOR: exec_cmd: vm set_disk0 ESW3 1 
Nov 29 15:26:44.713 HYPERVISOR: exec_cmd: vm set_nvram ESW3 256 
Nov 29 15:26:44.722 HYPERVISOR: exec_cmd: vm set_ios ESW3 /media/actionmystique/SAMSUNG5-VMs/Images/GNS3/IOS/c3725-adventerprisek9-mz.124-15.T10.image 
Nov 29 15:26:44.731 HYPERVISOR: exec_cmd: vm get_status ESW3 
Nov 29 15:26:44.732 HYPERVISOR: exec_cmd: vm set_idle_pc ESW3 0x60c05928 
Nov 29 15:26:44.733 HYPERVISOR: exec_cmd: vm slot_add_binding ESW3 0 16 WIC-2T 
Nov 29 15:26:44.733 HYPERVISOR: exec_cmd: vm set_config ESW3 configs/ios_base_startup-config.txt 
Nov 29 15:26:44.734 HYPERVISOR: exec_cmd: vm set_config ESW3 configs/ios_base_startup-config.txt configs/ios_base_private-config.txt 
Nov 29 15:26:44.874 HYPERVISOR: exec_cmd: nio create_tap tap-374fb16c-c6dd-4935-8df9-9f6bd9017d34 tap0 
Nov 29 15:26:44.875 HYPERVISOR: exec_cmd: vm slot_add_nio_binding ESW3 1 1 tap-374fb16c-c6dd-4935-8df9-9f6bd9017d34 
Nov 29 15:26:44.875 HYPERVISOR: exec_cmd: vm get_status ESW3 
Nov 29 15:26:45.064 HYPERVISOR: exec_cmd: nio create_udp udp-3230d0cd-71df-436e-ac19-a40a38fb320b 15010 127.0.0.1 15011 
Nov 29 15:26:45.065 HYPERVISOR: exec_cmd: vm slot_add_nio_binding ESW3 1 0 udp-3230d0cd-71df-436e-ac19-a40a38fb320b 
Nov 29 15:26:45.065 HYPERVISOR: exec_cmd: vm get_status ESW3 
Nov 29 15:27:07.170 HYPERVISOR: exec_cmd: vm get_status ESW3 
Nov 29 15:27:07.172 HYPERVISOR: exec_cmd: vm extract_config ESW3 
Nov 29 15:27:07.174 HYPERVISOR: exec_cmd: vm delete ESW3 
Nov 29 15:27:07.174 VM: VM ESW3 destroyed.
Nov 29 15:27:07.176 HYPERVISOR: exec_cmd: hypervisor stop 
Nov 29 15:27:07.227 HYPERVISOR: Stopped.
Nov 29 15:27:07.227 GENERAL: reset done.
