Nov 29 19:02:19.986 HYPERVISOR: Release 0.2.17-amd64/Linux (tag 2017072410)
Nov 29 19:02:19.986 HYPERVISOR: Started on IP = 127.0.0.1, TCP port = 50857.
Nov 29 19:02:20.003 HYPERVISOR: exec_cmd: hypervisor version 
Nov 29 19:02:20.003 HYPERVISOR: exec_cmd: hypervisor working_dir /media/actionmystique/SAMSUNG5-VMs/Labs/GNS3/TT 1-linux-/project-files/dynamips 
Nov 29 19:02:20.003 GENERAL: working_dir=/media/actionmystique/SAMSUNG5-VMs/Labs/GNS3/TT 1-linux-/project-files/dynamips
Nov 29 19:02:20.004 HYPERVISOR: exec_cmd: vm create ESW4 4 c3725 
Nov 29 19:02:20.004 VM: VM ESW4 created.
Nov 29 19:02:20.004 HYPERVISOR: exec_cmd: vm set_con_tcp_port ESW4 2006 
Nov 29 19:02:20.004 HYPERVISOR: exec_cmd: c3725 get_mac_addr ESW4 
Nov 29 19:02:20.005 HYPERVISOR: exec_cmd: vm slot_add_binding ESW4 0 16 WIC-2T 
Nov 29 19:02:20.005 HYPERVISOR: exec_cmd: vm set_ios ESW4 /media/actionmystique/SAMSUNG5-VMs/Images/GNS3/IOS/c3725-adventerprisek9-mz.124-15.T10.image 
Nov 29 19:02:20.006 HYPERVISOR: exec_cmd: vm get_status ESW4 
Nov 29 19:02:20.006 HYPERVISOR: exec_cmd: vm set_idle_pc ESW4 0x60c06d20 
Nov 29 19:02:20.006 HYPERVISOR: exec_cmd: vm get_status ESW4 
Nov 29 19:02:20.007 HYPERVISOR: exec_cmd: vm slot_add_binding ESW4 1 0 NM-16ESW 
Nov 29 19:02:20.007 HYPERVISOR: exec_cmd: c3725 set_mac_addr ESW4 c204.44a3.0000 
Nov 29 19:02:20.007 HYPERVISOR: exec_cmd: vm set_nvram ESW4 256 
Nov 29 19:02:20.008 HYPERVISOR: exec_cmd: vm set_disk0 ESW4 1 
Nov 29 19:02:20.008 HYPERVISOR: exec_cmd: vm set_config ESW4 configs/ios_base_startup-config.txt 
Nov 29 19:02:20.008 HYPERVISOR: exec_cmd: vm set_config ESW4 configs/ios_base_startup-config.txt configs/ios_base_private-config.txt 
Nov 29 19:02:20.277 HYPERVISOR: exec_cmd: nio create_udp udp-ed803362-e7e3-461c-91a1-c9208c3f3963 15012 127.0.0.1 15011 
Nov 29 19:02:20.283 HYPERVISOR: exec_cmd: vm slot_add_nio_binding ESW4 1 0 udp-ed803362-e7e3-461c-91a1-c9208c3f3963 
Nov 29 19:02:20.284 HYPERVISOR: exec_cmd: vm get_status ESW4 
Nov 29 19:02:20.332 HYPERVISOR: exec_cmd: nio create_udp udp-f604af77-f1e7-46ee-bba8-7a46266cf6da 15015 127.0.0.1 15014 
Nov 29 19:02:20.333 HYPERVISOR: exec_cmd: vm slot_add_nio_binding ESW4 1 1 udp-f604af77-f1e7-46ee-bba8-7a46266cf6da 
Nov 29 19:02:20.333 HYPERVISOR: exec_cmd: vm get_status ESW4 
Nov 29 19:02:32.034 HYPERVISOR: exec_cmd: vm get_status ESW4 
Nov 29 19:02:32.036 HYPERVISOR: exec_cmd: vm extract_config ESW4 
Nov 29 19:02:32.037 HYPERVISOR: exec_cmd: vm delete ESW4 
Nov 29 19:02:32.037 VM: VM ESW4 destroyed.
Nov 29 19:02:32.038 HYPERVISOR: exec_cmd: hypervisor stop 
Nov 29 19:02:32.516 HYPERVISOR: Stopped.
Nov 29 19:02:32.516 GENERAL: reset done.
