Nov 29 15:29:35.409 HYPERVISOR: Release 0.2.17-amd64/Linux (tag 2017072410)
Nov 29 15:29:35.409 HYPERVISOR: Started on IP = 127.0.0.1, TCP port = 39211.
Nov 29 15:29:35.432 HYPERVISOR: exec_cmd: hypervisor version 
Nov 29 15:29:35.435 HYPERVISOR: exec_cmd: hypervisor working_dir /media/actionmystique/SAMSUNG5-VMs/Labs/GNS3/git-Public-Labs-Collection/CCNP/TBSHOOT/L3-Technologies/IPv4/Routing-Protocols/Redistribution/Jean-Christophe_Manciot/1+/TT 4-solutions-linux/project-files/dynamips 
Nov 29 15:29:35.435 GENERAL: working_dir=/media/actionmystique/SAMSUNG5-VMs/Labs/GNS3/git-Public-Labs-Collection/CCNP/TBSHOOT/L3-Technologies/IPv4/Routing-Protocols/Redistribution/Jean-Christophe_Manciot/1+/TT 4-solutions-linux/project-files/dynamips
Nov 29 15:29:35.437 HYPERVISOR: exec_cmd: vm create ESW5 5 c3725 
Nov 29 15:29:35.437 VM: VM ESW5 created.
Nov 29 15:29:35.439 HYPERVISOR: exec_cmd: vm set_con_tcp_port ESW5 2010 
Nov 29 15:29:35.441 HYPERVISOR: exec_cmd: c3725 get_mac_addr ESW5 
Nov 29 15:29:35.443 HYPERVISOR: exec_cmd: vm set_nvram ESW5 256 
Nov 29 15:29:35.455 HYPERVISOR: exec_cmd: vm slot_add_binding ESW5 0 16 WIC-2T 
Nov 29 15:29:35.464 HYPERVISOR: exec_cmd: c3725 set_mac_addr ESW5 c205.6a03.0000 
Nov 29 15:29:35.466 HYPERVISOR: exec_cmd: vm set_disk0 ESW5 1 
Nov 29 15:29:35.477 HYPERVISOR: exec_cmd: vm set_ios ESW5 /media/actionmystique/SAMSUNG5-VMs/Images/GNS3/IOS/c3725-adventerprisek9-mz.124-15.T10.image 
Nov 29 15:29:35.479 HYPERVISOR: exec_cmd: vm get_status ESW5 
Nov 29 15:29:35.480 HYPERVISOR: exec_cmd: vm set_idle_pc ESW5 0x6026b804 
Nov 29 15:29:35.481 HYPERVISOR: exec_cmd: vm get_status ESW5 
Nov 29 15:29:35.483 HYPERVISOR: exec_cmd: vm slot_add_binding ESW5 1 0 NM-16ESW 
Nov 29 15:29:35.484 HYPERVISOR: exec_cmd: vm set_config ESW5 configs/ios_base_startup-config.txt 
Nov 29 15:29:35.485 HYPERVISOR: exec_cmd: vm set_config ESW5 configs/ios_base_startup-config.txt configs/ios_base_private-config.txt 
Nov 29 15:29:36.048 HYPERVISOR: exec_cmd: nio create_udp udp-f09506f7-20ec-413b-bcfb-c1d7387cf10f 15010 127.0.0.1 15008 
Nov 29 15:29:36.049 HYPERVISOR: exec_cmd: vm slot_add_nio_binding ESW5 1 0 udp-f09506f7-20ec-413b-bcfb-c1d7387cf10f 
Nov 29 15:29:36.049 HYPERVISOR: exec_cmd: vm get_status ESW5 
Nov 29 15:29:36.076 HYPERVISOR: exec_cmd: nio create_udp udp-3f96ac30-8281-493d-a968-6203a39e9c13 15012 127.0.0.1 15013 
Nov 29 15:29:36.077 HYPERVISOR: exec_cmd: vm slot_add_nio_binding ESW5 1 3 udp-3f96ac30-8281-493d-a968-6203a39e9c13 
Nov 29 15:29:36.077 HYPERVISOR: exec_cmd: vm get_status ESW5 
Nov 29 15:29:36.220 HYPERVISOR: exec_cmd: nio create_udp udp-74564b31-8a1d-4f33-84c3-46dbef6918c8 15026 127.0.0.1 15027 
Nov 29 15:29:36.226 HYPERVISOR: exec_cmd: vm slot_add_nio_binding ESW5 1 4 udp-74564b31-8a1d-4f33-84c3-46dbef6918c8 
Nov 29 15:29:36.227 HYPERVISOR: exec_cmd: vm get_status ESW5 
