Nov 29 15:29:52.657 HYPERVISOR: Release 0.2.17-amd64/Linux (tag 2017072410)
Nov 29 15:29:52.657 HYPERVISOR: Started on IP = 127.0.0.1, TCP port = 46093.
Nov 29 15:29:52.671 HYPERVISOR: exec_cmd: hypervisor version 
Nov 29 15:29:52.671 HYPERVISOR: exec_cmd: hypervisor working_dir /media/actionmystique/SAMSUNG5-VMs/Labs/GNS3/TT 4-solutions-linux-/project-files/dynamips 
Nov 29 15:29:52.671 GENERAL: working_dir=/media/actionmystique/SAMSUNG5-VMs/Labs/GNS3/TT 4-solutions-linux-/project-files/dynamips
Nov 29 15:29:52.672 HYPERVISOR: exec_cmd: vm create ESW7 7 c3725 
Nov 29 15:29:52.672 VM: VM ESW7 created.
Nov 29 15:29:52.672 HYPERVISOR: exec_cmd: vm set_con_tcp_port ESW7 2019 
Nov 29 15:29:52.672 HYPERVISOR: exec_cmd: c3725 get_mac_addr ESW7 
Nov 29 15:29:52.673 HYPERVISOR: exec_cmd: vm set_nvram ESW7 256 
Nov 29 15:29:52.674 HYPERVISOR: exec_cmd: vm slot_add_binding ESW7 0 16 WIC-2T 
Nov 29 15:29:52.676 HYPERVISOR: exec_cmd: c3725 set_mac_addr ESW7 c207.26fa.0000 
Nov 29 15:29:52.677 HYPERVISOR: exec_cmd: vm set_disk0 ESW7 1 
Nov 29 15:29:52.678 HYPERVISOR: exec_cmd: vm set_ios ESW7 /media/actionmystique/SAMSUNG5-VMs/Images/GNS3/IOS/c3725-adventerprisek9-mz.124-15.T10.image 
Nov 29 15:29:52.679 HYPERVISOR: exec_cmd: vm get_status ESW7 
Nov 29 15:29:52.680 HYPERVISOR: exec_cmd: vm set_idle_pc ESW7 0x6026b804 
Nov 29 15:29:52.681 HYPERVISOR: exec_cmd: vm get_status ESW7 
Nov 29 15:29:52.681 HYPERVISOR: exec_cmd: vm slot_add_binding ESW7 1 0 NM-16ESW 
Nov 29 15:29:52.682 HYPERVISOR: exec_cmd: vm set_config ESW7 configs/i7_startup-config.cfg 
Nov 29 15:29:53.324 HYPERVISOR: exec_cmd: nio create_udp udp-70439771-4492-491c-8e8b-8a8039dd22cf 15029 127.0.0.1 15028 
Nov 29 15:29:53.324 HYPERVISOR: exec_cmd: vm slot_add_nio_binding ESW7 1 3 udp-70439771-4492-491c-8e8b-8a8039dd22cf 
Nov 29 15:29:53.324 HYPERVISOR: exec_cmd: vm get_status ESW7 
Nov 29 15:29:53.340 HYPERVISOR: exec_cmd: nio create_udp udp-09e06ceb-b462-4121-b117-360b0c1150b6 15030 127.0.0.1 15031 
Nov 29 15:29:53.341 HYPERVISOR: exec_cmd: vm slot_add_nio_binding ESW7 1 1 udp-09e06ceb-b462-4121-b117-360b0c1150b6 
Nov 29 15:29:53.341 HYPERVISOR: exec_cmd: vm get_status ESW7 
Nov 29 15:29:53.368 HYPERVISOR: exec_cmd: nio create_udp udp-9e46c72e-56a1-42e3-8d2b-c4cdb53cadf1 15033 127.0.0.1 15032 
Nov 29 15:29:53.369 HYPERVISOR: exec_cmd: vm slot_add_nio_binding ESW7 1 4 udp-9e46c72e-56a1-42e3-8d2b-c4cdb53cadf1 
Nov 29 15:29:53.370 HYPERVISOR: exec_cmd: vm get_status ESW7 
Nov 29 15:30:03.909 HYPERVISOR: exec_cmd: vm get_status ESW7 
Nov 29 15:30:03.912 HYPERVISOR: exec_cmd: vm extract_config ESW7 
Nov 29 15:30:03.917 HYPERVISOR: exec_cmd: vm delete ESW7 
Nov 29 15:30:03.917 VM: VM ESW7 destroyed.
Nov 29 15:30:03.920 HYPERVISOR: exec_cmd: hypervisor stop 
Nov 29 15:30:04.182 HYPERVISOR: Stopped.
Nov 29 15:30:04.182 GENERAL: reset done.
