Nov 26 20:48:29.817 HYPERVISOR: Release 0.2.17-amd64/Linux (tag 2017072410)
Nov 26 20:48:29.817 HYPERVISOR: Started on IP = 127.0.0.1, TCP port = 56039.
Nov 26 20:48:29.856 HYPERVISOR: exec_cmd: hypervisor version 
Nov 26 20:48:29.858 HYPERVISOR: exec_cmd: hypervisor working_dir /media/actionmystique/SAMSUNG5-VMs/Labs/GNS3/Multi-Areas/project-files/dynamips 
Nov 26 20:48:29.858 GENERAL: working_dir=/media/actionmystique/SAMSUNG5-VMs/Labs/GNS3/Multi-Areas/project-files/dynamips
Nov 26 20:48:29.860 HYPERVISOR: exec_cmd: vm create BR7 7 c7200 
Nov 26 20:48:29.860 VM: VM BR7 created.
Nov 26 20:48:29.861 HYPERVISOR: exec_cmd: vm set_con_tcp_port BR7 2010 
Nov 26 20:48:29.863 HYPERVISOR: exec_cmd: vm set_aux_tcp_port BR7 2510 
Nov 26 20:48:29.864 HYPERVISOR: exec_cmd: c7200 get_mac_addr BR7 
Nov 26 20:48:29.866 HYPERVISOR: exec_cmd: vm get_status BR7 
Nov 26 20:48:29.867 HYPERVISOR: exec_cmd: vm slot_add_binding BR7 0 0 C7200-IO-FE 
Nov 26 20:48:29.870 HYPERVISOR: exec_cmd: vm get_status BR7 
Nov 26 20:48:29.872 HYPERVISOR: exec_cmd: vm slot_remove_binding BR7 0 0 
Nov 26 20:48:29.874 HYPERVISOR: exec_cmd: vm get_status BR7 
Nov 26 20:48:29.879 HYPERVISOR: exec_cmd: vm slot_add_binding BR7 0 0 C7200-IO-GE-E 
Nov 26 20:48:29.891 HYPERVISOR: exec_cmd: vm get_status BR7 
Nov 26 20:48:29.893 HYPERVISOR: exec_cmd: vm slot_add_binding BR7 2 0 PA-2FE-TX 
Nov 26 20:48:29.894 HYPERVISOR: exec_cmd: vm set_ram BR7 512 
Nov 26 20:48:29.896 HYPERVISOR: exec_cmd: vm get_status BR7 
Nov 26 20:48:29.898 HYPERVISOR: exec_cmd: vm set_idle_pc BR7 0x60188e14 
Nov 26 20:48:29.900 HYPERVISOR: exec_cmd: vm get_status BR7 
Nov 26 20:48:29.910 HYPERVISOR: exec_cmd: vm slot_add_binding BR7 1 0 PA-2FE-TX 
Nov 26 20:48:29.926 HYPERVISOR: exec_cmd: vm set_ios BR7 /media/actionmystique/SAMSUNG5-VMs/Images/GNS3/IOS/c7200-adventerprisek9-mz.152-4.M2.image 
Nov 26 20:48:29.938 HYPERVISOR: exec_cmd: vm set_config BR7 configs/i7_startup-config.cfg 
Nov 26 20:48:30.826 HYPERVISOR: exec_cmd: vm extract_config BR7 
Nov 26 20:48:31.008 HYPERVISOR: exec_cmd: nio create_udp udp-6f44f003-c42a-41ea-9c61-bd167a7bfef6 15015 127.0.0.1 15016 
Nov 26 20:48:31.009 HYPERVISOR: exec_cmd: vm slot_add_nio_binding BR7 1 0 udp-6f44f003-c42a-41ea-9c61-bd167a7bfef6 
Nov 26 20:48:31.009 HYPERVISOR: exec_cmd: vm get_status BR7 
Nov 26 20:48:31.044 HYPERVISOR: exec_cmd: nio create_udp udp-b63efac2-6475-4a53-9892-f07268c75bf0 15020 127.0.0.1 15019 
Nov 26 20:48:31.046 HYPERVISOR: exec_cmd: vm slot_add_nio_binding BR7 2 0 udp-b63efac2-6475-4a53-9892-f07268c75bf0 
Nov 26 20:48:31.050 HYPERVISOR: exec_cmd: vm get_status BR7 
Nov 26 20:48:31.057 HYPERVISOR: exec_cmd: nio create_udp udp-abc0f35b-be92-47cc-b3ab-9a40b2239f3a 15021 127.0.0.1 15018 
Nov 26 20:48:31.060 HYPERVISOR: exec_cmd: vm slot_add_nio_binding BR7 1 1 udp-abc0f35b-be92-47cc-b3ab-9a40b2239f3a 
Nov 26 20:48:31.061 HYPERVISOR: exec_cmd: vm get_status BR7 
Nov 26 20:48:31.148 HYPERVISOR: exec_cmd: nio create_udp udp-944e0386-0435-44d0-aab7-88aabf78926c 15024 127.0.0.1 15027 
Nov 26 20:48:31.149 HYPERVISOR: exec_cmd: vm slot_add_nio_binding BR7 0 0 udp-944e0386-0435-44d0-aab7-88aabf78926c 
Nov 26 20:48:31.149 HYPERVISOR: exec_cmd: vm get_status BR7 
Nov 26 20:48:38.517 HYPERVISOR: exec_cmd: vm extract_config BR7 
Nov 26 20:49:00.822 HYPERVISOR: exec_cmd: vm get_status BR7 
Nov 26 20:49:00.827 HYPERVISOR: exec_cmd: vm extract_config BR7 
Nov 26 20:49:00.831 HYPERVISOR: exec_cmd: vm delete BR7 
Nov 26 20:49:00.831 VM: VM BR7 destroyed.
Nov 26 20:49:00.836 HYPERVISOR: exec_cmd: hypervisor stop 
Nov 26 20:49:00.879 HYPERVISOR: Stopped.
Nov 26 20:49:00.879 GENERAL: reset done.
