Nov 26 20:48:29.920 HYPERVISOR: Release 0.2.17-amd64/Linux (tag 2017072410)
Nov 26 20:48:29.920 HYPERVISOR: Started on IP = 127.0.0.1, TCP port = 54343.
Nov 26 20:48:29.966 HYPERVISOR: exec_cmd: hypervisor version 
Nov 26 20:48:29.977 HYPERVISOR: exec_cmd: hypervisor working_dir /media/actionmystique/SAMSUNG5-VMs/Labs/GNS3/Multi-Areas/project-files/dynamips 
Nov 26 20:48:29.977 GENERAL: working_dir=/media/actionmystique/SAMSUNG5-VMs/Labs/GNS3/Multi-Areas/project-files/dynamips
Nov 26 20:48:29.980 HYPERVISOR: exec_cmd: vm create ABR14 11 c7200 
Nov 26 20:48:29.980 VM: VM ABR14 created.
Nov 26 20:48:29.981 HYPERVISOR: exec_cmd: vm set_con_tcp_port ABR14 2024 
Nov 26 20:48:29.983 HYPERVISOR: exec_cmd: vm set_aux_tcp_port ABR14 2524 
Nov 26 20:48:29.984 HYPERVISOR: exec_cmd: c7200 get_mac_addr ABR14 
Nov 26 20:48:29.987 HYPERVISOR: exec_cmd: vm get_status ABR14 
Nov 26 20:48:29.989 HYPERVISOR: exec_cmd: vm slot_add_binding ABR14 0 0 C7200-IO-FE 
Nov 26 20:48:29.992 HYPERVISOR: exec_cmd: vm get_status ABR14 
Nov 26 20:48:29.993 HYPERVISOR: exec_cmd: vm slot_remove_binding ABR14 0 0 
Nov 26 20:48:29.995 HYPERVISOR: exec_cmd: vm get_status ABR14 
Nov 26 20:48:29.996 HYPERVISOR: exec_cmd: vm slot_add_binding ABR14 0 0 C7200-IO-GE-E 
Nov 26 20:48:29.998 HYPERVISOR: exec_cmd: vm get_status ABR14 
Nov 26 20:48:30.000 HYPERVISOR: exec_cmd: vm slot_add_binding ABR14 2 0 PA-2FE-TX 
Nov 26 20:48:30.001 HYPERVISOR: exec_cmd: vm set_ram ABR14 512 
Nov 26 20:48:30.004 HYPERVISOR: exec_cmd: vm get_status ABR14 
Nov 26 20:48:30.006 HYPERVISOR: exec_cmd: vm set_idle_pc ABR14 0x60188e14 
Nov 26 20:48:30.008 HYPERVISOR: exec_cmd: vm get_status ABR14 
Nov 26 20:48:30.009 HYPERVISOR: exec_cmd: vm slot_add_binding ABR14 1 0 PA-2FE-TX 
Nov 26 20:48:30.011 HYPERVISOR: exec_cmd: vm set_ios ABR14 /media/actionmystique/SAMSUNG5-VMs/Images/GNS3/IOS/c7200-adventerprisek9-mz.152-4.M2.image 
Nov 26 20:48:30.013 HYPERVISOR: exec_cmd: vm set_config ABR14 configs/i11_startup-config.cfg 
Nov 26 20:48:30.824 HYPERVISOR: exec_cmd: vm extract_config ABR14 
Nov 26 20:48:31.168 HYPERVISOR: exec_cmd: nio create_udp udp-43b35f1f-7133-4602-b48e-b2af97a3efc3 15030 127.0.0.1 15029 
Nov 26 20:48:31.172 HYPERVISOR: exec_cmd: vm slot_add_nio_binding ABR14 1 0 udp-43b35f1f-7133-4602-b48e-b2af97a3efc3 
Nov 26 20:48:31.173 HYPERVISOR: exec_cmd: vm get_status ABR14 
Nov 26 20:48:31.428 HYPERVISOR: exec_cmd: nio create_udp udp-6636f4fa-e7a3-48b9-92de-99bd687b8718 15055 127.0.0.1 15054 
Nov 26 20:48:31.429 HYPERVISOR: exec_cmd: vm slot_add_nio_binding ABR14 0 0 udp-6636f4fa-e7a3-48b9-92de-99bd687b8718 
Nov 26 20:48:31.429 HYPERVISOR: exec_cmd: vm get_status ABR14 
Nov 26 20:48:38.514 HYPERVISOR: exec_cmd: vm extract_config ABR14 
Nov 26 20:49:00.821 HYPERVISOR: exec_cmd: vm get_status ABR14 
Nov 26 20:49:00.826 HYPERVISOR: exec_cmd: vm extract_config ABR14 
Nov 26 20:49:00.831 HYPERVISOR: exec_cmd: vm delete ABR14 
Nov 26 20:49:00.831 VM: VM ABR14 destroyed.
Nov 26 20:49:00.835 HYPERVISOR: exec_cmd: hypervisor stop 
Nov 26 20:49:00.983 HYPERVISOR: Stopped.
Nov 26 20:49:00.983 GENERAL: reset done.
