Nov 26 20:48:29.845 HYPERVISOR: Release 0.2.17-amd64/Linux (tag 2017072410)
Nov 26 20:48:29.845 HYPERVISOR: Started on IP = 127.0.0.1, TCP port = 35969.
Nov 26 20:48:29.865 HYPERVISOR: exec_cmd: hypervisor version 
Nov 26 20:48:29.867 HYPERVISOR: exec_cmd: hypervisor working_dir /media/actionmystique/SAMSUNG5-VMs/Labs/GNS3/Multi-Areas/project-files/dynamips 
Nov 26 20:48:29.867 GENERAL: working_dir=/media/actionmystique/SAMSUNG5-VMs/Labs/GNS3/Multi-Areas/project-files/dynamips
Nov 26 20:48:29.869 HYPERVISOR: exec_cmd: vm create SW1 9 c3725 
Nov 26 20:48:29.869 VM: VM SW1 created.
Nov 26 20:48:29.871 HYPERVISOR: exec_cmd: vm set_con_tcp_port SW1 2009 
Nov 26 20:48:29.873 HYPERVISOR: exec_cmd: vm set_aux_tcp_port SW1 2509 
Nov 26 20:48:29.878 HYPERVISOR: exec_cmd: c3725 get_mac_addr SW1 
Nov 26 20:48:29.890 HYPERVISOR: exec_cmd: vm set_ios SW1 /media/actionmystique/SAMSUNG5-VMs/Images/GNS3/IOS/c3725-adventerprisek9-mz.124-15.T10.image 
Nov 26 20:48:29.893 HYPERVISOR: exec_cmd: vm set_ram SW1 256 
Nov 26 20:48:29.894 HYPERVISOR: exec_cmd: vm get_status SW1 
Nov 26 20:48:29.896 HYPERVISOR: exec_cmd: vm set_idle_pc SW1 0x6026b804 
Nov 26 20:48:29.897 HYPERVISOR: exec_cmd: vm get_status SW1 
Nov 26 20:48:29.899 HYPERVISOR: exec_cmd: vm slot_add_binding SW1 1 0 NM-16ESW 
Nov 26 20:48:29.908 HYPERVISOR: exec_cmd: vm set_config SW1 configs/i9_startup-config.cfg 
Nov 26 20:48:30.830 HYPERVISOR: exec_cmd: vm extract_config SW1 
Nov 26 20:48:31.037 HYPERVISOR: exec_cmd: nio create_udp udp-a759e90f-bd73-4b28-a822-a92d63792785 15014 127.0.0.1 15017 
Nov 26 20:48:31.037 HYPERVISOR: exec_cmd: vm slot_add_nio_binding SW1 1 2 udp-a759e90f-bd73-4b28-a822-a92d63792785 
Nov 26 20:48:31.037 HYPERVISOR: exec_cmd: vm get_status SW1 
Nov 26 20:48:31.059 HYPERVISOR: exec_cmd: nio create_udp udp-99f0eeb1-0bf3-4c67-acb0-7ebdb56a2973 15019 127.0.0.1 15020 
Nov 26 20:48:31.061 HYPERVISOR: exec_cmd: vm slot_add_nio_binding SW1 1 3 udp-99f0eeb1-0bf3-4c67-acb0-7ebdb56a2973 
Nov 26 20:48:31.061 HYPERVISOR: exec_cmd: vm get_status SW1 
Nov 26 20:48:31.129 HYPERVISOR: exec_cmd: nio create_udp udp-f8121085-0b7c-4ecd-ab92-f568b42a1ccd 15029 127.0.0.1 15030 
Nov 26 20:48:31.129 HYPERVISOR: exec_cmd: vm slot_add_nio_binding SW1 1 6 udp-f8121085-0b7c-4ecd-ab92-f568b42a1ccd 
Nov 26 20:48:31.129 HYPERVISOR: exec_cmd: vm get_status SW1 
Nov 26 20:48:31.186 HYPERVISOR: exec_cmd: nio create_udp udp-a76f4c93-c860-4074-8e9a-801f4296233b 15031 127.0.0.1 15028 
Nov 26 20:48:31.187 HYPERVISOR: exec_cmd: vm slot_add_nio_binding SW1 1 5 udp-a76f4c93-c860-4074-8e9a-801f4296233b 
Nov 26 20:48:31.187 HYPERVISOR: exec_cmd: vm get_status SW1 
Nov 26 20:48:31.217 HYPERVISOR: exec_cmd: nio create_udp udp-5e5528a6-e1e0-4a60-9c35-a355f46d0b2d 15033 127.0.0.1 15032 
Nov 26 20:48:31.217 HYPERVISOR: exec_cmd: vm slot_add_nio_binding SW1 1 4 udp-5e5528a6-e1e0-4a60-9c35-a355f46d0b2d 
Nov 26 20:48:31.217 HYPERVISOR: exec_cmd: vm get_status SW1 
Nov 26 20:48:38.518 HYPERVISOR: exec_cmd: vm extract_config SW1 
Nov 26 20:49:00.819 HYPERVISOR: exec_cmd: vm get_status SW1 
Nov 26 20:49:00.825 HYPERVISOR: exec_cmd: vm extract_config SW1 
Nov 26 20:49:00.830 HYPERVISOR: exec_cmd: vm delete SW1 
Nov 26 20:49:00.830 VM: VM SW1 destroyed.
Nov 26 20:49:00.834 HYPERVISOR: exec_cmd: hypervisor stop 
Nov 26 20:49:00.893 HYPERVISOR: Stopped.
Nov 26 20:49:00.893 GENERAL: reset done.
