Nov 26 20:45:45.030 HYPERVISOR: Release 0.2.17-amd64/Linux (tag 2017072410)
Nov 26 20:45:45.030 HYPERVISOR: Started on IP = 127.0.0.1, TCP port = 50961.
Nov 26 20:45:45.055 HYPERVISOR: exec_cmd: hypervisor version 
Nov 26 20:45:45.056 HYPERVISOR: exec_cmd: hypervisor working_dir /media/actionmystique/SAMSUNG5-VMs/Labs/GNS3/RIPng/project-files/dynamips 
Nov 26 20:45:45.056 GENERAL: working_dir=/media/actionmystique/SAMSUNG5-VMs/Labs/GNS3/RIPng/project-files/dynamips
Nov 26 20:45:45.057 HYPERVISOR: exec_cmd: vm create R8 9 c7200 
Nov 26 20:45:45.058 VM: VM R8 created.
Nov 26 20:45:45.059 HYPERVISOR: exec_cmd: vm set_con_tcp_port R8 2008 
Nov 26 20:45:45.061 HYPERVISOR: exec_cmd: vm set_aux_tcp_port R8 2108 
Nov 26 20:45:45.062 HYPERVISOR: exec_cmd: c7200 get_mac_addr R8 
Nov 26 20:45:45.067 HYPERVISOR: exec_cmd: vm get_status R8 
Nov 26 20:45:45.069 HYPERVISOR: exec_cmd: vm slot_add_binding R8 0 0 C7200-IO-FE 
Nov 26 20:45:45.070 HYPERVISOR: exec_cmd: vm get_status R8 
Nov 26 20:45:45.071 HYPERVISOR: exec_cmd: vm slot_remove_binding R8 0 0 
Nov 26 20:45:45.072 HYPERVISOR: exec_cmd: vm get_status R8 
Nov 26 20:45:45.073 HYPERVISOR: exec_cmd: vm slot_add_binding R8 0 0 C7200-IO-GE-E 
Nov 26 20:45:45.074 HYPERVISOR: exec_cmd: vm set_ram R8 512 
Nov 26 20:45:45.075 HYPERVISOR: exec_cmd: vm get_status R8 
Nov 26 20:45:45.076 HYPERVISOR: exec_cmd: vm set_idle_pc R8 0x62a29de4 
Nov 26 20:45:45.082 HYPERVISOR: exec_cmd: vm get_status R8 
Nov 26 20:45:45.084 HYPERVISOR: exec_cmd: vm slot_add_binding R8 1 0 PA-8T 
Nov 26 20:45:45.085 HYPERVISOR: exec_cmd: vm set_ios R8 /media/actionmystique/SAMSUNG5-VMs/Images/GNS3/IOS/c7200-adventerprisek9-mz.152-4.S.image 
Nov 26 20:45:45.088 HYPERVISOR: exec_cmd: vm set_config R8 configs/i9_startup-config.cfg 
Nov 26 20:45:45.404 HYPERVISOR: exec_cmd: vm extract_config R8 
Nov 26 20:45:45.680 HYPERVISOR: exec_cmd: nio create_udp udp-26973009-71e8-46a3-88f1-4692fb4f784c 15025 127.0.0.1 15024 
Nov 26 20:45:45.681 HYPERVISOR: exec_cmd: vm slot_add_nio_binding R8 1 0 udp-26973009-71e8-46a3-88f1-4692fb4f784c 
Nov 26 20:45:45.681 HYPERVISOR: exec_cmd: vm get_status R8 
Nov 26 20:45:45.709 HYPERVISOR: exec_cmd: nio create_udp udp-9462609f-2326-4250-8227-3e99c6b26670 15027 127.0.0.1 15026 
Nov 26 20:45:45.709 HYPERVISOR: exec_cmd: vm slot_add_nio_binding R8 1 1 udp-9462609f-2326-4250-8227-3e99c6b26670 
Nov 26 20:45:45.709 HYPERVISOR: exec_cmd: vm get_status R8 
Nov 26 20:45:49.343 HYPERVISOR: exec_cmd: vm extract_config R8 
Nov 26 20:47:04.618 HYPERVISOR: exec_cmd: vm get_status R8 
Nov 26 20:47:04.621 HYPERVISOR: exec_cmd: vm extract_config R8 
Nov 26 20:47:04.623 HYPERVISOR: exec_cmd: vm delete R8 
Nov 26 20:47:04.623 VM: VM R8 destroyed.
Nov 26 20:47:04.625 HYPERVISOR: exec_cmd: hypervisor stop 
Nov 26 20:47:04.637 HYPERVISOR: Stopped.
Nov 26 20:47:04.637 GENERAL: reset done.
