Nov 28 08:23:19.470 HYPERVISOR: Release 0.2.17-amd64/Linux (tag 2017072410)
Nov 28 08:23:19.470 HYPERVISOR: Started on IP = 127.0.0.1, TCP port = 46463.
Nov 28 08:23:19.474 HYPERVISOR: exec_cmd: hypervisor version 
Nov 28 08:23:19.475 HYPERVISOR: exec_cmd: hypervisor working_dir /media/actionmystique/SAMSUNG5-VMs/Labs/GNS3/TT 1-solutions-linux-/project-files/dynamips 
Nov 28 08:23:19.475 GENERAL: working_dir=/media/actionmystique/SAMSUNG5-VMs/Labs/GNS3/TT 1-solutions-linux-/project-files/dynamips
Nov 28 08:23:19.475 HYPERVISOR: exec_cmd: vm create ESW1 1 c3725 
Nov 28 08:23:19.475 VM: VM ESW1 created.
Nov 28 08:23:19.475 HYPERVISOR: exec_cmd: vm set_con_tcp_port ESW1 2001 
Nov 28 08:23:19.476 HYPERVISOR: exec_cmd: vm set_aux_tcp_port ESW1 2501 
Nov 28 08:23:19.476 HYPERVISOR: exec_cmd: c3725 get_mac_addr ESW1 
Nov 28 08:23:19.476 HYPERVISOR: exec_cmd: vm set_disk0 ESW1 1 
Nov 28 08:23:19.477 HYPERVISOR: exec_cmd: vm get_status ESW1 
Nov 28 08:23:19.477 HYPERVISOR: exec_cmd: vm slot_add_binding ESW1 1 0 NM-16ESW 
Nov 28 08:23:19.477 HYPERVISOR: exec_cmd: vm set_ios ESW1 /media/actionmystique/SAMSUNG5-VMs/Images/GNS3/IOS/c3725-adventerprisek9-mz.124-15.T10.image 
Nov 28 08:23:19.478 HYPERVISOR: exec_cmd: c3725 set_mac_addr ESW1 c201.3297.0000 
Nov 28 08:23:19.478 HYPERVISOR: exec_cmd: vm slot_add_binding ESW1 0 16 WIC-2T 
Nov 28 08:23:19.478 HYPERVISOR: exec_cmd: vm get_status ESW1 
Nov 28 08:23:19.479 HYPERVISOR: exec_cmd: vm set_idle_pc ESW1 0x60c06d20 
Nov 28 08:23:19.479 HYPERVISOR: exec_cmd: vm set_nvram ESW1 256 
Nov 28 08:23:19.480 HYPERVISOR: exec_cmd: vm set_config ESW1 configs/i1_startup-config.cfg 
Nov 28 08:23:19.480 HYPERVISOR: exec_cmd: vm set_config ESW1 configs/i1_startup-config.cfg configs/i1_private-config.cfg 
Nov 28 08:23:19.594 HYPERVISOR: exec_cmd: nio create_udp udp-ff10a1da-a8e7-4722-b248-3df417246d35 15002 127.0.0.1 15000 
Nov 28 08:23:19.604 HYPERVISOR: exec_cmd: vm slot_add_nio_binding ESW1 1 1 udp-ff10a1da-a8e7-4722-b248-3df417246d35 
Nov 28 08:23:19.605 HYPERVISOR: exec_cmd: vm get_status ESW1 
Nov 28 08:23:19.610 HYPERVISOR: exec_cmd: nio create_udp udp-83b33502-0a12-487a-aab0-9b80bfc1b9de 15003 127.0.0.1 15004 
Nov 28 08:23:19.610 HYPERVISOR: exec_cmd: vm slot_add_nio_binding ESW1 1 2 udp-83b33502-0a12-487a-aab0-9b80bfc1b9de 
Nov 28 08:23:19.611 HYPERVISOR: exec_cmd: vm get_status ESW1 
Nov 28 08:23:19.635 HYPERVISOR: exec_cmd: nio create_udp udp-ff45362e-64e1-41c8-a5fc-14533115e3b0 15005 127.0.0.1 15001 
Nov 28 08:23:19.636 HYPERVISOR: exec_cmd: vm slot_add_nio_binding ESW1 1 0 udp-ff45362e-64e1-41c8-a5fc-14533115e3b0 
Nov 28 08:23:19.636 HYPERVISOR: exec_cmd: vm get_status ESW1 
Nov 28 08:23:42.384 HYPERVISOR: exec_cmd: vm get_status ESW1 
Nov 28 08:23:42.384 HYPERVISOR: exec_cmd: vm extract_config ESW1 
Nov 28 08:23:42.385 HYPERVISOR: exec_cmd: vm delete ESW1 
Nov 28 08:23:42.385 VM: VM ESW1 destroyed.
Nov 28 08:23:42.386 HYPERVISOR: exec_cmd: hypervisor stop 
Nov 28 08:23:42.499 HYPERVISOR: Stopped.
Nov 28 08:23:42.499 GENERAL: reset done.
