Nov 26 20:50:06.503 HYPERVISOR: Release 0.2.17-amd64/Linux (tag 2017072410)
Nov 26 20:50:06.503 HYPERVISOR: Started on IP = 127.0.0.1, TCP port = 44037.
Nov 26 20:50:06.540 HYPERVISOR: exec_cmd: hypervisor version 
Nov 26 20:50:06.541 HYPERVISOR: exec_cmd: hypervisor working_dir /media/actionmystique/SAMSUNG5-VMs/Labs/GNS3/OSPF - EIGRP - RIP/project-files/dynamips 
Nov 26 20:50:06.542 GENERAL: working_dir=/media/actionmystique/SAMSUNG5-VMs/Labs/GNS3/OSPF - EIGRP - RIP/project-files/dynamips
Nov 26 20:50:06.543 HYPERVISOR: exec_cmd: vm create RD14 14 c7200 
Nov 26 20:50:06.543 VM: VM RD14 created.
Nov 26 20:50:06.545 HYPERVISOR: exec_cmd: vm set_con_tcp_port RD14 2014 
Nov 26 20:50:06.551 HYPERVISOR: exec_cmd: vm set_aux_tcp_port RD14 2114 
Nov 26 20:50:06.564 HYPERVISOR: exec_cmd: c7200 get_mac_addr RD14 
Nov 26 20:50:06.565 HYPERVISOR: exec_cmd: vm get_status RD14 
Nov 26 20:50:06.567 HYPERVISOR: exec_cmd: vm slot_add_binding RD14 0 0 C7200-IO-FE 
Nov 26 20:50:06.569 HYPERVISOR: exec_cmd: vm get_status RD14 
Nov 26 20:50:06.570 HYPERVISOR: exec_cmd: vm slot_remove_binding RD14 0 0 
Nov 26 20:50:06.572 HYPERVISOR: exec_cmd: vm get_status RD14 
Nov 26 20:50:06.574 HYPERVISOR: exec_cmd: vm slot_add_binding RD14 0 0 C7200-IO-GE-E 
Nov 26 20:50:06.576 HYPERVISOR: exec_cmd: vm set_ram RD14 512 
Nov 26 20:50:06.583 HYPERVISOR: exec_cmd: vm get_status RD14 
Nov 26 20:50:06.596 HYPERVISOR: exec_cmd: vm set_idle_pc RD14 0x60188e14 
Nov 26 20:50:06.598 HYPERVISOR: exec_cmd: vm get_status RD14 
Nov 26 20:50:06.600 HYPERVISOR: exec_cmd: vm slot_add_binding RD14 1 0 PA-8T 
Nov 26 20:50:06.606 HYPERVISOR: exec_cmd: vm set_ios RD14 /media/actionmystique/SAMSUNG5-VMs/Images/GNS3/IOS/c7200-adventerprisek9-mz.152-4.M2.image 
Nov 26 20:50:06.611 HYPERVISOR: exec_cmd: vm set_config RD14 configs/i14_startup-config.cfg 
Nov 26 20:50:07.246 HYPERVISOR: exec_cmd: vm extract_config RD14 
Nov 26 20:50:07.649 HYPERVISOR: exec_cmd: nio create_udp udp-8fecb891-9923-4005-a074-61e5e09ec173 15035 127.0.0.1 15036 
Nov 26 20:50:07.652 HYPERVISOR: exec_cmd: vm slot_add_nio_binding RD14 1 0 udp-8fecb891-9923-4005-a074-61e5e09ec173 
Nov 26 20:50:07.653 HYPERVISOR: exec_cmd: vm get_status RD14 
Nov 26 20:50:07.687 HYPERVISOR: exec_cmd: nio create_udp udp-3389a409-c8ce-4298-bd01-89d068078cda 15038 127.0.0.1 15039 
Nov 26 20:50:07.688 HYPERVISOR: exec_cmd: vm slot_add_nio_binding RD14 1 1 udp-3389a409-c8ce-4298-bd01-89d068078cda 
Nov 26 20:50:07.690 HYPERVISOR: exec_cmd: vm get_status RD14 
Nov 26 20:50:07.708 HYPERVISOR: exec_cmd: nio create_udp udp-20fd0430-4f34-4890-a385-6e3108b21765 15040 127.0.0.1 15041 
Nov 26 20:50:07.709 HYPERVISOR: exec_cmd: vm slot_add_nio_binding RD14 0 0 udp-20fd0430-4f34-4890-a385-6e3108b21765 
Nov 26 20:50:07.712 HYPERVISOR: exec_cmd: vm get_status RD14 
Nov 26 20:53:18.110 HYPERVISOR: exec_cmd: vm get_status RD14 
Nov 26 20:53:18.116 HYPERVISOR: exec_cmd: vm extract_config RD14 
Nov 26 20:53:18.121 HYPERVISOR: exec_cmd: vm delete RD14 
Nov 26 20:53:18.121 VM: VM RD14 destroyed.
Nov 26 20:53:18.125 HYPERVISOR: exec_cmd: hypervisor stop 
Nov 26 20:53:18.232 HYPERVISOR: Stopped.
Nov 26 20:53:18.232 GENERAL: reset done.
