Nov 26 20:50:06.293 HYPERVISOR: Release 0.2.17-amd64/Linux (tag 2017072410)
Nov 26 20:50:06.293 HYPERVISOR: Started on IP = 127.0.0.1, TCP port = 45925.
Nov 26 20:50:06.303 HYPERVISOR: exec_cmd: hypervisor version 
Nov 26 20:50:06.304 HYPERVISOR: exec_cmd: hypervisor working_dir /media/actionmystique/SAMSUNG5-VMs/Labs/GNS3/OSPF - EIGRP - RIP/project-files/dynamips 
Nov 26 20:50:06.304 GENERAL: working_dir=/media/actionmystique/SAMSUNG5-VMs/Labs/GNS3/OSPF - EIGRP - RIP/project-files/dynamips
Nov 26 20:50:06.307 HYPERVISOR: exec_cmd: vm create R2 3 c7200 
Nov 26 20:50:06.307 VM: VM R2 created.
Nov 26 20:50:06.310 HYPERVISOR: exec_cmd: vm set_con_tcp_port R2 2002 
Nov 26 20:50:06.312 HYPERVISOR: exec_cmd: vm set_aux_tcp_port R2 2102 
Nov 26 20:50:06.313 HYPERVISOR: exec_cmd: c7200 get_mac_addr R2 
Nov 26 20:50:06.319 HYPERVISOR: exec_cmd: vm get_status R2 
Nov 26 20:50:06.329 HYPERVISOR: exec_cmd: vm slot_add_binding R2 0 0 C7200-IO-FE 
Nov 26 20:50:06.331 HYPERVISOR: exec_cmd: vm get_status R2 
Nov 26 20:50:06.333 HYPERVISOR: exec_cmd: vm slot_remove_binding R2 0 0 
Nov 26 20:50:06.334 HYPERVISOR: exec_cmd: vm get_status R2 
Nov 26 20:50:06.344 HYPERVISOR: exec_cmd: vm slot_add_binding R2 0 0 C7200-IO-GE-E 
Nov 26 20:50:06.358 HYPERVISOR: exec_cmd: vm set_ram R2 512 
Nov 26 20:50:06.369 HYPERVISOR: exec_cmd: vm get_status R2 
Nov 26 20:50:06.371 HYPERVISOR: exec_cmd: vm set_idle_pc R2 0x60188e14 
Nov 26 20:50:06.373 HYPERVISOR: exec_cmd: vm get_status R2 
Nov 26 20:50:06.376 HYPERVISOR: exec_cmd: vm slot_add_binding R2 1 0 PA-8T 
Nov 26 20:50:06.377 HYPERVISOR: exec_cmd: vm set_ios R2 /media/actionmystique/SAMSUNG5-VMs/Images/GNS3/IOS/c7200-adventerprisek9-mz.152-4.M2.image 
Nov 26 20:50:06.379 HYPERVISOR: exec_cmd: vm set_config R2 configs/i3_startup-config.cfg 
Nov 26 20:50:07.242 HYPERVISOR: exec_cmd: vm extract_config R2 
Nov 26 20:50:07.300 HYPERVISOR: exec_cmd: nio create_udp udp-e69d99cc-cf7a-4e6e-89ce-8288d7e8dd2e 15008 127.0.0.1 15005 
Nov 26 20:50:07.305 HYPERVISOR: exec_cmd: vm slot_add_nio_binding R2 0 0 udp-e69d99cc-cf7a-4e6e-89ce-8288d7e8dd2e 
Nov 26 20:50:07.306 HYPERVISOR: exec_cmd: vm get_status R2 
Nov 26 20:50:07.351 HYPERVISOR: exec_cmd: nio create_udp udp-13dd5af6-7412-4821-bcc8-96716e442030 15010 127.0.0.1 15011 
Nov 26 20:50:07.353 HYPERVISOR: exec_cmd: vm slot_add_nio_binding R2 1 0 udp-13dd5af6-7412-4821-bcc8-96716e442030 
Nov 26 20:50:07.359 HYPERVISOR: exec_cmd: vm get_status R2 
Nov 26 20:50:07.484 HYPERVISOR: exec_cmd: nio create_udp udp-1211a05c-95d3-47c6-ad79-6cea1bb84eed 15022 127.0.0.1 15021 
Nov 26 20:50:07.485 HYPERVISOR: exec_cmd: vm slot_add_nio_binding R2 1 1 udp-1211a05c-95d3-47c6-ad79-6cea1bb84eed 
Nov 26 20:50:07.486 HYPERVISOR: exec_cmd: vm get_status R2 
Nov 26 20:50:07.591 HYPERVISOR: exec_cmd: nio create_udp udp-3ecbe2e8-4900-453a-893e-5b5024909c56 15032 127.0.0.1 15031 
Nov 26 20:50:07.594 HYPERVISOR: exec_cmd: vm slot_add_nio_binding R2 1 2 udp-3ecbe2e8-4900-453a-893e-5b5024909c56 
Nov 26 20:50:07.595 HYPERVISOR: exec_cmd: vm get_status R2 
Nov 26 20:53:18.111 HYPERVISOR: exec_cmd: vm get_status R2 
Nov 26 20:53:18.117 HYPERVISOR: exec_cmd: vm extract_config R2 
Nov 26 20:53:18.121 HYPERVISOR: exec_cmd: vm delete R2 
Nov 26 20:53:18.121 VM: VM R2 destroyed.
Nov 26 20:53:18.126 HYPERVISOR: exec_cmd: hypervisor stop 
Nov 26 20:53:18.491 HYPERVISOR: Stopped.
Nov 26 20:53:18.491 GENERAL: reset done.
